(module NIM-Camera-Rev-A (layer F.Cu) (tedit 5DF2BF88)
  (fp_text reference REF** (at 35.56 3.175) (layer F.SilkS)
    (effects (font (size 1 1) (thickness 0.15)))
  )
  (fp_text value NIM-Camera-Rev-A (at 19.05 -22.86) (layer F.Fab)
    (effects (font (size 1 1) (thickness 0.15)))
  )
  (fp_line (start -3.81 -24.13) (end -3.81 3.81) (layer F.SilkS) (width 0.12))
  (fp_line (start 38.1 3.81) (end 38.1 -24.13) (layer F.SilkS) (width 0.12))
  (fp_line (start 1.27 -24.13) (end -3.81 -24.13) (layer F.SilkS) (width 0.12))
  (fp_text user "CAM MOUNT" (at 0 -10.16 90) (layer F.SilkS)
    (effects (font (size 1.5 1.5) (thickness 0.2)))
  )
  (fp_text user "CAM MOUNT" (at 34.925 -10.16 90) (layer F.SilkS)
    (effects (font (size 1.5 1.5) (thickness 0.2)))
  )
  (fp_line (start 38.1 -24.13) (end 33.655 -24.13) (layer F.SilkS) (width 0.12))
  (pad 1 thru_hole circle (at 0 0) (size 3.8 3.8) (drill 2.2) (layers *.Cu *.Mask))
  (pad 2 thru_hole circle (at 35 0) (size 3.8 3.8) (drill 2.2) (layers *.Cu *.Mask))
  (pad 3 thru_hole circle (at 35 -20) (size 3.8 3.8) (drill 2.2) (layers *.Cu *.Mask))
  (pad 4 thru_hole circle (at 0 -20) (size 3.8 3.8) (drill 2.2) (layers *.Cu *.Mask))
  (model ${KIPRJMOD}/Libraries/CAM-REV-A.step
    (offset (xyz 35 26.5 -4.5))
    (scale (xyz 1 1 1))
    (rotate (xyz 10 0 180))
  )
)
