(module NIM-Camera-Rev-B (layer F.Cu) (tedit 61AE8106)
  (fp_text reference REF** (at 22.86 -3.4798) (layer Dwgs.User)
    (effects (font (size 1 1) (thickness 0.15)))
  )
  (fp_text value NIM-Camera-Rev-B (at 22.7584 -6.2992) (layer F.Fab)
    (effects (font (size 1 1) (thickness 0.15)))
  )
  (fp_line (start -3.175 3.175) (end 2.54 3.175) (layer F.SilkS) (width 0.12))
  (fp_line (start 45.085 3.175) (end 45.085 -25.4) (layer F.SilkS) (width 0.12))
  (fp_line (start -3.175 -19.05) (end -3.175 3.175) (layer F.SilkS) (width 0.12))
  (fp_text user "CAM MNT" (at 0 -8.255 90) (layer F.SilkS)
    (effects (font (size 1 1) (thickness 0.15)))
  )
  (fp_line (start 45.085 -25.4) (end 39.37 -25.4) (layer F.SilkS) (width 0.12))
  (fp_line (start 1.905 -19.05) (end -3.175 -19.05) (layer F.SilkS) (width 0.12))
  (fp_line (start 45.085 3.175) (end 39.37 3.175) (layer F.SilkS) (width 0.12))
  (pad 1 thru_hole circle (at 0 -15) (size 4.2 4.2) (drill 2.7) (layers *.Cu *.Mask))
  (pad 2 thru_hole circle (at 0 0) (size 4.2 4.2) (drill 2.7) (layers *.Cu *.Mask))
  (pad 3 thru_hole circle (at 42 0) (size 4.2 4.2) (drill 2.7) (layers *.Cu *.Mask))
  (pad 4 thru_hole circle (at 42 -22) (size 4.4 4.4) (drill 2.7) (layers *.Cu *.Mask))
)
