(module ARI-MEC-9-BW_NUT (layer F.Cu) (tedit 5F482A0A)
  (fp_text reference REF** (at 0 5.715) (layer F.SilkS)
    (effects (font (size 1 1) (thickness 0.15)))
  )
  (fp_text value ARI-MEC-9-BW_NUT (at 0 -7.62) (layer F.Fab)
    (effects (font (size 1 1) (thickness 0.15)))
  )
  (fp_poly (pts (xy -5.11556 -1.94818) (xy -0.37084 -2.6797) (xy -2.50444 1.08966)) (layer F.Cu) (width 0.1))
  (fp_poly (pts (xy -5.2959 -1.92024) (xy -0.23622 -2.68986) (xy -2.53492 0.83566)) (layer F.Mask) (width 0.1))
  (fp_poly (pts (xy -5.36702 1.93294) (xy -0.30734 2.70256) (xy -2.3622 -0.87122)) (layer F.Cu) (width 0.1))
  (fp_poly (pts (xy -5.25018 -1.92786) (xy -0.3937 -2.65938) (xy -2.44856 0.80264)) (layer B.Cu) (width 0.1))
  (fp_poly (pts (xy -5.1562 1.9431) (xy -0.29972 2.6924) (xy -2.91338 -0.61214)) (layer B.Cu) (width 0.1))
  (fp_poly (pts (xy -5.24256 1.95326) (xy -0.26162 2.70002) (xy -2.58318 -0.67564)) (layer F.Mask) (width 0.1))
  (fp_poly (pts (xy -5.20954 1.94818) (xy -0.21336 2.70764) (xy -2.45618 -0.9271)) (layer B.Mask) (width 0.1))
  (fp_poly (pts (xy -5.16382 -1.93294) (xy -0.37846 -2.66192) (xy -2.44856 1.10744)) (layer B.Mask) (width 0.1))
  (pad 1 thru_hole circle (at 0 0) (size 5.5 5.5) (drill 3.01) (layers *.Cu *.Mask))
  (pad 2 thru_hole circle (at -5 0) (size 4 4) (drill 2.1) (layers *.Cu *.Mask))
)
