(kicad_pcb (version 20171130) (host pcbnew "(5.1.2)-2")

  (general
    (thickness 1.6)
    (drawings 9)
    (tracks 18)
    (zones 0)
    (modules 2)
    (nets 9)
  )

  (page A4)
  (layers
    (0 F.Cu signal)
    (31 B.Cu signal)
    (32 B.Adhes user)
    (33 F.Adhes user)
    (34 B.Paste user)
    (35 F.Paste user)
    (36 B.SilkS user)
    (37 F.SilkS user)
    (38 B.Mask user)
    (39 F.Mask user)
    (40 Dwgs.User user)
    (41 Cmts.User user)
    (42 Eco1.User user)
    (43 Eco2.User user)
    (44 Edge.Cuts user)
    (45 Margin user)
    (46 B.CrtYd user)
    (47 F.CrtYd user)
    (48 B.Fab user)
    (49 F.Fab user)
  )

  (setup
    (last_trace_width 0.25)
    (trace_clearance 0.2)
    (zone_clearance 0.508)
    (zone_45_only no)
    (trace_min 0.2)
    (via_size 0.8)
    (via_drill 0.4)
    (via_min_size 0.4)
    (via_min_drill 0.3)
    (uvia_size 0.3)
    (uvia_drill 0.1)
    (uvias_allowed no)
    (uvia_min_size 0.2)
    (uvia_min_drill 0.1)
    (edge_width 0.05)
    (segment_width 0.2)
    (pcb_text_width 0.3)
    (pcb_text_size 1.5 1.5)
    (mod_edge_width 0.12)
    (mod_text_size 1 1)
    (mod_text_width 0.15)
    (pad_size 1.524 1.524)
    (pad_drill 0.762)
    (pad_to_mask_clearance 0)
    (aux_axis_origin 0 0)
    (visible_elements 7FFFFFFF)
    (pcbplotparams
      (layerselection 0x010fc_ffffffff)
      (usegerberextensions false)
      (usegerberattributes true)
      (usegerberadvancedattributes true)
      (creategerberjobfile true)
      (excludeedgelayer true)
      (linewidth 0.100000)
      (plotframeref false)
      (viasonmask false)
      (mode 1)
      (useauxorigin false)
      (hpglpennumber 1)
      (hpglpenspeed 20)
      (hpglpendiameter 15.000000)
      (psnegative false)
      (psa4output false)
      (plotreference true)
      (plotvalue true)
      (plotinvisibletext false)
      (padsonsilk false)
      (subtractmaskfromsilk false)
      (outputformat 1)
      (mirror false)
      (drillshape 0)
      (scaleselection 1)
      (outputdirectory "C:/Users/Patrick.Gall/Documents/Screen08Gerbers/"))
  )

  (net 0 "")
  (net 1 "Net-(J1-Pad1)")
  (net 2 "Net-(J1-Pad2)")
  (net 3 "Net-(J1-Pad3)")
  (net 4 "Net-(J1-Pad4)")
  (net 5 "Net-(J1-Pad5)")
  (net 6 "Net-(J1-Pad6)")
  (net 7 "Net-(J1-Pad7)")
  (net 8 "Net-(J1-Pad8)")

  (net_class Default "This is the default net class."
    (clearance 0.2)
    (trace_width 0.25)
    (via_dia 0.8)
    (via_drill 0.4)
    (uvia_dia 0.3)
    (uvia_drill 0.1)
    (add_net "Net-(J1-Pad1)")
    (add_net "Net-(J1-Pad2)")
    (add_net "Net-(J1-Pad3)")
    (add_net "Net-(J1-Pad4)")
    (add_net "Net-(J1-Pad5)")
    (add_net "Net-(J1-Pad6)")
    (add_net "Net-(J1-Pad7)")
    (add_net "Net-(J1-Pad8)")
  )

  (module Connector_PinHeader_2.54mm:PinHeader_1x08_P2.54mm_Vertical (layer F.Cu) (tedit 59FED5CC) (tstamp 5FCFC972)
    (at 61.214 31.242)
    (descr "Through hole straight pin header, 1x08, 2.54mm pitch, single row")
    (tags "Through hole pin header THT 1x08 2.54mm single row")
    (path /5FCFC41B)
    (fp_text reference J2 (at -2.54 -0.762 90) (layer F.SilkS)
      (effects (font (size 1 1) (thickness 0.15)))
    )
    (fp_text value Conn_01x08 (at 0 20.11) (layer F.Fab)
      (effects (font (size 1 1) (thickness 0.15)))
    )
    (fp_line (start -0.635 -1.27) (end 1.27 -1.27) (layer F.Fab) (width 0.1))
    (fp_line (start 1.27 -1.27) (end 1.27 19.05) (layer F.Fab) (width 0.1))
    (fp_line (start 1.27 19.05) (end -1.27 19.05) (layer F.Fab) (width 0.1))
    (fp_line (start -1.27 19.05) (end -1.27 -0.635) (layer F.Fab) (width 0.1))
    (fp_line (start -1.27 -0.635) (end -0.635 -1.27) (layer F.Fab) (width 0.1))
    (fp_line (start -1.33 19.11) (end 1.33 19.11) (layer F.SilkS) (width 0.12))
    (fp_line (start -1.33 1.27) (end -1.33 19.11) (layer F.SilkS) (width 0.12))
    (fp_line (start 1.33 1.27) (end 1.33 19.11) (layer F.SilkS) (width 0.12))
    (fp_line (start -1.33 1.27) (end 1.33 1.27) (layer F.SilkS) (width 0.12))
    (fp_line (start -1.33 0) (end -1.33 -1.33) (layer F.SilkS) (width 0.12))
    (fp_line (start -1.33 -1.33) (end 0 -1.33) (layer F.SilkS) (width 0.12))
    (fp_line (start -1.8 -1.8) (end -1.8 19.55) (layer F.CrtYd) (width 0.05))
    (fp_line (start -1.8 19.55) (end 1.8 19.55) (layer F.CrtYd) (width 0.05))
    (fp_line (start 1.8 19.55) (end 1.8 -1.8) (layer F.CrtYd) (width 0.05))
    (fp_line (start 1.8 -1.8) (end -1.8 -1.8) (layer F.CrtYd) (width 0.05))
    (fp_text user %R (at 0 8.89 90) (layer F.Fab)
      (effects (font (size 1 1) (thickness 0.15)))
    )
    (pad 1 thru_hole rect (at 0 0) (size 1.7 1.7) (drill 1) (layers *.Cu *.Mask)
      (net 1 "Net-(J1-Pad1)"))
    (pad 2 thru_hole oval (at 0 2.54) (size 1.7 1.7) (drill 1) (layers *.Cu *.Mask)
      (net 2 "Net-(J1-Pad2)"))
    (pad 3 thru_hole oval (at 0 5.08) (size 1.7 1.7) (drill 1) (layers *.Cu *.Mask)
      (net 3 "Net-(J1-Pad3)"))
    (pad 4 thru_hole oval (at 0 7.62) (size 1.7 1.7) (drill 1) (layers *.Cu *.Mask)
      (net 4 "Net-(J1-Pad4)"))
    (pad 5 thru_hole oval (at 0 10.16) (size 1.7 1.7) (drill 1) (layers *.Cu *.Mask)
      (net 5 "Net-(J1-Pad5)"))
    (pad 6 thru_hole oval (at 0 12.7) (size 1.7 1.7) (drill 1) (layers *.Cu *.Mask)
      (net 6 "Net-(J1-Pad6)"))
    (pad 7 thru_hole oval (at 0 15.24) (size 1.7 1.7) (drill 1) (layers *.Cu *.Mask)
      (net 7 "Net-(J1-Pad7)"))
    (pad 8 thru_hole oval (at 0 17.78) (size 1.7 1.7) (drill 1) (layers *.Cu *.Mask)
      (net 8 "Net-(J1-Pad8)"))
    (model ${KISYS3DMOD}/Connector_PinHeader_2.54mm.3dshapes/PinHeader_1x08_P2.54mm_Vertical.wrl
      (at (xyz 0 0 0))
      (scale (xyz 1 1 1))
      (rotate (xyz 0 0 0))
    )
  )

  (module Connector_Molex:Molex_PicoBlade_53261-0871_1x08-1MP_P1.25mm_Horizontal (layer F.Cu) (tedit 5B78AD89) (tstamp 5FD40508)
    (at 53.586 39.116 270)
    (descr "Molex PicoBlade series connector, 53261-0871 (http://www.molex.com/pdm_docs/sd/532610271_sd.pdf), generated with kicad-footprint-generator")
    (tags "connector Molex PicoBlade top entry")
    (path /5FCFD42B)
    (attr smd)
    (fp_text reference J1 (at -7.112 -2.548 90) (layer F.SilkS)
      (effects (font (size 1 1) (thickness 0.15)))
    )
    (fp_text value Conn_01x08 (at 0 3.8 90) (layer F.Fab)
      (effects (font (size 1 1) (thickness 0.15)))
    )
    (fp_line (start -5.875 -1.6) (end 5.875 -1.6) (layer F.Fab) (width 0.1))
    (fp_line (start -5.985 -1.26) (end -5.985 -1.71) (layer F.SilkS) (width 0.12))
    (fp_line (start -5.985 -1.71) (end -5.035 -1.71) (layer F.SilkS) (width 0.12))
    (fp_line (start -5.035 -1.71) (end -5.035 -3.2) (layer F.SilkS) (width 0.12))
    (fp_line (start 5.985 -1.26) (end 5.985 -1.71) (layer F.SilkS) (width 0.12))
    (fp_line (start 5.985 -1.71) (end 5.035 -1.71) (layer F.SilkS) (width 0.12))
    (fp_line (start -5.985 2.26) (end -5.985 2.71) (layer F.SilkS) (width 0.12))
    (fp_line (start -5.985 2.71) (end 5.985 2.71) (layer F.SilkS) (width 0.12))
    (fp_line (start 5.985 2.71) (end 5.985 2.26) (layer F.SilkS) (width 0.12))
    (fp_line (start -5.875 2.6) (end 5.875 2.6) (layer F.Fab) (width 0.1))
    (fp_line (start -5.875 -1.6) (end -5.875 2.6) (layer F.Fab) (width 0.1))
    (fp_line (start 5.875 -1.6) (end 5.875 2.6) (layer F.Fab) (width 0.1))
    (fp_line (start -5.875 -0.6) (end -7.375 -0.6) (layer F.Fab) (width 0.1))
    (fp_line (start -7.375 -0.6) (end -7.575 -0.4) (layer F.Fab) (width 0.1))
    (fp_line (start -7.575 -0.4) (end -7.575 1.4) (layer F.Fab) (width 0.1))
    (fp_line (start -7.575 1.4) (end -7.375 1.6) (layer F.Fab) (width 0.1))
    (fp_line (start -7.375 1.6) (end -7.375 2.2) (layer F.Fab) (width 0.1))
    (fp_line (start -7.375 2.2) (end -5.875 2.2) (layer F.Fab) (width 0.1))
    (fp_line (start 5.875 -0.6) (end 7.375 -0.6) (layer F.Fab) (width 0.1))
    (fp_line (start 7.375 -0.6) (end 7.575 -0.4) (layer F.Fab) (width 0.1))
    (fp_line (start 7.575 -0.4) (end 7.575 1.4) (layer F.Fab) (width 0.1))
    (fp_line (start 7.575 1.4) (end 7.375 1.6) (layer F.Fab) (width 0.1))
    (fp_line (start 7.375 1.6) (end 7.375 2.2) (layer F.Fab) (width 0.1))
    (fp_line (start 7.375 2.2) (end 5.875 2.2) (layer F.Fab) (width 0.1))
    (fp_line (start -8.48 -3.7) (end -8.48 3.1) (layer F.CrtYd) (width 0.05))
    (fp_line (start -8.48 3.1) (end 8.48 3.1) (layer F.CrtYd) (width 0.05))
    (fp_line (start 8.48 3.1) (end 8.48 -3.7) (layer F.CrtYd) (width 0.05))
    (fp_line (start 8.48 -3.7) (end -8.48 -3.7) (layer F.CrtYd) (width 0.05))
    (fp_line (start -4.875 -1.6) (end -4.375 -0.892893) (layer F.Fab) (width 0.1))
    (fp_line (start -4.375 -0.892893) (end -3.875 -1.6) (layer F.Fab) (width 0.1))
    (fp_text user %R (at 0 1.9 90) (layer F.Fab)
      (effects (font (size 1 1) (thickness 0.15)))
    )
    (pad 1 smd roundrect (at -4.375 -2.4 270) (size 0.8 1.6) (layers F.Cu F.Paste F.Mask) (roundrect_rratio 0.25)
      (net 1 "Net-(J1-Pad1)"))
    (pad 2 smd roundrect (at -3.125 -2.4 270) (size 0.8 1.6) (layers F.Cu F.Paste F.Mask) (roundrect_rratio 0.25)
      (net 2 "Net-(J1-Pad2)"))
    (pad 3 smd roundrect (at -1.875 -2.4 270) (size 0.8 1.6) (layers F.Cu F.Paste F.Mask) (roundrect_rratio 0.25)
      (net 3 "Net-(J1-Pad3)"))
    (pad 4 smd roundrect (at -0.625 -2.4 270) (size 0.8 1.6) (layers F.Cu F.Paste F.Mask) (roundrect_rratio 0.25)
      (net 4 "Net-(J1-Pad4)"))
    (pad 5 smd roundrect (at 0.625 -2.4 270) (size 0.8 1.6) (layers F.Cu F.Paste F.Mask) (roundrect_rratio 0.25)
      (net 5 "Net-(J1-Pad5)"))
    (pad 6 smd roundrect (at 1.875 -2.4 270) (size 0.8 1.6) (layers F.Cu F.Paste F.Mask) (roundrect_rratio 0.25)
      (net 6 "Net-(J1-Pad6)"))
    (pad 7 smd roundrect (at 3.125 -2.4 270) (size 0.8 1.6) (layers F.Cu F.Paste F.Mask) (roundrect_rratio 0.25)
      (net 7 "Net-(J1-Pad7)"))
    (pad 8 smd roundrect (at 4.375 -2.4 270) (size 0.8 1.6) (layers F.Cu F.Paste F.Mask) (roundrect_rratio 0.25)
      (net 8 "Net-(J1-Pad8)"))
    (pad MP smd roundrect (at -6.925 0.5 270) (size 2.1 3) (layers F.Cu F.Paste F.Mask) (roundrect_rratio 0.119048))
    (pad MP smd roundrect (at 6.925 0.5 270) (size 2.1 3) (layers F.Cu F.Paste F.Mask) (roundrect_rratio 0.119048))
    (model ${KISYS3DMOD}/Connector_Molex.3dshapes/Molex_PicoBlade_53261-0871_1x08-1MP_P1.25mm_Horizontal.wrl
      (at (xyz 0 0 0))
      (scale (xyz 1 1 1))
      (rotate (xyz 0 0 0))
    )
  )

  (gr_text "1x08 PicoBlade\nBreak-Out" (at 52.578 40.005 90) (layer B.SilkS)
    (effects (font (size 1.5 1.5) (thickness 0.2)) (justify mirror))
  )
  (gr_arc (start 50.8 30.48) (end 50.8 29.21) (angle -90) (layer Edge.Cuts) (width 0.05))
  (gr_arc (start 62.23 30.48) (end 63.5 30.48) (angle -90) (layer Edge.Cuts) (width 0.05))
  (gr_arc (start 62.23 49.784) (end 62.23 51.054) (angle -90) (layer Edge.Cuts) (width 0.05))
  (gr_arc (start 50.8 49.784) (end 49.53 49.784) (angle -90) (layer Edge.Cuts) (width 0.05))
  (gr_line (start 63.5 49.784) (end 63.5 30.48) (layer Edge.Cuts) (width 0.05) (tstamp 5FBDF6D8))
  (gr_line (start 50.8 51.054) (end 62.23 51.054) (layer Edge.Cuts) (width 0.05))
  (gr_line (start 49.53 30.48) (end 49.53 49.784) (layer Edge.Cuts) (width 0.05))
  (gr_line (start 62.23 29.21) (end 50.8 29.21) (layer Edge.Cuts) (width 0.05))

  (segment (start 57.394 34.808) (end 60.96 31.242) (width 0.25) (layer F.Cu) (net 1))
  (segment (start 56.494 34.808) (end 57.394 34.808) (width 0.25) (layer F.Cu) (net 1))
  (segment (start 58.684 36.058) (end 60.96 33.782) (width 0.25) (layer F.Cu) (net 2))
  (segment (start 56.494 36.058) (end 58.684 36.058) (width 0.25) (layer F.Cu) (net 2))
  (segment (start 59.974 37.308) (end 60.96 36.322) (width 0.25) (layer F.Cu) (net 3))
  (segment (start 56.494 37.308) (end 59.974 37.308) (width 0.25) (layer F.Cu) (net 3))
  (segment (start 60.656 38.558) (end 60.96 38.862) (width 0.25) (layer F.Cu) (net 4))
  (segment (start 56.494 38.558) (end 60.656 38.558) (width 0.25) (layer F.Cu) (net 4))
  (segment (start 59.366 39.808) (end 60.96 41.402) (width 0.25) (layer F.Cu) (net 5))
  (segment (start 56.494 39.808) (end 59.366 39.808) (width 0.25) (layer F.Cu) (net 5))
  (segment (start 58.076 41.058) (end 60.96 43.942) (width 0.25) (layer F.Cu) (net 6))
  (segment (start 56.494 41.058) (end 58.076 41.058) (width 0.25) (layer F.Cu) (net 6))
  (segment (start 60.668 46.482) (end 60.96 46.482) (width 0.25) (layer F.Cu) (net 7))
  (segment (start 56.494 42.308) (end 60.668 46.482) (width 0.25) (layer F.Cu) (net 7))
  (segment (start 61.015254 48.823255) (end 60.995633 48.847859) (width 0.25) (layer F.Cu) (net 8))
  (segment (start 56.56071 44.36871) (end 61.015254 48.823255) (width 0.25) (layer F.Cu) (net 8))
  (segment (start 56.09 43.491) (end 56.56071 43.96171) (width 0.25) (layer F.Cu) (net 8))
  (segment (start 56.56071 43.96171) (end 56.56071 44.36871) (width 0.25) (layer F.Cu) (net 8))

)
