EESchema Schematic File Version 4
EELAYER 30 0
EELAYER END
$Descr USLetter 11000 8500
encoding utf-8
Sheet 1 1
Title "NIM Programming Adapter"
Date "2020-08-05"
Rev "A."
Comp "Aurora Research Institute"
Comment1 "ARI-EGSE-1-NIM_PROG_PCB"
Comment2 ""
Comment3 ""
Comment4 ""
$EndDescr
$Comp
L Connector_Generic:Conn_01x06 J1
U 1 1 5F3EE0FE
P 2000 1500
F 0 "J1" H 2080 1492 50  0000 L CNN
F 1 "Conn_01x06" H 2080 1401 50  0000 L CNN
F 2 "Connector_PinHeader_2.54mm:PinHeader_1x06_P2.54mm_Vertical" H 2000 1500 50  0001 C CNN
F 3 "~" H 2000 1500 50  0001 C CNN
	1    2000 1500
	1    0    0    -1  
$EndComp
Text Notes 850  900  0    79   ~ 0
To PC (5V)
Text Notes 3150 900  0    79   ~ 0
3V3 Regulator
Text Notes 6050 950  0    79   ~ 0
Logic Level Converter
$Comp
L power:GND #PWR03
U 1 1 5F3EEE9A
P 1650 1950
F 0 "#PWR03" H 1650 1700 50  0001 C CNN
F 1 "GND" H 1655 1777 50  0000 C CNN
F 2 "" H 1650 1950 50  0001 C CNN
F 3 "" H 1650 1950 50  0001 C CNN
	1    1650 1950
	1    0    0    -1  
$EndComp
Wire Wire Line
	1650 1950 1650 1800
Wire Wire Line
	1650 1800 1800 1800
Text Label 1350 1700 0    49   ~ 0
CTS
Wire Wire Line
	1350 1700 1800 1700
Wire Wire Line
	1350 1600 1800 1600
Wire Wire Line
	1350 1500 1800 1500
Wire Wire Line
	1350 1400 1800 1400
Wire Wire Line
	1350 1300 1800 1300
$Comp
L power:+5V #PWR01
U 1 1 5F3EF6D5
P 1350 1600
F 0 "#PWR01" H 1350 1450 50  0001 C CNN
F 1 "+5V" V 1365 1728 50  0000 L CNN
F 2 "" H 1350 1600 50  0001 C CNN
F 3 "" H 1350 1600 50  0001 C CNN
	1    1350 1600
	0    -1   -1   0   
$EndComp
Text Label 1350 1500 0    49   ~ 0
TX
Text Label 1350 1400 0    49   ~ 0
RX
Text Label 1350 1300 0    49   ~ 0
DTR
$Comp
L Connector_Generic:Conn_01x06 J2
U 1 1 5F3F09E6
P 2000 3450
F 0 "J2" H 2080 3442 50  0000 L CNN
F 1 "Conn_01x06" H 2080 3351 50  0000 L CNN
F 2 "Connector_PinHeader_2.54mm:PinHeader_1x06_P2.54mm_Vertical" H 2000 3450 50  0001 C CNN
F 3 "~" H 2000 3450 50  0001 C CNN
	1    2000 3450
	1    0    0    -1  
$EndComp
$Comp
L Connector_Generic:Conn_01x06 J3
U 1 1 5F3F1E61
P 3700 3450
F 0 "J3" H 3780 3442 50  0000 L CNN
F 1 "Conn_01x06" H 3780 3351 50  0000 L CNN
F 2 "Connector_Molex:Molex_PicoBlade_53047-0610_1x06_P1.25mm_Vertical" H 3700 3450 50  0001 C CNN
F 3 "~" H 3700 3450 50  0001 C CNN
	1    3700 3450
	1    0    0    -1  
$EndComp
$Comp
L power:GND #PWR04
U 1 1 5F3F2ACD
P 1650 3900
F 0 "#PWR04" H 1650 3650 50  0001 C CNN
F 1 "GND" H 1655 3727 50  0000 C CNN
F 2 "" H 1650 3900 50  0001 C CNN
F 3 "" H 1650 3900 50  0001 C CNN
	1    1650 3900
	1    0    0    -1  
$EndComp
Wire Wire Line
	1650 3900 1650 3750
Wire Wire Line
	1650 3750 1800 3750
Text Label 1350 3650 0    49   ~ 0
CTS_3V3
Wire Wire Line
	1350 3650 1800 3650
Wire Wire Line
	1350 3450 1800 3450
Wire Wire Line
	1350 3350 1800 3350
Wire Wire Line
	1350 3250 1800 3250
Text Label 1350 3450 0    49   ~ 0
TX_3V3
Text Label 1350 3350 0    49   ~ 0
RX_3V3
Text Label 1350 3250 0    49   ~ 0
DTR_3V3
$Comp
L power:GND #PWR06
U 1 1 5F3F4A93
P 3350 3900
F 0 "#PWR06" H 3350 3650 50  0001 C CNN
F 1 "GND" H 3355 3727 50  0000 C CNN
F 2 "" H 3350 3900 50  0001 C CNN
F 3 "" H 3350 3900 50  0001 C CNN
	1    3350 3900
	1    0    0    -1  
$EndComp
Wire Wire Line
	3350 3900 3350 3750
Wire Wire Line
	3350 3750 3500 3750
Text Label 3050 3650 0    49   ~ 0
CTS_3V3
Wire Wire Line
	3050 3650 3500 3650
Wire Wire Line
	3050 3550 3500 3550
Wire Wire Line
	3050 3450 3500 3450
Wire Wire Line
	3050 3350 3500 3350
Wire Wire Line
	3050 3250 3500 3250
Text Label 3050 3450 0    49   ~ 0
TX_3V3
Text Label 3050 3350 0    49   ~ 0
RX_3V3
Text Label 3050 3250 0    49   ~ 0
DTR_3V3
$Comp
L power:+3V3 #PWR05
U 1 1 5F3F910B
P 3050 3550
F 0 "#PWR05" H 3050 3400 50  0001 C CNN
F 1 "+3V3" V 3065 3678 50  0000 L CNN
F 2 "" H 3050 3550 50  0001 C CNN
F 3 "" H 3050 3550 50  0001 C CNN
	1    3050 3550
	0    -1   -1   0   
$EndComp
Wire Wire Line
	1350 3550 1800 3550
$Comp
L power:+3V3 #PWR02
U 1 1 5F3F98E3
P 1350 3550
F 0 "#PWR02" H 1350 3400 50  0001 C CNN
F 1 "+3V3" V 1365 3678 50  0000 L CNN
F 2 "" H 1350 3550 50  0001 C CNN
F 3 "" H 1350 3550 50  0001 C CNN
	1    1350 3550
	0    -1   -1   0   
$EndComp
Text Notes 850  2900 0    79   ~ 0
To Target (3V3)
$Comp
L Transistor_FET:BSS138 Q3
U 1 1 5F2AE601
P 7500 1650
F 0 "Q3" V 7749 1650 50  0000 C CNN
F 1 "BSS138" V 7840 1650 50  0000 C CNN
F 2 "Package_TO_SOT_SMD:SOT-23" H 7700 1575 50  0001 L CIN
F 3 "https://www.fairchildsemi.com/datasheets/BS/BSS138.pdf" H 7500 1650 50  0001 L CNN
	1    7500 1650
	0    1    1    0   
$EndComp
$Comp
L Transistor_FET:BSS138 Q1
U 1 1 5F2B1241
P 7450 2600
F 0 "Q1" V 7699 2600 50  0000 C CNN
F 1 "BSS138" V 7790 2600 50  0000 C CNN
F 2 "Package_TO_SOT_SMD:SOT-23" H 7650 2525 50  0001 L CIN
F 3 "https://www.fairchildsemi.com/datasheets/BS/BSS138.pdf" H 7450 2600 50  0001 L CNN
	1    7450 2600
	0    1    1    0   
$EndComp
$Comp
L Transistor_FET:BSS138 Q2
U 1 1 5F2B2391
P 7450 3750
F 0 "Q2" V 7699 3750 50  0000 C CNN
F 1 "BSS138" V 7790 3750 50  0000 C CNN
F 2 "Package_TO_SOT_SMD:SOT-23" H 7650 3675 50  0001 L CIN
F 3 "https://www.fairchildsemi.com/datasheets/BS/BSS138.pdf" H 7450 3750 50  0001 L CNN
	1    7450 3750
	0    1    1    0   
$EndComp
$Comp
L Regulator_Linear:LD1117S33TR_SOT223 U1
U 1 1 5F2B4E89
P 4300 1450
F 0 "U1" H 4300 1692 50  0000 C CNN
F 1 "LD1117S33TR_SOT223" H 4300 1601 50  0000 C CNN
F 2 "Package_TO_SOT_SMD:SOT-223-3_TabPin2" H 4300 1650 50  0001 C CNN
F 3 "http://www.st.com/st-web-ui/static/active/en/resource/technical/document/datasheet/CD00000544.pdf" H 4400 1200 50  0001 C CNN
	1    4300 1450
	1    0    0    -1  
$EndComp
$Comp
L Device:C C2
U 1 1 5F2B78E1
P 4950 1700
F 0 "C2" H 5065 1746 50  0000 L CNN
F 1 "1u" H 5065 1655 50  0000 L CNN
F 2 "Capacitor_SMD:C_1206_3216Metric_Pad1.42x1.75mm_HandSolder" H 4988 1550 50  0001 C CNN
F 3 "~" H 4950 1700 50  0001 C CNN
	1    4950 1700
	1    0    0    -1  
$EndComp
$Comp
L Device:C C1
U 1 1 5F2B7A6A
P 3700 1700
F 0 "C1" H 3815 1746 50  0000 L CNN
F 1 "1u" H 3815 1655 50  0000 L CNN
F 2 "Capacitor_SMD:C_1206_3216Metric_Pad1.42x1.75mm_HandSolder" H 3738 1550 50  0001 C CNN
F 3 "~" H 3700 1700 50  0001 C CNN
	1    3700 1700
	1    0    0    -1  
$EndComp
$Comp
L power:+5V #PWR07
U 1 1 5F2B7FD0
P 3550 1450
F 0 "#PWR07" H 3550 1300 50  0001 C CNN
F 1 "+5V" V 3565 1578 50  0000 L CNN
F 2 "" H 3550 1450 50  0001 C CNN
F 3 "" H 3550 1450 50  0001 C CNN
	1    3550 1450
	0    -1   -1   0   
$EndComp
$Comp
L power:+3V3 #PWR09
U 1 1 5F2B82C9
P 5100 1450
F 0 "#PWR09" H 5100 1300 50  0001 C CNN
F 1 "+3V3" V 5115 1578 50  0000 L CNN
F 2 "" H 5100 1450 50  0001 C CNN
F 3 "" H 5100 1450 50  0001 C CNN
	1    5100 1450
	0    1    1    0   
$EndComp
$Comp
L power:GND #PWR08
U 1 1 5F2B858C
P 4300 2050
F 0 "#PWR08" H 4300 1800 50  0001 C CNN
F 1 "GND" H 4305 1877 50  0000 C CNN
F 2 "" H 4300 2050 50  0001 C CNN
F 3 "" H 4300 2050 50  0001 C CNN
	1    4300 2050
	1    0    0    -1  
$EndComp
$Comp
L Device:R R1
U 1 1 5F2C465F
P 7000 1500
F 0 "R1" H 7070 1546 50  0000 L CNN
F 1 "10K" H 7070 1455 50  0000 L CNN
F 2 "Resistor_SMD:R_1206_3216Metric_Pad1.42x1.75mm_HandSolder" V 6930 1500 50  0001 C CNN
F 3 "~" H 7000 1500 50  0001 C CNN
	1    7000 1500
	1    0    0    -1  
$EndComp
$Comp
L Device:R R5
U 1 1 5F2C4B64
P 7800 1500
F 0 "R5" H 7870 1546 50  0000 L CNN
F 1 "10K" H 7870 1455 50  0000 L CNN
F 2 "Resistor_SMD:R_1206_3216Metric_Pad1.42x1.75mm_HandSolder" V 7730 1500 50  0001 C CNN
F 3 "~" H 7800 1500 50  0001 C CNN
	1    7800 1500
	1    0    0    -1  
$EndComp
$Comp
L Device:R R2
U 1 1 5F2C51A3
P 7000 2450
F 0 "R2" H 7070 2496 50  0000 L CNN
F 1 "10K" H 7070 2405 50  0000 L CNN
F 2 "Resistor_SMD:R_1206_3216Metric_Pad1.42x1.75mm_HandSolder" V 6930 2450 50  0001 C CNN
F 3 "~" H 7000 2450 50  0001 C CNN
	1    7000 2450
	1    0    0    -1  
$EndComp
$Comp
L Device:R R6
U 1 1 5F2C577A
P 7800 2450
F 0 "R6" H 7870 2496 50  0000 L CNN
F 1 "10K" H 7870 2405 50  0000 L CNN
F 2 "Resistor_SMD:R_1206_3216Metric_Pad1.42x1.75mm_HandSolder" V 7730 2450 50  0001 C CNN
F 3 "~" H 7800 2450 50  0001 C CNN
	1    7800 2450
	1    0    0    -1  
$EndComp
$Comp
L Device:R R3
U 1 1 5F2C5D49
P 7000 3550
F 0 "R3" H 7070 3596 50  0000 L CNN
F 1 "10K" H 7070 3505 50  0000 L CNN
F 2 "Resistor_SMD:R_1206_3216Metric_Pad1.42x1.75mm_HandSolder" V 6930 3550 50  0001 C CNN
F 3 "~" H 7000 3550 50  0001 C CNN
	1    7000 3550
	1    0    0    -1  
$EndComp
$Comp
L Device:R R7
U 1 1 5F2C653E
P 7800 3550
F 0 "R7" H 7870 3596 50  0000 L CNN
F 1 "10K" H 7870 3505 50  0000 L CNN
F 2 "Resistor_SMD:R_1206_3216Metric_Pad1.42x1.75mm_HandSolder" V 7730 3550 50  0001 C CNN
F 3 "~" H 7800 3550 50  0001 C CNN
	1    7800 3550
	1    0    0    -1  
$EndComp
$Comp
L Device:R R8
U 1 1 5F2C6A3E
P 7850 4500
F 0 "R8" H 7920 4546 50  0000 L CNN
F 1 "10K" H 7920 4455 50  0000 L CNN
F 2 "Resistor_SMD:R_1206_3216Metric_Pad1.42x1.75mm_HandSolder" V 7780 4500 50  0001 C CNN
F 3 "~" H 7850 4500 50  0001 C CNN
	1    7850 4500
	1    0    0    -1  
$EndComp
$Comp
L Device:R R4
U 1 1 5F2C706E
P 7000 4500
F 0 "R4" H 7070 4546 50  0000 L CNN
F 1 "10K" H 7070 4455 50  0000 L CNN
F 2 "Resistor_SMD:R_1206_3216Metric_Pad1.42x1.75mm_HandSolder" V 6930 4500 50  0001 C CNN
F 3 "~" H 7000 4500 50  0001 C CNN
	1    7000 4500
	1    0    0    -1  
$EndComp
Text Label 6600 4800 0    49   ~ 0
CTS_3V3
Text Label 6600 3850 0    49   ~ 0
RX_3V3
Text Label 6550 2700 0    49   ~ 0
TX_3V3
Text Label 6550 1750 0    49   ~ 0
DTR_3V3
Wire Wire Line
	4300 1750 4300 1850
Wire Wire Line
	3700 1850 4300 1850
Connection ~ 4300 1850
Wire Wire Line
	4300 1850 4300 2050
Wire Wire Line
	4300 1850 4950 1850
Wire Wire Line
	3550 1450 3700 1450
Wire Wire Line
	3700 1550 3700 1450
Connection ~ 3700 1450
Wire Wire Line
	3700 1450 4000 1450
Wire Wire Line
	5100 1450 4950 1450
Wire Wire Line
	4950 1550 4950 1450
Connection ~ 4950 1450
Wire Wire Line
	4950 1450 4600 1450
Wire Wire Line
	6550 2700 7000 2700
Wire Wire Line
	7000 2600 7000 2700
Connection ~ 7000 2700
Wire Wire Line
	7000 2700 7250 2700
Wire Wire Line
	7450 2400 7450 2250
Wire Wire Line
	7450 2250 7000 2250
Wire Wire Line
	7000 2250 7000 2300
Wire Wire Line
	7800 2600 7800 2700
Wire Wire Line
	7800 2700 7650 2700
$Comp
L power:+3V3 #PWR011
U 1 1 5F3143A2
P 7000 2250
F 0 "#PWR011" H 7000 2100 50  0001 C CNN
F 1 "+3V3" H 7015 2423 50  0000 C CNN
F 2 "" H 7000 2250 50  0001 C CNN
F 3 "" H 7000 2250 50  0001 C CNN
	1    7000 2250
	1    0    0    -1  
$EndComp
Connection ~ 7000 2250
$Comp
L power:+5V #PWR015
U 1 1 5F314883
P 7800 2250
F 0 "#PWR015" H 7800 2100 50  0001 C CNN
F 1 "+5V" H 7815 2423 50  0000 C CNN
F 2 "" H 7800 2250 50  0001 C CNN
F 3 "" H 7800 2250 50  0001 C CNN
	1    7800 2250
	1    0    0    -1  
$EndComp
Wire Wire Line
	7800 2250 7800 2300
Text Label 8000 2700 0    49   ~ 0
TX
Wire Wire Line
	7800 2700 8000 2700
Connection ~ 7800 2700
Wire Wire Line
	7700 1750 7800 1750
Wire Wire Line
	7800 1750 7800 1650
Wire Wire Line
	7300 1750 7000 1750
Wire Wire Line
	7000 1750 7000 1650
Wire Wire Line
	7500 1450 7500 1300
Wire Wire Line
	7500 1300 7000 1300
Wire Wire Line
	7000 1300 7000 1350
$Comp
L power:+3V3 #PWR010
U 1 1 5F3239FA
P 7000 1300
F 0 "#PWR010" H 7000 1150 50  0001 C CNN
F 1 "+3V3" H 7015 1473 50  0000 C CNN
F 2 "" H 7000 1300 50  0001 C CNN
F 3 "" H 7000 1300 50  0001 C CNN
	1    7000 1300
	1    0    0    -1  
$EndComp
Connection ~ 7000 1300
$Comp
L power:+5V #PWR014
U 1 1 5F323E80
P 7800 1300
F 0 "#PWR014" H 7800 1150 50  0001 C CNN
F 1 "+5V" H 7815 1473 50  0000 C CNN
F 2 "" H 7800 1300 50  0001 C CNN
F 3 "" H 7800 1300 50  0001 C CNN
	1    7800 1300
	1    0    0    -1  
$EndComp
Wire Wire Line
	7800 1300 7800 1350
Connection ~ 7000 1750
Text Label 8000 1750 0    49   ~ 0
DTR
Wire Wire Line
	7800 1750 8000 1750
Connection ~ 7800 1750
$Comp
L power:+3V3 #PWR012
U 1 1 5F34083D
P 7000 3350
F 0 "#PWR012" H 7000 3200 50  0001 C CNN
F 1 "+3V3" H 7015 3523 50  0000 C CNN
F 2 "" H 7000 3350 50  0001 C CNN
F 3 "" H 7000 3350 50  0001 C CNN
	1    7000 3350
	1    0    0    -1  
$EndComp
$Comp
L power:+5V #PWR016
U 1 1 5F341E89
P 7800 3350
F 0 "#PWR016" H 7800 3200 50  0001 C CNN
F 1 "+5V" H 7815 3523 50  0000 C CNN
F 2 "" H 7800 3350 50  0001 C CNN
F 3 "" H 7800 3350 50  0001 C CNN
	1    7800 3350
	1    0    0    -1  
$EndComp
Text Label 8000 3850 0    49   ~ 0
RX
Wire Wire Line
	6600 3850 7000 3850
Wire Wire Line
	7000 3700 7000 3850
Connection ~ 7000 3850
Wire Wire Line
	7000 3850 7250 3850
Wire Wire Line
	7000 3400 7000 3350
Wire Wire Line
	7000 3400 7450 3400
Wire Wire Line
	7450 3400 7450 3550
Connection ~ 7000 3400
Wire Wire Line
	7800 3700 7800 3850
Wire Wire Line
	7800 3850 7650 3850
Wire Wire Line
	7800 3850 8000 3850
Connection ~ 7800 3850
Wire Wire Line
	7800 3350 7800 3400
Wire Wire Line
	6600 4800 7000 4800
Wire Wire Line
	7000 4650 7000 4800
Connection ~ 7000 4800
$Comp
L power:+3V3 #PWR013
U 1 1 5F369D6B
P 7000 4300
F 0 "#PWR013" H 7000 4150 50  0001 C CNN
F 1 "+3V3" H 7015 4473 50  0000 C CNN
F 2 "" H 7000 4300 50  0001 C CNN
F 3 "" H 7000 4300 50  0001 C CNN
	1    7000 4300
	1    0    0    -1  
$EndComp
$Comp
L power:+5V #PWR017
U 1 1 5F36A2E7
P 7850 4300
F 0 "#PWR017" H 7850 4150 50  0001 C CNN
F 1 "+5V" H 7865 4473 50  0000 C CNN
F 2 "" H 7850 4300 50  0001 C CNN
F 3 "" H 7850 4300 50  0001 C CNN
	1    7850 4300
	1    0    0    -1  
$EndComp
Wire Wire Line
	7850 4350 7850 4300
Wire Wire Line
	7000 4350 7000 4300
Wire Wire Line
	7500 4500 7500 4350
Wire Wire Line
	7500 4350 7000 4350
Connection ~ 7000 4350
Text Label 8050 4800 0    49   ~ 0
CTS
Wire Wire Line
	8050 4800 7850 4800
Wire Wire Line
	7850 4650 7850 4800
Connection ~ 7850 4800
Wire Wire Line
	7850 4800 7700 4800
Wire Notes Line
	3100 2400 5700 2400
Wire Notes Line
	5700 2400 5700 750 
Wire Notes Line
	5700 750  3100 750 
Wire Notes Line
	3100 750  3100 2400
Wire Notes Line
	800  2400 2850 2400
Wire Notes Line
	2850 2400 2850 750 
Wire Notes Line
	2850 750  800  750 
Wire Notes Line
	800  750  800  2400
Wire Notes Line
	800  2700 800  4250
Wire Notes Line
	800  4250 4450 4250
Wire Notes Line
	4450 4250 4450 2700
Wire Notes Line
	4450 2700 800  2700
Wire Notes Line
	5950 750  5950 5200
Wire Notes Line
	5950 5200 8250 5200
Wire Notes Line
	8250 5200 8250 750 
Wire Notes Line
	8250 750  5950 750 
Wire Wire Line
	7000 4800 7300 4800
$Comp
L Transistor_FET:BSS138 Q4
U 1 1 5F2B3616
P 7500 4700
F 0 "Q4" V 7749 4700 50  0000 C CNN
F 1 "BSS138" V 7840 4700 50  0000 C CNN
F 2 "Package_TO_SOT_SMD:SOT-23" H 7700 4625 50  0001 L CIN
F 3 "https://www.fairchildsemi.com/datasheets/BS/BSS138.pdf" H 7500 4700 50  0001 L CNN
	1    7500 4700
	0    1    1    0   
$EndComp
Wire Wire Line
	6550 1750 7000 1750
$EndSCHEMATC
