G04 #@! TF.GenerationSoftware,KiCad,Pcbnew,(5.1.2)-2*
G04 #@! TF.CreationDate,2021-10-01T10:44:41-06:00*
G04 #@! TF.ProjectId,NIM-Screen-PCB,4e494d2d-5363-4726-9565-6e2d5043422e,rev?*
G04 #@! TF.SameCoordinates,Original*
G04 #@! TF.FileFunction,Copper,L1,Top*
G04 #@! TF.FilePolarity,Positive*
%FSLAX46Y46*%
G04 Gerber Fmt 4.6, Leading zero omitted, Abs format (unit mm)*
G04 Created by KiCad (PCBNEW (5.1.2)-2) date 2021-10-01 10:44:41*
%MOMM*%
%LPD*%
G04 APERTURE LIST*
%ADD10C,4.700000*%
%ADD11C,0.100000*%
%ADD12C,1.425000*%
%ADD13R,1.000000X1.000000*%
%ADD14C,0.800000*%
%ADD15C,0.600000*%
%ADD16C,0.250000*%
%ADD17C,0.254000*%
G04 APERTURE END LIST*
D10*
X31242000Y-68834000D03*
X66242000Y-68834000D03*
D11*
G36*
X36083504Y-61864204D02*
G01*
X36107773Y-61867804D01*
X36131571Y-61873765D01*
X36154671Y-61882030D01*
X36176849Y-61892520D01*
X36197893Y-61905133D01*
X36217598Y-61919747D01*
X36235777Y-61936223D01*
X36252253Y-61954402D01*
X36266867Y-61974107D01*
X36279480Y-61995151D01*
X36289970Y-62017329D01*
X36298235Y-62040429D01*
X36304196Y-62064227D01*
X36307796Y-62088496D01*
X36309000Y-62113000D01*
X36309000Y-63363000D01*
X36307796Y-63387504D01*
X36304196Y-63411773D01*
X36298235Y-63435571D01*
X36289970Y-63458671D01*
X36279480Y-63480849D01*
X36266867Y-63501893D01*
X36252253Y-63521598D01*
X36235777Y-63539777D01*
X36217598Y-63556253D01*
X36197893Y-63570867D01*
X36176849Y-63583480D01*
X36154671Y-63593970D01*
X36131571Y-63602235D01*
X36107773Y-63608196D01*
X36083504Y-63611796D01*
X36059000Y-63613000D01*
X35134000Y-63613000D01*
X35109496Y-63611796D01*
X35085227Y-63608196D01*
X35061429Y-63602235D01*
X35038329Y-63593970D01*
X35016151Y-63583480D01*
X34995107Y-63570867D01*
X34975402Y-63556253D01*
X34957223Y-63539777D01*
X34940747Y-63521598D01*
X34926133Y-63501893D01*
X34913520Y-63480849D01*
X34903030Y-63458671D01*
X34894765Y-63435571D01*
X34888804Y-63411773D01*
X34885204Y-63387504D01*
X34884000Y-63363000D01*
X34884000Y-62113000D01*
X34885204Y-62088496D01*
X34888804Y-62064227D01*
X34894765Y-62040429D01*
X34903030Y-62017329D01*
X34913520Y-61995151D01*
X34926133Y-61974107D01*
X34940747Y-61954402D01*
X34957223Y-61936223D01*
X34975402Y-61919747D01*
X34995107Y-61905133D01*
X35016151Y-61892520D01*
X35038329Y-61882030D01*
X35061429Y-61873765D01*
X35085227Y-61867804D01*
X35109496Y-61864204D01*
X35134000Y-61863000D01*
X36059000Y-61863000D01*
X36083504Y-61864204D01*
X36083504Y-61864204D01*
G37*
D12*
X35596500Y-62738000D03*
D11*
G36*
X39058504Y-61864204D02*
G01*
X39082773Y-61867804D01*
X39106571Y-61873765D01*
X39129671Y-61882030D01*
X39151849Y-61892520D01*
X39172893Y-61905133D01*
X39192598Y-61919747D01*
X39210777Y-61936223D01*
X39227253Y-61954402D01*
X39241867Y-61974107D01*
X39254480Y-61995151D01*
X39264970Y-62017329D01*
X39273235Y-62040429D01*
X39279196Y-62064227D01*
X39282796Y-62088496D01*
X39284000Y-62113000D01*
X39284000Y-63363000D01*
X39282796Y-63387504D01*
X39279196Y-63411773D01*
X39273235Y-63435571D01*
X39264970Y-63458671D01*
X39254480Y-63480849D01*
X39241867Y-63501893D01*
X39227253Y-63521598D01*
X39210777Y-63539777D01*
X39192598Y-63556253D01*
X39172893Y-63570867D01*
X39151849Y-63583480D01*
X39129671Y-63593970D01*
X39106571Y-63602235D01*
X39082773Y-63608196D01*
X39058504Y-63611796D01*
X39034000Y-63613000D01*
X38109000Y-63613000D01*
X38084496Y-63611796D01*
X38060227Y-63608196D01*
X38036429Y-63602235D01*
X38013329Y-63593970D01*
X37991151Y-63583480D01*
X37970107Y-63570867D01*
X37950402Y-63556253D01*
X37932223Y-63539777D01*
X37915747Y-63521598D01*
X37901133Y-63501893D01*
X37888520Y-63480849D01*
X37878030Y-63458671D01*
X37869765Y-63435571D01*
X37863804Y-63411773D01*
X37860204Y-63387504D01*
X37859000Y-63363000D01*
X37859000Y-62113000D01*
X37860204Y-62088496D01*
X37863804Y-62064227D01*
X37869765Y-62040429D01*
X37878030Y-62017329D01*
X37888520Y-61995151D01*
X37901133Y-61974107D01*
X37915747Y-61954402D01*
X37932223Y-61936223D01*
X37950402Y-61919747D01*
X37970107Y-61905133D01*
X37991151Y-61892520D01*
X38013329Y-61882030D01*
X38036429Y-61873765D01*
X38060227Y-61867804D01*
X38084496Y-61864204D01*
X38109000Y-61863000D01*
X39034000Y-61863000D01*
X39058504Y-61864204D01*
X39058504Y-61864204D01*
G37*
D12*
X38571500Y-62738000D03*
D11*
G36*
X33978504Y-61864204D02*
G01*
X34002773Y-61867804D01*
X34026571Y-61873765D01*
X34049671Y-61882030D01*
X34071849Y-61892520D01*
X34092893Y-61905133D01*
X34112598Y-61919747D01*
X34130777Y-61936223D01*
X34147253Y-61954402D01*
X34161867Y-61974107D01*
X34174480Y-61995151D01*
X34184970Y-62017329D01*
X34193235Y-62040429D01*
X34199196Y-62064227D01*
X34202796Y-62088496D01*
X34204000Y-62113000D01*
X34204000Y-63363000D01*
X34202796Y-63387504D01*
X34199196Y-63411773D01*
X34193235Y-63435571D01*
X34184970Y-63458671D01*
X34174480Y-63480849D01*
X34161867Y-63501893D01*
X34147253Y-63521598D01*
X34130777Y-63539777D01*
X34112598Y-63556253D01*
X34092893Y-63570867D01*
X34071849Y-63583480D01*
X34049671Y-63593970D01*
X34026571Y-63602235D01*
X34002773Y-63608196D01*
X33978504Y-63611796D01*
X33954000Y-63613000D01*
X33029000Y-63613000D01*
X33004496Y-63611796D01*
X32980227Y-63608196D01*
X32956429Y-63602235D01*
X32933329Y-63593970D01*
X32911151Y-63583480D01*
X32890107Y-63570867D01*
X32870402Y-63556253D01*
X32852223Y-63539777D01*
X32835747Y-63521598D01*
X32821133Y-63501893D01*
X32808520Y-63480849D01*
X32798030Y-63458671D01*
X32789765Y-63435571D01*
X32783804Y-63411773D01*
X32780204Y-63387504D01*
X32779000Y-63363000D01*
X32779000Y-62113000D01*
X32780204Y-62088496D01*
X32783804Y-62064227D01*
X32789765Y-62040429D01*
X32798030Y-62017329D01*
X32808520Y-61995151D01*
X32821133Y-61974107D01*
X32835747Y-61954402D01*
X32852223Y-61936223D01*
X32870402Y-61919747D01*
X32890107Y-61905133D01*
X32911151Y-61892520D01*
X32933329Y-61882030D01*
X32956429Y-61873765D01*
X32980227Y-61867804D01*
X33004496Y-61864204D01*
X33029000Y-61863000D01*
X33954000Y-61863000D01*
X33978504Y-61864204D01*
X33978504Y-61864204D01*
G37*
D12*
X33491500Y-62738000D03*
D11*
G36*
X31003504Y-61864204D02*
G01*
X31027773Y-61867804D01*
X31051571Y-61873765D01*
X31074671Y-61882030D01*
X31096849Y-61892520D01*
X31117893Y-61905133D01*
X31137598Y-61919747D01*
X31155777Y-61936223D01*
X31172253Y-61954402D01*
X31186867Y-61974107D01*
X31199480Y-61995151D01*
X31209970Y-62017329D01*
X31218235Y-62040429D01*
X31224196Y-62064227D01*
X31227796Y-62088496D01*
X31229000Y-62113000D01*
X31229000Y-63363000D01*
X31227796Y-63387504D01*
X31224196Y-63411773D01*
X31218235Y-63435571D01*
X31209970Y-63458671D01*
X31199480Y-63480849D01*
X31186867Y-63501893D01*
X31172253Y-63521598D01*
X31155777Y-63539777D01*
X31137598Y-63556253D01*
X31117893Y-63570867D01*
X31096849Y-63583480D01*
X31074671Y-63593970D01*
X31051571Y-63602235D01*
X31027773Y-63608196D01*
X31003504Y-63611796D01*
X30979000Y-63613000D01*
X30054000Y-63613000D01*
X30029496Y-63611796D01*
X30005227Y-63608196D01*
X29981429Y-63602235D01*
X29958329Y-63593970D01*
X29936151Y-63583480D01*
X29915107Y-63570867D01*
X29895402Y-63556253D01*
X29877223Y-63539777D01*
X29860747Y-63521598D01*
X29846133Y-63501893D01*
X29833520Y-63480849D01*
X29823030Y-63458671D01*
X29814765Y-63435571D01*
X29808804Y-63411773D01*
X29805204Y-63387504D01*
X29804000Y-63363000D01*
X29804000Y-62113000D01*
X29805204Y-62088496D01*
X29808804Y-62064227D01*
X29814765Y-62040429D01*
X29823030Y-62017329D01*
X29833520Y-61995151D01*
X29846133Y-61974107D01*
X29860747Y-61954402D01*
X29877223Y-61936223D01*
X29895402Y-61919747D01*
X29915107Y-61905133D01*
X29936151Y-61892520D01*
X29958329Y-61882030D01*
X29981429Y-61873765D01*
X30005227Y-61867804D01*
X30029496Y-61864204D01*
X30054000Y-61863000D01*
X30979000Y-61863000D01*
X31003504Y-61864204D01*
X31003504Y-61864204D01*
G37*
D12*
X30516500Y-62738000D03*
D13*
X32512000Y-34290000D03*
D14*
X59182000Y-33147000D03*
X60960000Y-35052000D03*
X43053000Y-59182000D03*
X44323000Y-59182000D03*
X45593000Y-59182000D03*
X47625000Y-34925000D03*
X43815000Y-35560000D03*
X51943000Y-35433000D03*
X37973000Y-42672000D03*
X37973000Y-43942000D03*
X35814000Y-45085000D03*
X35814000Y-46482000D03*
X38227000Y-28194000D03*
X36703000Y-28194000D03*
X34925000Y-28194000D03*
X38227000Y-26543000D03*
X36703000Y-26543000D03*
X34925000Y-26543000D03*
X36830000Y-55245000D03*
X36830000Y-57150000D03*
X67945000Y-38735000D03*
X67945000Y-40005000D03*
X67945000Y-41275000D03*
X67945000Y-42545000D03*
X40386000Y-37211000D03*
X54229000Y-35687000D03*
X41275000Y-44450000D03*
X50800000Y-41910000D03*
X37211000Y-65024000D03*
X56388000Y-42545000D03*
X58801000Y-42545000D03*
X55626000Y-43561000D03*
X59563000Y-43561000D03*
D15*
X33491500Y-62738000D02*
X35596500Y-62738000D01*
D16*
X36367847Y-63509347D02*
X36367847Y-64053847D01*
X35596500Y-62738000D02*
X36367847Y-63509347D01*
X36367847Y-64053847D02*
X36367847Y-64180847D01*
X36367847Y-64180847D02*
X37211000Y-65024000D01*
X37211000Y-65024000D02*
X37211000Y-65024000D01*
X56388000Y-42545000D02*
X58801000Y-42545000D01*
X55626000Y-43561000D02*
X56191685Y-43561000D01*
X56191685Y-43561000D02*
X59563000Y-43561000D01*
D17*
G36*
X39243000Y-48133000D02*
G01*
X28706000Y-48133000D01*
X28705999Y-34790000D01*
X31373928Y-34790000D01*
X31386188Y-34914482D01*
X31422498Y-35034180D01*
X31481463Y-35144494D01*
X31560815Y-35241185D01*
X31657506Y-35320537D01*
X31767820Y-35379502D01*
X31887518Y-35415812D01*
X32012000Y-35428072D01*
X32226250Y-35425000D01*
X32385000Y-35266250D01*
X32385000Y-34417000D01*
X32639000Y-34417000D01*
X32639000Y-35266250D01*
X32797750Y-35425000D01*
X33012000Y-35428072D01*
X33136482Y-35415812D01*
X33256180Y-35379502D01*
X33366494Y-35320537D01*
X33463185Y-35241185D01*
X33542537Y-35144494D01*
X33601502Y-35034180D01*
X33637812Y-34914482D01*
X33650072Y-34790000D01*
X33647000Y-34575750D01*
X33488250Y-34417000D01*
X32639000Y-34417000D01*
X32385000Y-34417000D01*
X31535750Y-34417000D01*
X31377000Y-34575750D01*
X31373928Y-34790000D01*
X28705999Y-34790000D01*
X28705999Y-33790000D01*
X31373928Y-33790000D01*
X31377000Y-34004250D01*
X31535750Y-34163000D01*
X32385000Y-34163000D01*
X32385000Y-33313750D01*
X32639000Y-33313750D01*
X32639000Y-34163000D01*
X33488250Y-34163000D01*
X33647000Y-34004250D01*
X33650072Y-33790000D01*
X33637812Y-33665518D01*
X33601502Y-33545820D01*
X33542537Y-33435506D01*
X33463185Y-33338815D01*
X33366494Y-33259463D01*
X33256180Y-33200498D01*
X33136482Y-33164188D01*
X33012000Y-33151928D01*
X32797750Y-33155000D01*
X32639000Y-33313750D01*
X32385000Y-33313750D01*
X32226250Y-33155000D01*
X32012000Y-33151928D01*
X31887518Y-33164188D01*
X31767820Y-33200498D01*
X31657506Y-33259463D01*
X31560815Y-33338815D01*
X31481463Y-33435506D01*
X31422498Y-33545820D01*
X31386188Y-33665518D01*
X31373928Y-33790000D01*
X28705999Y-33790000D01*
X28705998Y-22891317D01*
X28727770Y-22669271D01*
X28783157Y-22485819D01*
X28873128Y-22316608D01*
X28994251Y-22168097D01*
X29141911Y-22045943D01*
X29310488Y-21954793D01*
X29493554Y-21898125D01*
X29713575Y-21875000D01*
X39243000Y-21875000D01*
X39243000Y-48133000D01*
X39243000Y-48133000D01*
G37*
X39243000Y-48133000D02*
X28706000Y-48133000D01*
X28705999Y-34790000D01*
X31373928Y-34790000D01*
X31386188Y-34914482D01*
X31422498Y-35034180D01*
X31481463Y-35144494D01*
X31560815Y-35241185D01*
X31657506Y-35320537D01*
X31767820Y-35379502D01*
X31887518Y-35415812D01*
X32012000Y-35428072D01*
X32226250Y-35425000D01*
X32385000Y-35266250D01*
X32385000Y-34417000D01*
X32639000Y-34417000D01*
X32639000Y-35266250D01*
X32797750Y-35425000D01*
X33012000Y-35428072D01*
X33136482Y-35415812D01*
X33256180Y-35379502D01*
X33366494Y-35320537D01*
X33463185Y-35241185D01*
X33542537Y-35144494D01*
X33601502Y-35034180D01*
X33637812Y-34914482D01*
X33650072Y-34790000D01*
X33647000Y-34575750D01*
X33488250Y-34417000D01*
X32639000Y-34417000D01*
X32385000Y-34417000D01*
X31535750Y-34417000D01*
X31377000Y-34575750D01*
X31373928Y-34790000D01*
X28705999Y-34790000D01*
X28705999Y-33790000D01*
X31373928Y-33790000D01*
X31377000Y-34004250D01*
X31535750Y-34163000D01*
X32385000Y-34163000D01*
X32385000Y-33313750D01*
X32639000Y-33313750D01*
X32639000Y-34163000D01*
X33488250Y-34163000D01*
X33647000Y-34004250D01*
X33650072Y-33790000D01*
X33637812Y-33665518D01*
X33601502Y-33545820D01*
X33542537Y-33435506D01*
X33463185Y-33338815D01*
X33366494Y-33259463D01*
X33256180Y-33200498D01*
X33136482Y-33164188D01*
X33012000Y-33151928D01*
X32797750Y-33155000D01*
X32639000Y-33313750D01*
X32385000Y-33313750D01*
X32226250Y-33155000D01*
X32012000Y-33151928D01*
X31887518Y-33164188D01*
X31767820Y-33200498D01*
X31657506Y-33259463D01*
X31560815Y-33338815D01*
X31481463Y-33435506D01*
X31422498Y-33545820D01*
X31386188Y-33665518D01*
X31373928Y-33790000D01*
X28705999Y-33790000D01*
X28705998Y-22891317D01*
X28727770Y-22669271D01*
X28783157Y-22485819D01*
X28873128Y-22316608D01*
X28994251Y-22168097D01*
X29141911Y-22045943D01*
X29310488Y-21954793D01*
X29493554Y-21898125D01*
X29713575Y-21875000D01*
X39243000Y-21875000D01*
X39243000Y-48133000D01*
G36*
X52959000Y-46302394D02*
G01*
X49476929Y-49784465D01*
X35177876Y-49911005D01*
X35153122Y-49913664D01*
X35129363Y-49921102D01*
X35107511Y-49933032D01*
X35088406Y-49948996D01*
X35072783Y-49968380D01*
X35061242Y-49990439D01*
X35054226Y-50014327D01*
X35052000Y-50038000D01*
X35052000Y-57404000D01*
X31750000Y-57404000D01*
X31725224Y-57406440D01*
X31701399Y-57413667D01*
X31679443Y-57425403D01*
X31660197Y-57441197D01*
X31644403Y-57460443D01*
X31632667Y-57482399D01*
X31625440Y-57506224D01*
X31623000Y-57531000D01*
X31623000Y-61364885D01*
X31583494Y-61332463D01*
X31473180Y-61273498D01*
X31353482Y-61237188D01*
X31229000Y-61224928D01*
X30802250Y-61228000D01*
X30643500Y-61386750D01*
X30643500Y-62611000D01*
X30663500Y-62611000D01*
X30663500Y-62865000D01*
X30643500Y-62865000D01*
X30643500Y-64089250D01*
X30802250Y-64248000D01*
X31229000Y-64251072D01*
X31353482Y-64238812D01*
X31473180Y-64202502D01*
X31583494Y-64143537D01*
X31623000Y-64111115D01*
X31623000Y-64643000D01*
X28706001Y-64643000D01*
X28706001Y-63613000D01*
X29165928Y-63613000D01*
X29178188Y-63737482D01*
X29214498Y-63857180D01*
X29273463Y-63967494D01*
X29352815Y-64064185D01*
X29449506Y-64143537D01*
X29559820Y-64202502D01*
X29679518Y-64238812D01*
X29804000Y-64251072D01*
X30230750Y-64248000D01*
X30389500Y-64089250D01*
X30389500Y-62865000D01*
X29327750Y-62865000D01*
X29169000Y-63023750D01*
X29165928Y-63613000D01*
X28706001Y-63613000D01*
X28706001Y-61863000D01*
X29165928Y-61863000D01*
X29169000Y-62452250D01*
X29327750Y-62611000D01*
X30389500Y-62611000D01*
X30389500Y-61386750D01*
X30230750Y-61228000D01*
X29804000Y-61224928D01*
X29679518Y-61237188D01*
X29559820Y-61273498D01*
X29449506Y-61332463D01*
X29352815Y-61411815D01*
X29273463Y-61508506D01*
X29214498Y-61618820D01*
X29178188Y-61738518D01*
X29165928Y-61863000D01*
X28706001Y-61863000D01*
X28706000Y-49022000D01*
X40005000Y-49022000D01*
X40029776Y-49019560D01*
X40053601Y-49012333D01*
X40075557Y-49000597D01*
X40094803Y-48984803D01*
X40110597Y-48965557D01*
X40122333Y-48943601D01*
X40129560Y-48919776D01*
X40132000Y-48895000D01*
X40132000Y-41654773D01*
X52959000Y-41530239D01*
X52959000Y-46302394D01*
X52959000Y-46302394D01*
G37*
X52959000Y-46302394D02*
X49476929Y-49784465D01*
X35177876Y-49911005D01*
X35153122Y-49913664D01*
X35129363Y-49921102D01*
X35107511Y-49933032D01*
X35088406Y-49948996D01*
X35072783Y-49968380D01*
X35061242Y-49990439D01*
X35054226Y-50014327D01*
X35052000Y-50038000D01*
X35052000Y-57404000D01*
X31750000Y-57404000D01*
X31725224Y-57406440D01*
X31701399Y-57413667D01*
X31679443Y-57425403D01*
X31660197Y-57441197D01*
X31644403Y-57460443D01*
X31632667Y-57482399D01*
X31625440Y-57506224D01*
X31623000Y-57531000D01*
X31623000Y-61364885D01*
X31583494Y-61332463D01*
X31473180Y-61273498D01*
X31353482Y-61237188D01*
X31229000Y-61224928D01*
X30802250Y-61228000D01*
X30643500Y-61386750D01*
X30643500Y-62611000D01*
X30663500Y-62611000D01*
X30663500Y-62865000D01*
X30643500Y-62865000D01*
X30643500Y-64089250D01*
X30802250Y-64248000D01*
X31229000Y-64251072D01*
X31353482Y-64238812D01*
X31473180Y-64202502D01*
X31583494Y-64143537D01*
X31623000Y-64111115D01*
X31623000Y-64643000D01*
X28706001Y-64643000D01*
X28706001Y-63613000D01*
X29165928Y-63613000D01*
X29178188Y-63737482D01*
X29214498Y-63857180D01*
X29273463Y-63967494D01*
X29352815Y-64064185D01*
X29449506Y-64143537D01*
X29559820Y-64202502D01*
X29679518Y-64238812D01*
X29804000Y-64251072D01*
X30230750Y-64248000D01*
X30389500Y-64089250D01*
X30389500Y-62865000D01*
X29327750Y-62865000D01*
X29169000Y-63023750D01*
X29165928Y-63613000D01*
X28706001Y-63613000D01*
X28706001Y-61863000D01*
X29165928Y-61863000D01*
X29169000Y-62452250D01*
X29327750Y-62611000D01*
X30389500Y-62611000D01*
X30389500Y-61386750D01*
X30230750Y-61228000D01*
X29804000Y-61224928D01*
X29679518Y-61237188D01*
X29559820Y-61273498D01*
X29449506Y-61332463D01*
X29352815Y-61411815D01*
X29273463Y-61508506D01*
X29214498Y-61618820D01*
X29178188Y-61738518D01*
X29165928Y-61863000D01*
X28706001Y-61863000D01*
X28706000Y-49022000D01*
X40005000Y-49022000D01*
X40029776Y-49019560D01*
X40053601Y-49012333D01*
X40075557Y-49000597D01*
X40094803Y-48984803D01*
X40110597Y-48965557D01*
X40122333Y-48943601D01*
X40129560Y-48919776D01*
X40132000Y-48895000D01*
X40132000Y-41654773D01*
X52959000Y-41530239D01*
X52959000Y-46302394D01*
G36*
X67881728Y-21896771D02*
G01*
X68065182Y-21952159D01*
X68234392Y-22042130D01*
X68382901Y-22163250D01*
X68505059Y-22310914D01*
X68596207Y-22479487D01*
X68652875Y-22662554D01*
X68676001Y-22882584D01*
X68676000Y-36068000D01*
X56007000Y-36068000D01*
X56007000Y-31750000D01*
X56004560Y-31725224D01*
X55997333Y-31701399D01*
X55985597Y-31679443D01*
X55969803Y-31660197D01*
X55950557Y-31644403D01*
X55928601Y-31632667D01*
X55904776Y-31625440D01*
X55880000Y-31623000D01*
X52705000Y-31623000D01*
X52680224Y-31625440D01*
X52656399Y-31632667D01*
X52634443Y-31644403D01*
X52615197Y-31660197D01*
X52599403Y-31679443D01*
X52587667Y-31701399D01*
X52580440Y-31725224D01*
X52578000Y-31750000D01*
X52578000Y-36068000D01*
X40132000Y-36068000D01*
X40132000Y-21875000D01*
X67659694Y-21875000D01*
X67881728Y-21896771D01*
X67881728Y-21896771D01*
G37*
X67881728Y-21896771D02*
X68065182Y-21952159D01*
X68234392Y-22042130D01*
X68382901Y-22163250D01*
X68505059Y-22310914D01*
X68596207Y-22479487D01*
X68652875Y-22662554D01*
X68676001Y-22882584D01*
X68676000Y-36068000D01*
X56007000Y-36068000D01*
X56007000Y-31750000D01*
X56004560Y-31725224D01*
X55997333Y-31701399D01*
X55985597Y-31679443D01*
X55969803Y-31660197D01*
X55950557Y-31644403D01*
X55928601Y-31632667D01*
X55904776Y-31625440D01*
X55880000Y-31623000D01*
X52705000Y-31623000D01*
X52680224Y-31625440D01*
X52656399Y-31632667D01*
X52634443Y-31644403D01*
X52615197Y-31660197D01*
X52599403Y-31679443D01*
X52587667Y-31701399D01*
X52580440Y-31725224D01*
X52578000Y-31750000D01*
X52578000Y-36068000D01*
X40132000Y-36068000D01*
X40132000Y-21875000D01*
X67659694Y-21875000D01*
X67881728Y-21896771D01*
G36*
X55118000Y-36830000D02*
G01*
X55120440Y-36854776D01*
X55127667Y-36878601D01*
X55139403Y-36900557D01*
X55155197Y-36919803D01*
X55174443Y-36935597D01*
X55196399Y-36947333D01*
X55220224Y-36954560D01*
X55245000Y-36957000D01*
X68676000Y-36957000D01*
X68675999Y-57658000D01*
X36322000Y-57658000D01*
X36322000Y-50927000D01*
X49530000Y-50927000D01*
X49554776Y-50924560D01*
X49578601Y-50917333D01*
X49600557Y-50905597D01*
X49619803Y-50889803D01*
X54064803Y-46444803D01*
X54080597Y-46425557D01*
X54092333Y-46403601D01*
X54099560Y-46379776D01*
X54102000Y-46355000D01*
X54102000Y-43459061D01*
X54591000Y-43459061D01*
X54591000Y-43662939D01*
X54630774Y-43862898D01*
X54708795Y-44051256D01*
X54822063Y-44220774D01*
X54966226Y-44364937D01*
X55135744Y-44478205D01*
X55324102Y-44556226D01*
X55524061Y-44596000D01*
X55727939Y-44596000D01*
X55927898Y-44556226D01*
X56116256Y-44478205D01*
X56285774Y-44364937D01*
X56329711Y-44321000D01*
X58859289Y-44321000D01*
X58903226Y-44364937D01*
X59072744Y-44478205D01*
X59261102Y-44556226D01*
X59461061Y-44596000D01*
X59664939Y-44596000D01*
X59864898Y-44556226D01*
X60053256Y-44478205D01*
X60222774Y-44364937D01*
X60366937Y-44220774D01*
X60480205Y-44051256D01*
X60558226Y-43862898D01*
X60598000Y-43662939D01*
X60598000Y-43459061D01*
X60558226Y-43259102D01*
X60480205Y-43070744D01*
X60366937Y-42901226D01*
X60222774Y-42757063D01*
X60053256Y-42643795D01*
X59864898Y-42565774D01*
X59836000Y-42560026D01*
X59836000Y-42443061D01*
X59796226Y-42243102D01*
X59718205Y-42054744D01*
X59604937Y-41885226D01*
X59460774Y-41741063D01*
X59291256Y-41627795D01*
X59102898Y-41549774D01*
X58902939Y-41510000D01*
X58699061Y-41510000D01*
X58499102Y-41549774D01*
X58310744Y-41627795D01*
X58141226Y-41741063D01*
X58097289Y-41785000D01*
X57091711Y-41785000D01*
X57047774Y-41741063D01*
X56878256Y-41627795D01*
X56689898Y-41549774D01*
X56489939Y-41510000D01*
X56286061Y-41510000D01*
X56086102Y-41549774D01*
X55897744Y-41627795D01*
X55728226Y-41741063D01*
X55584063Y-41885226D01*
X55470795Y-42054744D01*
X55392774Y-42243102D01*
X55353000Y-42443061D01*
X55353000Y-42560026D01*
X55324102Y-42565774D01*
X55135744Y-42643795D01*
X54966226Y-42757063D01*
X54822063Y-42901226D01*
X54708795Y-43070744D01*
X54630774Y-43259102D01*
X54591000Y-43459061D01*
X54102000Y-43459061D01*
X54102000Y-40640000D01*
X54099560Y-40615224D01*
X54092333Y-40591399D01*
X54080597Y-40569443D01*
X54064803Y-40550197D01*
X54045557Y-40534403D01*
X54023601Y-40522667D01*
X53999776Y-40515440D01*
X53975000Y-40513000D01*
X40132000Y-40513000D01*
X40132000Y-36957000D01*
X53340000Y-36957000D01*
X53364776Y-36954560D01*
X53388601Y-36947333D01*
X53410557Y-36935597D01*
X53429803Y-36919803D01*
X53445597Y-36900557D01*
X53457333Y-36878601D01*
X53464560Y-36854776D01*
X53467000Y-36830000D01*
X53467000Y-32512000D01*
X55118000Y-32512000D01*
X55118000Y-36830000D01*
X55118000Y-36830000D01*
G37*
X55118000Y-36830000D02*
X55120440Y-36854776D01*
X55127667Y-36878601D01*
X55139403Y-36900557D01*
X55155197Y-36919803D01*
X55174443Y-36935597D01*
X55196399Y-36947333D01*
X55220224Y-36954560D01*
X55245000Y-36957000D01*
X68676000Y-36957000D01*
X68675999Y-57658000D01*
X36322000Y-57658000D01*
X36322000Y-50927000D01*
X49530000Y-50927000D01*
X49554776Y-50924560D01*
X49578601Y-50917333D01*
X49600557Y-50905597D01*
X49619803Y-50889803D01*
X54064803Y-46444803D01*
X54080597Y-46425557D01*
X54092333Y-46403601D01*
X54099560Y-46379776D01*
X54102000Y-46355000D01*
X54102000Y-43459061D01*
X54591000Y-43459061D01*
X54591000Y-43662939D01*
X54630774Y-43862898D01*
X54708795Y-44051256D01*
X54822063Y-44220774D01*
X54966226Y-44364937D01*
X55135744Y-44478205D01*
X55324102Y-44556226D01*
X55524061Y-44596000D01*
X55727939Y-44596000D01*
X55927898Y-44556226D01*
X56116256Y-44478205D01*
X56285774Y-44364937D01*
X56329711Y-44321000D01*
X58859289Y-44321000D01*
X58903226Y-44364937D01*
X59072744Y-44478205D01*
X59261102Y-44556226D01*
X59461061Y-44596000D01*
X59664939Y-44596000D01*
X59864898Y-44556226D01*
X60053256Y-44478205D01*
X60222774Y-44364937D01*
X60366937Y-44220774D01*
X60480205Y-44051256D01*
X60558226Y-43862898D01*
X60598000Y-43662939D01*
X60598000Y-43459061D01*
X60558226Y-43259102D01*
X60480205Y-43070744D01*
X60366937Y-42901226D01*
X60222774Y-42757063D01*
X60053256Y-42643795D01*
X59864898Y-42565774D01*
X59836000Y-42560026D01*
X59836000Y-42443061D01*
X59796226Y-42243102D01*
X59718205Y-42054744D01*
X59604937Y-41885226D01*
X59460774Y-41741063D01*
X59291256Y-41627795D01*
X59102898Y-41549774D01*
X58902939Y-41510000D01*
X58699061Y-41510000D01*
X58499102Y-41549774D01*
X58310744Y-41627795D01*
X58141226Y-41741063D01*
X58097289Y-41785000D01*
X57091711Y-41785000D01*
X57047774Y-41741063D01*
X56878256Y-41627795D01*
X56689898Y-41549774D01*
X56489939Y-41510000D01*
X56286061Y-41510000D01*
X56086102Y-41549774D01*
X55897744Y-41627795D01*
X55728226Y-41741063D01*
X55584063Y-41885226D01*
X55470795Y-42054744D01*
X55392774Y-42243102D01*
X55353000Y-42443061D01*
X55353000Y-42560026D01*
X55324102Y-42565774D01*
X55135744Y-42643795D01*
X54966226Y-42757063D01*
X54822063Y-42901226D01*
X54708795Y-43070744D01*
X54630774Y-43259102D01*
X54591000Y-43459061D01*
X54102000Y-43459061D01*
X54102000Y-40640000D01*
X54099560Y-40615224D01*
X54092333Y-40591399D01*
X54080597Y-40569443D01*
X54064803Y-40550197D01*
X54045557Y-40534403D01*
X54023601Y-40522667D01*
X53999776Y-40515440D01*
X53975000Y-40513000D01*
X40132000Y-40513000D01*
X40132000Y-36957000D01*
X53340000Y-36957000D01*
X53364776Y-36954560D01*
X53388601Y-36947333D01*
X53410557Y-36935597D01*
X53429803Y-36919803D01*
X53445597Y-36900557D01*
X53457333Y-36878601D01*
X53464560Y-36854776D01*
X53467000Y-36830000D01*
X53467000Y-32512000D01*
X55118000Y-32512000D01*
X55118000Y-36830000D01*
G36*
X68675999Y-67103879D02*
G01*
X68560601Y-66931174D01*
X68144826Y-66515399D01*
X67655928Y-66188727D01*
X67112692Y-65963712D01*
X66535997Y-65849000D01*
X65948003Y-65849000D01*
X65371308Y-65963712D01*
X64828072Y-66188727D01*
X64339174Y-66515399D01*
X63923399Y-66931174D01*
X63596727Y-67420072D01*
X63371712Y-67963308D01*
X63257000Y-68540003D01*
X63257000Y-69127997D01*
X63371712Y-69704692D01*
X63596727Y-70247928D01*
X63923399Y-70736826D01*
X64339174Y-71152601D01*
X64701950Y-71395001D01*
X32782053Y-71394999D01*
X33144826Y-71152601D01*
X33560601Y-70736826D01*
X33887273Y-70247928D01*
X34112288Y-69704692D01*
X34227000Y-69127997D01*
X34227000Y-68540003D01*
X34112288Y-67963308D01*
X33887273Y-67420072D01*
X33560601Y-66931174D01*
X33144826Y-66515399D01*
X32655928Y-66188727D01*
X32112692Y-65963712D01*
X31535997Y-65849000D01*
X30948003Y-65849000D01*
X30371308Y-65963712D01*
X29828072Y-66188727D01*
X29339174Y-66515399D01*
X28923399Y-66931174D01*
X28706001Y-67256532D01*
X28706001Y-65532000D01*
X32385000Y-65532000D01*
X32409776Y-65529560D01*
X32433601Y-65522333D01*
X32455557Y-65510597D01*
X32474803Y-65494803D01*
X32490597Y-65475557D01*
X32502333Y-65453601D01*
X32509560Y-65429776D01*
X32512000Y-65405000D01*
X32512000Y-64082026D01*
X32535614Y-64101405D01*
X32689150Y-64183472D01*
X32855746Y-64234008D01*
X33029000Y-64251072D01*
X33954000Y-64251072D01*
X34127254Y-64234008D01*
X34293850Y-64183472D01*
X34447386Y-64101405D01*
X34544000Y-64022116D01*
X34640614Y-64101405D01*
X34794150Y-64183472D01*
X34960746Y-64234008D01*
X35134000Y-64251072D01*
X35611087Y-64251072D01*
X35618844Y-64329833D01*
X35662301Y-64473094D01*
X35732873Y-64605123D01*
X35827846Y-64720848D01*
X35856848Y-64744649D01*
X36176000Y-65063802D01*
X36176000Y-65125939D01*
X36215774Y-65325898D01*
X36293795Y-65514256D01*
X36407063Y-65683774D01*
X36551226Y-65827937D01*
X36720744Y-65941205D01*
X36909102Y-66019226D01*
X37109061Y-66059000D01*
X37312939Y-66059000D01*
X37512898Y-66019226D01*
X37701256Y-65941205D01*
X37870774Y-65827937D01*
X38014937Y-65683774D01*
X38128205Y-65514256D01*
X38206226Y-65325898D01*
X38246000Y-65125939D01*
X38246000Y-64922061D01*
X38206226Y-64722102D01*
X38128205Y-64533744D01*
X38014937Y-64364226D01*
X37901477Y-64250766D01*
X38285750Y-64248000D01*
X38444500Y-64089250D01*
X38444500Y-62865000D01*
X38698500Y-62865000D01*
X38698500Y-64089250D01*
X38857250Y-64248000D01*
X39284000Y-64251072D01*
X39408482Y-64238812D01*
X39528180Y-64202502D01*
X39638494Y-64143537D01*
X39735185Y-64064185D01*
X39814537Y-63967494D01*
X39873502Y-63857180D01*
X39909812Y-63737482D01*
X39922072Y-63613000D01*
X39919000Y-63023750D01*
X39760250Y-62865000D01*
X38698500Y-62865000D01*
X38444500Y-62865000D01*
X37382750Y-62865000D01*
X37224000Y-63023750D01*
X37220928Y-63613000D01*
X37233188Y-63737482D01*
X37269498Y-63857180D01*
X37328463Y-63967494D01*
X37352584Y-63996886D01*
X37312939Y-63989000D01*
X37250802Y-63989000D01*
X37127847Y-63866045D01*
X37127847Y-63546669D01*
X37131523Y-63509346D01*
X37127847Y-63472023D01*
X37127847Y-63472014D01*
X37116850Y-63360361D01*
X37073393Y-63217100D01*
X37002821Y-63085071D01*
X36989658Y-63069032D01*
X36947072Y-63017140D01*
X36947072Y-62113000D01*
X36930008Y-61939746D01*
X36906728Y-61863000D01*
X37220928Y-61863000D01*
X37224000Y-62452250D01*
X37382750Y-62611000D01*
X38444500Y-62611000D01*
X38444500Y-61386750D01*
X38698500Y-61386750D01*
X38698500Y-62611000D01*
X39760250Y-62611000D01*
X39919000Y-62452250D01*
X39922072Y-61863000D01*
X39909812Y-61738518D01*
X39873502Y-61618820D01*
X39814537Y-61508506D01*
X39735185Y-61411815D01*
X39638494Y-61332463D01*
X39528180Y-61273498D01*
X39408482Y-61237188D01*
X39284000Y-61224928D01*
X38857250Y-61228000D01*
X38698500Y-61386750D01*
X38444500Y-61386750D01*
X38285750Y-61228000D01*
X37859000Y-61224928D01*
X37734518Y-61237188D01*
X37614820Y-61273498D01*
X37504506Y-61332463D01*
X37407815Y-61411815D01*
X37328463Y-61508506D01*
X37269498Y-61618820D01*
X37233188Y-61738518D01*
X37220928Y-61863000D01*
X36906728Y-61863000D01*
X36879472Y-61773150D01*
X36797405Y-61619614D01*
X36686962Y-61485038D01*
X36552386Y-61374595D01*
X36398850Y-61292528D01*
X36232254Y-61241992D01*
X36059000Y-61224928D01*
X35134000Y-61224928D01*
X34960746Y-61241992D01*
X34794150Y-61292528D01*
X34640614Y-61374595D01*
X34544000Y-61453884D01*
X34447386Y-61374595D01*
X34293850Y-61292528D01*
X34127254Y-61241992D01*
X33954000Y-61224928D01*
X33029000Y-61224928D01*
X32855746Y-61241992D01*
X32689150Y-61292528D01*
X32535614Y-61374595D01*
X32512000Y-61393974D01*
X32512000Y-58547000D01*
X68675999Y-58547000D01*
X68675999Y-67103879D01*
X68675999Y-67103879D01*
G37*
X68675999Y-67103879D02*
X68560601Y-66931174D01*
X68144826Y-66515399D01*
X67655928Y-66188727D01*
X67112692Y-65963712D01*
X66535997Y-65849000D01*
X65948003Y-65849000D01*
X65371308Y-65963712D01*
X64828072Y-66188727D01*
X64339174Y-66515399D01*
X63923399Y-66931174D01*
X63596727Y-67420072D01*
X63371712Y-67963308D01*
X63257000Y-68540003D01*
X63257000Y-69127997D01*
X63371712Y-69704692D01*
X63596727Y-70247928D01*
X63923399Y-70736826D01*
X64339174Y-71152601D01*
X64701950Y-71395001D01*
X32782053Y-71394999D01*
X33144826Y-71152601D01*
X33560601Y-70736826D01*
X33887273Y-70247928D01*
X34112288Y-69704692D01*
X34227000Y-69127997D01*
X34227000Y-68540003D01*
X34112288Y-67963308D01*
X33887273Y-67420072D01*
X33560601Y-66931174D01*
X33144826Y-66515399D01*
X32655928Y-66188727D01*
X32112692Y-65963712D01*
X31535997Y-65849000D01*
X30948003Y-65849000D01*
X30371308Y-65963712D01*
X29828072Y-66188727D01*
X29339174Y-66515399D01*
X28923399Y-66931174D01*
X28706001Y-67256532D01*
X28706001Y-65532000D01*
X32385000Y-65532000D01*
X32409776Y-65529560D01*
X32433601Y-65522333D01*
X32455557Y-65510597D01*
X32474803Y-65494803D01*
X32490597Y-65475557D01*
X32502333Y-65453601D01*
X32509560Y-65429776D01*
X32512000Y-65405000D01*
X32512000Y-64082026D01*
X32535614Y-64101405D01*
X32689150Y-64183472D01*
X32855746Y-64234008D01*
X33029000Y-64251072D01*
X33954000Y-64251072D01*
X34127254Y-64234008D01*
X34293850Y-64183472D01*
X34447386Y-64101405D01*
X34544000Y-64022116D01*
X34640614Y-64101405D01*
X34794150Y-64183472D01*
X34960746Y-64234008D01*
X35134000Y-64251072D01*
X35611087Y-64251072D01*
X35618844Y-64329833D01*
X35662301Y-64473094D01*
X35732873Y-64605123D01*
X35827846Y-64720848D01*
X35856848Y-64744649D01*
X36176000Y-65063802D01*
X36176000Y-65125939D01*
X36215774Y-65325898D01*
X36293795Y-65514256D01*
X36407063Y-65683774D01*
X36551226Y-65827937D01*
X36720744Y-65941205D01*
X36909102Y-66019226D01*
X37109061Y-66059000D01*
X37312939Y-66059000D01*
X37512898Y-66019226D01*
X37701256Y-65941205D01*
X37870774Y-65827937D01*
X38014937Y-65683774D01*
X38128205Y-65514256D01*
X38206226Y-65325898D01*
X38246000Y-65125939D01*
X38246000Y-64922061D01*
X38206226Y-64722102D01*
X38128205Y-64533744D01*
X38014937Y-64364226D01*
X37901477Y-64250766D01*
X38285750Y-64248000D01*
X38444500Y-64089250D01*
X38444500Y-62865000D01*
X38698500Y-62865000D01*
X38698500Y-64089250D01*
X38857250Y-64248000D01*
X39284000Y-64251072D01*
X39408482Y-64238812D01*
X39528180Y-64202502D01*
X39638494Y-64143537D01*
X39735185Y-64064185D01*
X39814537Y-63967494D01*
X39873502Y-63857180D01*
X39909812Y-63737482D01*
X39922072Y-63613000D01*
X39919000Y-63023750D01*
X39760250Y-62865000D01*
X38698500Y-62865000D01*
X38444500Y-62865000D01*
X37382750Y-62865000D01*
X37224000Y-63023750D01*
X37220928Y-63613000D01*
X37233188Y-63737482D01*
X37269498Y-63857180D01*
X37328463Y-63967494D01*
X37352584Y-63996886D01*
X37312939Y-63989000D01*
X37250802Y-63989000D01*
X37127847Y-63866045D01*
X37127847Y-63546669D01*
X37131523Y-63509346D01*
X37127847Y-63472023D01*
X37127847Y-63472014D01*
X37116850Y-63360361D01*
X37073393Y-63217100D01*
X37002821Y-63085071D01*
X36989658Y-63069032D01*
X36947072Y-63017140D01*
X36947072Y-62113000D01*
X36930008Y-61939746D01*
X36906728Y-61863000D01*
X37220928Y-61863000D01*
X37224000Y-62452250D01*
X37382750Y-62611000D01*
X38444500Y-62611000D01*
X38444500Y-61386750D01*
X38698500Y-61386750D01*
X38698500Y-62611000D01*
X39760250Y-62611000D01*
X39919000Y-62452250D01*
X39922072Y-61863000D01*
X39909812Y-61738518D01*
X39873502Y-61618820D01*
X39814537Y-61508506D01*
X39735185Y-61411815D01*
X39638494Y-61332463D01*
X39528180Y-61273498D01*
X39408482Y-61237188D01*
X39284000Y-61224928D01*
X38857250Y-61228000D01*
X38698500Y-61386750D01*
X38444500Y-61386750D01*
X38285750Y-61228000D01*
X37859000Y-61224928D01*
X37734518Y-61237188D01*
X37614820Y-61273498D01*
X37504506Y-61332463D01*
X37407815Y-61411815D01*
X37328463Y-61508506D01*
X37269498Y-61618820D01*
X37233188Y-61738518D01*
X37220928Y-61863000D01*
X36906728Y-61863000D01*
X36879472Y-61773150D01*
X36797405Y-61619614D01*
X36686962Y-61485038D01*
X36552386Y-61374595D01*
X36398850Y-61292528D01*
X36232254Y-61241992D01*
X36059000Y-61224928D01*
X35134000Y-61224928D01*
X34960746Y-61241992D01*
X34794150Y-61292528D01*
X34640614Y-61374595D01*
X34544000Y-61453884D01*
X34447386Y-61374595D01*
X34293850Y-61292528D01*
X34127254Y-61241992D01*
X33954000Y-61224928D01*
X33029000Y-61224928D01*
X32855746Y-61241992D01*
X32689150Y-61292528D01*
X32535614Y-61374595D01*
X32512000Y-61393974D01*
X32512000Y-58547000D01*
X68675999Y-58547000D01*
X68675999Y-67103879D01*
M02*
