graph {
// Graph generated by WireViz 0.2
// https://github.com/formatc1702/WireViz
	graph [bgcolor=white fontname=arial nodesep=0.33 rankdir=LR ranksep=2]
	node [fillcolor=white fontname=arial shape=record style=filled]
	edge [fontname=arial style=bold]
	X1 [label=<
<table border="0" cellspacing="0" cellpadding="0">
 <tr><td>
  <table border="0" cellspacing="0" cellpadding="3" cellborder="1"><tr>
   <td balign="left">X1</td>
  </tr></table>
 </td></tr>
 <tr><td>
  <table border="0" cellspacing="0" cellpadding="3" cellborder="1"><tr>
   <td balign="left">Molex: 86053184</td>
  </tr></table>
 </td></tr>
 <tr><td>
  <table border="0" cellspacing="0" cellpadding="3" cellborder="1"><tr>
   <td balign="left">Molex PicoBlade</td>
   <td balign="left">receptacle</td>
   <td balign="left">5-pin</td>
  </tr></table>
 </td></tr>
 <tr><td>
  <table border="0" cellspacing="0" cellpadding="3" cellborder="1">
   <tr>
    <td>DTR</td>
    <td port="p1r">1</td>
   </tr>
   <tr>
    <td>TX</td>
    <td port="p2r">2</td>
   </tr>
   <tr>
    <td>RX</td>
    <td port="p3r">3</td>
   </tr>
   <tr>
    <td>+3V3</td>
    <td port="p4r">4</td>
   </tr>
   <tr>
    <td>GND</td>
    <td port="p5r">5</td>
   </tr>
  </table>
 </td></tr>
</table>
> fillcolor=white margin=0 shape=none style=filled]
	X2 [label=<
<table border="0" cellspacing="0" cellpadding="0">
 <tr><td>
  <table border="0" cellspacing="0" cellpadding="3" cellborder="1"><tr>
   <td balign="left">X2</td>
  </tr></table>
 </td></tr>
 <tr><td>
  <table border="0" cellspacing="0" cellpadding="3" cellborder="1"><tr>
   <td balign="left">Molex: 86053248</td>
  </tr></table>
 </td></tr>
 <tr><td>
  <table border="0" cellspacing="0" cellpadding="3" cellborder="1"><tr>
   <td balign="left">Molex PicoBlade</td>
   <td balign="left">receptable</td>
   <td balign="left">6-pin</td>
  </tr></table>
 </td></tr>
 <tr><td>
  <table border="0" cellspacing="0" cellpadding="3" cellborder="1">
   <tr>
    <td port="p1l">1</td>
    <td>DTR</td>
   </tr>
   <tr>
    <td port="p2l">2</td>
    <td>RX</td>
   </tr>
   <tr>
    <td port="p3l">3</td>
    <td>TX</td>
   </tr>
   <tr>
    <td port="p4l">4</td>
    <td>+3V3</td>
   </tr>
   <tr>
    <td port="p5l">5</td>
    <td>CTS</td>
   </tr>
   <tr>
    <td port="p6l">6</td>
    <td>GND</td>
   </tr>
  </table>
 </td></tr>
</table>
> fillcolor=white margin=0 shape=none style=filled]
	edge [color="#000000:#000000:#000000"]
	X1:p1r:e -- W1:w1:w
	W1:w1:e -- X2:p1l:w
	edge [color="#000000:#000000:#000000"]
	X1:p2r:e -- W1:w2:w
	W1:w2:e -- X2:p2l:w
	edge [color="#000000:#000000:#000000"]
	X1:p3r:e -- W1:w3:w
	W1:w3:e -- X2:p3l:w
	edge [color="#000000:#000000:#000000"]
	X1:p4r:e -- W1:w4:w
	W1:w4:e -- X2:p4l:w
	edge [color="#000000:#000000:#000000"]
	X1:p5r:e -- W1:w5:w
	W1:w5:e -- X2:p6l:w
	W1 [label=<
<table border="0" cellspacing="0" cellpadding="0">
 <tr><td>
  <table border="0" cellspacing="0" cellpadding="3" cellborder="1"><tr>
   <td balign="left">W1</td>
  </tr></table>
 </td></tr>
 <tr><td>
  <table border="0" cellspacing="0" cellpadding="3" cellborder="1"><tr>
   <td balign="left">5x</td>
   <td balign="left">26 AWG</td>
   <td balign="left">0.15 m</td>
  </tr></table>
 </td></tr>
 <tr><td>
  <table border="0" cellspacing="0" cellborder="0">
   <tr><td>&nbsp;</td></tr>
   <tr>
    <td>X1:1</td>
    <td>BK</td>
    <td>X2:1</td>
   </tr>
   <tr>
    <td colspan="3" border="0" cellspacing="0" cellpadding="0" port="w1" height="6">
     <table cellspacing="0" cellborder="0" border="0">
      <tr><td colspan="3" cellpadding="0" height="2" bgcolor="#000000" border="0"></td></tr>
      <tr><td colspan="3" cellpadding="0" height="2" bgcolor="#000000" border="0"></td></tr>
      <tr><td colspan="3" cellpadding="0" height="2" bgcolor="#000000" border="0"></td></tr>
     </table>
    </td>
   </tr>
   <tr>
    <td>X1:2</td>
    <td>BK</td>
    <td>X2:2</td>
   </tr>
   <tr>
    <td colspan="3" border="0" cellspacing="0" cellpadding="0" port="w2" height="6">
     <table cellspacing="0" cellborder="0" border="0">
      <tr><td colspan="3" cellpadding="0" height="2" bgcolor="#000000" border="0"></td></tr>
      <tr><td colspan="3" cellpadding="0" height="2" bgcolor="#000000" border="0"></td></tr>
      <tr><td colspan="3" cellpadding="0" height="2" bgcolor="#000000" border="0"></td></tr>
     </table>
    </td>
   </tr>
   <tr>
    <td>X1:3</td>
    <td>BK</td>
    <td>X2:3</td>
   </tr>
   <tr>
    <td colspan="3" border="0" cellspacing="0" cellpadding="0" port="w3" height="6">
     <table cellspacing="0" cellborder="0" border="0">
      <tr><td colspan="3" cellpadding="0" height="2" bgcolor="#000000" border="0"></td></tr>
      <tr><td colspan="3" cellpadding="0" height="2" bgcolor="#000000" border="0"></td></tr>
      <tr><td colspan="3" cellpadding="0" height="2" bgcolor="#000000" border="0"></td></tr>
     </table>
    </td>
   </tr>
   <tr>
    <td>X1:4</td>
    <td>BK</td>
    <td>X2:4</td>
   </tr>
   <tr>
    <td colspan="3" border="0" cellspacing="0" cellpadding="0" port="w4" height="6">
     <table cellspacing="0" cellborder="0" border="0">
      <tr><td colspan="3" cellpadding="0" height="2" bgcolor="#000000" border="0"></td></tr>
      <tr><td colspan="3" cellpadding="0" height="2" bgcolor="#000000" border="0"></td></tr>
      <tr><td colspan="3" cellpadding="0" height="2" bgcolor="#000000" border="0"></td></tr>
     </table>
    </td>
   </tr>
   <tr>
    <td>X1:5</td>
    <td>BK</td>
    <td>X2:6</td>
   </tr>
   <tr>
    <td colspan="3" border="0" cellspacing="0" cellpadding="0" port="w5" height="6">
     <table cellspacing="0" cellborder="0" border="0">
      <tr><td colspan="3" cellpadding="0" height="2" bgcolor="#000000" border="0"></td></tr>
      <tr><td colspan="3" cellpadding="0" height="2" bgcolor="#000000" border="0"></td></tr>
      <tr><td colspan="3" cellpadding="0" height="2" bgcolor="#000000" border="0"></td></tr>
     </table>
    </td>
   </tr>
   <tr><td>&nbsp;</td></tr>
  </table>
 </td></tr>
</table>
> fillcolor=white margin=0 shape=box style=""]
}
