EESchema Schematic File Version 4
EELAYER 30 0
EELAYER END
$Descr USLetter 8500 11000 portrait
encoding utf-8
Sheet 7 9
Title ""
Date "2022-01-11"
Rev "C.2"
Comp "Aurora Research Institute"
Comment1 "Northern Images Mission Payload"
Comment2 "QUALIFICATION MODEL"
Comment3 ""
Comment4 ""
$EndDescr
$Comp
L Device:R R?
U 1 1 5FE90756
P 1850 1800
AR Path="/5FE90756" Ref="R?"  Part="1" 
AR Path="/5FE8CE3E/5FE90756" Ref="R16"  Part="1" 
F 0 "R16" H 1920 1846 50  0000 L CNN
F 1 "21" H 1920 1755 50  0000 L CNN
F 2 "Resistor_THT:R_Axial_DIN0207_L6.3mm_D2.5mm_P10.16mm_Horizontal" V 1780 1800 50  0001 C CNN
F 3 "~" H 1850 1800 50  0001 C CNN
F 4 "CPF121R000FKEE6   " H 1850 1800 50  0000 R CNN "PN"
	1    1850 1800
	1    0    0    -1  
$EndComp
Text Label 2050 1550 0    50   ~ 0
+V_BurnWire
Text Label 2050 2100 0    50   ~ 0
-V_BurnWire
Wire Wire Line
	2050 2100 1850 2100
Wire Wire Line
	1850 2100 1850 1950
Wire Wire Line
	1850 1650 1850 1550
Wire Wire Line
	1850 1550 2050 1550
Text Notes 1850 1450 0    50   ~ 0
Burnwire
Text Notes 1500 1000 0    79   ~ 0
Deployable Burnwire and Detection
Text Label 5200 1900 0    50   ~ 0
+V_BurnWire
Text Label 5200 2000 0    50   ~ 0
-V_BurnWire
Wire Wire Line
	5200 2000 5800 2000
Wire Wire Line
	5200 1900 5800 1900
$Comp
L SW_AV4:AV442461 SW?
U 1 1 5FE90768
P 3300 1900
AR Path="/5FE90768" Ref="SW?"  Part="1" 
AR Path="/5FE8CE3E/5FE90768" Ref="SW1"  Part="1" 
F 0 "SW1" H 3358 2265 50  0000 C CNN
F 1 "AV442461" H 3358 2174 50  0000 C CNN
F 2 "SW-AV4:AV442461" H 3300 2200 50  0001 C CNN
F 3 "" H 3300 2200 50  0001 C CNN
	1    3300 1900
	1    0    0    -1  
$EndComp
Text Notes 2800 1450 0    50   ~ 0
Deployment Detection Switch
Text Notes 4750 1100 0    50   ~ 0
Burnwire Header
Text Label 5200 1250 0    50   ~ 0
+V_BurnWire
Text Label 5200 1350 0    50   ~ 0
-V_BurnWire
Wire Wire Line
	5200 1350 5800 1350
Wire Wire Line
	5200 1250 5800 1250
Wire Notes Line
	6750 700  6750 3050
Wire Notes Line
	1000 700  1000 3050
$Comp
L Connector_Generic:Conn_01x02 J?
U 1 1 5FE90783
P 6000 2700
AR Path="/5FE90783" Ref="J?"  Part="1" 
AR Path="/5FE8CE3E/5FE90783" Ref="J20"  Part="1" 
F 0 "J20" H 6080 2692 50  0000 L CNN
F 1 "Conn_01x02" H 6080 2601 50  0000 L CNN
F 2 "Connector_PinHeader_2.54mm:PinHeader_1x02_P2.54mm_Vertical" H 6000 2700 50  0001 C CNN
F 3 "~" H 6000 2700 50  0001 C CNN
F 4 "      61300211121" H 6000 2700 50  0000 L BNN "PN"
	1    6000 2700
	1    0    0    -1  
$EndComp
Text Notes 4700 2450 0    50   ~ 0
Test Header
$Comp
L Connector_Generic+MP:Conn_01x04_MP J?
U 1 1 5FE90790
P 6000 1350
AR Path="/5FE90790" Ref="J?"  Part="1" 
AR Path="/5FE8CE3E/5FE90790" Ref="J19"  Part="1" 
F 0 "J19" H 6078 1291 50  0000 L CNN
F 1 "Conn_01x04_MP" H 6078 1200 50  0000 L CNN
F 2 "Connector_Molex:Molex_Pico-Lock_504050-0491_1x04-1MP_P1.50mm_Horizontal" H 6000 1350 50  0001 C CNN
F 3 "~" H 6000 1350 50  0001 C CNN
F 4 "   504050-0491" H 6000 1350 50  0000 L CNN "PN"
	1    6000 1350
	1    0    0    -1  
$EndComp
$Comp
L Connector_Generic+MP:Conn_01x04_MP J?
U 1 1 5FE90796
P 6000 2000
AR Path="/5FE90796" Ref="J?"  Part="1" 
AR Path="/5FE8CE3E/5FE90796" Ref="J16"  Part="1" 
F 0 "J16" H 6078 1941 50  0000 L CNN
F 1 "Conn_01x04_MP" H 6078 1850 50  0000 L CNN
F 2 "Connector_Molex:Molex_Pico-Lock_504050-0491_1x04-1MP_P1.50mm_Horizontal" H 6000 2000 50  0001 C CNN
F 3 "~" H 6000 2000 50  0001 C CNN
F 4 "    504050-0491" H 6000 2000 50  0000 L CNN "PN"
	1    6000 2000
	1    0    0    -1  
$EndComp
$Comp
L power:GND #PWR?
U 1 1 5FE9079C
P 5700 2300
AR Path="/5FE9079C" Ref="#PWR?"  Part="1" 
AR Path="/5FE8CE3E/5FE9079C" Ref="#PWR0148"  Part="1" 
F 0 "#PWR0148" H 5700 2050 50  0001 C CNN
F 1 "GND" V 5705 2172 50  0000 R CNN
F 2 "" H 5700 2300 50  0001 C CNN
F 3 "" H 5700 2300 50  0001 C CNN
	1    5700 2300
	0    1    1    0   
$EndComp
$Comp
L power:GND #PWR?
U 1 1 5FE907A2
P 5700 1650
AR Path="/5FE907A2" Ref="#PWR?"  Part="1" 
AR Path="/5FE8CE3E/5FE907A2" Ref="#PWR0153"  Part="1" 
F 0 "#PWR0153" H 5700 1400 50  0001 C CNN
F 1 "GND" V 5705 1522 50  0000 R CNN
F 2 "" H 5700 1650 50  0001 C CNN
F 3 "" H 5700 1650 50  0001 C CNN
	1    5700 1650
	0    1    1    0   
$EndComp
Wire Wire Line
	5700 1650 5800 1650
Wire Wire Line
	5700 2300 5800 2300
Text Notes 1050 3450 0    79   ~ 0
Experimental NIM
$Comp
L APDS-9005:APDS-9007 D?
U 1 1 5FE94DA4
P 2750 4450
AR Path="/5FE94DA4" Ref="D?"  Part="1" 
AR Path="/5FE8CE3E/5FE94DA4" Ref="D3"  Part="1" 
F 0 "D3" H 2875 4875 50  0000 C CNN
F 1 "APDS-9007" H 2875 4784 50  0000 C CNN
F 2 "APDS-9007:APDS-9007" H 3150 4250 50  0001 C CNN
F 3 "" H 3150 4250 50  0001 C CNN
	1    2750 4450
	1    0    0    -1  
$EndComp
$Comp
L power:GND #PWR?
U 1 1 5FE94DAA
P 3400 4650
AR Path="/5FE94DAA" Ref="#PWR?"  Part="1" 
AR Path="/5FE8CE3E/5FE94DAA" Ref="#PWR0154"  Part="1" 
F 0 "#PWR0154" H 3400 4400 50  0001 C CNN
F 1 "GND" H 3405 4477 50  0000 C CNN
F 2 "" H 3400 4650 50  0001 C CNN
F 3 "" H 3400 4650 50  0001 C CNN
	1    3400 4650
	1    0    0    -1  
$EndComp
Wire Wire Line
	3300 4550 3400 4550
Wire Wire Line
	3400 4550 3400 4650
$Comp
L power:+3V3 #PWR?
U 1 1 5FE94DB2
P 2300 4100
AR Path="/5FE94DB2" Ref="#PWR?"  Part="1" 
AR Path="/5FE8CE3E/5FE94DB2" Ref="#PWR0155"  Part="1" 
F 0 "#PWR0155" H 2300 3950 50  0001 C CNN
F 1 "+3V3" H 2315 4273 50  0000 C CNN
F 2 "" H 2300 4100 50  0001 C CNN
F 3 "" H 2300 4100 50  0001 C CNN
	1    2300 4100
	1    0    0    -1  
$EndComp
Wire Wire Line
	2300 4100 2300 4250
Wire Wire Line
	2300 4250 2450 4250
$Comp
L Device:R R?
U 1 1 5FE94DBA
P 3600 4400
AR Path="/5FE94DBA" Ref="R?"  Part="1" 
AR Path="/5FE8CE3E/5FE94DBA" Ref="R17"  Part="1" 
F 0 "R17" H 3670 4446 50  0000 L CNN
F 1 "36K" H 3670 4355 50  0000 L CNN
F 2 "Resistor_SMD:R_0805_2012Metric_Pad1.15x1.40mm_HandSolder" V 3530 4400 50  0001 C CNN
F 3 "~" H 3600 4400 50  0001 C CNN
	1    3600 4400
	1    0    0    -1  
$EndComp
$Comp
L Device:C C?
U 1 1 5FE94DC0
P 3950 4400
AR Path="/5FE94DC0" Ref="C?"  Part="1" 
AR Path="/5FE8CE3E/5FE94DC0" Ref="C8"  Part="1" 
F 0 "C8" H 4065 4446 50  0000 L CNN
F 1 "1uF" H 4065 4355 50  0000 L CNN
F 2 "Capacitor_SMD:C_1206_3216Metric_Pad1.42x1.75mm_HandSolder" H 3988 4250 50  0001 C CNN
F 3 "~" H 3950 4400 50  0001 C CNN
	1    3950 4400
	1    0    0    -1  
$EndComp
Wire Wire Line
	3300 4250 3400 4250
Connection ~ 3600 4250
Wire Wire Line
	3600 4250 3950 4250
Wire Wire Line
	3600 4550 3950 4550
Wire Wire Line
	3950 4550 3950 4650
Connection ~ 3950 4550
$Comp
L power:GND #PWR?
U 1 1 5FE94DCC
P 3950 4650
AR Path="/5FE94DCC" Ref="#PWR?"  Part="1" 
AR Path="/5FE8CE3E/5FE94DCC" Ref="#PWR0156"  Part="1" 
F 0 "#PWR0156" H 3950 4400 50  0001 C CNN
F 1 "GND" H 3955 4477 50  0000 C CNN
F 2 "" H 3950 4650 50  0001 C CNN
F 3 "" H 3950 4650 50  0001 C CNN
	1    3950 4650
	1    0    0    -1  
$EndComp
$Comp
L Device:R R?
U 1 1 5FE94DD2
P 2050 4650
AR Path="/5FE94DD2" Ref="R?"  Part="1" 
AR Path="/5FE8CE3E/5FE94DD2" Ref="R15"  Part="1" 
F 0 "R15" H 2120 4696 50  0000 L CNN
F 1 "20K" H 2120 4605 50  0000 L CNN
F 2 "Resistor_SMD:R_0805_2012Metric_Pad1.15x1.40mm_HandSolder" V 1980 4650 50  0001 C CNN
F 3 "~" H 2050 4650 50  0001 C CNN
	1    2050 4650
	1    0    0    -1  
$EndComp
Wire Wire Line
	2050 4500 2050 4350
Wire Wire Line
	2050 4350 2450 4350
$Comp
L power:GND #PWR?
U 1 1 5FE94DDA
P 2050 4900
AR Path="/5FE94DDA" Ref="#PWR?"  Part="1" 
AR Path="/5FE8CE3E/5FE94DDA" Ref="#PWR0157"  Part="1" 
F 0 "#PWR0157" H 2050 4650 50  0001 C CNN
F 1 "GND" H 2055 4727 50  0000 C CNN
F 2 "" H 2050 4900 50  0001 C CNN
F 3 "" H 2050 4900 50  0001 C CNN
	1    2050 4900
	1    0    0    -1  
$EndComp
Wire Wire Line
	2050 4900 2050 4850
Wire Wire Line
	1750 4350 2050 4350
Connection ~ 2050 4350
Wire Wire Line
	3950 4250 4200 4250
Connection ~ 3950 4250
Text Notes 1050 3600 0    50   ~ 0
Ram Face below deployable
$Bitmap
Pos 5900 4500
Scale 1.200000
Data
89 50 4E 47 0D 0A 1A 0A 00 00 00 0D 49 48 44 52 00 00 02 49 00 00 01 03 08 02 00 00 00 AE C9 07 
F4 00 00 00 03 73 42 49 54 08 08 08 DB E1 4F E0 00 00 00 09 70 48 59 73 00 00 12 5C 00 00 12 5C 
01 68 C4 36 89 00 00 20 00 49 44 41 54 78 9C EC 9D 7B 3C D4 F9 F7 C7 CF 7C 8C 6B 43 28 99 88 C8 
C8 36 4A 88 16 49 92 ED A6 22 5D 7C BF BB B6 14 F9 76 A7 AB 7E 5B 4A A9 DD AD DD D0 75 DB 56 45 
B7 DD B6 12 DD 94 54 2A 49 91 B0 28 66 A4 5C 32 E5 32 13 93 CB CC F8 CC EF 8F 0F B3 53 A9 B6 B6 
31 9F 19 EF E7 C3 1F 9F F9 CC 7B DE EF 33 18 2F E7 BC CF FB 1C 8A 58 2C 06 04 02 81 40 20 94 08 
4C DE 06 20 10 08 04 02 F1 99 41 DA 86 40 20 10 08 65 03 69 1B 02 81 40 20 94 0D A4 6D 08 04 02 
81 50 36 90 B6 21 10 08 04 42 D9 40 DA 86 40 20 10 08 65 03 69 1B 02 81 40 20 94 0D A4 6D 08 04 
02 81 50 36 90 B6 21 10 08 04 42 D9 40 DA 86 40 20 10 08 65 03 69 1B 02 81 40 20 94 0D A4 6D 08 
04 02 81 50 36 90 B6 21 10 08 04 42 D9 40 DA 86 40 20 10 08 65 03 69 1B 02 81 40 20 94 0D A4 6D 
08 04 02 81 50 36 90 B6 21 10 08 04 42 D9 40 DA 86 40 20 10 08 65 83 AC DA C6 2F 4E 5A E7 CD 30 
33 B7 09 DA 97 CD 11 48 3D 81 F3 8B 8F 06 33 CD 19 CC 79 BB B2 38 38 00 40 43 71 DC 02 9B BF 47 
BE 3D 00 81 40 20 10 DD 0B 72 6A 5B 0B EB 54 64 78 DD 9C 9B 8F 1F C4 59 DF D8 F0 7B 1E 5F F2 0C 
CE 3A BD FA 02 F3 E8 FD DC A3 36 97 36 5F 2A C5 01 67 25 AC 39 C1 8C 2B B8 1F 67 7D 63 CB A5 32 
FC AD 01 08 04 02 81 E8 6E 90 53 DB 34 2C 03 8E E6 FF E2 63 84 E9 DA 8C 1A FE BC B0 4A A2 6D 78 
E9 9D 44 18 E7 65 AB 4F B3 1D 3B 13 6E 64 94 F2 4A 6F DF 00 BF B1 B6 34 7D DB 49 E3 E0 CC 1D 16 
EB 8D 01 2D F2 7C 1F 08 04 02 81 90 07 E4 D4 B6 0E F0 67 E9 49 E9 86 D6 C6 34 C9 8D 46 6E 85 81 
AE 36 06 80 F5 D0 35 78 CE AE E2 35 72 1B 0C 74 7B 60 00 98 B6 AE 01 AB AC BC B2 F6 F5 01 FC F7 
CD 8F 40 20 10 08 65 84 C4 DA 26 CA 89 19 36 22 28 5E 73 E6 A4 21 1D DA 26 AA 2D 2F E3 B5 5F EB 
9A 58 6B 3E E7 55 56 14 D6 B6 DF E8 6D CA 54 AF 2E C8 2B 79 7D 00 F2 DB 10 08 04 A2 DB 41 95 B7 
01 EF 86 6A 1F FA 20 6F 42 5C D8 8C 95 7F B8 9C 09 B0 24 B1 0A 23 10 08 85 80 61 66 2E 6F 13 10 
9D C0 7E 52 F6 D9 E7 24 B1 B6 01 00 E8 58 F9 FA 79 6F 4B 28 7A E1 6F 49 A7 02 50 7B 9B 9A EB B6 
3F C5 AB 28 6C 36 B4 EB 67 62 DD BB FD 46 6D 79 51 6B DF 19 43 B5 75 8B A4 07 68 BC 6B 6A E9 DF 
F2 79 CB C2 64 F4 06 10 08 C4 3F 27 2C 64 BE AC 97 90 C5 9F 51 C4 BF 41 46 FF 70 90 5C DB 00 00 
40 5D AF A7 56 BB D7 86 69 EB 99 D4 F0 1A 71 A0 C3 2B 5E 8D 21 C3 58 57 FB 89 4E 0D EF 15 0E 00 
8D BC 1A 4B 73 D3 7E F0 FA 00 DA BB 66 95 FC 8A 33 CC CC BB E0 13 85 40 20 DE CF D6 1D FB E4 6D 
02 42 79 20 67 A4 AF 36 6D DD 57 5E D1 59 7C 68 28 4E 38 91 EC 64 37 90 D6 A1 6D 16 CE 3E 70 F9 
42 6E 3D 3F 37 E5 4F 18 E5 62 A1 6B 31 62 14 9C 48 C9 E5 D7 E7 9E BF 0C 53 9D 2D 2D DF 18 F0 4E 
BF 0D 81 40 20 10 CA 0A 39 B5 AD B7 DB E2 4D E3 0B 97 DA 9A 0D 9D 91 3E 74 DF 86 89 46 18 3F 27 
7A A2 43 74 8E 08 B3 9C B6 CD AB C8 7F 98 AD 7F FE F8 75 E3 2D 30 C0 2C 7D 7F F4 2B 0A 18 3C 2C 
A0 70 D4 DA F1 E6 D8 5B 03 10 08 04 02 D1 DD A0 88 C5 62 79 DB 20 67 18 66 E6 28 04 8F 40 C8 9D 
AD 3B F6 C9 7A 77 A0 DB 7C D8 71 7E CE 1E BF BD 26 07 62 7D E8 00 C0 2F 8C 0F 0D 8A 4C 05 8F E5 
51 9B 16 3B D3 49 F6 1F BF 8C 7E 28 24 7B 97 08 04 02 A1 4C 70 12 83 CD CC 19 92 AF 09 5B D2 38 
02 80 CA A4 A0 69 31 39 1F 73 FA 96 93 18 6C 17 9D 23 FA 27 43 05 9C AC FD CB FD A3 8A DB 1F B6 
B0 4E FD FC A7 F5 CE DC 82 9D CC E4 FD 97 4B 5B 3E 30 95 28 27 C6 6E E2 C7 D9 46 4A 90 B6 21 10 
08 84 4C 99 BC 3D 93 C5 7E 52 C6 7E 7C 3B 76 F8 BD A5 BB 33 1A 64 BA 1A E7 E2 FA F5 95 CE F3 3C 
B5 88 87 F8 D3 8C 33 30 73 D2 10 1A 6D 88 97 1F 24 DE 7E DA 4D 0A 11 2A 42 9E 24 02 81 50 46 F8 
F5 F5 FC FA 3A E2 BA B1 B6 56 E5 51 81 7C ED 91 39 98 91 AB B7 BB DA 5E 5E 93 4C 57 A1 FB EC 4F 
F6 11 E5 44 EF 29 04 00 00 FC 15 B7 5C DB 5C 9B 0A 00 DA BA DA A5 D9 D5 0A EF 91 FD 33 90 B6 21 
10 88 CF 89 A0 B9 B9 BE AA 12 00 AA 8A DA 8F 9A 36 70 AA 5F 56 56 12 D7 DC C7 A5 DC 07 D9 C4 B5 
A6 B1 49 5F 27 17 E2 5A 5D A7 67 97 5B DA E5 E0 CF D2 93 EE 0F 9F 34 AD 8F E4 0E BF 38 E9 C7 D5 
2B 8E E6 83 D6 F8 F0 33 5B 67 1B 57 C4 87 06 45 A6 72 00 B4 AC 66 EF 3C B0 61 0C BD 89 D8 2A EB 
E3 1F 31 52 04 2A 92 D7 89 72 A2 9D 7C 77 76 D4 60 02 DD 90 D3 99 CB EC 3B FF 6B 5E 5B 5E C4 05 
73 00 E2 7C B0 DA 79 89 B2 36 14 C7 AD 5B 53 E6 FD CB 06 C7 C6 B3 DB 43 43 0F 17 03 DD 23 22 36 
CA 1F 00 84 75 B9 87 82 FD A3 AE F5 0F 8A 3D B4 CA 1D 2E 06 7B 9C 80 2F 9F 5C BB 0E 63 23 C2 1C 
D3 B7 6E 49 05 8F 88 D8 A8 00 EB 77 1E B1 22 01 48 DB 10 08 C4 A7 C0 61 B3 00 A0 F6 E9 D3 D6 57 
AF 08 F5 92 E8 D6 80 69 7E 00 D0 E7 8B 41 EA 34 1A 00 18 58 30 06 79 8C 21 5E A5 A6 A9 A5 6F 6C 
FC F6 6C 82 66 41 61 F8 6F 5D 67 3D 00 00 D8 3A EE 94 D1 CC B9 59 4B A5 1E 9D 5B E1 74 6E 05 00 
68 79 86 C4 FF BC DB 91 8E 01 A1 F4 92 86 27 13 B1 9B 3F 05 86 C6 0F 39 B9 68 76 EC 9D D9 00 D0 
90 16 EE 14 7B D9 7F 98 CB ED 1F B6 AB 86 FE 71 80 BD 21 70 4F B1 DE D2 C5 1D 33 52 ED 97 65 3F 
59 F6 2F 0C 6C AA B8 BE 2B EE AE C7 9E 3D 63 FA 94 C6 2D F8 AE 21 38 A3 78 32 76 6B D3 9C CD B1 
83 E6 02 B0 7F DF 74 DC 63 7D 74 78 D6 9E E3 99 B3 DD 9D 00 9A 04 CC 25 17 A2 96 1C F3 F3 3D 32 
30 E1 42 EE C2 63 7E 81 29 25 FE D6 EF 90 53 52 40 62 D3 10 08 84 FC 90 B8 5F D0 21 60 AD 7C FE 
8B 47 0F 01 E0 F1 E9 13 00 A0 67 E7 A0 37 C0 A2 67 BF 7E 3A F4 BE 84 7A BD 4B B7 3E B4 90 A0 20 
B5 20 6B EF 3D CC A0 AB 77 82 5E 57 20 D9 31 79 7B 66 94 37 AD 38 3E 74 D5 DD 2A 01 38 4A EE D7 
14 A5 D7 7B FB BB 1A 61 6A E0 3A E1 AB 65 71 15 2F 9F E1 07 37 CE 8D 4A 6D 02 00 18 B4 B8 B1 BA 
28 BD C2 69 D2 08 87 31 53 0F C4 41 E0 A7 69 59 6F 53 A6 1E 71 25 AA 2D 2F 13 D0 ED B4 80 07 DC 
D8 15 F3 EC 17 27 2C 32 C2 44 9C C2 9C 52 5F DF D1 46 6A 18 7C 39 65 EC DE 7D E5 3C 26 E1 C0 05 
F4 2F 79 79 28 91 A8 8C A1 E7 EA 66 A3 4F AB 35 31 96 5C 00 D9 D3 4D 91 B6 21 10 CA 0C BF BE BE 
AE B2 A2 F6 C9 93 F7 8C 79 51 52 D2 DA F0 92 B8 26 74 8B 80 70 BF 00 80 10 30 75 1A CD 69 D6 6C 
00 98 F8 7F 6B D5 34 35 FF BD 6D 12 55 B3 F2 FD E2 9B E3 FE 7B 0E 1F FD F7 73 92 17 9A F5 B7 9B 
82 EF 7A 1D B8 E9 B1 C1 5D A7 D3 11 C2 BA 2B BB C3 93 6D E2 0A 7E B5 D7 C8 8D 71 5C F7 9E C9 3E 
22 26 89 F5 D0 33 6D E4 35 8A 80 0E 8D BC 46 0B 46 5F 1A F0 40 6B F2 DA 95 EA D1 1B 13 BD CE F8 
6B 77 F2 1A 3D A6 4D 7F 1A 00 80 B0 82 FB 4A 41 73 4F 90 B6 21 10 4A 45 7D 55 55 63 5D 6D ED 93 
27 15 D9 59 D5 99 19 00 D0 D7 C9 C5 C4 C1 F1 3D 2F 61 B8 BA 6A F7 6E AF CB FA B9 74 EB FD BC A1 
6A 34 3D 32 6F DC 7C 36 30 23 F7 A0 59 27 22 13 58 6E 01 3D 00 00 C0 80 E9 AA 1F 7E 22 7D 81 DB 
44 2C 3D F9 0A 7D E0 0A BD 5A 35 33 13 BA 96 88 73 33 F9 0A 17 BE 02 03 A6 AB 49 F8 F9 E4 6B C0 
D9 1E 7A B0 58 EF 6F 2F F3 23 62 92 58 7F 97 A9 10 7A FE AF 69 F3 E0 C2 09 F0 D9 D9 1F 83 87 A0 
6E 3E D4 7F 5A 64 D6 FC E8 B3 1E 3B AD ED 2D BE 4B BA BE D0 65 32 76 F7 6C 8A 1A 33 42 F7 C3 73 
2A 02 48 DB 10 08 C5 83 C3 66 49 32 35 08 2A B2 B3 88 ED 2E 22 54 68 E2 E0 68 37 7D 86 67 E8 72 
9A BE BE BC 8C EC 94 EE A9 6A 1D E8 DA FA F9 F5 F5 DA 77 6E 2C B1 71 A6 61 39 3D 3C 92 BD DA 6D 
C0 32 22 97 C4 C3 B8 62 C9 B9 20 B7 01 6B AD FC 67 D9 0F 12 D6 35 00 31 20 38 14 FC 23 16 19 EE 
F8 B4 45 35 2C A7 AF 9C 19 1A 64 3B 18 3C 96 47 6D B2 D0 80 17 00 00 80 99 4E 5E 3E 33 6E 69 52 
FE C9 6F B7 7D 5F 16 EA 62 B5 02 E8 1E 11 B1 2B 87 B5 C6 7E AE B7 2B 57 50 5D 92 EE 53 AA 00 A1 
D8 08 9A 9B 4B 32 6E 57 3C 78 F0 F0 D0 7E 3D 3B 07 AB 89 93 88 4C 0D 02 9D 3E 7D B4 7B F7 A6 33 
2C E5 68 E1 FB 91 56 35 87 E9 0E 6F AB 1A AA 4B D2 3D 91 D1 0F 05 F9 6D 08 04 D9 E1 B0 59 0F AF 
5D 7D B0 63 FB A0 39 C1 0C 57 D7 91 73 03 C9 E6 8D BD 9F EE ED AB 21 E4 03 D2 36 04 82 A4 08 9A 
9B 9F E6 E5 A6 EF DE 09 00 36 33 FF 13 7C EB AE 62 49 1A 20 55 43 C8 0F A4 6D 08 04 E9 10 34 37 
FF 75 25 E5 DE EE 1D 7D 9D 5C 5C 17 2F B5 74 72 96 B7 45 1F 0D 9F CB 2F 49 2F 41 AA 86 90 17 48 
DB 10 08 12 C1 AF AF CF 3A F5 E7 A3 53 7F 9A 8D 9D 30 75 EF AF 64 DE 3F 7B 17 7C 2E 3F FB 54 76 
DE EE DC A1 8B 6D 91 AA 21 E4 05 D2 36 04 82 14 10 AA F6 60 C7 76 BB 90 15 DF FE 71 4A E1 C2 8F 
00 C0 61 73 1E 5D 7F 44 A8 5A 60 5A 10 52 35 84 1C 21 6B 1F 00 FC 59 DA 06 6F 86 99 39 83 B9 20 
BE 58 BA 6A 76 6D DA BA 51 1D 0D 23 96 26 71 44 00 0D C5 71 0B 6C CC CC 6D 82 F6 65 73 04 00 38 
BF F8 68 30 D3 9C C1 9C B7 2B 8B A3 A0 A7 0E 11 DD 0A 0E 9B 95 B8 7E DD 91 FF 4C 57 A7 69 07 DF 
BA 3B 3A 78 BE C2 09 1B 87 CD 39 BB 21 29 69 49 A2 0E 5D 67 41 E6 42 F7 79 EE 48 D8 10 F2 85 9C 
7E 1B DE 70 F3 D7 95 55 33 2E 14 9C D0 4E FD BF F1 AB 13 5C CE 04 58 B6 AB 70 CB 4B 0E 78 C4 DC 
DA EF D3 AF 7D 28 2B 61 CD 09 66 5C C1 16 F8 6D 51 E4 A5 D1 A7 67 C1 E9 D5 17 98 47 EF 47 C1 31 
BF 8D 97 C6 FF FD 42 04 82 74 70 D8 AC CC C3 F1 D5 99 19 C3 17 87 74 CD A1 E9 CF 0E 3B 93 95 B1 
37 03 00 86 05 38 8C 5F 33 41 4D 53 4D DE 16 21 10 00 64 D5 B6 26 F6 83 02 FB 49 F3 AC 68 1A E0 
34 CA E9 BB 07 55 7C DC 52 07 03 00 10 BD 28 BB DF 83 B9 50 72 72 BE A5 F4 F6 0D F0 5B 63 4B D3 
87 49 E3 60 E5 1D 96 33 24 C2 B8 6D B6 FA 34 18 3B 13 7E CC 28 FD 8F A5 A5 86 FC DE 08 02 D1 39 
8A AE 6A 82 66 41 79 DE 53 42 D5 5C 16 BA 30 9C 14 6F 5F 10 A1 DC 90 D3 A9 A1 D9 2F 3B 4D 78 66 
78 23 AF 46 5D 57 47 AB C3 CE DA F2 22 EE AB 2B 6B DD 18 66 CE C1 71 85 7C 10 35 72 1B 0C 74 7B 
60 00 98 B6 AE 01 AB AC BC B2 B6 C2 40 57 1B 03 C0 7A E8 1A 3C 67 57 75 93 5E 45 08 85 81 88 40 
9E 59 F8 3F 13 07 C7 C0 A4 0B C3 A6 78 2B 96 B0 09 9A 05 39 E7 72 0E F9 1E 2C 4A 2E 1A BB 7E DC 
AC C3 B3 91 B0 91 0F 9C 9F B3 CB 2B 28 91 03 00 80 37 A4 6D B0 69 DF C7 B1 0F 4E AC 94 B7 6D 5D 
04 39 B5 4D 02 2F F7 FC B9 52 2F 3B 46 87 7B 89 37 F2 6A B4 98 33 63 AE E5 5E 5E 04 DB 7E 38 CD 
AA AE 28 AC 6D 7F AE B7 29 53 BD BA 20 AF A4 A3 7E A8 AE 89 B5 E6 73 5E 8B 1C AC 46 20 3A 83 5F 
5F 7F 7D FF 3E C5 55 35 3E 97 9F F6 5B DA 21 DF 83 35 25 35 DE BB 7C A6 6C F4 A6 33 E8 F2 36 8A 
F4 70 12 83 DB 75 C5 9C 61 66 CE 98 B0 25 8D 23 00 A8 4C 0A 9A 16 93 F3 31 FF 79 73 12 83 ED A2 
73 44 FF 64 A8 80 93 B5 7F B9 7F 54 71 FB 43 BC 89 C7 6D F2 8C 4E 7F 52 C6 7E 92 B3 DF A7 DF 07 
A6 12 E5 C4 D8 4D FC 38 DB 48 09 99 B5 0D E7 E7 1C 09 FF CD 34 72 A1 8B A4 6A 36 66 19 70 A6 E8 
97 D9 56 BA 34 AB F1 5F FB D6 DF 2E 7C 2E 4F 03 11 88 7F 06 A1 6A 47 FE 33 5D 87 DE 57 71 55 ED 
80 7B 2C 00 7C 73 DC 7F DC 8A 71 48 D5 3E 86 C9 DB 33 59 EC 27 65 EC C7 B7 63 87 DF 5B BA 3B A3 
E1 C3 2F F9 17 70 2E AE 5F 5F E9 3C CF 53 AB FD 71 CB B3 32 B6 AE B5 69 6F 99 2E 4A 3E C8 B9 DF 
06 00 80 73 AE FF BC F6 54 FF EF 8F 4C 36 EA 74 77 5A 43 A7 97 26 40 2F 13 EB 8E 1F 59 6D 79 51 
6B DF 19 43 B5 75 DB 4B C8 F2 2A 0A 9B 0D ED DE B9 D9 C6 30 33 EF F4 1A 81 F8 BC 8C 56 C3 2C A9 
D8 D3 36 FC B6 00 DF BE 34 54 DE E6 7C 1C 5F 50 07 D9 6B 0C EB 89 F5 2C 11 94 14 08 FE DA B5 65 
07 6C 91 D5 5A F3 96 85 C9 6A 6A 92 80 19 B9 7A BB AB ED 95 74 BE 96 0D 74 9F FD C9 3E A2 9C E8 
3D 85 C4 63 5E 45 21 B7 57 55 98 FD 0E 36 78 46 9E 8C F9 DA 4A A6 AB 93 06 B2 6A 1B BF F0 C8 BA 
4D 59 63 7F 3E E1 63 FA 0E D7 92 90 2E 6D 6D 3D 9D 1A A2 7B 5E 23 AF C6 D2 DC B4 1F 98 D4 F0 1A 
71 A0 C3 2B 5E 8D 21 C3 F8 9D 89 C8 92 EA 9C A8 7C 2A 42 46 70 D8 AC B4 9D 3B 00 60 6C D8 FF 7D 
42 D3 4E F9 C2 61 73 EE 1D B9 5B 7D AF DA 71 E1 F0 C1 9E 83 BB 20 01 72 EB 8E 7D B2 5E 42 CE E0 
CF D2 93 EE 0F 9F 34 AD 8F E4 0E BF 38 E9 C7 D5 2B 8E E6 13 7D 00 66 1B 57 C4 87 06 45 A6 72 00 
B4 AC 66 EF 3C B0 61 0C BD A9 30 3E 34 28 32 B5 8F 7F C4 48 11 A8 48 5E F7 11 FD DB F0 57 BC 1A 
B5 FE 7E 31 A7 A7 C3 E9 D0 85 6B 4E 39 9E 1E 4F 3C D1 50 1C B7 6E 4D 99 F7 2F 1B 1C 1B CF 6E 0F 
0D 3D 5C 4C B4 24 F5 07 00 61 5D EE A1 60 FF A8 6B FD 83 62 0F AD 72 87 8B C1 1E 27 E0 CB 27 D7 
AE C3 D8 88 30 C7 F4 AD 5B 52 C1 23 22 36 2A C0 9A CC E7 3C C8 A9 6D 82 67 A9 B1 DB 6B E6 9C 0E 
71 7C FD 7B 87 37 A4 6D 74 DD DA 3B EE E4 82 81 25 67 F6 67 38 AE 8A 32 B2 30 1E 05 4B 53 72 A7 
1B C0 F9 CB 30 35 C2 D2 12 7C 20 E2 42 EE 94 20 48 F9 13 46 C5 58 A0 24 49 84 1C 10 34 37 67 9F 
49 C8 8B 3B 30 32 EC BB C1 63 3C E5 6D CE C7 C1 CE 64 E5 FC 9E D3 C2 6D 51 FA B4 FE DA 7E 3B 65 
34 73 EF 4A E9 8E DE E7 56 38 9D 5B 01 00 5A 9E 21 F1 3F EF 76 A4 63 40 24 74 B4 B0 4E 45 86 D7 
CD B9 F9 78 22 76 F3 A7 C0 D0 F8 21 27 17 CD 8E BD 33 1B 00 1A D2 C2 9D 62 2F FB 0F 73 B9 FD C3 
76 D5 D0 3F 0E B0 37 04 EE 29 D6 5B BA B8 63 C6 8F E9 DF 66 35 3B E9 C6 6C 00 00 7C AA BF FB F6 
A3 0F 5F 8C 07 80 A6 8A EB BB E2 EE 7A EC D9 33 A6 4F 69 DC 82 EF 1A 82 33 8A 27 63 B7 36 CD D9 
1C 3B 68 2E 00 FB F7 4D C7 3D D6 47 87 67 ED 39 9E 39 DB DD 09 A0 49 C0 5C 72 21 6A C9 31 3F DF 
23 03 13 2E E4 2E 3C E6 17 98 52 E2 6F FD 0E 39 25 05 E4 34 ED 45 D6 F9 1B 4D 79 89 13 06 6C 04 
00 80 C9 DB 33 37 99 FC FE 75 30 6C CE 0C 59 70 30 3F 3C 60 B0 65 93 96 67 48 7C A4 9B 0E 86 E9 
F8 FE E8 17 36 63 F0 30 F0 0C 3B B8 D9 1C C3 A8 D3 B6 79 2D 9F 3A CC 16 3C 43 E2 23 2D C8 BC 9F 
88 50 52 9E E6 E7 5D DB F6 A3 DE 00 0B 85 2B 2F 22 39 AC D6 4D D2 FA 5F 57 20 D9 31 79 7B 66 94 
37 AD 38 3E 74 D5 DD 2A 01 FC DD 26 B6 A6 28 BD DE DB DF D5 08 53 03 D7 09 5F 2D 8B AB 78 F9 0C 
3F B8 71 6E 54 6A 13 00 C0 A0 C5 8D D5 45 E9 15 4E 93 46 38 8C 99 7A 20 0E 02 FF 99 96 BD 1B 4C 
4B 47 B7 FD FF 14 6E EC 8A 79 F6 8B 13 16 19 61 22 4E 61 4E A9 AF EF 68 23 35 0C BE 9C 32 76 EF 
BE 72 1E 93 70 E0 02 FA 97 BC 3C 94 48 44 C5 F4 5C DD 6C F4 69 B5 26 C6 92 0B 20 7B AC 8B 9C DA 
D6 CF 3B 36 C7 FB 8D 7B CB 2E 66 03 00 80 C3 D2 DF F2 5F FB 85 D4 B1 0A F8 25 3F E0 EF C7 34 2B 
FF FD 45 FE 32 B6 10 81 E8 04 7E 7D FD AD 83 07 9E A4 24 4F FC 39 BA BF CD 50 79 9B F3 4F 11 34 
0B 58 77 58 F7 E3 B2 35 F4 34 BA 89 AA C9 01 9A F5 B7 9B 82 EF 7A 1D B8 E9 B1 C1 5D A7 D3 11 C2 
BA 2B BB C3 93 6D E2 0A 7E B5 D7 C8 8D 71 5C F7 9E C9 3E 22 26 29 F5 A2 DA F2 32 01 DD 4E 0B 78 
A0 35 79 ED 4A F5 E8 8D 89 5E 67 FC B5 3B 19 A9 C7 B4 E9 4F 03 00 10 56 70 5F 29 68 75 27 E4 D7 
20 10 9F 87 82 AB A9 47 FE 33 BD A7 91 51 60 D2 05 45 11 36 C9 61 B5 D2 1B EC B1 EB C7 CD DC E1 
87 84 4D 76 60 46 EE 41 B3 4A 76 24 B0 3A D4 C2 80 E9 AA 9F 74 22 FD 19 2E E0 A4 27 5F A1 0F 34 
D3 53 51 33 33 A1 6B 89 38 E9 C9 57 B8 C4 00 93 CC F3 C9 D7 12 B7 06 06 C4 16 4B 4D 45 B5 5F 96 
FD A4 8C DD F1 95 FD 1E 61 6B 48 0B 67 4E 8B C9 E1 01 FF C1 1F BF 3E F4 F6 1C AC 03 00 EA E6 43 
FD 97 44 1A FD 19 7D F6 59 6F 6B 7B 8B 84 A4 EB CF 04 38 E7 EE D9 14 35 A6 A9 EE BB 66 52 2C C8 
E9 B7 21 10 8A 44 7D 55 D5 CD 5F 7F E1 3E 2E 55 A0 CA FD 92 1E 34 7D 87 F7 F5 DE E5 83 72 FA BB 
04 5D 5B 3F BF BE 5E FB CE 8D 25 36 CE 34 2C A7 87 47 B2 57 BB 0D 58 46 E4 92 78 18 57 2C 39 17 
E4 36 60 AD 95 FF 2C FB 41 C2 BA 06 20 06 04 87 82 7F C4 22 C3 1D 9F B4 A6 8E CB A2 F8 47 EB FD 
ED 18 4D 74 8F E5 51 9B DC 7A C3 0B 00 00 C0 4C 27 2F 9F 19 B7 34 29 FF E4 B7 DB BE 2F 0B 75 B1 
5A 01 74 8F 88 D8 95 C3 5A 63 3F DB FB 95 27 14 B1 58 2C 6F 1B E4 0C CA 93 44 7C 32 82 E6 E6 DB 
47 E2 1F 9D FA 73 F8 E2 90 61 53 DE 8C A3 93 93 F2 FC F2 87 57 1E 3E 3A FC 70 E8 62 5B 87 E9 0E 
E4 29 6A BC 75 C7 BE B0 90 F9 32 5D 02 7D D8 49 88 8C 7E 28 C8 6F 43 20 3E 91 FB 67 93 EE ED DE 
F1 C5 F4 99 0A 91 33 42 38 6A 05 27 FF 02 80 61 01 0E A3 17 8E 56 E2 04 48 04 02 69 1B 02 F1 D1 
B0 32 EF A4 EF DE A9 37 C0 42 21 82 90 1C 36 27 2F 29 8F 70 D4 C6 AE 47 25 45 10 DD 02 A4 6D 08 
C4 47 40 D4 EF E7 3E 2E 75 5D BC D4 D2 C9 59 DE E6 7C 00 41 B3 20 E3 68 46 71 C2 23 C7 85 C3 47 
67 22 47 0D D1 8D 40 DA 86 40 FC 23 88 BE D8 C4 D6 9A 42 74 A5 61 67 B2 AE 6E BC 6A E6 69 FE CD 
71 7F F2 6C AA 21 10 5D 03 D2 36 04 E2 03 08 9A 9B FF BA 92 42 6C AD 05 26 5D 20 BF AA D5 57 D5 
A7 EF BF C5 2B E3 A1 04 48 44 B7 05 69 1B 02 F1 3E 24 45 46 FC 0E 1D 51 88 9A 90 39 E7 72 6E AD 
BB 39 72 B3 DB 94 8D 8A 91 B7 89 40 C8 02 A4 6D 08 44 E7 08 9A 9B AF EE D9 AD 40 45 46 38 6C CE 
CD 5D 37 00 E0 DB 8B B3 F4 8D C9 9E B7 89 40 C8 14 A4 6D 08 44 27 3C CD CF BB B8 72 D9 D0 80 40 
85 08 42 0A 9A 05 39 89 F7 F3 0E E7 B9 AE 1A 69 ED 61 2D 6F 73 10 08 F9 83 B4 0D 81 78 0D C2 5D 
E3 E4 E6 28 44 7E 3F 00 70 D8 9C 94 4D 97 75 CD 75 51 CE 08 02 00 00 7F 96 B6 71 41 50 7C 47 DF 
1C 0B 76 8C E3 B4 DD DC 8E 67 3D A3 D3 63 7D BA C3 1E 2C AA 27 89 40 FC CD D3 FC BC 03 DE 5E 3D 
8D 8C BE F9 ED A0 42 08 1B 3B 93 75 62 DA 1F C3 02 1C A6 6C F4 46 C2 46 46 38 89 C1 66 E6 0C C9 
D7 84 2D 69 1C 01 40 65 52 D0 B4 98 1C FE C7 CD 63 17 9D 23 FA E0 38 BC E1 E6 AF 2B AB 66 5C 28 
78 78 F3 7B 8D ED AB 13 58 98 7D E8 83 32 F6 93 32 F6 E3 1B DB 27 0C 1A 3B C9 BE CF FB A7 12 E5 
C4 D8 4D FC 38 DB 48 09 F2 DB 10 08 00 05 74 D7 00 20 ED B7 B4 E2 84 47 68 77 8D F4 4C DE 9E 19 
E5 4D A7 12 1E D5 D2 DD 19 E9 9B 19 32 5B AB 89 FD A0 C0 7E D2 3C 2B 9A 06 38 8D 72 FA EE 41 15 
1F B7 D4 C1 00 70 7E 6E D2 FE 27 13 22 3D FB 61 FC 1C 99 AD 4E 22 C8 EA B7 E1 CF D2 36 78 33 CC 
CC 19 CC 05 F1 C5 0D D2 4F F0 8B 8F 06 33 CD 19 CC 79 BB B2 38 38 00 40 43 71 DC 02 1B 33 73 9B 
A0 7D D9 1C 41 67 03 10 88 0F 50 70 35 55 B1 DC 35 3E 97 FF 67 C8 89 17 05 CF E7 24 CC 45 C2 A6 
30 60 46 AE DE EE 6A 1C 5E 93 0C D7 A0 D9 2F 3B BD DF A7 1F 00 E0 8D BC 1A 75 5D 1D 2D E2 8F 7C 
7D 76 C2 59 35 BF B1 B6 34 B2 FE CD FF DC 90 F3 7D BE E5 56 4B 34 0A 67 9D 5E 7D 81 79 F4 7E EE 
51 9B 4B 9B 2F 95 E2 80 B3 12 D6 9C 60 C6 15 DC 8F B3 BE B1 E5 52 19 FE D6 00 04 E2 3D F0 EB EB 
13 D7 AF CB 3A 74 60 EA DE 5F 5D BE FE 46 21 D2 46 32 7F BF 73 C0 3D D6 D4 C9 74 E6 0E 3F 54 6A 
44 91 C0 9F A5 27 DD 1F 3E C9 BE 8F E4 0E BF 38 69 9D D4 3F F1 FC C2 F8 20 67 86 99 39 C3 CC DA 
6B C3 55 0E 0E 1D 77 BC 23 2E B1 A5 83 88 A2 9C 68 07 A9 50 A7 43 27 21 46 5E EE F9 73 A5 5E 76 
0C 22 36 D7 50 70 35 C1 D0 67 44 7F A9 BF F8 0D C5 71 4B A7 6E B8 CA C1 1B 58 89 1B BC CC CC 19 
66 CE C1 71 85 7C 00 00 61 5D EE A1 60 66 47 04 95 93 18 CC FC 6F F0 1C 67 86 99 F3 C2 B8 C4 43 
41 CE 52 23 C9 0B 39 63 92 EF 72 AB 01 2F BD 93 08 E3 B6 D9 EA D3 60 EC 4C F8 31 A3 D4 07 6E DF 
00 BF 35 B6 34 7D 98 34 0E 56 DE 61 39 C3 EB 03 FE 63 69 A9 21 EF B7 83 20 29 05 57 53 6F 6D FD 
7E 68 40 A0 42 D4 19 01 80 9C 73 39 59 7B EF 59 F9 7E 11 98 16 84 76 D7 FE 3D 82 3A A6 8C 66 56 
EB 55 24 F5 E8 DC 0A A7 73 2B 00 40 CB 33 24 FE E7 DD 8E 74 0C 2A 01 00 A0 85 75 2A 32 BC 6E CE 
CD C7 13 B1 9B 3F 05 86 C6 0F 39 B9 68 76 EC 9D D9 00 D0 90 16 EE 14 7B D9 7F 98 CB ED 1F B6 AB 
86 FE 71 80 BD 21 70 4F B1 DE D2 C5 1D 33 52 ED 97 65 3F 79 4F 1F 6E 9C 9F 73 24 FC 37 D3 C8 54 
17 1D 00 00 BC 21 E7 7A 92 A5 E7 69 0B C9 1F C3 A6 8A EB BB E2 EE 7A EC D9 33 A6 4F 69 DC 82 EF 
1A 82 33 8A 27 63 B7 36 CD D9 1C 3B 68 2E 00 FB F7 4D C7 3D D6 47 87 67 ED 39 9E 39 DB DD 09 A0 
49 C0 5C 72 21 6A C9 31 3F DF 23 03 13 2E E4 2E 3C E6 17 98 52 E2 6F FD C1 76 A8 72 84 9C A6 D1 
EC 97 9D DE 0F 00 6F BA D5 80 37 72 2B 0C CC B5 31 00 E8 A1 6B F0 3C BB 8A 37 84 DB 60 60 DE 03 
03 00 6D 5D 03 D6 83 F2 4A ED 0A 03 86 D4 00 3E 20 6D 43 BC 05 BF BE 3E 35 26 4A 81 3A AE 49 92 
21 51 A9 91 CF C8 EB 0A 24 3B 26 6F CF 8C F2 A6 15 C7 87 AE BA 5B 25 00 47 C9 FD 9A A2 F4 7A 6F 
7F 57 23 4C 0D 5C 27 7C B5 2C AE E2 E5 33 FC E0 C6 B9 51 A9 4D 00 00 83 16 37 56 17 A5 57 38 4D 
1A E1 30 66 EA 81 38 08 7C 8F 96 BD 0E CE B9 FE F3 DA 53 FD BF 3F 32 D9 88 70 EB 9B D8 0F 72 2D 
A6 7E 6D 21 F1 DA B8 B1 2B E6 D9 2F 4E 58 64 84 89 38 85 39 A5 BE BE A3 8D D4 30 F8 72 CA D8 BD 
FB CA 79 4C A0 7B 44 C4 46 05 F4 2F 79 79 28 91 F7 0A 07 00 3D 57 37 1B 7D 5A AD 89 B1 E4 02 C8 
DE 2A 88 9C 31 49 09 AF BB D5 20 AA 2D 2F EB 68 A3 AE 6B 62 AD F9 9C 57 59 51 58 DB 7E A3 B7 29 
53 BD BA 20 AF E4 F5 01 2D 5D 6C 31 82 E4 08 9A 9B EF 9F 4D DA 3F F2 CB 3E 5F 0C 52 88 DD 35 3E 
97 7F 79 FB E5 A4 25 89 2E 0B 5D A6 6C F4 46 C2 A6 A8 D0 AC BF DD 14 0C 1B 0F DC 6C 78 D7 4E 89 
B0 EE CA EE B9 C9 36 71 05 A5 6C F6 E9 C5 7A EF 9B EC 7D 31 49 7E E1 91 75 9B B2 C6 FE BC CD C7 
B4 E3 EF 3B AF A2 50 38 D8 AC D7 DF 7F EE B5 26 AF 5D 3F E0 E0 C6 44 56 E7 B6 E8 31 6D FA D3 00 
00 84 15 DC 57 0A BA B1 43 66 6D EB 70 AB 17 12 6E 35 02 F1 6F 21 72 46 2A B2 B3 82 6F DD 25 FF 
EE 9A A0 59 90 73 2E E7 D8 D7 47 D5 75 D4 E7 24 CC 65 38 91 5D 86 11 EF 07 33 72 0F 9A 55 B2 E3 
EF FC 01 03 A6 AB 7E D2 89 F4 67 B8 80 93 9E 7C 85 3E D0 4C 4F 45 CD CC 84 AE 25 E2 A4 27 5F E1 
12 03 4C 32 CF 27 5F 4B DC 1A 18 10 5B 2C 35 15 D5 7E 59 F6 93 32 76 C7 57 F6 32 49 74 50 F0 2C 
35 76 7B CD 9C 98 10 C7 BF 63 D6 A2 17 65 F7 F5 19 C6 52 41 6C 75 F3 A1 FE 4B 22 8D FE 8C 3E FB 
AC B7 B5 BD 45 42 D2 F5 67 02 9C 73 F7 6C 8A 1A D3 54 57 C6 DF 86 2E 82 9C 31 49 80 4E DC 6A 00 
A0 F6 36 35 EF F8 C6 F3 2A 0A 9B 0D ED FA 99 58 F7 6E BF 51 5B 5E D4 DA 77 C6 50 6D DD 22 E9 01 
EF 0C 48 32 CC CC 3B BD 46 28 25 56 2A 14 17 75 15 A1 58 9C 25 C0 8B 4B CA E0 F0 31 79 5B F4 3E 
B4 29 DA C3 D5 9D 06 AA 0D 7C 89 BF CC 69 B9 FF D3 96 AD B0 45 DE 36 C9 9E 79 CB C2 E4 6D 82 AC 
D1 B5 F5 F3 EB EB B5 EF DC 58 62 E3 4C C3 72 7A 78 24 7B B5 DB 80 65 C4 39 6B 0F E3 8A 25 E7 82 
DC 06 AC B5 F2 9F 65 3F 48 58 D7 00 C4 80 E0 50 F0 8F 58 64 B8 E3 9F 2C F1 22 EB FC 8D A6 BC C4 
09 03 36 02 40 7B 38 54 AB A1 AE 55 DF 5C FB F5 BF F6 98 E9 E4 E5 33 E3 96 26 E5 9F FC 76 DB F7 
65 A1 2E 56 2B 80 EE 11 11 BB 72 58 6B EC 67 7E D7 72 42 4C 4E 1A 0B E2 02 DD 26 46 DD 6B 7C FD 
76 5B C9 21 9F 29 87 4A DA C4 E2 B6 47 71 53 02 E2 4A B8 25 87 02 7C 0E 3D 6A EB 78 EA D1 A3 37 
06 34 7F 70 29 8B FE 66 32 7A 13 08 32 50 57 59 79 26 7C ED DE AF 46 97 DC C9 90 B7 2D 1F A6 B1 
BE F1 FA FE EB 31 36 D1 D7 F7 5F AF 66 55 CB DB 9C 2E E5 C7 98 5F 64 BD 04 FA B0 93 10 19 FD 50 
C8 19 93 EC CC AD 06 00 00 CC C2 D9 07 2E 5F C8 AD E7 E7 A6 FC 09 A3 5C 2C 74 2D 46 8C 82 13 29 
B9 FC FA DC F3 97 61 AA B3 A5 E5 1B 03 50 22 49 F7 45 D0 DC 7C 7D FF BE 13 73 BE 35 71 70 0C 4C 
BA 40 F2 56 A2 F5 55 F5 69 BF A5 1D 70 8F 05 80 C0 B4 20 F7 79 EE 68 6B 0D 81 F8 64 C8 A9 6D 84 
5B BD 71 C2 00 62 A7 74 69 12 87 97 13 3D D1 21 3A 47 84 59 4E DB E6 55 E4 3F CC D6 3F 7F FC BA 
F1 16 18 60 96 BE 3F FA 15 05 0C 1E 16 50 38 6A ED 78 73 EC AD 01 88 6E 08 91 30 72 C0 DB 0B 00 
BE FD E3 D4 B0 29 DE 64 DE 5A 2B CF 2F 3F BB 21 E9 64 D0 9F 3A 74 1D 42 D5 50 7E 3F 02 F1 2F A1 
88 C5 62 79 DB 20 67 18 66 E6 EC 27 64 CF 67 45 FC 73 58 99 77 D2 77 EF D4 1B 60 E1 34 6B 36 99 
D3 20 05 CD 82 82 D4 82 82 93 7F 01 C0 B0 00 07 4B 67 CB 6E 7E 10 7B EB 8E 7D 61 21 F3 65 BA 04 
FA B0 93 10 19 FD 50 C8 9B 4B 82 40 7C 2C 1C 36 2B F3 70 3C F7 71 A9 C7 EA 35 64 EE B8 C6 61 73 
1E 5D 7F 94 B7 3B F7 8B 59 83 DC 57 8E 36 B5 31 95 B7 45 08 84 B2 81 B4 0D A1 0C F0 EB EB 6F 1D 
3C F0 24 25 79 F8 E2 10 9F 4D 9B E5 6D 4E E7 08 9A 05 AC 3B AC FB 71 D9 00 30 78 C6 10 54 5B 04 
81 90 1D 48 DB 10 0A 0F 2B F3 4E EA FA B5 64 EE 23 8A 1C 35 04 A2 8B 41 DA 86 50 60 C8 DF 98 A6 
3C BF 3C F7 F4 83 EA 7B D5 8E 0B 87 23 47 0D 81 E8 32 90 B6 21 14 95 A7 F9 79 17 57 2E FB 62 FA 
CC 6F 7E 3B 48 42 77 8D 9D C9 CA D8 9B 01 00 2E 0B 5D C6 AF 99 D0 CD F3 44 3E 48 25 BF AD C0 C0 
4E DE 56 20 94 07 19 6B 9B B8 A5 96 9D 9F 93 9D 57 C4 2A 79 54 CE C3 41 CB D0 72 20 C3 6A B0 BD 
83 DD A0 7E 3A 48 57 11 9F 06 E1 AE 3D 49 49 9E F8 73 34 D9 72 46 88 EC C7 AC BD F7 FA 0E EF EB 
B2 D0 05 15 CA 7A 3F B9 B5 A2 FC 7A 51 C2 73 11 00 80 6A 0F 79 9B A3 14 F0 8B 93 7E 5C BD E2 68 
BE 96 67 D8 C1 CD 73 1D E8 6A 9D DC E9 06 C8 EE FC 57 6B 4D FE D9 98 F9 BE 33 37 9E 29 6A D5 B5 
72 9B 1E BC 70 C1 FC 85 FE E3 ED 8D 55 5F DC 8A FD DF B4 FF AE FE 2D B5 AC B1 BB 9F 3F 40 7C 3C 
4F F3 F3 88 83 6B 81 49 17 48 25 6C 7C 2E 3F ED B7 B4 5F 9C F6 D6 94 D4 78 EF F2 99 B2 D1 1B 09 
5B A7 34 8B C4 B9 B5 A2 DD 45 CD C3 AF 35 46 3C 6C 01 80 DD 76 9A 89 23 69 CE CF D2 E5 6D 9A 0C 
E0 24 06 4B 15 35 6E EF 88 06 95 49 41 D3 62 72 3E A6 03 1A 27 31 D8 AE 93 2E 6D 6F 21 E9 9B F3 
20 CE FA C6 86 DF F3 F8 92 3B EC DB 3B 8D AF 6C B9 54 86 BF 7F 2A 51 4E 8C DD C4 8F B3 8D 94 C8 
CC 77 6A CB DF 3E 25 A4 6D 5B 62 82 AF 8D 2E 95 22 F5 84 E3 08 F0 F9 7A DE 72 4E 41 46 CA 9D 47 
3C 73 C7 F7 56 BB 46 20 FE 86 B4 EE 1A 87 CD C9 4B CA 7B 92 5A 86 3A AB BD 87 66 91 38 A7 46 74 
E3 85 70 2D 47 14 D4 53 65 86 B1 EA A5 01 EA FA 1A DD A1 BC C2 E4 ED 99 51 DE 74 2A E0 CF D2 36 
2E 58 BA 3B 23 7D 33 43 66 6B 69 58 06 1C CD 0F 00 00 E8 33 6A F8 F3 BD 55 7C 5C 27 E3 8C EA 8A 
9F C7 1B 51 35 8C 36 9E 76 07 00 CE 43 99 AD 4E 22 64 A6 6D 2A CC FF FD B6 E6 60 7C 88 F3 EE FE 
D3 FD 26 8D 19 E9 EC C0 34 A6 49 44 8E A2 45 1F E2 39 6B 88 AC 16 47 28 1F 1C 36 EB CC C2 FF 99 
8D 9D 40 9E 64 C8 37 72 FA 47 2F 1C 8D 36 D5 DE A6 BE 05 CF AE 11 9D AC 12 C6 BE 6C DB 42 A7 8E 
EA A3 5A 67 A5 D1 3D 24 ED 2D 30 23 57 6F 77 B5 BD BC A6 2E 58 0B 7F 96 9E 94 6E 68 ED 4A C3 5F 
71 5F 98 DA 1A 76 BB DF 4C D9 FD 86 F5 30 FF EA 7F 91 47 53 B3 8E AF 18 D3 E7 C5 D5 6D FE C3 1C 
7D 42 B6 C6 25 DF 65 D5 B6 28 68 3F 20 84 7C 10 34 37 67 1C 3F 76 66 E1 FF 26 FE 1C 3D 61 E5 2A 
32 08 1B 87 CD 21 C2 8F 95 0F 2A DD 57 8E 9E 75 78 B6 FD 64 7B 24 6C D2 54 F2 DB 0E 97 B4 CC CB 
7C 35 3E E3 55 49 63 5B 40 7F B5 A6 31 DA DF 0D D5 1A D1 57 B5 9B 0A 1B 10 7A 73 7F F8 24 FB 3E 
92 3B FC E2 A4 75 DE 0C 33 73 06 73 41 7C 71 03 F0 0B E3 83 9C 19 66 E6 0C 33 6B AF 0D 57 39 38 
74 DC F1 8E B8 C4 96 0E 22 BE AF 7F 1B 00 88 72 62 86 8D 08 8A D7 9C 39 69 08 AD B6 BC A8 A5 B5 
EC C4 22 1B 33 73 9B A0 A3 C5 7C C9 9F DF 86 E2 B8 A5 53 37 5C E5 E0 0D AC C4 0D 5E 66 E6 0C 33 
E7 E0 B8 42 3E 00 80 B0 2E F7 50 30 B3 23 82 CA 49 0C 66 FE 37 78 8E 33 C3 CC 79 61 5C E2 A1 20 
67 A9 91 E4 45 D6 F9 1C 54 5A 3F 1B F7 19 36 EE 33 16 AC AD 2D CD BB 9E F0 CB 2A 9F 25 AF 66 C4 
A6 86 BB EB A9 C8 78 69 84 32 C0 61 B3 92 23 D6 EB 0D B0 20 83 BB 26 68 16 94 E7 3D CD D8 9B D1 
5C D3 8C 72 FA DF 86 88 3A 3E E0 8A 0E 73 44 46 AA 14 CF 5E 2A 8B 18 EA B6 BD C9 9B 34 46 B9 DC 
20 A3 99 C5 E3 A4 9B 4E 9E 5B E1 74 6E 05 00 68 79 86 C4 FF BC DB 91 8E 41 25 00 48 ED 8D 4D C4 
6E FE 14 18 1A 3F E4 E4 A2 D9 B1 77 66 1F DB 58 66 00 00 20 00 49 44 41 54 03 40 43 5A B8 53 EC 
65 FF 61 2E B7 7F D8 AE 1A FA C7 01 F6 86 C0 3D C5 7A 4B 17 77 CC 48 B5 5F 96 FD E4 DD 7D B8 A9 
F6 A1 0F F2 26 C4 85 CD 58 F9 87 CB 5E 5D E0 9E D8 B2 C5 C6 FF C0 D1 A1 A7 BE 5B 73 CA F1 F4 78 
00 68 AA B8 BE 2B EE AE C7 9E 3D 63 FA 94 C6 2D F8 AE 21 38 A3 78 32 76 6B D3 9C CD B1 83 E6 02 
B0 7F DF 74 DC 63 7D 74 78 D6 9E E3 99 B3 DD 9D 00 9A 04 CC 25 17 A2 96 1C F3 F3 3D 32 30 E1 42 
EE C2 63 7E 81 29 25 FE D6 F6 E4 FD D9 76 C1 19 00 71 0B B7 BC F4 61 61 CE BD DB A9 89 7F 14 6A 
4F FC 6F 98 FB 84 2F B4 BB EB 3F 6E 88 7F 8C A0 B9 39 FB 4C 42 5E DC 81 91 61 DF 0D 1E E3 29 5F 
63 EA AB EA F3 2F E6 17 27 3C 42 D9 8F 6F 53 C9 6F BB 57 23 4A 7E 2E 8A 7D D9 B6 AA 17 D5 D3 90 
9A 60 AA D6 8F A6 00 FF BC BE AE 40 B2 63 F2 F6 CC 28 6F 5A 71 7C E8 AA BB 55 02 70 94 DC AF 29 
4A AF F7 F6 77 35 C2 D4 C0 75 C2 57 CB E2 2A 5E 3E C3 0F 6E 9C 1B 95 DA 04 00 30 68 71 63 75 51 
7A 85 D3 A4 11 0E 63 A6 1E 88 83 C0 77 6B 59 67 E8 58 F9 FA 79 6F 4B 28 12 7F C3 D4 B3 31 8A FE 
65 BD 3B 9D AF E2 BE E1 E8 C3 17 E3 01 B8 B1 2B E6 D9 2F 4E 58 64 84 89 38 85 39 A5 BE BE A3 8D 
D4 30 F8 72 CA D8 BD FB CA 79 4C A0 7B 44 C4 46 05 F4 2F 79 79 28 91 F7 0A 07 00 3D 57 37 1B 7D 
5A AD 89 B1 E4 02 C8 5E 96 53 76 DA D6 5A 93 7F 3D F9 6A 7A 7A CA A5 1B AF AC 67 4C F5 1C 31 31 
EC E8 FF 0D EC 47 23 B1 D0 23 48 C3 D3 FC BC 6B DB 7E D4 1B 60 F1 ED 1F A7 68 FA FA 72 B4 84 9D 
C9 CA F9 3D 87 5B C2 1D 3A 6B E8 37 C7 FD 91 A3 46 D0 2C 12 17 F3 DA D2 5F 08 53 EB DA 00 80 70 
D1 76 EA AA 68 BE 96 38 86 90 82 66 FD ED A6 E0 BB 5E 07 6E 7A 6C 70 EF 5C 52 85 75 57 76 87 27 
DB C4 15 FC 6A AF 91 1B E3 B8 EE 3D 93 89 72 A2 9D 7C 77 F2 3A 1E EA 86 9C CE 5C D6 99 13 A5 AE 
D7 93 A6 A3 67 3A C0 FC 8B 3E 84 3F A1 46 D7 D5 02 1E 68 4D 5E BB 52 3D 7A 63 A2 D7 19 7F ED 4E 
A6 D7 63 DA F4 A7 01 00 08 2B B8 AF 14 74 0F 49 76 4A D3 C0 BA 5B D8 DA CF 63 FE AE 90 9D 16 06 
1A E8 17 1E F1 CF 90 54 86 94 7B 32 A4 F4 E1 6B E4 A8 11 54 F2 DB 8A B8 6D A9 CF 45 3F D5 89 82 
7A AA 4C 30 A4 EE B6 53 0C 17 8D 0C 60 46 EE 41 B3 4E 44 26 B0 DC 02 88 93 7C 06 4C 57 FD F0 13 
E9 0B DC 26 62 E9 C9 57 E8 03 57 E8 D5 AA 99 99 D0 B5 44 9C 9B C9 57 B8 F0 15 18 30 5D 4D C2 CF 
27 5F 03 CE F6 D0 83 C5 7A 4B 25 53 BD 3B 26 59 9B B6 EE BF 3F F5 FA FE C4 32 AB AA 84 13 C9 4E 
E3 16 E8 98 1B 4F E5 85 FE FE 60 4C 88 E1 F5 13 69 26 5F 7E 4D 03 1E A8 9B 0F F5 9F 16 99 35 3F 
FA AC C7 4E 6B 7B 8B EF 92 AE 2F 74 99 8C DD 3D 9B A2 C6 8C D0 ED 9A EF 86 AC 91 9D B6 19 B8 CC 
5B E1 22 B3 D9 11 4A 49 C1 D5 D4 5B 5B BF 97 7B 65 C8 F2 FC F2 B4 9F AF 03 52 B5 0E 24 27 AC 9F 
09 C5 B3 E8 54 6F 63 D5 8D B6 9A C8 45 FB 78 74 6D FD FC FA 7A ED 3B 37 96 D8 38 D3 B0 9C 1E 1E 
C9 5E ED 36 60 19 68 8D 0F 3F B3 D5 C3 B8 62 C9 B9 20 B7 01 6B AD FC 67 D9 0F 12 D6 35 00 31 20 
38 14 FC 23 16 19 EE F8 27 4B F4 76 5B BC E9 AF 75 4B 6D CD 38 5A 9E 61 07 37 4F 34 C2 D4 60 FA 
CA 99 A1 41 B6 03 1A AC FC B7 C4 4C B7 C4 F8 0F 01 00 30 D3 C9 CB 67 C6 2D 4D CA 3F F9 ED B6 EF 
CB 42 5D AC 56 00 DD 23 22 76 E5 B0 D6 58 19 7E 07 BA 10 59 34 F3 16 8B C5 62 51 D1 EF DF 45 FD 
79 EB 51 4D 73 DB 5B CF E1 C2 C6 A7 F7 2F FE B6 3E 2A AD FE 7D 53 B4 35 DE DF 39 31 F0 4C F5 6B 
37 6B AE AF 75 B3 E8 6F 66 D1 DF CC A2 FF 92 C4 6A A1 58 FC F2 D1 A1 F9 43 FA 9B 0D 09 FC 25 AB 
BA 55 2C 6E 6B 7C 74 64 DE 20 33 8B 41 41 3B EF 55 BF BD F6 DB A0 36 F3 64 A0 AE B2 F2 F7 25 8B 
7E 5F B2 A8 9A 55 22 47 33 AA 59 D5 49 EB 13 E3 BF 8D 63 DD 91 A7 19 24 E1 41 8D 70 57 61 93 E3 
D5 06 EF 9B 8D F1 C5 CD 15 8D 22 99 2E F7 63 CC 2F 32 9D 5F 8C 3E EC A4 44 46 3F 14 D9 9D 6F B3 
F2 59 DC 7C F9 8F 98 99 21 E5 8C 09 6E B6 0C 73 63 5D 35 00 FC 55 CD D3 D2 47 F7 AE A6 E1 23 97 
2C 98 35 C7 E5 DD 07 B7 05 9C AC 83 EB 67 47 15 BB 44 BF 7E BF E5 25 07 3C 62 6E ED F7 E9 47 3C 
C6 59 09 6B 4E 30 E3 0A B6 C0 6F 8B 22 2F 8D 3E 3D 0B 4E AF BE C0 3C 7A 3F 0A 8E F9 6D BC 34 FE 
4C 80 25 4A 5B 21 37 92 9C 91 E1 8B 43 86 4D F1 96 97 19 1C 36 E7 DE 91 BB D5 F7 AA C7 6C 18 D3 
CD 7D B5 4A 7E DB B5 67 42 A2 0E 96 AF 21 35 61 B8 16 8A 3A 22 14 0E D9 C5 24 31 8D BE F6 DE CB 
F6 7A CD 7B 56 92 57 C4 7A FA E4 49 19 5F 0C EA 7A FD AC 46 7E 33 65 C1 16 F3 DE EF 3F E3 C2 B9 
B8 7E 7D A5 F3 3C CF CC C2 D7 EF 8B 5E 94 DD EF C1 5C 28 89 08 B7 94 DE BE 01 7E 6B 6C 69 FA 30 
69 1C AC BC C3 72 86 44 18 B7 CD 56 9F 06 63 67 C2 8F 19 A5 FF B1 B4 D4 90 CD 1B 44 7C 06 C8 90 
33 22 51 35 C7 85 C3 BB 73 51 E3 37 24 6D B7 9D 26 92 34 84 E2 22 EB AC 45 0A 95 66 CC 1C 61 CC 
1C F1 91 AF A3 FB EC 4F F6 11 E5 44 EF 79 43 DB 6A CB 8B B8 AF AA D6 BA ED 7E A8 4E 64 A9 36 72 
1B 0C CC 7B 60 00 A0 AD 6B C0 7A 50 5E A9 5D 61 C0 D0 C6 00 A0 87 AE C1 F3 EC 2A 3E 20 6D 23 25 
64 C8 19 E1 73 F9 D7 62 AE 76 73 55 43 92 86 50 4A 14 2C 23 1F 6F E4 D5 68 31 67 C6 FC 30 0D CE 
2F 9F FA C3 E9 11 1B 74 0B 6B C1 1C 00 00 7A 9B 32 D5 2F 16 E4 55 F3 80 A8 D5 A6 6B 62 AD 79 81 
D7 22 4F 73 11 EF 40 EE 39 23 92 F3 6A DD 56 D5 4A 78 6D 99 2F 84 44 7A C8 E2 7E AA 48 D2 10 4A 
86 AC B5 0D E7 E7 27 1D AF 77 08 72 37 E9 08 41 F2 F2 E3 E2 58 23 E6 4F FB 24 77 0A B3 0C 38 53 
14 00 00 00 E3 BF F6 3D 7E BC F0 B9 D7 E7 B2 14 D1 25 D4 57 55 A5 6C FD 01 00 E4 D5 4D 54 BA 59 
E8 9C 84 B9 DD 4A D5 88 0C FE EC 7A 51 62 5D 9B 91 2A C5 D7 90 1A 31 48 83 CC 75 43 10 88 4F 46 
76 BF D6 6D DC BB 07 36 FE 76 AF BE 2A F7 EE AB FE 59 03 F5 3B F2 85 9B AA 1E 68 7D 33 EA DF 67 
0F 6B E8 F4 D2 04 E8 65 62 DD BB FD 46 6D 79 51 6B DF 19 43 B5 75 8B 88 C7 BC 8A C2 66 43 BB 77 
2A 28 C3 CC BC D3 6B 84 8C A0 51 60 84 1A D6 5F 05 63 89 F0 EB 02 1C CE 5E E8 CA D5 B5 29 DA B6 
6A F6 56 6A 56 00 F0 57 6B 7E 91 B0 F0 A7 25 5B BB D2 00 39 D2 3A 36 B0 C5 DA B9 B9 9F A5 48 4D 
A3 47 15 5B F3 D1 3D D5 82 DB F5 EC EC 02 79 1B F6 06 F3 96 85 C9 DB 04 84 F2 20 3B 6D 53 D1 1B 
FE F5 4A AD 61 EC 9B 7B CA AA C7 FF CF 97 D1 E1 B7 61 9A 7D 06 58 F6 53 FF D7 F3 13 D2 A5 AD AD 
A7 53 43 54 85 69 E4 D5 58 9A 9B F6 03 93 1A 5E 23 0E 74 78 C5 AB 31 64 18 BF B3 8A 04 FB 49 7B 
CD 18 86 99 B9 E4 1A 21 23 EE 9F 4D BA B7 7B 87 D9 D8 09 23 E7 06 76 71 CE 08 9F CB 2F B8 F4 57 
DE E1 BC BE C3 FB DA 4E B3 33 B5 31 ED CA D5 E5 48 7D 0B 9E 56 2D 3C 5C 29 04 80 85 66 6A 4C 3D 
95 7E 34 15 80 3E 00 2E 00 A1 F2 B6 AE 13 B6 EE D8 27 6F 13 10 CA 83 2C C3 11 14 5A BF 21 C3 FA 
0D 39 78 EB B3 CD 88 37 A4 6D 74 DD DA 3B EE E4 82 81 25 67 F6 67 38 AE 8A 32 B2 30 1E 05 4B 53 
72 A7 1B C0 F9 CB 30 35 C2 D2 12 7C 20 E2 42 EE 94 20 48 F9 13 46 C5 58 A0 44 12 39 C3 CA BC 93 
BE 7B A7 DE 00 8B AE 0F 42 12 6D D5 1E 1D 7E 38 74 B1 6D B7 2A 97 95 5B 2B BA 58 25 58 CB 11 ED 
32 51 DD 36 44 73 A0 2E DA 48 43 74 3B 64 1D 6A 6F AB B9 B8 DA 75 61 42 9B F4 3D 15 DF 5D 99 DB 
26 18 7C D4 E7 8D 9F 13 3D 33 18 36 67 86 2C 38 98 1F 1E 30 D8 B2 49 CB 33 24 3E D2 4D 07 C3 74 
7C 7F F4 0B 9B 31 78 18 78 86 1D DC 6C 8E 61 D4 69 DB BC 96 4F 1D 66 0B 9E 21 F1 91 16 E8 70 9B 
FC E0 B0 59 99 87 E3 B9 8F 4B 5D 17 2F B5 74 72 EE CA A5 89 22 90 2D DC 96 C1 33 86 8C CE EC 16 
6D D5 24 05 1E 0F 73 44 43 B5 B0 19 C6 DD B8 4D 5A 37 A7 21 2D DC 69 CE EF 44 8F 38 CF E8 F4 58 
1F 3A BF 38 E9 C7 D5 2B 8E E6 6B 79 86 1D DC 3C D7 81 AE FC 1F 07 00 D9 D5 25 E9 00 6F E6 72 AA 
25 94 97 DC DC 13 E0 BD 37 AF 09 97 F5 BA FF 1C 54 AA E0 B3 D3 58 57 77 F1 A7 6D 7B BF 1A 9D 9D 
94 D8 95 EB B6 36 B5 DE 3F 7B 7F DF F8 5F 4E 2C FD A3 9B 14 16 A9 6B 6E 4B 7F 26 D8 92 FB 0A 2E 
BD 0C BA C3 BF 5C DE 5A D7 49 25 20 C5 40 39 EB 92 54 9F 99 D7 5E 47 C9 CC A2 BF 99 C5 F8 CD D7 
AB 5B C5 E2 8A C4 40 DF E8 FB 8D 1F 37 8F 6D D4 7D E1 3F 5C 91 A8 D9 44 D0 5C 72 E8 9B 21 F3 CF 
54 09 AB AE AF F7 F5 39 F4 A8 ED FD 53 09 EF 47 DB 4E F8 38 DB FE 1D 8A 56 97 A4 03 8A 86 AE 21 
FD EF 87 74 43 2F AF D8 65 D7 1E 7E 6B 63 DF 5D 02 44 DD 0A 41 73 F3 ED 23 F1 0F 76 6C 77 5A 1B 
D1 95 F9 FD 7C 2E 3F FB 54 76 DE EE DC A1 8B 6D BD 77 F9 D0 19 F4 0F BF 46 91 A9 6F C1 CF 97 0B 
6E D5 B7 11 CD AC 1D F4 A9 C8 4B 23 31 93 B7 67 46 79 D3 A9 80 3F 4B DB B8 60 E9 EE 8C F4 CD 0C 
D9 2D 26 7A 56 96 A3 67 3E 5F 92 FE 8A 3F CD 38 A3 BA E2 E7 F1 46 54 0D A3 8D A7 DD 01 80 F3 50 
76 AB 93 87 2E 38 03 90 78 E0 EA 53 71 FB 43 B1 E0 59 E6 A9 5A D7 5D E6 F2 6F 9D 8C F8 BC 08 9A 
9B FF BA 92 72 6F F7 8E 2F A6 CF 0C BE 75 B7 CB 12 46 04 CD 82 8C A3 19 84 AA 75 87 66 A1 CD 22 
F1 81 92 96 25 15 C2 5D 26 AA AB BE D0 F8 4D 59 F6 D2 C4 42 F6 A8 61 85 1F 1E A7 D0 60 46 AE DE 
EE 6A 7B 79 4D 32 5C 43 54 5B 5E C6 EB CD 0E B7 D9 59 0C E3 C3 CF 6C 9D 6D F1 8A FB C2 D4 D6 B0 
7B C4 21 A5 90 F5 3F 7A 14 AA 36 DD DC DC 58 4F 5C F7 B8 B0 A8 A8 B4 5E FD CB 25 C7 E2 17 7D 89 
9A 6E 2B 17 AC CC 3B C7 E6 CD AD C8 CE 9A BA F7 D7 D1 C1 F3 BB 46 D8 04 CD 82 9C 73 39 87 7C 0F 
02 40 60 5A 90 FB 3C 77 25 16 B6 66 91 B8 84 D7 76 B8 A4 65 D4 4D 3E 00 D4 8D A2 2D 66 2A 7C 92 
88 58 C8 6E 6B 3E 2B 6C 08 17 D4 31 45 4D 3B D4 55 05 F2 B6 48 C6 E0 CF D2 93 EE 0F 9F 64 DF 47 
72 87 5F 9C B4 CE 9B 61 66 CE 60 2E 88 2F 6E 00 7E 61 7C 90 33 C3 CC 9C 61 66 ED B5 E1 2A 07 87 
8E 3B DE 11 97 D8 22 A9 99 44 39 D1 0E 66 E6 8C 8E 2F 87 E8 9C 8E 67 45 8D BC 7A AD FE 5F 47 DD 
7B 70 61 35 6C 5F 9D C0 7A 5E 5E D4 D2 5A 76 62 91 8D 99 B9 4D D0 D1 62 BE A4 1D 5B 43 71 DC D2 
A9 1B AE 72 F0 06 56 E2 06 2F 33 73 86 99 73 70 5C 21 1F 00 40 58 97 7B 28 98 69 CE 98 B0 25 8D 
23 00 4E 62 30 F3 BF C1 73 9C 19 66 CE 0B E3 12 0F 05 39 4B 8D 24 2F 32 AF B9 A5 61 D2 5F E7 E4 
9E 4D BF 73 99 C3 8C 35 78 39 47 C2 8A 1A 63 77 AD 19 6D 8C CE 8B 2A 07 1C 36 2B 6D E7 8E E6 FA 
3A 8F D5 6B BA B2 74 56 E1 B5 C2 F4 9F 6E F5 1D DE 77 46 EC 4C 7D 63 79 36 2F 95 1D 25 BC B6 27 
8D 6D D9 F5 A2 7B 0D 78 52 13 BE AA 17 75 B0 0E A6 E8 95 8B C5 42 36 2E 2A C2 85 59 62 E1 69 0A 
75 0C 46 75 56 D1 98 81 69 7F 07 14 CD 94 CC 7D 76 5F 76 A9 31 3B 86 C6 C8 68 E6 90 3C E9 53 16 
E7 56 38 9D 5B 01 00 5A 9E 21 F1 3F EF 76 A4 63 50 09 00 00 2D AC 53 91 E1 75 73 6E 3E 9E 88 DD 
FC 29 30 34 7E C8 C9 45 B3 63 EF CC 06 22 1F 24 F6 B2 FF 30 97 DB 3F 6C 57 0D FD E3 00 7B 43 E0 
9E 62 BD A5 8B 3B 66 7C 77 FF 36 0D CB 80 A3 F9 01 00 00 40 F4 DD E6 8C 04 EE 89 2D 5B 6C FC 0F 
1C 1D 7A EA BB 35 A7 1C 4F 8F 07 80 A6 8A EB BB E2 EE 7A EC D9 33 A6 4F 69 DC 82 EF 1A 82 33 8A 
27 63 B7 36 CD D9 1C 3B 68 2E 00 FB F7 4D C7 3D D6 47 87 67 ED 39 9E 39 DB DD 09 A0 49 C0 5C 72 
21 6A C9 31 3F DF 23 03 13 2E E4 2E 3C E6 17 98 52 E2 6F DD 59 3B 54 B2 20 6B D3 04 15 67 B6 AC 
AD FD CF 99 3B 5E 26 1A 18 00 DE 52 7E 61 83 DF 96 C4 3F 63 A6 9B 74 3B 1F 59 C9 E0 D7 D7 A7 C6 
44 55 67 66 8C 0C FB 6E F0 18 CF 2E 5B 97 68 19 AA A1 A7 A1 7C FB 6A 44 AE E3 E3 C6 B6 CC BA B6 
9F EA 44 DE 5A 98 67 2F 15 07 7D EA F4 FE 2A 89 8A EC A2 BD 47 CF E4 6B D8 EB 0A 24 3B 26 6F CF 
8C F2 A6 15 C7 87 AE BA 5B 25 00 47 C9 FD 9A A2 F4 7A 6F 7F 57 23 4C 0D 5C 27 7C B5 2C AE E2 E5 
33 FC E0 C6 B9 51 A9 4D 00 00 83 16 37 56 17 A5 57 38 4D 1A E1 30 66 EA 81 38 08 EC 54 CB DE 83 
96 4E 2F 75 00 43 53 A6 9E 8D 51 F4 2F EB DD E9 7C 15 F7 0D 47 1F BE 18 0F C0 8D 5D 31 CF 7E 71 
C2 22 23 4C C4 29 CC 29 F5 F5 1D 6D A4 86 C1 97 53 C6 EE DD 57 CE 63 02 9D A8 D6 5B F2 F2 50 22 
71 7A 58 CF D5 CD 46 9F 56 6B 62 2C B9 00 B2 9F 09 96 B5 B6 89 78 2F EA 4C 6D 99 FD DA 77 B9 31 
0D 13 E6 50 D3 A3 2F B8 22 40 DA A6 B0 F0 EB EB B3 4E FD F9 E8 D4 9F C3 17 87 4C FC BF B5 5D 96 
30 42 14 EC E7 95 F1 94 A9 65 68 B3 48 9C 53 23 7A C0 15 E5 35 E0 B1 2F DB 08 E7 EC 6B 33 35 C5 
6E FE 29 6E 16 8B AA C8 A9 67 72 83 66 FD ED A6 E0 BB 5E 07 6E 7A 6C 70 D7 E9 74 84 B0 EE CA EE 
F0 64 9B B8 82 5F ED 35 72 63 1C D7 BD 67 32 51 4E B4 93 EF 4E 5E C7 43 DD 90 D3 99 CB DE 72 A2 
6A CB 8B 5A F5 6C 69 3A 7A A6 03 CC BF E8 43 FC 09 56 A3 EB 6A 01 0F B4 26 AF 5D A9 1E BD 31 D1 
EB 8C BF 76 27 D3 EB 31 6D FA D3 00 00 84 15 DC 57 78 27 03 14 00 59 6B 9B A6 E5 57 3E 3D 17 6C 
F9 89 FA 8D 3B 43 8F 2A E4 96 A6 1D 3B A4 EB B3 77 60 77 FD FD 56 70 A4 13 46 BA B2 2B 4D 7D 55 
7D FA FE 5B D5 F7 AA 5D 57 8D B4 DE 68 DD 35 8B CA 94 FA 16 3C BB 46 94 5D 2F 5A CB 11 05 F5 54 
99 60 48 1D 6B A4 A6 D0 89 21 62 BC 5E 2C 2C 11 8B 1E E3 A2 3B 62 D1 55 A4 67 6F 83 19 B9 07 CD 
3A 11 99 C0 72 0B E8 01 00 00 06 4C 57 FD F0 13 E9 0B DC 26 62 E9 C9 57 E8 03 57 E8 D5 AA 99 99 
D0 B5 44 9C 9B C9 57 B8 F0 15 18 30 5D 4D C2 CF 27 5F 03 CE F6 D0 83 C5 7A 4B 25 53 BD 3B 26 59 
9B B6 EE BF 3F F5 FA FE C4 32 CB 92 DF 8F 64 FA 2E F9 59 D7 DC 78 2A 2F F4 F7 07 63 42 0C AF 9F 
48 33 F9 F2 6B 1A F0 40 DD 7C A8 FF B4 C8 AC F9 D1 67 3D 76 5A DB 5B 7C 97 74 7D A1 CB 64 EC EE 
D9 14 35 66 84 6E 67 D3 2A 1E B2 DF 6F 1B 38 F3 E7 58 E3 B3 89 57 8E A5 70 9A 35 E9 4C E7 80 DF 
16 8D 30 D3 50 D8 7F 48 BB 31 AC CC 3B A9 EB D7 F6 75 72 F1 3B 74 44 DF D8 B8 6B 16 25 92 FB 95 
A6 60 3F D1 50 E6 56 7D 5B 5E 13 EE D3 4B 65 54 1F D5 26 6B 05 F6 CF C4 6D 55 B8 F0 91 58 F8 40 
2C 7A 20 16 D7 50 A8 5F 62 AA 8E 54 AD 10 8A EA 2E 79 9B 46 4E 74 6D FD FC FA 7A ED 3B 37 96 D8 
38 D3 B0 9C 1E 1E C9 5E ED 36 60 19 68 8D 0F 3F B3 D5 C3 B8 62 C9 B9 20 B7 01 6B AD FC 67 D9 0F 
12 D6 35 00 31 20 38 14 FC 23 16 19 EE F8 27 4B F4 76 5B BC E9 AF 75 4B 6D CD 38 5A 9E 61 07 37 
BB E8 80 9A CE F4 95 33 43 83 6C 07 34 58 F9 6F 89 99 6E 89 F1 1F 02 00 60 A6 93 97 CF 8C 5B 9A 
94 7F F2 DB 6D DF 97 85 BA 58 AD 00 BA 47 44 EC CA 61 AD B1 32 FC 0E 74 1D 14 B1 58 FC E1 51 9F 
02 EF AF 8B 37 EB FA D9 3B 30 8D 69 E4 FE E8 A2 7A 92 1F 84 C3 66 25 47 AC 07 80 09 11 9B BA AC 
6E 96 A0 59 90 93 78 FF EE 8F 77 87 2E B6 75 F1 77 51 5C 55 93 54 0C 49 AD 6B 03 00 CF 5E 2A AE 
7D 54 15 B7 FA FE DF 9B 67 A2 BB 14 8A 01 45 D5 8D 42 65 60 AA 5F 50 54 FE ED BF 3B 5B 77 EC 0B 
0B 99 FF 59 8C 7C 17 E8 C3 4E 42 64 F4 43 91 DD 07 4C 95 A6 5A FD E7 36 FF 05 E5 FD A7 FB 4D 1A 
33 D2 99 FC 22 87 78 1B A2 6E 56 75 66 86 E7 A6 2D 5D 56 37 4B D0 2C 28 48 2D C8 DA 7B CF CA F7 
0B C5 3D B2 56 C2 6B 2B E0 8A 92 9F 8B 62 5F B6 11 51 C7 DD 76 6A 8A 98 E2 D8 79 B0 51 DD 8B 42 
5B 46 C1 94 33 43 15 A1 04 C8 4E DB 7A 98 7F F5 BF C8 AF 02 C3 2A 8B B2 EF DC BA BA CD FF 7F 85 
3D C7 FF 67 EA 78 F7 11 8E 43 2D 7A A3 02 0A A4 47 2E 09 23 D2 AA A6 88 D5 8D 25 BB 68 44 83 34 
CF 5E 2A 8B 18 EA 3B 75 55 14 2B EA 28 C6 EB C5 A2 4A 71 DB 13 C2 39 03 80 BF 83 8D D4 6D 68 F3 
0C A1 10 C8 3A 30 42 A5 F5 B3 71 9F 61 E3 3E 63 C1 DA DA D2 BC EB 09 BF AC F2 59 F2 6A 46 6C 6A 
B8 3B 3A BE 4D 56 88 84 91 1B FF B7 D2 2E 64 45 97 D5 CD 52 68 55 CB AD 15 11 21 C7 67 42 31 B1 
8B 36 5F A1 2A 60 BD 4B CC 54 34 66 50 A8 C8 39 43 28 24 B2 0F FA 8B 5B B8 E5 A5 0F 0B 73 EE DD 
4E 4D FC A3 50 7B E2 7F C3 DC 27 7C A1 AD 30 1F FB EE 46 C1 D5 D4 5B 5B BF EF EB E4 D2 65 75 B3 
14 54 D5 24 B9 FB 44 DD 7D 85 0B 39 4A 6F 9B 01 12 33 84 D2 21 3B 6D 6B AD C9 BF 9E 7C 35 3D 3D 
E5 D2 8D 57 D6 33 A6 7A 8E 98 18 76 F4 FF 06 F6 A3 29 EA 16 BA D2 43 24 8C 68 EA F7 EA B2 46 6B 
8A A8 6A 84 A4 DD 78 21 24 72 F7 67 18 AB 5E 1A A0 AE 28 2E 9A 24 AD 11 17 1C 44 DB 66 08 E5 46 
76 4A D3 C0 BA 5B D8 DA CF 63 FE AE 90 9D 16 06 9F 94 F3 8F F3 73 F6 F8 ED 35 39 10 EB 43 97 BE 
59 7C 7C F9 D4 F0 6B E0 19 12 1F B9 C8 91 8E 41 43 71 5C D8 8C 88 4B D0 DE 9A 88 FA D6 00 C4 07 
90 54 18 E9 B2 84 11 85 53 B5 B7 25 4D 51 EA EE 8B DB AA C4 A2 0A 5C 98 27 16 DE 14 8B 6B 30 B5 
69 98 9A AB 4A 8F B9 48 CF 10 CA 8D EC B4 CD C0 65 DE 0A 97 4F 7F B9 80 93 75 70 FD EC A8 62 97 
E8 D7 6E E3 AC D3 AB 2F 30 8F DE 8F 82 63 7E 1B 2F 8D 3F 13 60 51 9A B0 E6 04 33 AE 60 0B FC B6 
28 F2 D2 E8 D3 B3 E0 8D 01 96 0A F0 F7 47 6E 08 9A 9B B3 CF 24 64 6E 89 18 F5 C3 CF 5D 93 30 A2 
58 AA 26 7D C2 7A 0B 9D AA 00 C7 D1 C4 CD 62 51 95 18 AF 15 8B 1E E3 6D 0F C5 C2 D3 14 CC 8E 42 
B5 A3 A8 DA A9 68 4E FA F7 69 FA 08 84 A2 40 D6 08 21 E7 E2 FA F5 95 CE F3 3C 33 5F EF 7A 81 97 
DE 49 84 71 DB 6C F5 69 30 76 26 FC 98 51 EA 03 B7 6F 80 DF 1A 5B 9A 3E 4C 1A 07 2B EF B0 9C E1 
F5 01 FF B1 B4 D4 90 D3 7B 20 3B 92 B3 D8 5D B3 B5 C6 E7 F2 4B D2 4B 14 42 D5 4A 78 6D 99 2F 14 
E6 84 35 2E C8 17 0B 0B F0 B6 87 62 D1 5D 10 57 52 A8 63 28 58 7F 0A 75 20 55 6D 36 05 D5 04 41 
74 57 C8 AA 6D 74 9F FD C9 3E A2 9C E8 3D 6F 68 5B 23 B7 C2 C0 5C 1B 03 80 1E BA 06 CF B3 AB 78 
43 B8 0D 06 E6 3D 30 00 D0 D6 35 60 3D 28 AF D4 AE 30 60 48 0D E0 03 D2 B6 B7 90 14 EF EF 9A AD 
35 E9 C6 A1 A4 55 35 E9 DC 10 23 55 8A AF 21 75 11 43 9D E4 27 AC C5 42 B6 A8 39 1E DA 1E 63 1A 
7E 54 B5 D9 80 CD 47 9E 59 B7 87 9F 13 3D 73 E6 0E 49 F7 D1 C9 DB 33 7F 1E FD 68 8B 6B C0 E1 26 
00 00 3D 8F 98 B3 FB 7D FA C9 CF BC AE 83 D4 1F DD B7 10 D5 96 97 F1 C0 1C 00 00 74 4D AC 35 2F 
F0 2A 2B 0A 6B DB 6F F4 36 65 AA 5F 2C C8 AB E6 01 43 6A 40 8B DC 8C 25 25 FC FA FA 5B 07 0F 3C 
49 49 EE 9A E2 FD 44 75 E3 EA 7B D5 43 67 0D 25 E7 29 EC 4A 7E 5B 11 B7 2D F5 B9 E8 A7 3A D1 AA 
5E 54 4F 43 6A 82 29 E9 D3 1D C5 CD B8 90 85 B7 A6 E0 C2 14 15 CD C5 2A C8 39 23 33 9C C4 60 A7 
65 D7 24 0F 07 05 C5 1E 5A E5 4E 7F 91 14 14 52 B6 30 3E D4 FE 1F 7F 22 38 89 C1 13 CA E6 67 BD 
5D 11 F9 0D 68 F6 CB 2E B2 97 01 80 E0 59 62 D8 94 CB A3 1C FB 60 4D 99 DC 26 CF E8 74 49 E2 C2 
FB A7 12 E5 C4 38 AE 83 03 7F 7E 84 6D A4 44 B1 B4 0D F1 E9 48 4E AD 39 AD 8D E8 82 53 6B EC 4C 
56 CE EF 39 2D DC 96 C1 33 86 90 B0 0E 64 6E AD 28 BF 5E 94 F0 5C F4 4C 28 9E 45 A7 7A 1B AB 92 
BD EE FE DB 95 F5 D5 BE 52 A3 2D 42 AA A6 08 4C DE 9E 19 E5 4D A7 02 FE 2C 6D E3 82 A5 BB 33 D2 
37 33 64 BE 26 3F EF CF 5F 39 FE 5B DC 8D B0 96 9C 32 B6 AE 75 40 6F 99 2F 49 2E 14 4B DB A8 BD 
4D CD 3B 8A 54 F3 2A 0A 9B 0D ED FA 99 58 77 FC C8 6A CB 8B 5A FB CE 18 AA AD 5B 24 3D E0 9D 01 
49 86 99 79 A7 D7 4A 89 23 15 B3 53 C3 5E 8A C5 D7 5B F1 BD DF AD 83 EF DE D7 3E E3 DF A0 4D D1 
B6 55 B3 B7 52 B3 02 80 BF 5A F3 EF 0A 32 E1 A6 8C 96 FA 68 C4 BD 4D 5B 5D A7 B6 9A 0F 69 1C 30 
84 2A 68 E9 C1 CE D5 CC 3C 4F 7D 70 45 56 ED 29 FF 35 33 A7 61 0E 76 2A FD 4D 29 FD 8C 31 3D 5D 
4A 69 19 5E 5E 81 3F C8 C7 53 AE E2 E5 E5 E7 01 CE CB DB C0 CF CC BC 65 61 F2 36 41 C6 60 46 AE 
DE EE 6A 7B 79 4D 32 5F 09 6F C8 3E 7F 50 6D DC 69 5B 5D 80 CA 8A 42 6E AF AA 30 FB 1D 6C F0 8C 
3C 19 F3 B5 95 CC 57 27 05 8A A5 6D 80 69 EB 99 D4 F0 1A 71 A0 C3 2B 5E 8D 21 C3 58 57 FB 89 4E 
0D D1 3D AF 91 57 63 69 6E DA 0F 5E 1F F0 4E B7 5A 52 9D 53 B9 CB A7 4A B6 D6 64 5D E6 58 92 2A 
D2 77 78 DF E1 DF 7E 49 9E AE A1 F5 2D F8 43 6E 9B 74 FA BE 83 01 55 5F 03 03 30 05 98 22 6F EB 
5E 47 DC 8C 0B 59 ED 89 21 C2 D3 14 EA 18 8A CA 60 4C 75 28 85 6A 42 51 31 1E D4 0B 06 39 C0 B8 
A9 B0 66 83 BC ED 94 0D 5B 77 EC 93 B7 09 32 06 7F 96 9E 74 7F F8 A4 69 7D 24 77 F8 C5 49 3F AE 
5E 71 34 9F E8 03 30 DB B8 22 3E 34 28 32 95 03 A0 65 35 7B E7 81 0D 63 E8 4D 85 F1 A1 41 91 A9 
7D FC 23 46 8A E0 EF 50 F9 87 FA B7 D5 E7 A4 66 58 4C FD DA 02 03 C0 5F F1 6A D4 FA FB C5 9C 9E 
0E A7 43 17 76 F4 DD 06 80 86 E2 B8 75 6B CA BC 7F D9 E0 D8 78 76 7B 68 E8 E1 62 A2 25 A9 3F 00 
08 EB 72 0F 05 FB 47 5D EB 1F 14 7B 68 95 3B 5C 0C F6 38 01 5F 3E B9 76 1D C6 46 84 39 A6 6F DD 
92 0A 1E 11 B1 51 01 D6 64 8E 5A 2A 9A B6 59 38 FB 40 C4 85 DC 29 41 90 F2 27 8C 8A B1 D0 B5 80 
51 B0 34 25 77 BA 01 9C BF 0C 53 23 2C 2D E1 F5 01 DD 37 91 44 BA 20 E4 B0 29 DE 32 5C 48 2A 55 
64 46 EC 4C 7D 63 52 1C 9C 22 D2 F7 4F 56 09 63 5F B6 11 E9 FB 24 3D 91 26 6E C6 05 79 B8 30 4F 
DC 56 20 16 5D A5 A8 4E C3 54 06 A1 B6 67 5D 43 94 B5 AC FE DB 5B 5E C8 92 7A 74 6E 85 D3 B9 15 
00 A0 E5 19 12 FF F3 6E 47 3A 06 95 00 00 D0 C2 3A 15 19 5E 37 E7 E6 E3 89 D8 CD 9F 02 43 E3 87 
9C 5C 34 3B F6 CE 6C 00 68 48 0B 77 8A BD EC 3F CC E5 F6 0F DB 55 43 FF 38 C0 DE 10 B8 A7 58 6F 
E9 E2 8E 19 DF DD BF 0D 00 00 1A 0A AE 26 18 FA 24 F5 C7 00 00 B3 9A 9D 74 63 36 00 00 3E D5 DF 
7D 3B D1 77 1B 9A 2A AE EF 8A BB EB B1 67 CF 98 3E A5 71 0B BE 6B 08 CE 28 9E 8C DD DA 34 67 73 
EC A0 B9 00 EC DF 37 1D F7 58 1F 1D 9E B5 E7 78 E6 6C 77 27 80 26 01 73 C9 85 A8 25 C7 FC 7C 8F 
0C 4C B8 90 BB F0 98 5F 60 4A 89 BF F5 87 36 FF E4 09 89 4D 7B 0D 7E 4E F4 CC 60 D8 9C B9 CC 76 
DA 36 AF E5 53 87 D9 82 67 48 7C A4 05 06 98 A5 EF 8F 7E 61 33 06 0F 03 CF B0 83 9B CD 31 8C FA 
C6 80 6E 88 74 07 51 99 6E AD 91 30 55 84 68 90 26 D9 48 0B E8 AF B6 D3 80 4A C2 8D 34 31 5E 8F 
0B 1E E0 82 34 B1 F0 34 45 75 1A A6 EA A8 A2 3E 06 B5 3D EB 62 5E 57 20 D9 31 79 7B 66 94 37 AD 
38 3E 74 D5 DD 2A 01 38 4A EE D7 14 A5 D7 7B FB BB 1A 61 6A E0 3A E1 AB 65 71 15 2F 9F E1 07 37 
CE 8D 4A 6D 02 00 18 B4 B8 B1 BA 28 BD C2 69 D2 08 87 31 53 0F C4 41 E0 BB B5 EC 0D 44 EC 07 C9 
96 9E BF BF F9 9F 3D A6 A5 A3 DB BE EF CD 8D 5D 31 CF 7E 71 C2 22 23 4C C4 29 CC 29 F5 F5 1D 6D 
A4 86 C1 97 53 C6 EE DD 57 CE 63 12 0E 5C 40 FF 92 97 87 12 89 A8 98 9E AB 9B 8D 3E AD D6 C4 58 
72 01 64 8F 75 91 5A DB A8 F6 CB B2 DB DB E4 D1 EC 97 5D CC 26 AE AC FC F7 17 F9 4B 8D D2 B1 0A 
F8 25 3F E0 EF C7 6F 0D E8 5E B0 32 EF A4 EF DE A9 37 C0 42 A6 1D 44 C9 96 2A 22 A9 56 0C 00 9E 
BD 54 22 06 69 90 33 7D 5F DC 56 85 B7 DC C0 45 77 C4 6D C5 98 EA 58 15 75 2F E4 9F 75 17 68 D6 
DF 6E 0A BE EB 75 E0 A6 C7 06 77 9D 4E 47 08 EB AE EC 0E 4F B6 89 2B F8 D5 5E 23 37 C6 F1 7D 9B 
E2 EF 8D 49 8A 6A CB CB 04 43 EC 0C DF FC CF 5E 54 5B 5E 26 A0 DB 69 01 0F B4 26 AF 5D A9 1E BD 
31 D1 EB 8C BF 76 27 D3 EB 31 6D FA D3 00 00 84 15 DC 57 F8 47 BC 49 12 41 C6 CF 3F E2 D3 20 7A 
AD 71 1F 97 7A AC 5E D3 DF 66 A8 2C 96 10 34 0B 58 77 58 F7 E3 B2 01 C0 65 A1 0B C3 A9 8B FA 94 
BE 8B 4A 7E 5B 62 B9 40 72 22 6D B7 9D 26 09 D3 F7 25 55 AF 70 C1 69 0A C5 00 53 F3 52 D1 9C 87 
A9 D9 C8 DB 2E 44 57 83 19 B9 07 CD 3A 11 99 C0 72 0B E8 01 00 00 06 4C 57 FD F0 13 E9 0B DC 26 
62 E9 C9 57 E8 03 57 E8 D5 AA 99 99 D0 B5 44 9C 9B C9 57 B8 F0 15 18 30 5D 4D C2 CF 27 5F 03 CE 
F6 D0 83 C5 7A 4B 25 53 BD 37 26 D9 F2 AC EC A9 05 A3 6F 7B 14 A5 21 2D DC 69 57 AF A3 07 42 07 
B2 FE F8 F5 A1 77 D8 60 1D 48 07 75 F3 A1 FE D3 22 B3 E6 47 9F F5 D8 69 6D 6F F1 5D D2 F5 85 2E 
93 B1 BB 67 53 D4 98 11 BA EF 98 56 C1 40 DA A6 0C 48 6F AD F9 6C DA 2C 93 25 A4 52 45 C6 AE 1F 
27 DF 54 11 49 E0 11 00 7C 0D A9 09 C3 B5 C8 23 69 62 BC 1E DA EA 71 51 91 58 54 22 C6 9F 8A 45 
57 DB AB 5E 51 07 AA F6 3C 84 CE 56 77 6F 74 6D FD FC FA 7A ED 3B 37 96 D8 38 D3 B0 9C 1E 1E C9 
5E ED 36 60 19 91 4B E2 61 5C B1 E4 5C 90 DB 80 B5 56 FE B3 EC 07 09 EB 1A 80 18 10 1C 0A FE 11 
8B 0C 77 FC C3 55 5A 1A EA 84 ED 15 2D 00 40 C7 65 51 FC A3 F5 FE 76 8C 26 BA C7 F2 A8 4D 6E BD 
E1 05 00 00 60 A6 93 97 CF 8C 5B 9A 94 7F F2 DB 6D DF 97 85 BA 58 AD 00 BA 47 44 EC CA 61 AD B1 
32 78 E7 5D 0F 45 2C 16 CB DB 06 39 A3 E8 79 92 F7 CF 26 11 5B 6B 8E D3 67 CA A2 74 96 74 AA 88 
CD 44 1B 39 A6 8A BC 21 69 1E 46 AA 64 90 B4 BF DB 52 4B AA 5E A9 4E C3 54 06 81 8A 21 A6 D2 9F 
A2 2A FB 93 4C CA C2 D6 1D FB C2 42 E6 CB 74 09 45 FF B0 2B 25 32 FA A1 20 BF 4D 81 79 9A 9F 77 
6D DB 8F 7A 03 2C 64 54 3A 8B 24 A9 22 6F 48 1A 19 02 8F 84 9E B5 17 D7 C7 1F B4 27 83 A8 A2 E6 
67 08 04 59 40 DA A6 90 D4 57 55 DD FC F5 17 EE E3 52 D7 C5 4B 65 D1 95 86 0C A9 22 6F 64 3C CA 
5D D2 DA 9B 9F 89 D8 ED CD 62 54 C7 A2 E2 FA 08 04 69 41 DA A6 90 A8 69 6A 9A 38 38 7E F6 AE 34 
64 48 15 91 54 C3 02 12 64 3C 8A 85 6C BC ED A9 58 F8 00 17 A6 00 00 D2 33 04 42 51 40 DA A6 90 
D0 F4 F5 3F EF 71 6C 3E 97 5F 70 E9 AF BC C3 79 72 49 15 69 16 89 8B 79 6D E9 2F 84 72 CF 78 14 
E3 F5 62 51 E5 DF 95 41 30 3B 8A AA 1B A6 E6 AA A2 F5 5F A4 67 CA 81 D2 17 D8 43 10 20 6D EB EE 
70 D8 9C BC A4 BC 47 87 1F 76 7D 03 9A B7 9B 59 5F 1A A0 DE F5 A5 43 24 CE 99 58 F4 40 7A F3 0C 
9D 3C EB 1A F0 7A 7E 5B 1D 1F AF E1 7F 59 D0 26 EB B5 50 22 49 F7 01 69 5B F7 85 D8 54 E3 96 70 
1D 17 0E 1F 9D 39 BA CB 36 D5 E4 5E 0D 8B 38 70 F6 5A 67 6A 55 37 8A AA 1D 72 CE 64 8A 44 C3 DA 
5E 34 E2 D5 0D 6D 15 2F 71 F6 CB B6 0C 2E 65 80 06 D5 95 4E E9 D9 7D CB E3 21 64 01 D2 B6 6E 87 
A0 59 50 90 5A 50 70 F2 2F 0D 3D 0D FB FF DA 77 D9 A6 1A 91 1B 42 34 B3 EE E2 6A 58 ED 9E 99 88 
2D C6 2B 09 31 03 95 01 C8 39 93 11 A2 2A AE B8 A9 F5 3D 1A 46 B5 32 50 61 F4 56 F7 B4 A2 68 A9 
53 8D F5 24 2F BC BB E3 B1 BB FC CC 46 28 19 48 DB BA 11 92 93 6A 5F CC 1A D4 35 9B 6A 6F 6F A4 
75 41 33 EB D7 4E 4F 13 61 46 EA 18 8A CA 60 8A 4A 5F 15 F5 31 14 24 66 9F 03 C2 09 13 37 09 44 
65 75 00 20 BC 57 01 00 C2 C3 4F 00 40 C5 45 0F 63 F4 7C 8F 86 21 10 5D 00 D2 B6 6E 81 E4 A4 9A 
95 EF 17 5D 70 52 8D 88 3A 66 D7 8B 24 1B 69 B2 6D 66 4D B4 86 69 7B 82 0B B3 A4 4F 4F 63 6A AE 
14 0D 1F 74 7A FA DF 40 68 98 E8 49 9D F8 95 40 54 5C 23 7E D9 42 38 61 00 A0 3A CB 0C 00 54 87 
9B 00 80 A6 9F 2D 45 4B 8D 1A 3E 9E 22 EF CA A2 08 04 01 D2 36 65 46 D0 2C 28 CF 7B 9A B1 37 03 
00 86 05 38 C8 FA A4 5A 09 AF 2D F3 45 7B D4 D1 A7 97 CA A8 3E AA 4D D6 32 6C 66 2D 6E AB C2 05 
F7 A5 FB 50 AB 68 A0 D3 D3 9F 8E 90 C5 01 00 61 61 B5 98 DF 2A 2A 7A 21 1D 48 54 31 E9 89 F5 D5 
51 1F 39 00 33 A0 21 27 0C A1 10 20 6D 53 4E A4 CB 3F CA F4 A4 1A 91 EB F8 80 2B EA 9A A8 23 D1 
1A 86 38 70 46 A1 18 50 54 DD 50 AB B3 F7 23 AA E2 B6 3D AD 6B 7B D1 D8 F9 B3 C5 35 E2 97 2D A2 
74 8E F8 71 0B 75 72 5F 8A 9E 3A 95 D9 87 42 53 D7 9A 33 1C 00 54 2D C9 D2 60 16 81 F8 58 90 B6 
29 1B F5 55 F5 F9 17 F3 89 F2 8F DE BB 7C 64 B4 A9 46 44 1D 53 9F 8B 7E AA 93 7D D4 51 DC 8C 0B 
59 B8 E0 8E 74 41 10 D5 1E 73 91 7F F6 36 E2 66 81 A8 B2 5E F4 A4 0E 7F DE 28 2A 7A 21 3C FC 44 
C5 45 4F 65 98 21 D5 CA A0 D3 F1 AA F6 C6 54 B3 5E 2A 2B 69 98 BE FC 7B EF 21 10 9F 11 D2 6A 5B 
43 71 5C D8 8C 88 4B E0 19 76 70 F3 5C 07 BA 24 92 56 9B B6 6E 5A D0 D1 72 00 68 EF F8 47 6F 7A 
7D 24 95 5F 7C 7C F9 D4 F0 6B E0 19 12 1F B9 C8 91 DE 7D BA 93 B2 33 59 45 C9 45 D5 F7 AA 1D 17 
0E 97 D1 A6 1A 11 75 94 D4 C1 F2 36 56 DD 68 2B 93 A8 63 FB 19 EA B6 27 B8 17 A5 C8 4E 00 00 1B 
13 49 44 41 54 E0 4A 7B 37 6A 55 47 15 CD 6D 28 47 FF 0D F0 7A BE F0 11 47 F4 B8 56 54 F4 82 70 
BF 54 67 99 11 79 1C 5A 73 86 A3 0D 30 44 B7 85 A4 DA 86 B3 12 D6 9C 60 C6 15 6C 81 DF 16 45 5E 
1A 7D 3A C0 AA 43 A2 5A 5E 72 C0 23 E6 D6 7E 9F 7E 9D 8F 9C 05 A7 57 5F 60 1E BD 1F 05 C7 FC 36 
5E 1A 7F 26 C0 52 D9 C5 ED 8D 42 59 9F 7D 53 ED ED A8 E3 B6 21 9A 03 75 3F B3 8B 26 16 B2 C5 78 
ED DF D5 F4 01 28 D4 2F 31 55 47 15 CD 79 98 EA 36 14 72 24 1C 32 61 61 F5 DF 77 F8 AD 82 B3 2C 
9C D3 AC EA 65 46 28 19 72 BF 10 08 09 E4 D4 B6 96 D2 DB 37 C0 6F 8D 2D 4D 1F 26 8D 83 95 77 4A 
67 59 B5 4B 94 E8 45 D9 FD 1E CC 85 BA EF 1A C9 72 86 44 18 B7 CD 56 9F 06 63 67 C2 8F 19 A5 FF 
B1 B4 54 DA 33 A1 D2 85 B2 DC 57 8E 36 B5 31 FD 8C 93 57 F2 DB 8A B8 6D C4 09 EB 55 BD A8 9E 86 
D4 CF 59 34 44 DC 2C 16 55 E1 A2 22 71 5B B5 B8 AD 40 BA C9 19 55 6D 36 A8 74 F7 7C 10 E9 63 CE 
A2 E2 9A B6 FB CF DB 32 B8 AA B3 CC 88 CD 30 62 0C 85 A6 4E DB F2 15 DA 12 43 20 3A 85 9C DA 26 
6A E4 36 B4 F7 D6 D3 D6 35 60 3D A8 E2 E3 96 3A 18 00 40 6D 79 11 F7 55 D5 5A B7 DD 0F D5 3D 22 
62 A3 02 FA BF 31 B2 BC 52 BB C2 80 A1 8D 01 40 0F 5D 83 E7 D9 55 7C 50 46 6D E3 73 F9 B7 0F DE 
96 45 A1 2C 49 A9 62 22 EA F8 D9 4E 58 77 88 19 2E CC 82 B6 C7 44 69 2B 0A D6 8F 42 65 A8 A8 8F 
A1 A8 EE FA 1C B6 2B 18 C4 19 E7 37 8E 88 11 71 45 E9 63 CE EA 23 07 A8 F8 3B A2 D4 44 04 E2 A3 
20 A7 B6 F1 2A 0A 6B 81 A8 68 DA DB 94 A9 7E ED 65 13 0E 3A 18 00 E0 8D BC 1A 2D E6 CC 98 1F A6 
C1 F9 E5 53 7F 38 3D 62 83 EE 6B 23 2F 16 E4 55 F3 80 38 CF A4 6B 62 AD 79 81 D7 22 AF F7 20 6B 
0C 06 1A 7C AE 42 59 92 BA 8E 89 75 6D 43 B5 B0 91 FA 2A 9F 25 EA F8 77 D3 4E D1 1D B1 E8 2A 85 
3A 06 A3 3A AB A8 7B 51 A8 26 DD 6A DB 4C C8 E2 48 17 E9 80 8E 33 CE 84 80 41 C7 11 31 8D 49 4C 
CC 80 86 E2 8A 08 C4 67 81 9C DA F6 4E 30 CB 80 33 45 01 00 00 30 FE 6B DF E3 C7 0B 9F 7B C9 D7 
20 39 41 D3 A3 D9 4F B6 FF 97 93 48 47 1D B7 D0 A9 0E FA D4 F9 FF BA AE 63 7B 93 33 A2 EE B0 B8 
86 D8 33 A3 6A 85 74 1F CF 8C 08 27 0A 0B AB 45 C5 35 F8 93 97 A2 73 D5 92 4C 45 A2 48 07 00 A0 
14 0F 00 E0 72 F9 75 75 7C E2 BA B6 8E 5F 53 D3 C8 2E 91 79 AD 64 44 F7 81 9C DA A6 6B 62 DD BB 
FD B2 B6 BC A8 55 CF 56 EB ED 3F B8 1A 3A BD 34 01 7A BD 3E B2 EF 8C A1 DA BA 45 C4 63 5E 45 61 
B3 A1 DD 3B 03 92 D2 AD 2E BA 55 DB 8B D6 B1 81 2D D6 CE CD FD 2C 45 6A 1A DA 8F FF D2 28 BC 33 
20 E7 CA C1 DA F2 83 9F 3A E1 CC 69 98 83 9D CA A0 2F 30 0B 73 8C CB 13 97 B0 F1 B2 27 78 66 16 
9E 92 8A 03 B0 00 8E 7E 4E EB 49 83 2D D0 CD C4 FA 00 60 04 3D FB 88 B5 B5 40 DD 44 AC DB 57 AC 
0B 00 D5 14 5E 05 85 F7 84 52 FB 0C 5E 26 52 8B E0 1E C0 3D 79 9B DB 85 A8 A8 0E 00 8A 86 0A B5 
0F 60 6A 00 80 61 34 8A 4A 0F E2 29 0C EB 41 C1 DA D3 82 C4 62 11 DE C6 6B 7F 0D 2E 6C 6B AB 1F 
31 CA 46 1E F6 22 94 13 72 6A 1B 55 5B 4F A7 86 F7 0A 07 80 46 5E 8D A5 B9 31 ED 6D 6D 23 A4 4B 
FB 8D 91 A6 FD C0 A4 86 D7 88 03 1D 5E F1 6A 0C 19 C6 EF 0C EF 48 BA 5D 30 CC CC 95 BE F3 45 7D 
0B FE 90 DB 26 E9 26 33 52 5F C5 C3 48 B5 1F 4D 05 60 0C C0 18 80 75 1F 35 DB DF 4D CE A4 82 8D 
14 EA 00 8A EA 40 C3 5E FA 86 16 30 12 60 D6 FF 64 F4 56 BA 0E 62 3F 8C 48 4D 24 CE 38 03 80 A4 
E2 94 24 A2 08 1D 41 45 55 EB BE 2A BD 68 98 3E AD 1F 80 63 C7 24 3F CB C3 F2 2E 80 F0 BA 9A 9A 
05 4F 9F D6 F1 F9 AD 8F 8A 5F 00 40 D2 F9 27 00 60 33 58 CF DC AC 67 4F 1D 0D 4B 4B 03 00 E8 A1 
A5 66 6A DA 8B 78 95 A6 96 BA B1 D1 3B 37 0E B7 EE D8 D7 15 A6 23 BA 07 E4 D4 36 0D 8B 11 A3 60 
69 4A EE 74 03 38 7F 19 A6 46 58 B4 4B 1B DE 90 B6 D1 75 6B EF B8 93 0B 06 96 9C D9 9F E1 B8 2A 
CA C8 C2 F8 B5 91 96 96 E0 03 11 17 72 A7 04 41 CA 9F 30 2A C6 42 09 13 49 FE 39 95 FC B6 7B 35 
A2 E4 E7 22 49 D4 F1 93 BB C9 B4 07 1B 45 6C B1 F0 A6 A4 C9 19 55 2B 84 42 55 86 04 7D 49 D5 44 
E2 C8 33 21 60 44 CD 5F 22 35 91 38 E3 0C 00 DD A4 E2 54 73 8B A0 AA B2 9E B8 2E 2F AF 7B D5 24 
00 00 16 AB E6 65 43 4B D9 93 97 F9 05 DC BE 74 8D E1 0E 74 00 70 18 66 42 A3 A9 4F F3 B5 D5 D2 
54 5B 13 36 5E 53 A3 BB C7 5A 11 24 81 9C DA 06 98 A5 EF 8F 7E 61 33 06 0F 03 CF B0 83 9B CD 31 
E0 E7 44 CF 0C 86 CD 99 21 0B 0E E6 87 07 0C B6 6C D2 F2 0C 89 8F 74 D3 C1 30 9D D7 47 62 D4 69 
DB BC 96 4F 1D 66 0B 9E 21 F1 91 16 CA 7E B8 AD 53 72 6B 45 E9 2F 84 A9 75 6D 00 E0 D9 4B 65 11 
43 FD B7 4F 2A 82 25 16 B2 89 CC 46 B1 E8 2E 85 62 40 A1 DA 51 54 ED 54 34 27 29 74 26 08 E1 8D 
11 C5 7F 85 F7 2A C4 DC 56 D1 B9 6A E9 AA 89 9A 7E B6 58 6F 6D 25 16 30 C2 E5 22 B6 B8 A0 43 B1 
88 A7 08 C7 8B C0 7B 92 19 71 21 F1 C0 5C 5C 06 F4 EE 45 7B BF EF 85 40 90 04 8A 58 2C 96 B7 0D 
72 46 39 62 92 6F 44 1D 27 18 52 87 1B 50 3F BA 08 16 51 50 5F 58 D0 DE B4 53 2A D8 A8 70 07 CE 
A4 35 4C BA 6A 22 E1 8D 11 32 46 35 EF 45 D1 52 53 E8 23 62 5C 2E BF B8 84 43 A8 D4 FB C9 BE 5F 
F1 F2 65 6B DA AD 6A 00 F0 9E 64 26 51 2C 03 03 ED DE BD DA 43 F7 C6 FD F4 E5 E8 78 6D DD B1 2F 
2C 64 BE BC 56 47 28 19 24 F5 DB 10 FF 10 49 C3 CF 4F EE 61 4D 34 A1 C6 85 79 D2 C1 46 05 6A DA 
F9 76 13 96 B7 35 8C 28 60 AF 40 E9 F5 6F B8 56 9D C2 E7 B7 26 5F 66 D5 D4 36 7F E5 61 46 A8 D4 
FB 21 C2 86 31 51 0A 2C E4 08 C4 3F 07 69 9B 42 52 DF 82 1F 7F DC 4A 14 C1 FA 84 A8 23 11 6C 14 
8B 4A 70 61 0A 00 10 D5 87 55 D4 C7 90 BC D5 D9 3F 6C C2 42 1E 0D 63 B3 39 00 40 24 5C 7C 70 70 
F6 FD 0A 00 B8 97 CD A9 E6 B4 10 BB 59 12 D7 AA 53 68 34 F5 F5 6B BF 62 C8 BE C1 2C 02 A1 88 20 
6D 53 54 06 6A AB 7C 44 E9 FD B7 82 8D 14 95 C1 98 9A AB 0A 29 AB E9 BF 51 71 8A 9C 4D 58 24 C7 
B3 24 DE 15 87 D3 50 59 F5 12 3A F4 09 00 DC 47 F6 ED D9 53 1D 00 1C 86 99 7C 70 42 C2 AF 0A 5D 
4A D3 93 71 E7 58 04 A2 3B 80 B4 4D 21 D1 D7 C0 C6 9A 7C 60 5F 84 28 0B 82 0B F3 DA 0B 36 AA 4E 
C3 54 06 91 AA DB 99 B4 86 11 35 3B A4 5D 31 A2 E2 54 D7 37 61 91 4E 11 7C F8 A8 BD 36 B1 24 E1 
82 C8 12 04 00 49 A2 A0 C4 BB B2 18 D0 7B B4 BB 15 00 20 7D 42 20 E4 0E D2 36 A5 42 2C 64 E3 6D 
4F 89 D6 9D 40 04 1B A9 03 E5 5E B0 51 3A AD E3 5D 1A 46 D4 EC E8 82 0C FB AA 67 DC E6 A6 56 49 
5E 3B 11 09 04 29 67 0B A4 52 04 FB 19 F7 A4 D3 75 A0 23 45 10 3E 74 42 0B 81 40 90 04 A4 6D 0A 
0E 11 6C 6C 7B 82 0B B3 C4 C2 D3 14 CC 8E A2 EA 86 A9 B9 AA 68 FD B7 8B 33 F5 09 27 EC 8D CA BF 
44 E1 44 22 AD 43 8E 1A 46 78 5D 84 7A 11 27 8B 25 A2 45 44 02 01 39 5B 08 84 72 81 B4 4D 21 11 
E3 F5 78 F3 A5 F6 B2 20 5D 1B 6C 24 12 3A A4 F3 12 25 A5 3A 54 67 99 41 47 91 0E 4D 3F 5B 8A 96 
5A 17 14 4E 24 F6 BD DE AF 61 84 D7 85 D4 0B 81 E8 3E 20 6D 53 58 30 9A EC 6A 10 13 51 44 62 27 
8C 48 4A 24 CE 38 03 00 91 D0 21 9D 97 D8 65 A5 3A 88 B4 C3 87 8F AA 89 22 4F D2 05 32 90 86 21 
10 08 69 90 B6 29 24 14 4C 5F 45 73 CA BF 9C 84 68 E5 0C 00 44 C9 C4 77 F5 0F FB 3B 29 F1 17 D9 
26 25 BE 5D 18 1E 3A 92 38 08 57 8C 48 3B FC C2 AA 0F 8D A6 FE ED 37 C3 01 00 65 C0 23 10 88 4E 
41 DA A6 FC 48 47 11 A5 53 39 A0 23 8A 48 64 D5 13 51 C4 CF 9E 91 48 38 5B 20 95 73 28 C9 95 07 
A9 B4 43 90 CA 3C 04 A9 E4 43 DB A1 C6 A6 A6 BD 90 2B 86 40 20 3E 0A A4 6D 4A 82 74 2A 07 11 45 
84 D7 53 39 88 28 E2 67 4C E5 90 E4 CA 4B CE 26 4B EA C1 83 54 65 42 C9 19 2F C2 DF 02 A9 5C 79 
40 69 87 08 04 42 36 20 6D 53 48 F0 7A 7E CB 4D 96 F4 B9 66 E9 26 CE 92 28 E2 27 A7 72 BC 47 B7 
24 35 09 41 2A 57 9E D0 2D 49 3D 78 00 40 25 E1 11 08 84 1C 41 DA A6 C0 B4 A7 72 2C FA 38 27 EC 
63 75 8B A8 A9 21 D9 E2 02 00 54 93 10 81 40 90 1C A4 6D 0A 09 A6 4F D3 F2 B1 7B FB 3E D2 2D 04 
02 81 00 12 6B 5B 43 71 5C D8 8C 88 4B E0 19 76 70 F3 5C 07 BA 24 BA 85 F3 8B 8F 2F 9F 1A 7E 0D 
3C 43 E2 23 17 39 D2 B1 37 47 52 DF 1A A0 84 70 B9 FC F4 DB 2C 49 52 86 74 46 06 D2 2D 04 02 81 
20 A9 B6 E1 AC 84 35 27 98 71 05 5B E0 B7 45 91 97 46 9F 0E B0 EA E8 BC CD 3A BD FA 02 F3 E8 FD 
28 38 E6 B7 F1 D2 F8 33 01 16 A5 AF 8F 9C 05 6F 0C B0 54 4A 71 03 00 00 3A 5D 47 92 94 81 B2 E1 
11 08 04 42 02 39 FF F0 B7 94 DE BE 01 7E 63 6D 69 FA B6 93 C6 C1 99 3B A5 78 FB 13 78 E9 9D 44 
18 E7 65 AB 4F B3 1D 3B 13 6E 64 94 F2 DE 18 C9 62 BD 31 A0 45 AE 6F 44 56 E8 E9 D1 26 4F B2 9B 
3C C9 8E C1 A0 13 5F F2 B6 08 81 40 20 48 04 39 B5 4D D4 C8 6D 30 D0 ED 81 01 60 DA BA 06 AC B2 
2A 7E BB B8 E1 8D DC 0A 03 5D 6D 0C 00 EB A1 6B F0 9C 5D C5 7B 63 64 79 65 ED EB 03 F8 F2 7D 27 
08 04 02 81 E8 7A C8 A9 6D BC 8A C2 DA F6 CB DE A6 4C 75 EE CB 26 42 DB 44 B5 E5 65 BC F6 27 74 
4D AC 35 9F F3 2A 5F 1F 59 5D 90 57 F2 FA 00 E5 F4 DB 10 08 04 02 F1 1E 48 BA DF D6 05 30 CC CC 
3B BD 46 20 10 F2 22 2C 64 BE BC 4D 40 28 09 E4 D4 36 5D 13 EB DE ED 97 B5 E5 45 AD 7A B6 5A 84 
7F 49 ED 6D 6A AE DB FE 04 AF A2 B0 D9 D0 AE DF EB 23 FB CE 18 AA AD 5B 24 3D 40 E3 5D 6B B0 9F 
94 11 17 0C 33 73 C9 B5 02 A1 88 66 23 9B BB 0C 45 34 1B FD 8B 89 F8 8C 90 33 26 49 D5 D6 D3 A9 
E1 BD C2 01 F0 46 5E 8D A5 B9 31 AD DD 4E 4C 5B CF A4 86 D7 88 03 E0 AF 78 35 86 0C 63 DD 37 46 
9A F6 EB FD FA 00 54 84 10 81 40 20 BA 1D E4 D4 36 0D 8B 11 A3 E0 44 4A 2E BF 3E F7 FC 65 98 EA 
6C D1 61 26 66 E1 EC 03 97 2F E4 D6 F3 73 53 FE 84 51 2E 16 BA 6F 8C B4 B4 7C 63 C0 3B FD 36 04 
02 81 40 28 2D 62 92 F2 F2 D1 A1 F9 43 FA 9B 0D 09 FC 25 AB BA 55 2C 6E BC 1F 35 61 58 D4 7D A1 
B8 AD F1 D1 91 79 83 CC 2C 06 05 ED BC 57 DD D6 C9 C8 B7 07 20 10 08 04 A2 7B 41 11 8B C5 F2 96 
57 04 02 81 40 20 3E 27 E4 8C 49 22 10 08 04 02 F1 E9 20 6D 43 20 10 08 84 B2 81 B4 0D 81 40 20 
10 CA 06 D2 36 04 02 81 40 28 1B 48 DB 10 08 04 02 A1 6C 74 7B 6D E3 67 C5 4C 58 96 C4 11 C9 DB 
8E 0F 82 F3 73 76 79 05 25 72 88 EB E2 A3 C1 4C 73 06 73 DE AE 2C 0E FE A1 57 76 35 AF 7D 4B 1B 
8A E3 16 D8 98 99 DB 04 ED CB E6 08 00 00 F8 85 F1 41 CE 0C 33 E7 E0 9D 77 E4 6D BA F4 B7 F4 6D 
C3 DE FA 26 CB D3 72 DE FF B7 77 A7 61 4D 9D 69 1F C0 9F 10 C2 12 76 81 02 82 10 4C 58 23 8B 6C 
A2 75 61 AC BB B8 A0 55 46 EB D6 A2 9D 4B 5B 2D D6 D6 6A EB D2 56 3A 55 EC 88 E2 A8 53 67 6C D1 
FA 96 B7 5A 15 57 5C A7 A1 75 47 19 15 04 21 EC 10 C2 12 1B 0C 31 2C 09 C9 7C 00 AC 9C A0 C1 F7 
15 12 8E FF DF 27 92 EB E4 E4 3E CF 73 38 7F CE C2 75 67 25 CD 7B 37 AD B2 BD 6C EA EC 53 06 59 
E7 02 3D E9 79 B3 DF 8D C2 74 CE 02 40 F7 BC D2 D9 A6 AE BE B6 33 7E C5 DF F3 5A F5 5D 88 4E 2D 
D5 99 7B 3F 9C B7 2D BF ED 55 47 13 BB 3B 07 03 CF 26 9C 2D 32 A4 DF 78 CA 90 76 F4 E1 BB 9D C2 
CF F8 EA 6C 89 9A 34 09 7F FE E6 10 3F F9 4E 4E B2 7F FA DE 73 FA EC 40 D4 79 48 B5 0B A3 0E B2 
FE 2A 57 57 DF 4A FE 78 D1 8E DC 8E 97 D4 D9 A7 0E B2 CE 05 7A B0 D2 E7 CE BE EE C2 74 CE 42 8F 
95 0E B4 F3 2A 67 5B E5 C9 75 C9 B5 C3 66 8E 66 EB BB 10 9D AA CF 6C D8 50 39 74 C9 98 B6 4A B5 
9A D8 19 4E AF 03 CA 90 6A F5 E1 53 95 5D 3D 46 66 47 07 58 5A 06 4C 8E 25 69 57 CA F4 76 B0 EA 
3C A4 44 4D 2D 4C 45 19 64 E1 03 3D 55 AE AA 3E B1 65 63 6D F0 3B 63 EC DB 2B 7D E1 16 86 D4 05 
7A 2C 21 74 CC BE EE C2 B4 76 0F EA 2C 18 D0 AE 0E 86 EE 55 CE 36 B7 69 FF 4A DD B4 60 B4 BF A9 
BE 0B D1 C9 79 FA DE F4 84 F9 A3 FC 4D 08 21 5D 34 B1 33 9C 1E 75 94 21 D5 EA C3 27 93 49 CB AD 
6C AD 8C 09 31 B6 B2 B5 2A 2A 14 EB AD F4 CE 43 4A D4 8F 29 85 C9 28 83 5C 5E A5 A7 CA 8D 9D A7 
27 9D 4E 58 38 92 6F DD 5E E9 0B B7 30 A4 2E F0 A4 1B E2 CB A6 63 F6 75 17 A6 B5 7B 50 67 C1 80 
76 75 30 74 AF 72 B6 F5 51 DA 4D EC 0C F6 8F 59 AD 3E 7C 25 A5 B9 D2 B6 D7 C6 0E EE 9E 26 D5 F5 
0A BD D5 D6 99 A4 BC 73 61 75 A5 94 41 CE BE 67 18 95 FF 1F 5A 18 56 3E A3 1B 62 4F AB 7F E1 C2 
A8 BB 87 D6 2C 18 EE AE 0E 06 07 D9 06 00 00 74 83 6C EB 73 B4 9A D8 D9 1A 6C AF 03 6A 1F 3E 1B 
4F 8E BF 5D DB 6B 95 A4 BC A4 C5 D9 D6 50 EE 75 3A B8 77 2E CC 91 43 19 E4 80 40 C3 A8 5C 7B F6 
A9 2D 0C 07 05 79 3F 77 01 3B 1B 76 EF FC D6 DB BE 70 61 D4 DD 43 6B 16 0C 77 57 07 83 83 6C EB 
7B B4 9A D8 19 6C 8F 3A AD 3E 7C D6 D6 76 EE 0D F5 0D 2A 42 54 0D F5 0D 5C 9E 8B A1 94 6E 64 41 
29 CC 9A 32 C8 EE FD 0D A4 F2 17 6F 61 48 5D E0 49 37 C4 1E 46 9D 7D DD 85 69 ED 1E D4 59 30 DC 
5D 1D 0C 0E B2 AD EF D1 6A 62 67 B0 7F CC 6A F5 E1 33 F6 18 16 43 0E 9D CA 96 CB B3 4F FF 44 A6 
BF EE 61 28 FB 9F 11 B5 30 63 CA 20 7B F9 1A 48 E5 2F DE C2 90 BA 00 B7 97 4A A7 CE BE EE C2 B4 
76 0F EA 2C 18 EE AE 0E 86 47 DF 4D 76 F4 4D 79 3B 29 78 79 9A 58 A9 EF 3A 74 53 DE DE 16 1A 77 
4C AC D1 18 7A 8F BA 4E 43 4A E9 AE A7 D1 34 E4 A4 C4 45 72 3D 22 97 EC B8 AA F7 D2 9F 1A 52 ED 
C2 B4 06 59 9F 95 37 DC DE 36 63 C9 B1 0A 8D A6 AB C2 74 B7 30 D4 9A 85 9E F3 BC D9 EF 46 61 3A 
67 01 A0 7B D0 BF 0D 00 00 E8 C6 50 AE 09 01 00 00 BC 2C C8 36 00 00 A0 1B 64 1B 00 00 D0 0D B2 
0D 00 00 E8 06 D9 06 00 00 74 83 6C 03 00 00 BA 41 B6 01 00 00 DD 20 DB 00 00 80 6E 90 6D 00 00 
40 37 C8 36 00 00 A0 1B 64 1B 00 00 D0 0D B2 0D 0C 9F AA 3A 6D 05 6F 71 5A B5 BE EB 00 80 BE 02 
D9 06 00 00 74 83 6C 03 00 00 BA 41 B6 41 5F 54 79 7C F1 CC ED 59 72 42 E4 59 49 93 C2 92 32 1F 
65 ED 9C 3C 71 67 96 5C 25 13 6C 0C 5B 9A 56 A5 D6 77 81 00 A0 57 C6 FA 2E 00 E0 FF 8F 69 11 32 
7F D3 B8 A5 9B FE 69 F6 FA F9 F2 E5 C9 6B FB E3 6F 36 80 57 1B 8E 01 40 0F B6 C1 B1 B1 2E FF DC 
FE CB B8 65 33 BD CC F4 5D 0C 00 E8 19 B2 0D FA 32 79 59 F6 7D E9 53 AF 15 15 05 22 19 2E 48 02 
BC F2 90 6D D0 47 55 65 64 9C F8 3E 7E F1 A6 8B D5 84 10 A2 2E 3F B9 69 2F 49 D8 B5 B2 6A D7 9E 
5F 25 FA AE 0D 00 F4 0C D9 06 7D C4 C5 95 C3 39 9E 3C 8E 27 8F 33 69 7B 16 7B C8 BC E8 96 1D 9F 
25 91 B9 5B 3F 88 22 A4 55 F6 EB BE 4D E4 DD 75 D3 27 CC DA 38 35 6B 4B 6A 96 1C E7 6E 00 AF 34 
86 46 A3 D1 77 0D 00 00 00 2F 13 CE DB 00 00 80 6E 90 6D 00 00 40 37 C8 36 00 00 A0 1B 64 1B 00 
00 D0 0D B2 0D 00 00 E8 06 D9 06 00 00 74 83 6C 03 00 00 BA 41 B6 01 00 00 DD 20 DB 00 00 80 6E 
90 6D 00 00 40 37 C8 36 00 00 A0 1B 64 1B 00 00 D0 0D B2 0D 00 00 E8 E6 A5 67 5B 93 30 65 1E AF 
BD 17 09 3F 26 25 BF B9 E4 F0 D2 F0 D9 5B 6F 48 F4 DD 6E 40 9E BD 6B 26 8F E3 E9 B3 E8 70 45 EF 
95 D2 F6 A5 43 E3 CF 54 69 DA 47 A6 ED E7 9E A2 16 A6 C4 70 3C 03 D7 09 64 3D F6 15 00 00 86 AF 
87 CE DB EC 87 2D 4D F8 DB F6 CD EF 0D 71 34 22 C6 E6 9E F6 16 2F 73 E5 EA 26 71 D6 F1 A4 A5 A3 
B9 4F 0E E2 1A 55 F5 B5 7F 7D 36 37 2A 34 76 C3 91 5C 79 97 D1 A1 A9 CB CF 2C B3 B6 B3 21 F9 A5 
E2 C6 5E 0B 37 B6 07 7F 10 9B C8 CA 6A 1B 34 44 2E 2A AC 20 84 3B D8 AB 1F 43 F7 07 5B E5 15 99 
E9 29 07 05 A2 96 9E 2F 12 00 80 6E 7A 28 DB 2C 3C 86 8C 9F 36 7D CA 18 BF 7E 2C CF 98 6D 87 F6 
2C 1B E2 D0 8D 03 7A F7 B4 64 7F B7 60 FE A6 63 39 B2 D6 8E 77 34 A2 0B 5F AF D9 7C DE 76 E2 14 
F2 D3 AA 0F 12 33 6A BB C8 AE C6 DA E2 7C 23 5F FE 40 D3 DA E2 F2 87 CA 97 55 8B 2E 46 56 DC 41 
A1 4C 45 51 A1 58 AE 7E 58 96 2D 21 2E 41 7E AE A6 DD F8 A0 F4 D6 B7 1F 2D FF FC 6C 99 02 3D 36 
01 00 5E 58 4F DF 6F 53 CB 04 1B 03 39 FC 98 94 7C B5 E6 51 6E EA DA 29 A1 13 E2 93 13 96 78 F1 
63 52 F2 55 4F 2E A0 C9 04 EB FD 3D 79 D3 52 84 F5 82 F5 FE FC 69 DB FE E7 E0 8A B9 1B 04 12 8D 
3C E7 7F 57 C7 84 71 A3 16 25 09 C4 AA 8E C0 32 F1 9A 9A 7C EA FC B7 71 03 3A BE 43 23 B9 77 EE 
8C C8 E9 CD 85 EF C7 BD 39 8C 59 72 E9 46 49 A3 76 1D A2 BC 6B E2 7E DE A1 7C 97 D6 B2 E2 2A 85 
B2 60 FF 9C B6 D3 BE 96 BB BB C7 7A FB C4 EE 17 2A EB 73 53 D7 4E 19 1C 10 B5 70 87 40 DC 4C 88 
44 B0 6E 14 6F 6A E2 E1 1F 56 4D 58 7F 3E FF F2 9E 8F 66 8F F2 E1 84 4D F9 38 25 4B A2 22 A4 55 
9E FB D3 27 93 5F 1F BD 22 71 4B 5C 04 6F 5A 8A 50 4D 48 DB 06 FE B1 06 42 08 61 D8 BB FB BD C6 
54 64 97 D6 C8 C4 85 42 05 2B 9C EF 69 AE 96 17 9C 4C 5C 18 E5 33 78 5A FC EE DF C4 AA B6 6B 95 
A3 D6 0B 6A 3B C6 EA 4E 7E 4A FC E2 83 E5 84 5C D9 34 36 34 26 25 5F 4D 08 51 E6 ED 8F 0D E6 F9 
6F 14 C8 64 D9 BB 66 F2 B8 6F EF 2F 10 E7 1D 49 58 30 92 EF 33 72 55 5A 49 73 57 83 AF BD E6 1C 
D1 99 4F 22 38 21 6F 1F 2E FC 5D F0 65 24 67 D4 CA 33 95 FA BE 56 0C 00 F0 F2 F5 50 B6 3D 2E BB 
71 EE 78 5A FA CD CA A6 27 6F B5 E4 1D FE 6C DD E1 9A C1 A3 3C 84 17 7F 79 DE 89 93 E2 7E F2 C6 
ED 42 DB 01 56 BF 67 6C 59 B9 F1 C1 90 CF BE 88 78 B0 E3 AB 3D 97 EB 3A 8E C2 6C 37 3F 4F 5B E3 
27 CB 6B 1A 8B EF 67 2A 4D 5F 73 B2 35 B7 71 74 33 6D 95 E4 95 3F A4 1E B0 55 0F 85 F7 1F 10 07 
0F 3E B7 3F B3 3A AF 5C 6A CC 09 1E 31 90 A5 C8 2E AD 91 8A 0A 4A 09 67 E4 20 AB 2B C9 EF AC 2B 
1A B1 FE C3 88 DC 5D 6B 76 5F 95 B6 AD E1 DE 9E B5 DB F2 FA BB DB D9 B0 3D 86 AD F8 66 FF 5F 47 
D7 1D 4E 58 BE EF B6 A2 25 2F 75 6D C2 91 EA 41 D1 9C B2 63 97 EA 08 21 84 B4 4A 33 76 74 B1 06 
F3 01 01 E1 8E 44 58 52 51 59 53 D9 CC 72 F7 71 B5 69 BA 77 E0 A3 4F F7 35 4E FD DB 47 3E D7 13 
D7 25 9E D7 BE FD 67 E2 32 66 D9 27 63 1C 09 09 58 B8 FD BB 2F C7 B8 32 08 21 AC 01 21 23 B9 44 
51 54 56 2D A9 CC AF 22 03 C3 F8 8F 4F 7D BA FA 84 D9 FC 9D A9 9B 17 85 BB 99 74 6F 5E 58 CE 43 
27 4C 70 94 5D 3D 7D FA 84 E0 8A C4 25 7A 4E 94 EB 4B 3B 9F 06 00 30 18 3D 94 6D 0F AF EE 59 B7 
2A 7E F3 C9 42 79 C7 3B 8D 65 37 05 D9 AD 41 8B 56 BC 17 37 73 14 FB F9 9F 76 5C F0 CD 8F 3B 97 
78 55 5D 3A 52 C6 19 3F 71 F2 D4 49 63 D9 5D 9F 8D 11 42 08 D1 A8 1A E5 0D 4F BD 6E 95 3E 6E A2 
C6 45 53 75 49 B1 92 CD F5 F4 1F E0 66 2A BD 7D B7 AC C1 64 40 D0 08 4F 22 2C 2E CE 2F CA 53 7A 
0E 0F B6 7C 70 F1 92 64 60 D4 C4 E8 E8 49 E3 5D 24 17 6F 09 DB EF C9 F1 E6 26 A5 EC 5B 12 EE 1C 
32 69 C6 F0 D0 E0 C8 D0 60 56 AB 24 AF BC AE F4 D6 99 BB CD DC 77 96 BD BF 78 D6 D8 F6 8D 91 DE 
ED 72 0D 8C 7E BC 10 2E 69 AE A9 2A AC AC 6A 75 89 E0 BB 12 E1 B5 E3 F7 9A 39 A3 DE 18 3B 2E 2A 
92 55 7E F6 EC DD 1A EA 16 31 2D DD BC BD 9C CD 09 B1 76 E7 07 05 B8 59 32 08 21 84 CD 09 0E 71 
20 15 85 C5 C2 92 3C 99 C3 88 40 B7 96 FA DA D6 46 B1 B8 C9 2E D0 DF 95 D5 DD 84 62 D8 85 BE B9 
28 9C 5C 39 94 72 E1 61 F8 5F A2 07 B3 11 6D 00 40 43 3D 94 6D EE 73 52 32 0B 4B 33 36 45 39 74 
BC D3 20 2A AC 20 C4 DC C2 DC F8 79 9F 6B D3 DF DD D5 86 A9 AE 29 CD 51 28 8B B6 4E F7 0F 7C 3B 
55 D1 DA D0 D0 A8 EA 7A 69 86 B1 B9 A5 D5 53 AF 99 76 16 66 94 23 B6 A6 2E 3F B3 84 BC A6 96 54 
3C 32 71 61 29 B2 4B 6B D4 D6 DE 61 81 2C 85 30 FB 76 B1 98 15 18 C6 55 95 65 4B 88 70 6B 8C 77 
C4 E2 83 E5 E4 91 5C D1 7E 09 D4 89 EB 6A CD 20 AD F2 82 93 89 0B 47 07 8D 5E 73 51 49 5A A5 B2 
BA 8A 92 22 C2 62 5B 98 FD B1 31 6D B7 D3 BA 58 83 A9 AB 5F 90 53 6B 51 D6 95 1C 31 D3 3F 88 6B 
D9 F4 7B 8D 98 B0 D8 16 66 2C 53 B6 15 8B 28 CB 6A 7E 6F 25 DD 60 64 E9 3D 38 92 25 C9 C9 CE AE 
10 59 47 86 71 9D 42 E7 7E 15 E7 55 F0 DD 8A 59 EF EC BE 29 ED D6 2A 08 21 84 58 F9 8E 18 C1 51 
56 55 8A 3C 46 84 0C 60 75 FB 63 00 00 7D 48 37 92 E6 E5 30 EF E7 E2 40 48 E3 E3 67 25 94 16 86 
99 85 2D 93 E5 3E 27 E1 EB 19 3C 16 21 0C 2B F7 67 9C ED 31 CC FB 73 BC 99 CD 05 35 F5 8D 8F EA 
2A 9B 99 0E 7E EE F6 8C 66 89 B0 58 EE C8 E3 D8 B2 08 69 7B 90 44 46 C4 07 D7 CC 39 48 08 21 EC 
12 91 DC 88 17 10 11 C9 BC 7A E3 72 6D 73 68 9C AF 23 FB B1 9D 29 E1 CC D8 BC 65 FA 40 16 83 10 
6B 77 B6 51 CE 93 6F 50 16 1C 59 BF FE 7B DB B5 E9 37 1C BE FF D3 E2 54 C2 34 B3 77 72 21 4A C5 
E3 A6 3F 36 86 61 62 41 5D 03 E3 A9 F2 1E E6 E7 B4 28 06 C6 FA 38 99 9A 49 9D 5C 08 21 84 68 9A 
15 0D 4A C2 F2 70 EA C7 EC DE 80 38 F8 0D 7F DD FC FA F5 AB 8D CD FC 05 7E F6 0C 63 D3 A8 75 FB 
D3 FD 13 E6 AE FA 7E CF C5 E8 F0 59 9E DD 3B 05 6B 78 F0 DB 6F A5 36 76 B6 F2 82 0B 37 4A 17 07 
0E EA E6 D5 4C 00 80 3E A4 D7 FE 77 9B ED C6 0F 72 20 05 E7 D2 2F FC 7A 23 AF ED C9 07 23 67 5E 
88 23 53 71 EE E8 81 FD 47 2F 28 A8 1F 60 38 0F 8A 0A 63 8B FE 53 20 56 6A 88 52 63 E9 68 F7 AC 
1C 66 B8 0D 9D 1D ED 5A F3 F3 81 BD 87 2E DE 27 E1 6F 4D F4 33 CE FD 61 C9 84 29 B3 FF FA 4B DB 
3D 3A B5 28 EF 9A D8 88 FB 71 5A 6E 69 F6 B1 8F 43 88 22 27 B7 54 C1 70 F2 0E 1F 28 2B 29 96 72 
46 F0 5D 99 4E 41 51 41 CC 8A FB 79 E2 26 42 54 2A 2B 7B FB A7 BF 4C 29 AB 29 97 AB A5 55 C2 3B 
F7 0A 9A 09 21 C4 D4 CD 6F 88 A3 BA F4 DC D9 F3 19 37 EE B5 6D 0C 43 7B 0D ED 59 C3 70 F2 0E 1F 
28 CF CF 2B 67 F9 71 9C 59 0C 13 5E E8 1B 2E CD B9 67 4E A7 9F 17 5C 57 BA 4F 98 10 1E E4 E5 E7 
40 44 17 8E FC 70 E0 48 46 C7 30 98 D9 BB 38 10 52 76 E5 D4 E9 3F EE 59 32 1C 7D C2 3D A4 C5 A5 
B5 03 43 02 5C 4D 34 35 77 2E 5D 79 20 65 5A 5A 11 53 1B 8B 4E CF 5E 2A 4B 6F 9C 4D 4B 3B 7E E2 
3F 2D EE BE 94 35 6B A4 B7 7F 4E B9 ED F0 E7 15 EF 8D 60 65 EF 3D 7A F5 05 4E F8 00 00 FA 8C 5E 
CB 36 66 BF E1 71 9B 3F 18 F2 E8 D0 81 74 61 73 FB B7 5A 06 CC FC 70 96 9F 2A 33 A3 96 3B E3 0D 
47 EA 27 58 BE 6F 6D DF 19 CF CD 4C 88 8D 7D F7 F3 7D 82 62 39 75 81 27 18 AE 63 D7 24 AC 1A 5A 
99 7A 5C F9 66 D2 E7 0B 02 AC 59 8E 5E 61 BE 9E 21 C1 03 AC 18 A4 E3 41 12 97 08 BE AB 49 FB 3F 
9C 55 15 54 CA 34 26 1E 61 63 06 D4 4B 9D DF 08 F3 30 21 6C AF 79 09 FB 56 79 DC FC 62 E1 EC B8 
CF FF 21 E8 7C 6F 8F 1D 3C FF EB A5 C1 C2 D4 BF 5F 94 7B 05 DB 10 42 48 BF 61 4B B7 2E 1F 5A 7F 
E2 DB 74 A1 71 FB C6 3C 7B 0D 2C 47 4F 3F 7B 42 6C 06 47 7A DB 33 08 61 87 2D FB 2E 71 9E C9 89 
55 DF E4 47 AE 4E 58 3D CE DD 2A 68 5A FC EC 00 D5 E5 9B B5 83 C6 FF A9 FD 2A A1 85 DF 8C F7 FF 
12 D1 FC EF 1D FB 04 A2 27 CF E3 58 70 C3 22 1D A4 32 F3 31 A1 5C 13 CD 63 51 E6 0F 9F 2E 8A FD 
E2 16 7F 75 E2 27 E3 5C 9E 3E 69 53 5E FE C7 A7 F1 2B 57 AD 39 5B E7 33 A5 F3 9A 95 E2 8C E3 87 
EB 78 D3 46 4F 1A 33 79 08 B3 EE D4 4F 19 22 3C 27 09 00 F4 C3 D0 68 7A F9 E0 A6 AA 3B B3 76 E4 
B2 CB E3 77 1F 49 9A D4 BF AF 3F C9 A0 A9 3B B3 72 D8 7B E7 26 EE FA 75 C7 24 C7 BE BE 31 00 00 
74 D1 6B F7 DB 08 51 96 08 8E E6 B1 38 8C BB 47 AF 2B 99 BE 83 79 B6 7D 39 0B 1A 4B 05 E7 F2 58 
8E CC 3B 27 AE 2A 6D 82 43 3C FB F4 C6 00 00 D0 4C EF 65 9B E6 91 E8 EE E5 1F CF 27 56 B2 23 C7 
6F F8 31 6E AE B7 8E 7F 04 30 68 9A 06 D1 9D 8C D4 73 37 CB D9 C1 53 BE F8 76 C9 5B BE 78 E0 10 
00 C0 70 F4 FE 35 49 00 00 80 9E 85 1E 37 00 00 40 37 C8 36 00 00 A0 1B 64 1B 00 00 D0 0D B2 0D 
00 00 E8 06 D9 06 00 00 74 83 6C 03 00 00 BA 41 B6 01 00 00 DD 20 DB 00 00 80 6E 90 6D 00 00 40 
37 C8 36 00 00 A0 1B 64 1B 00 00 D0 0D B2 0D 00 00 E8 E6 BF 1C 7F 6A 47 AB C8 4F D3 00 00 00 00 
49 45 4E 44 AE 42 60 82 
EndData
$EndBitmap
Wire Notes Line
	7250 5600 7250 3300
Text Notes 4850 4000 0    50   ~ 0
SOURCE: Avago APDS-9007 Datasheet
Wire Notes Line
	3450 4600 3850 4600
Wire Notes Line
	3850 4600 3850 4150
Wire Notes Line
	3850 4150 3450 4150
Wire Notes Line
	3450 4150 3450 4600
Wire Notes Line
	3750 4150 3750 3750
Wire Notes Line
	4900 3750 4900 3900
Wire Notes Line
	3750 3750 4900 3750
$Comp
L Connector:TestPoint TP?
U 1 1 5FE94DF5
P 3400 3650
AR Path="/5FE94DF5" Ref="TP?"  Part="1" 
AR Path="/5FE8CE3E/5FE94DF5" Ref="TP5"  Part="1" 
F 0 "TP5" H 3458 3768 50  0000 L CNN
F 1 "TestPoint" H 3458 3677 50  0000 L CNN
F 2 "TestPoint:TestPoint_Pad_1.5x1.5mm" H 3600 3650 50  0001 C CNN
F 3 "~" H 3600 3650 50  0001 C CNN
	1    3400 3650
	1    0    0    -1  
$EndComp
Connection ~ 3400 4250
Wire Wire Line
	3400 4250 3600 4250
Wire Wire Line
	3400 3650 3400 4250
Text Notes 1100 6150 0    50   ~ 0
Camera Daughter Board Connector\n1) 5V line to be generated?
$Comp
L Connector:Conn_Coaxial J?
U 1 1 5FE9812D
P 2150 7550
AR Path="/5FE9812D" Ref="J?"  Part="1" 
AR Path="/5FE8CE3E/5FE9812D" Ref="J9"  Part="1" 
F 0 "J9" H 2250 7525 50  0000 L CNN
F 1 "Conn_Coaxial" H 2250 7434 50  0000 L CNN
F 2 "Connector_Coaxial:U.FL_Molex_MCRF_73412-0110_Vertical" H 2150 7550 50  0001 C CNN
F 3 "https://www.molex.com/pdm_docs/ps/PS-73598-021-001.pdf" H 2150 7550 50  0001 C CNN
F 4 "        Molex 0734120110" H 2150 7550 50  0000 L BNN "PN"
	1    2150 7550
	1    0    0    -1  
$EndComp
Text Notes 1100 7400 0    50   ~ 0
CBVS Testing Output
$Comp
L power:GND #PWR?
U 1 1 5FE98134
P 2150 7850
AR Path="/5FE98134" Ref="#PWR?"  Part="1" 
AR Path="/5FE8CE3E/5FE98134" Ref="#PWR0158"  Part="1" 
F 0 "#PWR0158" H 2150 7600 50  0001 C CNN
F 1 "GND" H 2155 7677 50  0000 C CNN
F 2 "" H 2150 7850 50  0001 C CNN
F 3 "" H 2150 7850 50  0001 C CNN
	1    2150 7850
	1    0    0    -1  
$EndComp
Wire Wire Line
	2150 7850 2150 7750
Text Label 1450 7550 0    50   ~ 0
CAM-CBVS
Wire Wire Line
	1450 7550 1950 7550
Wire Wire Line
	1500 7000 2000 7000
Text Notes 1100 5950 0    79   ~ 0
Camera Connector
Wire Notes Line
	3550 8150 3550 5800
$Comp
L power:GND #PWR?
U 1 1 5FE98142
P 1500 6900
AR Path="/5FE98142" Ref="#PWR?"  Part="1" 
AR Path="/5FE8CE3E/5FE98142" Ref="#PWR0159"  Part="1" 
F 0 "#PWR0159" H 1500 6650 50  0001 C CNN
F 1 "GND" V 1505 6772 50  0000 R CNN
F 2 "" H 1500 6900 50  0001 C CNN
F 3 "" H 1500 6900 50  0001 C CNN
	1    1500 6900
	0    1    1    0   
$EndComp
$Comp
L power:GND #PWR?
U 1 1 5FE98148
P 1500 6600
AR Path="/5FE98148" Ref="#PWR?"  Part="1" 
AR Path="/5FE8CE3E/5FE98148" Ref="#PWR0160"  Part="1" 
F 0 "#PWR0160" H 1500 6350 50  0001 C CNN
F 1 "GND" V 1505 6472 50  0000 R CNN
F 2 "" H 1500 6600 50  0001 C CNN
F 3 "" H 1500 6600 50  0001 C CNN
	1    1500 6600
	0    1    1    0   
$EndComp
Wire Wire Line
	1500 6500 2000 6500
Wire Wire Line
	1500 6600 2000 6600
Wire Wire Line
	1500 6900 2000 6900
Wire Wire Line
	1600 6800 2000 6800
$Comp
L power:GND #PWR?
U 1 1 5FE9815E
P 1850 6400
AR Path="/5FE9815E" Ref="#PWR?"  Part="1" 
AR Path="/5FE8CE3E/5FE9815E" Ref="#PWR0161"  Part="1" 
F 0 "#PWR0161" H 1850 6150 50  0001 C CNN
F 1 "GND" V 1855 6272 50  0000 R CNN
F 2 "" H 1850 6400 50  0001 C CNN
F 3 "" H 1850 6400 50  0001 C CNN
	1    1850 6400
	0    1    1    0   
$EndComp
Wire Wire Line
	1850 6400 2000 6400
Text Notes 4600 6200 0    79   ~ 0
Screen Connector
$Comp
L power:GND #PWR?
U 1 1 5FE9B079
P 5100 6850
AR Path="/5FE9B079" Ref="#PWR?"  Part="1" 
AR Path="/5FE8CE3E/5FE9B079" Ref="#PWR0162"  Part="1" 
F 0 "#PWR0162" H 5100 6600 50  0001 C CNN
F 1 "GND" V 5105 6722 50  0000 R CNN
F 2 "" H 5100 6850 50  0001 C CNN
F 3 "" H 5100 6850 50  0001 C CNN
	1    5100 6850
	0    1    1    0   
$EndComp
Wire Wire Line
	5100 6850 5700 6850
Wire Wire Line
	5100 6750 5700 6750
Text Notes 4600 6500 0    50   ~ 0
1) 14V is generated on the Screen PCB\n2) Screen uses SPI Bus to communicate\n3) Pull down on RESET to stop ISP contamination\n
Wire Wire Line
	4450 6950 5700 6950
Wire Wire Line
	4450 7050 5600 7050
Wire Wire Line
	4450 7150 5700 7150
Wire Wire Line
	4450 7250 5700 7250
Wire Wire Line
	4450 7350 5700 7350
$Comp
L Device:R R?
U 1 1 5FE9B08C
P 5600 7750
AR Path="/5FE9B08C" Ref="R?"  Part="1" 
AR Path="/5FE8CE3E/5FE9B08C" Ref="R18"  Part="1" 
F 0 "R18" H 5670 7796 50  0000 L CNN
F 1 "10K" H 5670 7705 50  0000 L CNN
F 2 "Resistor_SMD:R_0805_2012Metric_Pad1.15x1.40mm_HandSolder" V 5530 7750 50  0001 C CNN
F 3 "~" H 5600 7750 50  0001 C CNN
	1    5600 7750
	1    0    0    -1  
$EndComp
$Comp
L power:GND #PWR?
U 1 1 5FE9B092
P 5600 8000
AR Path="/5FE9B092" Ref="#PWR?"  Part="1" 
AR Path="/5FE8CE3E/5FE9B092" Ref="#PWR0164"  Part="1" 
F 0 "#PWR0164" H 5600 7750 50  0001 C CNN
F 1 "GND" H 5605 7827 50  0000 C CNN
F 2 "" H 5600 8000 50  0001 C CNN
F 3 "" H 5600 8000 50  0001 C CNN
	1    5600 8000
	1    0    0    -1  
$EndComp
Wire Wire Line
	5600 8000 5600 7900
Connection ~ 5600 7050
Wire Wire Line
	5600 7050 5700 7050
Wire Notes Line
	7450 5800 7450 8250
Text HLabel 4200 4250 2    50   Input ~ 0
ENIM-LIGHT
Text HLabel 1750 4350 0    50   Input ~ 0
ENIM-ENABLE
Wire Notes Line
	1000 3300 1000 5600
Wire Notes Line
	1000 5600 7250 5600
Wire Notes Line
	1000 3300 7250 3300
Text HLabel 4450 6950 0    50   Input ~ 0
OLED-RegSel
Text HLabel 4450 7050 0    50   Input ~ 0
OLED-RESET
Text HLabel 4450 7150 0    50   Input ~ 0
OLED-CS
Text HLabel 4450 7250 0    50   Input ~ 0
OLED-CLK
Text HLabel 4450 7350 0    50   Input ~ 0
OLED-MOSI
Text HLabel 5100 6750 0    50   Input ~ 0
3V3_Screen
Wire Notes Line
	3700 5800 3700 8250
Text HLabel 1500 6500 0    50   Input ~ 0
5v_Cam
Text HLabel 1600 6700 0    50   Input ~ 0
AVR_RX1
Text HLabel 1600 6800 0    50   Input ~ 0
AVR_TX1
Text HLabel 1500 7000 0    50   Input ~ 0
CAM_CBVS
Wire Wire Line
	2000 6700 1600 6700
Text Label 1550 7000 0    50   ~ 0
CAM-CBVS
Wire Notes Line
	1000 8150 1000 5800
Text Label 5200 1450 0    50   ~ 0
+SW_Burnwire
Text Label 5200 1550 0    50   ~ 0
-SW_Burnwire
Text Label 5200 2100 0    50   ~ 0
+SW_Burnwire
Text Label 5200 2200 0    50   ~ 0
-SW_Burnwire
Text Label 4050 1850 0    50   ~ 0
+SW_Burnwire
Text Label 5200 2700 0    50   ~ 0
+SW_Burnwire
Text Label 5200 2800 0    50   ~ 0
-SW_Burnwire
Wire Wire Line
	5200 1450 5800 1450
Wire Wire Line
	5200 1550 5800 1550
Wire Wire Line
	5200 2100 5800 2100
Wire Wire Line
	5200 2200 5800 2200
Wire Wire Line
	5200 2700 5800 2700
Wire Wire Line
	5200 2800 5800 2800
Wire Wire Line
	2450 4450 2350 4450
Wire Wire Line
	2350 4450 2350 4550
Wire Wire Line
	2350 4850 2050 4850
Connection ~ 2050 4850
Wire Wire Line
	2050 4850 2050 4800
Wire Wire Line
	2450 4550 2350 4550
Connection ~ 2350 4550
Wire Wire Line
	2350 4550 2350 4850
$Comp
L Connector_Generic+MP:Conn_01x08_MP J10
U 1 1 5FD58E16
P 5900 7050
F 0 "J10" H 5982 6994 50  0000 L CNN
F 1 "Conn_01x08_MP WM7626CT-ND" H 5982 6903 50  0000 L CNN
F 2 "Connector_Molex:Molex_PicoBlade_53261-0871_1x08-1MP_P1.25mm_Horizontal" H 5900 7050 50  0001 C CNN
F 3 "~" H 5900 7050 50  0001 C CNN
	1    5900 7050
	1    0    0    -1  
$EndComp
Wire Wire Line
	5600 7050 5600 7600
$Comp
L power:GND #PWR0101
U 1 1 5FD63910
P 5350 7700
F 0 "#PWR0101" H 5350 7450 50  0001 C CNN
F 1 "GND" H 5355 7527 50  0000 C CNN
F 2 "" H 5350 7700 50  0001 C CNN
F 3 "" H 5350 7700 50  0001 C CNN
	1    5350 7700
	1    0    0    -1  
$EndComp
Wire Wire Line
	5350 7700 5350 7550
Wire Wire Line
	5350 7550 5700 7550
Text HLabel 4450 7450 0    50   Input ~ 0
OLED-PWM
Wire Wire Line
	4450 7450 5700 7450
Text Label 4050 1950 0    50   ~ 0
-SW_Burnwire
Wire Wire Line
	3800 1850 3900 1850
Wire Wire Line
	3800 1950 4050 1950
Wire Wire Line
	3800 2050 3900 2050
Wire Wire Line
	3900 2050 3900 1850
Connection ~ 3900 1850
Wire Wire Line
	3900 1850 4050 1850
Wire Notes Line
	1000 5800 3550 5800
Wire Notes Line
	1000 8150 3550 8150
Wire Notes Line
	3700 8250 7450 8250
Wire Notes Line
	3700 5800 7450 5800
Text Notes 2500 6300 0    50   ~ 0
Connector Flipped to\nimprove harnessing\n
$Comp
L Connector_Generic+MP:Conn_01x06_MP J?
U 1 1 5FE98158
P 2200 6800
AR Path="/5FE98158" Ref="J?"  Part="1" 
AR Path="/5FE8CE3E/5FE98158" Ref="J8"  Part="1" 
F 0 "J8" H 2278 6741 50  0000 L CNN
F 1 "Conn_01x06_MP WM7626CT-ND" H 2278 6650 50  0000 L CNN
F 2 "Connector_Molex:Molex_PicoBlade_53261-0671_1x06-1MP_P1.25mm_Horizontal" H 2200 6800 50  0001 C CNN
F 3 "~" H 2200 6800 50  0001 C CNN
	1    2200 6800
	1    0    0    1   
$EndComp
Wire Notes Line
	2500 6200 2250 6200
Wire Notes Line
	2250 6200 2250 6350
Wire Notes Line
	1000 3050 6750 3050
Wire Notes Line
	1000 700  6750 700 
$EndSCHEMATC
