G04 #@! TF.GenerationSoftware,KiCad,Pcbnew,(5.1.2)-2*
G04 #@! TF.CreationDate,2021-03-10T15:28:27-07:00*
G04 #@! TF.ProjectId,NIM-PC104,4e494d2d-5043-4313-9034-2e6b69636164,A*
G04 #@! TF.SameCoordinates,Original*
G04 #@! TF.FileFunction,Legend,Bot*
G04 #@! TF.FilePolarity,Positive*
%FSLAX46Y46*%
G04 Gerber Fmt 4.6, Leading zero omitted, Abs format (unit mm)*
G04 Created by KiCad (PCBNEW (5.1.2)-2) date 2021-03-10 15:28:27*
%MOMM*%
%LPD*%
G04 APERTURE LIST*
%ADD10C,0.120000*%
%ADD11C,0.150000*%
%ADD12C,0.450000*%
%ADD13C,0.100000*%
G04 APERTURE END LIST*
D10*
X121412000Y-96012000D02*
X109728000Y-96012000D01*
X126365000Y-58293000D02*
X126365000Y-51689000D01*
X134747000Y-58229500D02*
X134747000Y-51689000D01*
D11*
X130563928Y-57125857D02*
X130516309Y-56983000D01*
X130468690Y-56935380D01*
X130373452Y-56887761D01*
X130230595Y-56887761D01*
X130135357Y-56935380D01*
X130087738Y-56983000D01*
X130040119Y-57078238D01*
X130040119Y-57459190D01*
X131040119Y-57459190D01*
X131040119Y-57125857D01*
X130992500Y-57030619D01*
X130944880Y-56983000D01*
X130849642Y-56935380D01*
X130754404Y-56935380D01*
X130659166Y-56983000D01*
X130611547Y-57030619D01*
X130563928Y-57125857D01*
X130563928Y-57459190D01*
X130706785Y-56030619D02*
X130040119Y-56030619D01*
X130706785Y-56459190D02*
X130182976Y-56459190D01*
X130087738Y-56411571D01*
X130040119Y-56316333D01*
X130040119Y-56173476D01*
X130087738Y-56078238D01*
X130135357Y-56030619D01*
X130040119Y-55554428D02*
X130706785Y-55554428D01*
X130516309Y-55554428D02*
X130611547Y-55506809D01*
X130659166Y-55459190D01*
X130706785Y-55363952D01*
X130706785Y-55268714D01*
X130706785Y-54935380D02*
X130040119Y-54935380D01*
X130611547Y-54935380D02*
X130659166Y-54887761D01*
X130706785Y-54792523D01*
X130706785Y-54649666D01*
X130659166Y-54554428D01*
X130563928Y-54506809D01*
X130040119Y-54506809D01*
X130706785Y-54125857D02*
X130040119Y-53935380D01*
X130516309Y-53744904D01*
X130040119Y-53554428D01*
X130706785Y-53363952D01*
X130040119Y-52983000D02*
X130706785Y-52983000D01*
X131040119Y-52983000D02*
X130992500Y-53030619D01*
X130944880Y-52983000D01*
X130992500Y-52935380D01*
X131040119Y-52983000D01*
X130944880Y-52983000D01*
X130040119Y-52506809D02*
X130706785Y-52506809D01*
X130516309Y-52506809D02*
X130611547Y-52459190D01*
X130659166Y-52411571D01*
X130706785Y-52316333D01*
X130706785Y-52221095D01*
X130087738Y-51506809D02*
X130040119Y-51602047D01*
X130040119Y-51792523D01*
X130087738Y-51887761D01*
X130182976Y-51935380D01*
X130563928Y-51935380D01*
X130659166Y-51887761D01*
X130706785Y-51792523D01*
X130706785Y-51602047D01*
X130659166Y-51506809D01*
X130563928Y-51459190D01*
X130468690Y-51459190D01*
X130373452Y-51935380D01*
D10*
X116967000Y-84074000D02*
X109855000Y-84074000D01*
X116967000Y-92456000D02*
X109855000Y-92456000D01*
D11*
X116307857Y-88193571D02*
X116165000Y-88241190D01*
X116117380Y-88288809D01*
X116069761Y-88384047D01*
X116069761Y-88526904D01*
X116117380Y-88622142D01*
X116165000Y-88669761D01*
X116260238Y-88717380D01*
X116641190Y-88717380D01*
X116641190Y-87717380D01*
X116307857Y-87717380D01*
X116212619Y-87765000D01*
X116165000Y-87812619D01*
X116117380Y-87907857D01*
X116117380Y-88003095D01*
X116165000Y-88098333D01*
X116212619Y-88145952D01*
X116307857Y-88193571D01*
X116641190Y-88193571D01*
X115212619Y-88050714D02*
X115212619Y-88717380D01*
X115641190Y-88050714D02*
X115641190Y-88574523D01*
X115593571Y-88669761D01*
X115498333Y-88717380D01*
X115355476Y-88717380D01*
X115260238Y-88669761D01*
X115212619Y-88622142D01*
X114736428Y-88717380D02*
X114736428Y-88050714D01*
X114736428Y-88241190D02*
X114688809Y-88145952D01*
X114641190Y-88098333D01*
X114545952Y-88050714D01*
X114450714Y-88050714D01*
X114117380Y-88050714D02*
X114117380Y-88717380D01*
X114117380Y-88145952D02*
X114069761Y-88098333D01*
X113974523Y-88050714D01*
X113831666Y-88050714D01*
X113736428Y-88098333D01*
X113688809Y-88193571D01*
X113688809Y-88717380D01*
X113307857Y-88050714D02*
X113117380Y-88717380D01*
X112926904Y-88241190D01*
X112736428Y-88717380D01*
X112545952Y-88050714D01*
X112165000Y-88717380D02*
X112165000Y-88050714D01*
X112165000Y-87717380D02*
X112212619Y-87765000D01*
X112165000Y-87812619D01*
X112117380Y-87765000D01*
X112165000Y-87717380D01*
X112165000Y-87812619D01*
X111688809Y-88717380D02*
X111688809Y-88050714D01*
X111688809Y-88241190D02*
X111641190Y-88145952D01*
X111593571Y-88098333D01*
X111498333Y-88050714D01*
X111403095Y-88050714D01*
X110688809Y-88669761D02*
X110784047Y-88717380D01*
X110974523Y-88717380D01*
X111069761Y-88669761D01*
X111117380Y-88574523D01*
X111117380Y-88193571D01*
X111069761Y-88098333D01*
X110974523Y-88050714D01*
X110784047Y-88050714D01*
X110688809Y-88098333D01*
X110641190Y-88193571D01*
X110641190Y-88288809D01*
X111117380Y-88384047D01*
D10*
X121412000Y-110236000D02*
X121412000Y-96012000D01*
X109728000Y-110236000D02*
X121412000Y-110236000D01*
D11*
X165678904Y-102322380D02*
X165107476Y-102322380D01*
X165393190Y-103322380D02*
X165393190Y-102322380D01*
X164774142Y-103322380D02*
X164774142Y-102322380D01*
X164345571Y-103322380D02*
X164345571Y-102798571D01*
X164393190Y-102703333D01*
X164488428Y-102655714D01*
X164631285Y-102655714D01*
X164726523Y-102703333D01*
X164774142Y-102750952D01*
X163488428Y-103274761D02*
X163583666Y-103322380D01*
X163774142Y-103322380D01*
X163869380Y-103274761D01*
X163917000Y-103179523D01*
X163917000Y-102798571D01*
X163869380Y-102703333D01*
X163774142Y-102655714D01*
X163583666Y-102655714D01*
X163488428Y-102703333D01*
X163440809Y-102798571D01*
X163440809Y-102893809D01*
X163917000Y-102989047D01*
X162297952Y-102322380D02*
X162297952Y-102512857D01*
X161917000Y-102322380D02*
X161917000Y-102512857D01*
X161155095Y-102798571D02*
X161012238Y-102846190D01*
X160964619Y-102893809D01*
X160917000Y-102989047D01*
X160917000Y-103131904D01*
X160964619Y-103227142D01*
X161012238Y-103274761D01*
X161107476Y-103322380D01*
X161488428Y-103322380D01*
X161488428Y-102322380D01*
X161155095Y-102322380D01*
X161059857Y-102370000D01*
X161012238Y-102417619D01*
X160964619Y-102512857D01*
X160964619Y-102608095D01*
X161012238Y-102703333D01*
X161059857Y-102750952D01*
X161155095Y-102798571D01*
X161488428Y-102798571D01*
X160488428Y-103322380D02*
X160488428Y-102655714D01*
X160488428Y-102846190D02*
X160440809Y-102750952D01*
X160393190Y-102703333D01*
X160297952Y-102655714D01*
X160202714Y-102655714D01*
X159440809Y-103322380D02*
X159440809Y-102798571D01*
X159488428Y-102703333D01*
X159583666Y-102655714D01*
X159774142Y-102655714D01*
X159869380Y-102703333D01*
X159440809Y-103274761D02*
X159536047Y-103322380D01*
X159774142Y-103322380D01*
X159869380Y-103274761D01*
X159917000Y-103179523D01*
X159917000Y-103084285D01*
X159869380Y-102989047D01*
X159774142Y-102941428D01*
X159536047Y-102941428D01*
X159440809Y-102893809D01*
X158964619Y-103322380D02*
X158964619Y-102655714D01*
X158964619Y-102322380D02*
X159012238Y-102370000D01*
X158964619Y-102417619D01*
X158917000Y-102370000D01*
X158964619Y-102322380D01*
X158964619Y-102417619D01*
X158488428Y-102655714D02*
X158488428Y-103322380D01*
X158488428Y-102750952D02*
X158440809Y-102703333D01*
X158345571Y-102655714D01*
X158202714Y-102655714D01*
X158107476Y-102703333D01*
X158059857Y-102798571D01*
X158059857Y-103322380D01*
X157631285Y-102322380D02*
X157631285Y-102512857D01*
X157250333Y-102322380D02*
X157250333Y-102512857D01*
X165893190Y-101131666D02*
X165417000Y-101131666D01*
X165988428Y-101417380D02*
X165655095Y-100417380D01*
X165321761Y-101417380D01*
X165131285Y-100417380D02*
X164559857Y-100417380D01*
X164845571Y-101417380D02*
X164845571Y-100417380D01*
X164226523Y-101417380D02*
X164226523Y-100417380D01*
X163893190Y-101131666D01*
X163559857Y-100417380D01*
X163559857Y-101417380D01*
X163083666Y-100893571D02*
X162750333Y-100893571D01*
X162607476Y-101417380D02*
X163083666Y-101417380D01*
X163083666Y-100417380D01*
X162607476Y-100417380D01*
X161655095Y-100465000D02*
X161750333Y-100417380D01*
X161893190Y-100417380D01*
X162036047Y-100465000D01*
X162131285Y-100560238D01*
X162178904Y-100655476D01*
X162226523Y-100845952D01*
X162226523Y-100988809D01*
X162178904Y-101179285D01*
X162131285Y-101274523D01*
X162036047Y-101369761D01*
X161893190Y-101417380D01*
X161797952Y-101417380D01*
X161655095Y-101369761D01*
X161607476Y-101322142D01*
X161607476Y-100988809D01*
X161797952Y-100988809D01*
X161226523Y-101131666D02*
X160750333Y-101131666D01*
X161321761Y-101417380D02*
X160988428Y-100417380D01*
X160655095Y-101417380D01*
X159797952Y-101417380D02*
X160369380Y-101417380D01*
X160083666Y-101417380D02*
X160083666Y-100417380D01*
X160178904Y-100560238D01*
X160274142Y-100655476D01*
X160369380Y-100703095D01*
X159417000Y-100512619D02*
X159369380Y-100465000D01*
X159274142Y-100417380D01*
X159036047Y-100417380D01*
X158940809Y-100465000D01*
X158893190Y-100512619D01*
X158845571Y-100607857D01*
X158845571Y-100703095D01*
X158893190Y-100845952D01*
X159464619Y-101417380D01*
X158845571Y-101417380D01*
X158274142Y-100845952D02*
X158369380Y-100798333D01*
X158417000Y-100750714D01*
X158464619Y-100655476D01*
X158464619Y-100607857D01*
X158417000Y-100512619D01*
X158369380Y-100465000D01*
X158274142Y-100417380D01*
X158083666Y-100417380D01*
X157988428Y-100465000D01*
X157940809Y-100512619D01*
X157893190Y-100607857D01*
X157893190Y-100655476D01*
X157940809Y-100750714D01*
X157988428Y-100798333D01*
X158083666Y-100845952D01*
X158274142Y-100845952D01*
X158369380Y-100893571D01*
X158417000Y-100941190D01*
X158464619Y-101036428D01*
X158464619Y-101226904D01*
X158417000Y-101322142D01*
X158369380Y-101369761D01*
X158274142Y-101417380D01*
X158083666Y-101417380D01*
X157988428Y-101369761D01*
X157940809Y-101322142D01*
X157893190Y-101226904D01*
X157893190Y-101036428D01*
X157940809Y-100941190D01*
X157988428Y-100893571D01*
X158083666Y-100845952D01*
X156940809Y-101417380D02*
X157512238Y-101417380D01*
X157226523Y-101417380D02*
X157226523Y-100417380D01*
X157321761Y-100560238D01*
X157417000Y-100655476D01*
X157512238Y-100703095D01*
X135278761Y-92869190D02*
X135326380Y-93012047D01*
X135326380Y-93250142D01*
X135278761Y-93345380D01*
X135231142Y-93393000D01*
X135135904Y-93440619D01*
X135040666Y-93440619D01*
X134945428Y-93393000D01*
X134897809Y-93345380D01*
X134850190Y-93250142D01*
X134802571Y-93059666D01*
X134754952Y-92964428D01*
X134707333Y-92916809D01*
X134612095Y-92869190D01*
X134516857Y-92869190D01*
X134421619Y-92916809D01*
X134374000Y-92964428D01*
X134326380Y-93059666D01*
X134326380Y-93297761D01*
X134374000Y-93440619D01*
X135326380Y-93869190D02*
X134326380Y-93869190D01*
X134326380Y-94250142D01*
X134374000Y-94345380D01*
X134421619Y-94393000D01*
X134516857Y-94440619D01*
X134659714Y-94440619D01*
X134754952Y-94393000D01*
X134802571Y-94345380D01*
X134850190Y-94250142D01*
X134850190Y-93869190D01*
X135326380Y-94869190D02*
X134326380Y-94869190D01*
X134802571Y-96440619D02*
X134850190Y-96583476D01*
X134897809Y-96631095D01*
X134993047Y-96678714D01*
X135135904Y-96678714D01*
X135231142Y-96631095D01*
X135278761Y-96583476D01*
X135326380Y-96488238D01*
X135326380Y-96107285D01*
X134326380Y-96107285D01*
X134326380Y-96440619D01*
X134374000Y-96535857D01*
X134421619Y-96583476D01*
X134516857Y-96631095D01*
X134612095Y-96631095D01*
X134707333Y-96583476D01*
X134754952Y-96535857D01*
X134802571Y-96440619D01*
X134802571Y-96107285D01*
X134326380Y-97107285D02*
X135135904Y-97107285D01*
X135231142Y-97154904D01*
X135278761Y-97202523D01*
X135326380Y-97297761D01*
X135326380Y-97488238D01*
X135278761Y-97583476D01*
X135231142Y-97631095D01*
X135135904Y-97678714D01*
X134326380Y-97678714D01*
X134802571Y-98488238D02*
X134802571Y-98154904D01*
X135326380Y-98154904D02*
X134326380Y-98154904D01*
X134326380Y-98631095D01*
X134802571Y-99345380D02*
X134802571Y-99012047D01*
X135326380Y-99012047D02*
X134326380Y-99012047D01*
X134326380Y-99488238D01*
X135231142Y-99869190D02*
X135278761Y-99916809D01*
X135326380Y-99869190D01*
X135278761Y-99821571D01*
X135231142Y-99869190D01*
X135326380Y-99869190D01*
D10*
X156464000Y-117856000D02*
X163576000Y-117856000D01*
X156464000Y-113030000D02*
X156464000Y-117856000D01*
X163576000Y-113030000D02*
X156464000Y-113030000D01*
X163576000Y-117856000D02*
X163576000Y-113030000D01*
D11*
X162988476Y-117435261D02*
X162845619Y-117482880D01*
X162607523Y-117482880D01*
X162512285Y-117435261D01*
X162464666Y-117387642D01*
X162417047Y-117292404D01*
X162417047Y-117197166D01*
X162464666Y-117101928D01*
X162512285Y-117054309D01*
X162607523Y-117006690D01*
X162798000Y-116959071D01*
X162893238Y-116911452D01*
X162940857Y-116863833D01*
X162988476Y-116768595D01*
X162988476Y-116673357D01*
X162940857Y-116578119D01*
X162893238Y-116530500D01*
X162798000Y-116482880D01*
X162559904Y-116482880D01*
X162417047Y-116530500D01*
X161417047Y-117387642D02*
X161464666Y-117435261D01*
X161607523Y-117482880D01*
X161702761Y-117482880D01*
X161845619Y-117435261D01*
X161940857Y-117340023D01*
X161988476Y-117244785D01*
X162036095Y-117054309D01*
X162036095Y-116911452D01*
X161988476Y-116720976D01*
X161940857Y-116625738D01*
X161845619Y-116530500D01*
X161702761Y-116482880D01*
X161607523Y-116482880D01*
X161464666Y-116530500D01*
X161417047Y-116578119D01*
X160512285Y-117482880D02*
X160988476Y-117482880D01*
X160988476Y-116482880D01*
X159710285Y-117498761D02*
X159567428Y-117546380D01*
X159329333Y-117546380D01*
X159234095Y-117498761D01*
X159186476Y-117451142D01*
X159138857Y-117355904D01*
X159138857Y-117260666D01*
X159186476Y-117165428D01*
X159234095Y-117117809D01*
X159329333Y-117070190D01*
X159519809Y-117022571D01*
X159615047Y-116974952D01*
X159662666Y-116927333D01*
X159710285Y-116832095D01*
X159710285Y-116736857D01*
X159662666Y-116641619D01*
X159615047Y-116594000D01*
X159519809Y-116546380D01*
X159281714Y-116546380D01*
X159138857Y-116594000D01*
X158710285Y-117546380D02*
X158710285Y-116546380D01*
X158472190Y-116546380D01*
X158329333Y-116594000D01*
X158234095Y-116689238D01*
X158186476Y-116784476D01*
X158138857Y-116974952D01*
X158138857Y-117117809D01*
X158186476Y-117308285D01*
X158234095Y-117403523D01*
X158329333Y-117498761D01*
X158472190Y-117546380D01*
X158710285Y-117546380D01*
X157757904Y-117260666D02*
X157281714Y-117260666D01*
X157853142Y-117546380D02*
X157519809Y-116546380D01*
X157186476Y-117546380D01*
X150475142Y-129613000D02*
X149903714Y-129613000D01*
X150589428Y-129955857D02*
X150189428Y-128755857D01*
X149789428Y-129955857D01*
X148875142Y-129155857D02*
X148875142Y-129955857D01*
X149389428Y-129155857D02*
X149389428Y-129784428D01*
X149332285Y-129898714D01*
X149218000Y-129955857D01*
X149046571Y-129955857D01*
X148932285Y-129898714D01*
X148875142Y-129841571D01*
X148303714Y-129955857D02*
X148303714Y-129155857D01*
X148303714Y-129384428D02*
X148246571Y-129270142D01*
X148189428Y-129213000D01*
X148075142Y-129155857D01*
X147960857Y-129155857D01*
X147389428Y-129955857D02*
X147503714Y-129898714D01*
X147560857Y-129841571D01*
X147618000Y-129727285D01*
X147618000Y-129384428D01*
X147560857Y-129270142D01*
X147503714Y-129213000D01*
X147389428Y-129155857D01*
X147218000Y-129155857D01*
X147103714Y-129213000D01*
X147046571Y-129270142D01*
X146989428Y-129384428D01*
X146989428Y-129727285D01*
X147046571Y-129841571D01*
X147103714Y-129898714D01*
X147218000Y-129955857D01*
X147389428Y-129955857D01*
X146475142Y-129955857D02*
X146475142Y-129155857D01*
X146475142Y-129384428D02*
X146418000Y-129270142D01*
X146360857Y-129213000D01*
X146246571Y-129155857D01*
X146132285Y-129155857D01*
X145218000Y-129955857D02*
X145218000Y-129327285D01*
X145275142Y-129213000D01*
X145389428Y-129155857D01*
X145618000Y-129155857D01*
X145732285Y-129213000D01*
X145218000Y-129898714D02*
X145332285Y-129955857D01*
X145618000Y-129955857D01*
X145732285Y-129898714D01*
X145789428Y-129784428D01*
X145789428Y-129670142D01*
X145732285Y-129555857D01*
X145618000Y-129498714D01*
X145332285Y-129498714D01*
X145218000Y-129441571D01*
X143046571Y-129841571D02*
X143103714Y-129898714D01*
X143275142Y-129955857D01*
X143389428Y-129955857D01*
X143560857Y-129898714D01*
X143675142Y-129784428D01*
X143732285Y-129670142D01*
X143789428Y-129441571D01*
X143789428Y-129270142D01*
X143732285Y-129041571D01*
X143675142Y-128927285D01*
X143560857Y-128813000D01*
X143389428Y-128755857D01*
X143275142Y-128755857D01*
X143103714Y-128813000D01*
X143046571Y-128870142D01*
X142360857Y-129955857D02*
X142475142Y-129898714D01*
X142532285Y-129841571D01*
X142589428Y-129727285D01*
X142589428Y-129384428D01*
X142532285Y-129270142D01*
X142475142Y-129213000D01*
X142360857Y-129155857D01*
X142189428Y-129155857D01*
X142075142Y-129213000D01*
X142018000Y-129270142D01*
X141960857Y-129384428D01*
X141960857Y-129727285D01*
X142018000Y-129841571D01*
X142075142Y-129898714D01*
X142189428Y-129955857D01*
X142360857Y-129955857D01*
X141275142Y-129955857D02*
X141389428Y-129898714D01*
X141446571Y-129784428D01*
X141446571Y-128755857D01*
X140646571Y-129955857D02*
X140760857Y-129898714D01*
X140818000Y-129784428D01*
X140818000Y-128755857D01*
X139732285Y-129898714D02*
X139846571Y-129955857D01*
X140075142Y-129955857D01*
X140189428Y-129898714D01*
X140246571Y-129784428D01*
X140246571Y-129327285D01*
X140189428Y-129213000D01*
X140075142Y-129155857D01*
X139846571Y-129155857D01*
X139732285Y-129213000D01*
X139675142Y-129327285D01*
X139675142Y-129441571D01*
X140246571Y-129555857D01*
X138646571Y-129155857D02*
X138646571Y-130127285D01*
X138703714Y-130241571D01*
X138760857Y-130298714D01*
X138875142Y-130355857D01*
X139046571Y-130355857D01*
X139160857Y-130298714D01*
X138646571Y-129898714D02*
X138760857Y-129955857D01*
X138989428Y-129955857D01*
X139103714Y-129898714D01*
X139160857Y-129841571D01*
X139218000Y-129727285D01*
X139218000Y-129384428D01*
X139160857Y-129270142D01*
X139103714Y-129213000D01*
X138989428Y-129155857D01*
X138760857Y-129155857D01*
X138646571Y-129213000D01*
X137618000Y-129898714D02*
X137732285Y-129955857D01*
X137960857Y-129955857D01*
X138075142Y-129898714D01*
X138132285Y-129784428D01*
X138132285Y-129327285D01*
X138075142Y-129213000D01*
X137960857Y-129155857D01*
X137732285Y-129155857D01*
X137618000Y-129213000D01*
X137560857Y-129327285D01*
X137560857Y-129441571D01*
X138132285Y-129555857D01*
X180696857Y-127865642D02*
X180744476Y-127913261D01*
X180887333Y-127960880D01*
X180982571Y-127960880D01*
X181125428Y-127913261D01*
X181220666Y-127818023D01*
X181268285Y-127722785D01*
X181315904Y-127532309D01*
X181315904Y-127389452D01*
X181268285Y-127198976D01*
X181220666Y-127103738D01*
X181125428Y-127008500D01*
X180982571Y-126960880D01*
X180887333Y-126960880D01*
X180744476Y-127008500D01*
X180696857Y-127056119D01*
X179839714Y-127960880D02*
X179839714Y-127437071D01*
X179887333Y-127341833D01*
X179982571Y-127294214D01*
X180173047Y-127294214D01*
X180268285Y-127341833D01*
X179839714Y-127913261D02*
X179934952Y-127960880D01*
X180173047Y-127960880D01*
X180268285Y-127913261D01*
X180315904Y-127818023D01*
X180315904Y-127722785D01*
X180268285Y-127627547D01*
X180173047Y-127579928D01*
X179934952Y-127579928D01*
X179839714Y-127532309D01*
X179363523Y-127294214D02*
X179363523Y-127960880D01*
X179363523Y-127389452D02*
X179315904Y-127341833D01*
X179220666Y-127294214D01*
X179077809Y-127294214D01*
X178982571Y-127341833D01*
X178934952Y-127437071D01*
X178934952Y-127960880D01*
X178030190Y-127960880D02*
X178030190Y-127437071D01*
X178077809Y-127341833D01*
X178173047Y-127294214D01*
X178363523Y-127294214D01*
X178458761Y-127341833D01*
X178030190Y-127913261D02*
X178125428Y-127960880D01*
X178363523Y-127960880D01*
X178458761Y-127913261D01*
X178506380Y-127818023D01*
X178506380Y-127722785D01*
X178458761Y-127627547D01*
X178363523Y-127579928D01*
X178125428Y-127579928D01*
X178030190Y-127532309D01*
X177125428Y-127960880D02*
X177125428Y-126960880D01*
X177125428Y-127913261D02*
X177220666Y-127960880D01*
X177411142Y-127960880D01*
X177506380Y-127913261D01*
X177554000Y-127865642D01*
X177601619Y-127770404D01*
X177601619Y-127484690D01*
X177554000Y-127389452D01*
X177506380Y-127341833D01*
X177411142Y-127294214D01*
X177220666Y-127294214D01*
X177125428Y-127341833D01*
X176649238Y-127960880D02*
X176649238Y-127294214D01*
X176649238Y-126960880D02*
X176696857Y-127008500D01*
X176649238Y-127056119D01*
X176601619Y-127008500D01*
X176649238Y-126960880D01*
X176649238Y-127056119D01*
X175744476Y-127960880D02*
X175744476Y-127437071D01*
X175792095Y-127341833D01*
X175887333Y-127294214D01*
X176077809Y-127294214D01*
X176173047Y-127341833D01*
X175744476Y-127913261D02*
X175839714Y-127960880D01*
X176077809Y-127960880D01*
X176173047Y-127913261D01*
X176220666Y-127818023D01*
X176220666Y-127722785D01*
X176173047Y-127627547D01*
X176077809Y-127579928D01*
X175839714Y-127579928D01*
X175744476Y-127532309D01*
X175268285Y-127294214D02*
X175268285Y-127960880D01*
X175268285Y-127389452D02*
X175220666Y-127341833D01*
X175125428Y-127294214D01*
X174982571Y-127294214D01*
X174887333Y-127341833D01*
X174839714Y-127437071D01*
X174839714Y-127960880D01*
X183315904Y-129515642D02*
X183363523Y-129563261D01*
X183506380Y-129610880D01*
X183601619Y-129610880D01*
X183744476Y-129563261D01*
X183839714Y-129468023D01*
X183887333Y-129372785D01*
X183934952Y-129182309D01*
X183934952Y-129039452D01*
X183887333Y-128848976D01*
X183839714Y-128753738D01*
X183744476Y-128658500D01*
X183601619Y-128610880D01*
X183506380Y-128610880D01*
X183363523Y-128658500D01*
X183315904Y-128706119D01*
X182458761Y-128944214D02*
X182458761Y-129610880D01*
X182887333Y-128944214D02*
X182887333Y-129468023D01*
X182839714Y-129563261D01*
X182744476Y-129610880D01*
X182601619Y-129610880D01*
X182506380Y-129563261D01*
X182458761Y-129515642D01*
X181982571Y-129610880D02*
X181982571Y-128610880D01*
X181982571Y-128991833D02*
X181887333Y-128944214D01*
X181696857Y-128944214D01*
X181601619Y-128991833D01*
X181554000Y-129039452D01*
X181506380Y-129134690D01*
X181506380Y-129420404D01*
X181554000Y-129515642D01*
X181601619Y-129563261D01*
X181696857Y-129610880D01*
X181887333Y-129610880D01*
X181982571Y-129563261D01*
X180696857Y-129563261D02*
X180792095Y-129610880D01*
X180982571Y-129610880D01*
X181077809Y-129563261D01*
X181125428Y-129468023D01*
X181125428Y-129087071D01*
X181077809Y-128991833D01*
X180982571Y-128944214D01*
X180792095Y-128944214D01*
X180696857Y-128991833D01*
X180649238Y-129087071D01*
X180649238Y-129182309D01*
X181125428Y-129277547D01*
X180268285Y-129563261D02*
X180125428Y-129610880D01*
X179887333Y-129610880D01*
X179792095Y-129563261D01*
X179744476Y-129515642D01*
X179696857Y-129420404D01*
X179696857Y-129325166D01*
X179744476Y-129229928D01*
X179792095Y-129182309D01*
X179887333Y-129134690D01*
X180077809Y-129087071D01*
X180173047Y-129039452D01*
X180220666Y-128991833D01*
X180268285Y-128896595D01*
X180268285Y-128801357D01*
X180220666Y-128706119D01*
X180173047Y-128658500D01*
X180077809Y-128610880D01*
X179839714Y-128610880D01*
X179696857Y-128658500D01*
X178839714Y-129610880D02*
X178839714Y-129087071D01*
X178887333Y-128991833D01*
X178982571Y-128944214D01*
X179173047Y-128944214D01*
X179268285Y-128991833D01*
X178839714Y-129563261D02*
X178934952Y-129610880D01*
X179173047Y-129610880D01*
X179268285Y-129563261D01*
X179315904Y-129468023D01*
X179315904Y-129372785D01*
X179268285Y-129277547D01*
X179173047Y-129229928D01*
X178934952Y-129229928D01*
X178839714Y-129182309D01*
X178506380Y-128944214D02*
X178125428Y-128944214D01*
X178363523Y-128610880D02*
X178363523Y-129468023D01*
X178315904Y-129563261D01*
X178220666Y-129610880D01*
X178125428Y-129610880D01*
X177030190Y-129610880D02*
X177030190Y-128610880D01*
X176649238Y-128610880D01*
X176554000Y-128658500D01*
X176506380Y-128706119D01*
X176458761Y-128801357D01*
X176458761Y-128944214D01*
X176506380Y-129039452D01*
X176554000Y-129087071D01*
X176649238Y-129134690D01*
X177030190Y-129134690D01*
X176030190Y-129610880D02*
X176030190Y-128944214D01*
X176030190Y-129134690D02*
X175982571Y-129039452D01*
X175934952Y-128991833D01*
X175839714Y-128944214D01*
X175744476Y-128944214D01*
X175268285Y-129610880D02*
X175363523Y-129563261D01*
X175411142Y-129515642D01*
X175458761Y-129420404D01*
X175458761Y-129134690D01*
X175411142Y-129039452D01*
X175363523Y-128991833D01*
X175268285Y-128944214D01*
X175125428Y-128944214D01*
X175030190Y-128991833D01*
X174982571Y-129039452D01*
X174934952Y-129134690D01*
X174934952Y-129420404D01*
X174982571Y-129515642D01*
X175030190Y-129563261D01*
X175125428Y-129610880D01*
X175268285Y-129610880D01*
X174506380Y-128944214D02*
X174506380Y-129801357D01*
X174554000Y-129896595D01*
X174649238Y-129944214D01*
X174696857Y-129944214D01*
X174506380Y-128610880D02*
X174554000Y-128658500D01*
X174506380Y-128706119D01*
X174458761Y-128658500D01*
X174506380Y-128610880D01*
X174506380Y-128706119D01*
X173649238Y-129563261D02*
X173744476Y-129610880D01*
X173934952Y-129610880D01*
X174030190Y-129563261D01*
X174077809Y-129468023D01*
X174077809Y-129087071D01*
X174030190Y-128991833D01*
X173934952Y-128944214D01*
X173744476Y-128944214D01*
X173649238Y-128991833D01*
X173601619Y-129087071D01*
X173601619Y-129182309D01*
X174077809Y-129277547D01*
X172744476Y-129563261D02*
X172839714Y-129610880D01*
X173030190Y-129610880D01*
X173125428Y-129563261D01*
X173173047Y-129515642D01*
X173220666Y-129420404D01*
X173220666Y-129134690D01*
X173173047Y-129039452D01*
X173125428Y-128991833D01*
X173030190Y-128944214D01*
X172839714Y-128944214D01*
X172744476Y-128991833D01*
X172458761Y-128944214D02*
X172077809Y-128944214D01*
X172315904Y-128610880D02*
X172315904Y-129468023D01*
X172268285Y-129563261D01*
X172173047Y-129610880D01*
X172077809Y-129610880D01*
D12*
X168432761Y-92126452D02*
X168432761Y-89626452D01*
X167670857Y-89626452D01*
X167480380Y-89745500D01*
X167385142Y-89864547D01*
X167289904Y-90102642D01*
X167289904Y-90459785D01*
X167385142Y-90697880D01*
X167480380Y-90816928D01*
X167670857Y-90935976D01*
X168432761Y-90935976D01*
X165289904Y-92126452D02*
X165956571Y-90935976D01*
X166432761Y-92126452D02*
X166432761Y-89626452D01*
X165670857Y-89626452D01*
X165480380Y-89745500D01*
X165385142Y-89864547D01*
X165289904Y-90102642D01*
X165289904Y-90459785D01*
X165385142Y-90697880D01*
X165480380Y-90816928D01*
X165670857Y-90935976D01*
X166432761Y-90935976D01*
X164051809Y-89626452D02*
X163670857Y-89626452D01*
X163480380Y-89745500D01*
X163289904Y-89983595D01*
X163194666Y-90459785D01*
X163194666Y-91293119D01*
X163289904Y-91769309D01*
X163480380Y-92007404D01*
X163670857Y-92126452D01*
X164051809Y-92126452D01*
X164242285Y-92007404D01*
X164432761Y-91769309D01*
X164528000Y-91293119D01*
X164528000Y-90459785D01*
X164432761Y-89983595D01*
X164242285Y-89745500D01*
X164051809Y-89626452D01*
X162623238Y-89626452D02*
X161480380Y-89626452D01*
X162051809Y-92126452D02*
X162051809Y-89626452D01*
X160432761Y-89626452D02*
X160051809Y-89626452D01*
X159861333Y-89745500D01*
X159670857Y-89983595D01*
X159575619Y-90459785D01*
X159575619Y-91293119D01*
X159670857Y-91769309D01*
X159861333Y-92007404D01*
X160051809Y-92126452D01*
X160432761Y-92126452D01*
X160623238Y-92007404D01*
X160813714Y-91769309D01*
X160908952Y-91293119D01*
X160908952Y-90459785D01*
X160813714Y-89983595D01*
X160623238Y-89745500D01*
X160432761Y-89626452D01*
X159004190Y-89626452D02*
X157861333Y-89626452D01*
X158432761Y-92126452D02*
X158432761Y-89626452D01*
X156813714Y-90935976D02*
X156813714Y-92126452D01*
X157480380Y-89626452D02*
X156813714Y-90935976D01*
X156147047Y-89626452D01*
X155480380Y-92126452D02*
X155480380Y-89626452D01*
X154718476Y-89626452D01*
X154528000Y-89745500D01*
X154432761Y-89864547D01*
X154337523Y-90102642D01*
X154337523Y-90459785D01*
X154432761Y-90697880D01*
X154528000Y-90816928D01*
X154718476Y-90935976D01*
X155480380Y-90935976D01*
X153480380Y-90816928D02*
X152813714Y-90816928D01*
X152528000Y-92126452D02*
X153480380Y-92126452D01*
X153480380Y-89626452D01*
X152528000Y-89626452D01*
D10*
X170561000Y-128016000D02*
X170561000Y-119380000D01*
X155829000Y-128016000D02*
X170561000Y-128016000D01*
X155829000Y-119380000D02*
X155829000Y-128016000D01*
X170561000Y-119380000D02*
X155829000Y-119380000D01*
D11*
X167925190Y-120499142D02*
X167972809Y-120546761D01*
X168115666Y-120594380D01*
X168210904Y-120594380D01*
X168353761Y-120546761D01*
X168449000Y-120451523D01*
X168496619Y-120356285D01*
X168544238Y-120165809D01*
X168544238Y-120022952D01*
X168496619Y-119832476D01*
X168449000Y-119737238D01*
X168353761Y-119642000D01*
X168210904Y-119594380D01*
X168115666Y-119594380D01*
X167972809Y-119642000D01*
X167925190Y-119689619D01*
X167068047Y-120594380D02*
X167068047Y-120070571D01*
X167115666Y-119975333D01*
X167210904Y-119927714D01*
X167401380Y-119927714D01*
X167496619Y-119975333D01*
X167068047Y-120546761D02*
X167163285Y-120594380D01*
X167401380Y-120594380D01*
X167496619Y-120546761D01*
X167544238Y-120451523D01*
X167544238Y-120356285D01*
X167496619Y-120261047D01*
X167401380Y-120213428D01*
X167163285Y-120213428D01*
X167068047Y-120165809D01*
X166591857Y-120594380D02*
X166591857Y-119927714D01*
X166591857Y-120022952D02*
X166544238Y-119975333D01*
X166449000Y-119927714D01*
X166306142Y-119927714D01*
X166210904Y-119975333D01*
X166163285Y-120070571D01*
X166163285Y-120594380D01*
X166163285Y-120070571D02*
X166115666Y-119975333D01*
X166020428Y-119927714D01*
X165877571Y-119927714D01*
X165782333Y-119975333D01*
X165734714Y-120070571D01*
X165734714Y-120594380D01*
X164877571Y-120546761D02*
X164972809Y-120594380D01*
X165163285Y-120594380D01*
X165258523Y-120546761D01*
X165306142Y-120451523D01*
X165306142Y-120070571D01*
X165258523Y-119975333D01*
X165163285Y-119927714D01*
X164972809Y-119927714D01*
X164877571Y-119975333D01*
X164829952Y-120070571D01*
X164829952Y-120165809D01*
X165306142Y-120261047D01*
X164401380Y-120594380D02*
X164401380Y-119927714D01*
X164401380Y-120118190D02*
X164353761Y-120022952D01*
X164306142Y-119975333D01*
X164210904Y-119927714D01*
X164115666Y-119927714D01*
X163353761Y-120594380D02*
X163353761Y-120070571D01*
X163401380Y-119975333D01*
X163496619Y-119927714D01*
X163687095Y-119927714D01*
X163782333Y-119975333D01*
X163353761Y-120546761D02*
X163449000Y-120594380D01*
X163687095Y-120594380D01*
X163782333Y-120546761D01*
X163829952Y-120451523D01*
X163829952Y-120356285D01*
X163782333Y-120261047D01*
X163687095Y-120213428D01*
X163449000Y-120213428D01*
X163353761Y-120165809D01*
X161544238Y-120499142D02*
X161591857Y-120546761D01*
X161734714Y-120594380D01*
X161829952Y-120594380D01*
X161972809Y-120546761D01*
X162068047Y-120451523D01*
X162115666Y-120356285D01*
X162163285Y-120165809D01*
X162163285Y-120022952D01*
X162115666Y-119832476D01*
X162068047Y-119737238D01*
X161972809Y-119642000D01*
X161829952Y-119594380D01*
X161734714Y-119594380D01*
X161591857Y-119642000D01*
X161544238Y-119689619D01*
X160972809Y-120594380D02*
X161068047Y-120546761D01*
X161115666Y-120499142D01*
X161163285Y-120403904D01*
X161163285Y-120118190D01*
X161115666Y-120022952D01*
X161068047Y-119975333D01*
X160972809Y-119927714D01*
X160829952Y-119927714D01*
X160734714Y-119975333D01*
X160687095Y-120022952D01*
X160639476Y-120118190D01*
X160639476Y-120403904D01*
X160687095Y-120499142D01*
X160734714Y-120546761D01*
X160829952Y-120594380D01*
X160972809Y-120594380D01*
X160210904Y-119927714D02*
X160210904Y-120594380D01*
X160210904Y-120022952D02*
X160163285Y-119975333D01*
X160068047Y-119927714D01*
X159925190Y-119927714D01*
X159829952Y-119975333D01*
X159782333Y-120070571D01*
X159782333Y-120594380D01*
X159306142Y-119927714D02*
X159306142Y-120594380D01*
X159306142Y-120022952D02*
X159258523Y-119975333D01*
X159163285Y-119927714D01*
X159020428Y-119927714D01*
X158925190Y-119975333D01*
X158877571Y-120070571D01*
X158877571Y-120594380D01*
X158401380Y-120499142D02*
X158353761Y-120546761D01*
X158401380Y-120594380D01*
X158449000Y-120546761D01*
X158401380Y-120499142D01*
X158401380Y-120594380D01*
D10*
X138938000Y-105156000D02*
X149288500Y-105156000D01*
X138938000Y-96774000D02*
X138938000Y-105156000D01*
X150368000Y-96774000D02*
X138938000Y-96774000D01*
X150368000Y-104203500D02*
X150368000Y-96774000D01*
D11*
X148835523Y-97893142D02*
X148883142Y-97940761D01*
X149026000Y-97988380D01*
X149121238Y-97988380D01*
X149264095Y-97940761D01*
X149359333Y-97845523D01*
X149406952Y-97750285D01*
X149454571Y-97559809D01*
X149454571Y-97416952D01*
X149406952Y-97226476D01*
X149359333Y-97131238D01*
X149264095Y-97036000D01*
X149121238Y-96988380D01*
X149026000Y-96988380D01*
X148883142Y-97036000D01*
X148835523Y-97083619D01*
X147978380Y-97988380D02*
X147978380Y-97464571D01*
X148026000Y-97369333D01*
X148121238Y-97321714D01*
X148311714Y-97321714D01*
X148406952Y-97369333D01*
X147978380Y-97940761D02*
X148073619Y-97988380D01*
X148311714Y-97988380D01*
X148406952Y-97940761D01*
X148454571Y-97845523D01*
X148454571Y-97750285D01*
X148406952Y-97655047D01*
X148311714Y-97607428D01*
X148073619Y-97607428D01*
X147978380Y-97559809D01*
X147502190Y-97988380D02*
X147502190Y-97321714D01*
X147502190Y-97416952D02*
X147454571Y-97369333D01*
X147359333Y-97321714D01*
X147216476Y-97321714D01*
X147121238Y-97369333D01*
X147073619Y-97464571D01*
X147073619Y-97988380D01*
X147073619Y-97464571D02*
X147026000Y-97369333D01*
X146930761Y-97321714D01*
X146787904Y-97321714D01*
X146692666Y-97369333D01*
X146645047Y-97464571D01*
X146645047Y-97988380D01*
X145787904Y-97940761D02*
X145883142Y-97988380D01*
X146073619Y-97988380D01*
X146168857Y-97940761D01*
X146216476Y-97845523D01*
X146216476Y-97464571D01*
X146168857Y-97369333D01*
X146073619Y-97321714D01*
X145883142Y-97321714D01*
X145787904Y-97369333D01*
X145740285Y-97464571D01*
X145740285Y-97559809D01*
X146216476Y-97655047D01*
X145311714Y-97988380D02*
X145311714Y-97321714D01*
X145311714Y-97512190D02*
X145264095Y-97416952D01*
X145216476Y-97369333D01*
X145121238Y-97321714D01*
X145026000Y-97321714D01*
X144264095Y-97988380D02*
X144264095Y-97464571D01*
X144311714Y-97369333D01*
X144406952Y-97321714D01*
X144597428Y-97321714D01*
X144692666Y-97369333D01*
X144264095Y-97940761D02*
X144359333Y-97988380D01*
X144597428Y-97988380D01*
X144692666Y-97940761D01*
X144740285Y-97845523D01*
X144740285Y-97750285D01*
X144692666Y-97655047D01*
X144597428Y-97607428D01*
X144359333Y-97607428D01*
X144264095Y-97559809D01*
X143168857Y-96988380D02*
X142597428Y-96988380D01*
X142883142Y-97988380D02*
X142883142Y-96988380D01*
X141883142Y-97940761D02*
X141978380Y-97988380D01*
X142168857Y-97988380D01*
X142264095Y-97940761D01*
X142311714Y-97845523D01*
X142311714Y-97464571D01*
X142264095Y-97369333D01*
X142168857Y-97321714D01*
X141978380Y-97321714D01*
X141883142Y-97369333D01*
X141835523Y-97464571D01*
X141835523Y-97559809D01*
X142311714Y-97655047D01*
X141406952Y-97988380D02*
X141406952Y-97321714D01*
X141406952Y-97416952D02*
X141359333Y-97369333D01*
X141264095Y-97321714D01*
X141121238Y-97321714D01*
X141026000Y-97369333D01*
X140978380Y-97464571D01*
X140978380Y-97988380D01*
X140978380Y-97464571D02*
X140930761Y-97369333D01*
X140835523Y-97321714D01*
X140692666Y-97321714D01*
X140597428Y-97369333D01*
X140549809Y-97464571D01*
X140549809Y-97988380D01*
X140073619Y-97321714D02*
X140073619Y-98321714D01*
X140073619Y-97369333D02*
X139978380Y-97321714D01*
X139787904Y-97321714D01*
X139692666Y-97369333D01*
X139645047Y-97416952D01*
X139597428Y-97512190D01*
X139597428Y-97797904D01*
X139645047Y-97893142D01*
X139692666Y-97940761D01*
X139787904Y-97988380D01*
X139978380Y-97988380D01*
X140073619Y-97940761D01*
X119848380Y-101616285D02*
X119848380Y-101140095D01*
X120324571Y-101092476D01*
X120276952Y-101140095D01*
X120229333Y-101235333D01*
X120229333Y-101473428D01*
X120276952Y-101568666D01*
X120324571Y-101616285D01*
X120419809Y-101663904D01*
X120657904Y-101663904D01*
X120753142Y-101616285D01*
X120800761Y-101568666D01*
X120848380Y-101473428D01*
X120848380Y-101235333D01*
X120800761Y-101140095D01*
X120753142Y-101092476D01*
X119848380Y-101949619D02*
X120848380Y-102282952D01*
X119848380Y-102616285D01*
X120848380Y-103711523D02*
X119848380Y-103711523D01*
X119848380Y-104092476D01*
X119896000Y-104187714D01*
X119943619Y-104235333D01*
X120038857Y-104282952D01*
X120181714Y-104282952D01*
X120276952Y-104235333D01*
X120324571Y-104187714D01*
X120372190Y-104092476D01*
X120372190Y-103711523D01*
X119848380Y-104616285D02*
X120848380Y-104854380D01*
X120134095Y-105044857D01*
X120848380Y-105235333D01*
X119848380Y-105473428D01*
X120848380Y-106425809D02*
X120372190Y-106092476D01*
X120848380Y-105854380D02*
X119848380Y-105854380D01*
X119848380Y-106235333D01*
X119896000Y-106330571D01*
X119943619Y-106378190D01*
X120038857Y-106425809D01*
X120181714Y-106425809D01*
X120276952Y-106378190D01*
X120324571Y-106330571D01*
X120372190Y-106235333D01*
X120372190Y-105854380D01*
X120848380Y-107616285D02*
X119848380Y-107616285D01*
X120848380Y-108092476D02*
X119848380Y-108092476D01*
X120848380Y-108663904D01*
X119848380Y-108663904D01*
D10*
X116450000Y-67021000D02*
X116850000Y-67021000D01*
X119370000Y-67021000D02*
X125150000Y-67021000D01*
X127670000Y-67021000D02*
X130370000Y-67021000D01*
X119370000Y-80841000D02*
X125150000Y-80841000D01*
X116450000Y-80841000D02*
X116850000Y-80841000D01*
X127670000Y-80841000D02*
X130370000Y-80841000D01*
X130370000Y-80841000D02*
X130370000Y-67021000D01*
X116450000Y-67021000D02*
X116450000Y-80841000D01*
X116450000Y-79431000D02*
X115450000Y-79431000D01*
X116450000Y-68431000D02*
X115450000Y-68431000D01*
X114950000Y-68931000D02*
X114950000Y-78931000D01*
X115550000Y-68431000D02*
X115750000Y-69231000D01*
X115750000Y-69231000D02*
X116050000Y-70931000D01*
X116050000Y-70931000D02*
X116150000Y-71731000D01*
X116150000Y-71731000D02*
X116250000Y-73031000D01*
X116250000Y-73031000D02*
X116250000Y-74831000D01*
X116250000Y-74831000D02*
X116150000Y-76131000D01*
X116150000Y-76131000D02*
X115950000Y-77631000D01*
X115950000Y-77631000D02*
X115650000Y-78931000D01*
X115650000Y-78931000D02*
X115550000Y-79431000D01*
X115450000Y-79431000D02*
G75*
G02X114950000Y-78931000I0J500000D01*
G01*
X114950000Y-68931000D02*
G75*
G02X115450000Y-68431000I500000J0D01*
G01*
X120181500Y-98925000D02*
X116121500Y-98925000D01*
X116121500Y-98925000D02*
X116121500Y-96655000D01*
X116121500Y-96655000D02*
X120181500Y-96655000D01*
X125418436Y-121814000D02*
X126622564Y-121814000D01*
X125418436Y-119994000D02*
X126622564Y-119994000D01*
X114042000Y-101346000D02*
X114042000Y-101726000D01*
X109992000Y-101346000D02*
X109732000Y-101346000D01*
X114042000Y-101346000D02*
X112272000Y-101346000D01*
X114042000Y-108966000D02*
X114042000Y-108586000D01*
X112272000Y-108966000D02*
X114042000Y-108966000D01*
X109732000Y-108966000D02*
X109992000Y-108966000D01*
X142497564Y-126582000D02*
X141293436Y-126582000D01*
X142497564Y-123862000D02*
X141293436Y-123862000D01*
X132174064Y-124370000D02*
X130969936Y-124370000D01*
X132174064Y-127090000D02*
X130969936Y-127090000D01*
X145534748Y-115241000D02*
X146057252Y-115241000D01*
X145534748Y-116661000D02*
X146057252Y-116661000D01*
X135746748Y-116788000D02*
X136269252Y-116788000D01*
X135746748Y-115368000D02*
X136269252Y-115368000D01*
X140537000Y-116402752D02*
X140537000Y-115880248D01*
X139117000Y-116402752D02*
X139117000Y-115880248D01*
X128957000Y-115831252D02*
X128957000Y-115308748D01*
X130377000Y-115831252D02*
X130377000Y-115308748D01*
X143469000Y-119115000D02*
X143469000Y-121565000D01*
X140249000Y-120915000D02*
X140249000Y-119115000D01*
X130724000Y-121169000D02*
X130724000Y-119369000D01*
X133944000Y-119369000D02*
X133944000Y-121819000D01*
X149912000Y-106001248D02*
X149912000Y-106523752D01*
X151332000Y-106001248D02*
X151332000Y-106523752D01*
X117527000Y-108202252D02*
X117527000Y-107679748D01*
X118947000Y-108202252D02*
X118947000Y-107679748D01*
X135942000Y-88892748D02*
X135942000Y-89415252D01*
X137362000Y-88892748D02*
X137362000Y-89415252D01*
X126508252Y-117654000D02*
X125985748Y-117654000D01*
X126508252Y-119074000D02*
X125985748Y-119074000D01*
X142442000Y-88883748D02*
X142442000Y-89406252D01*
X141022000Y-88883748D02*
X141022000Y-89406252D01*
X117527000Y-103116748D02*
X117527000Y-103639252D01*
X118947000Y-103116748D02*
X118947000Y-103639252D01*
X146550748Y-106882000D02*
X147073252Y-106882000D01*
X146550748Y-105462000D02*
X147073252Y-105462000D01*
X143263252Y-105462000D02*
X142740748Y-105462000D01*
X143263252Y-106882000D02*
X142740748Y-106882000D01*
X158410000Y-124950000D02*
X158410000Y-125400000D01*
X158410000Y-125400000D02*
X159360000Y-125400000D01*
X159360000Y-125400000D02*
X159360000Y-126890000D01*
X167880000Y-124950000D02*
X167880000Y-125400000D01*
X167880000Y-125400000D02*
X166930000Y-125400000D01*
X158410000Y-121430000D02*
X158410000Y-120980000D01*
X158410000Y-120980000D02*
X167880000Y-120980000D01*
X167880000Y-120980000D02*
X167880000Y-121430000D01*
X127741000Y-58551000D02*
X126586000Y-58551000D01*
X127741000Y-60551000D02*
X127741000Y-58551000D01*
X133371000Y-60551000D02*
X127741000Y-60551000D01*
X133371000Y-58551000D02*
X133371000Y-60551000D01*
X134526000Y-58551000D02*
X133371000Y-58551000D01*
X125571000Y-64871000D02*
X127746000Y-64871000D01*
X125571000Y-60741000D02*
X125571000Y-64871000D01*
X133366000Y-64871000D02*
X133366000Y-65271000D01*
X135541000Y-64871000D02*
X133366000Y-64871000D01*
X135541000Y-60741000D02*
X135541000Y-64871000D01*
X120032000Y-83632000D02*
X124162000Y-83632000D01*
X124162000Y-83632000D02*
X124162000Y-85807000D01*
X124162000Y-85807000D02*
X124562000Y-85807000D01*
X120032000Y-93602000D02*
X124162000Y-93602000D01*
X124162000Y-93602000D02*
X124162000Y-91427000D01*
X117842000Y-84647000D02*
X117842000Y-85802000D01*
X117842000Y-85802000D02*
X119842000Y-85802000D01*
X119842000Y-85802000D02*
X119842000Y-91432000D01*
X119842000Y-91432000D02*
X117842000Y-91432000D01*
X117842000Y-91432000D02*
X117842000Y-92587000D01*
X147122000Y-98628000D02*
X147122000Y-99078000D01*
X141402000Y-98628000D02*
X147122000Y-98628000D01*
X141402000Y-99078000D02*
X141402000Y-98628000D01*
X147122000Y-103048000D02*
X146172000Y-103048000D01*
X147122000Y-102598000D02*
X147122000Y-103048000D01*
X142352000Y-103048000D02*
X142352000Y-104538000D01*
X141402000Y-103048000D02*
X142352000Y-103048000D01*
X141402000Y-102598000D02*
X141402000Y-103048000D01*
X163128000Y-116328500D02*
X163128000Y-114998500D01*
X161798000Y-116328500D02*
X163128000Y-116328500D01*
X160528000Y-116328500D02*
X160528000Y-113668500D01*
X160528000Y-113668500D02*
X157928000Y-113668500D01*
X160528000Y-116328500D02*
X157928000Y-116328500D01*
X157928000Y-116328500D02*
X157928000Y-113668500D01*
X129777748Y-89587000D02*
X130300252Y-89587000D01*
X129777748Y-91007000D02*
X130300252Y-91007000D01*
D13*
X127908000Y-100820000D02*
X127008000Y-100820000D01*
X127908000Y-101220000D02*
X127908000Y-100820000D01*
X128508000Y-101220000D02*
X127908000Y-101220000D01*
X132508000Y-101220000D02*
X132108000Y-101220000D01*
X132508000Y-100820000D02*
X132508000Y-101220000D01*
X132608000Y-91820000D02*
X132108000Y-91820000D01*
X132608000Y-92220000D02*
X132608000Y-91820000D01*
X127908000Y-91920000D02*
X128308000Y-91920000D01*
X127908000Y-92220000D02*
X127908000Y-91920000D01*
D10*
X146627000Y-122837000D02*
X148727000Y-122837000D01*
X146627000Y-117497000D02*
X148727000Y-117497000D01*
D11*
X168545000Y-97825000D02*
X169820000Y-97825000D01*
X154195000Y-97250000D02*
X154870000Y-97250000D01*
X154195000Y-111600000D02*
X154870000Y-111600000D01*
X168545000Y-111600000D02*
X167870000Y-111600000D01*
X168545000Y-97250000D02*
X167870000Y-97250000D01*
X168545000Y-111600000D02*
X168545000Y-110925000D01*
X154195000Y-111600000D02*
X154195000Y-110925000D01*
X154195000Y-97250000D02*
X154195000Y-97925000D01*
X168545000Y-97250000D02*
X168545000Y-97825000D01*
D10*
X138803748Y-107875000D02*
X139326252Y-107875000D01*
X138803748Y-109295000D02*
X139326252Y-109295000D01*
X138794748Y-112597000D02*
X139317252Y-112597000D01*
X138794748Y-111177000D02*
X139317252Y-111177000D01*
X170486000Y-115840252D02*
X170486000Y-115317748D01*
X171906000Y-115840252D02*
X171906000Y-115317748D01*
X163882000Y-116841748D02*
X163882000Y-117364252D01*
X165302000Y-116841748D02*
X165302000Y-117364252D01*
X168477000Y-116832748D02*
X168477000Y-117355252D01*
X167057000Y-116832748D02*
X167057000Y-117355252D01*
D11*
X113722380Y-73121476D02*
X114436666Y-73121476D01*
X114579523Y-73073857D01*
X114674761Y-72978619D01*
X114722380Y-72835761D01*
X114722380Y-72740523D01*
X114722380Y-74121476D02*
X114722380Y-73550047D01*
X114722380Y-73835761D02*
X113722380Y-73835761D01*
X113865238Y-73740523D01*
X113960476Y-73645285D01*
X114008095Y-73550047D01*
X114722380Y-75073857D02*
X114722380Y-74502428D01*
X114722380Y-74788142D02*
X113722380Y-74788142D01*
X113865238Y-74692904D01*
X113960476Y-74597666D01*
X114008095Y-74502428D01*
X118975095Y-100274380D02*
X118975095Y-99274380D01*
X118737000Y-99274380D01*
X118594142Y-99322000D01*
X118498904Y-99417238D01*
X118451285Y-99512476D01*
X118403666Y-99702952D01*
X118403666Y-99845809D01*
X118451285Y-100036285D01*
X118498904Y-100131523D01*
X118594142Y-100226761D01*
X118737000Y-100274380D01*
X118975095Y-100274380D01*
X117451285Y-100274380D02*
X118022714Y-100274380D01*
X117737000Y-100274380D02*
X117737000Y-99274380D01*
X117832238Y-99417238D01*
X117927476Y-99512476D01*
X118022714Y-99560095D01*
X127777714Y-122134380D02*
X127206285Y-122134380D01*
X127492000Y-123134380D02*
X127492000Y-122134380D01*
X126872952Y-123134380D02*
X126872952Y-122134380D01*
X126872952Y-122610571D02*
X126301523Y-122610571D01*
X126301523Y-123134380D02*
X126301523Y-122134380D01*
X125301523Y-123134380D02*
X125872952Y-123134380D01*
X125587238Y-123134380D02*
X125587238Y-122134380D01*
X125682476Y-122277238D01*
X125777714Y-122372476D01*
X125872952Y-122420095D01*
X113458523Y-99528380D02*
X113458523Y-100242666D01*
X113506142Y-100385523D01*
X113601380Y-100480761D01*
X113744238Y-100528380D01*
X113839476Y-100528380D01*
X112458523Y-100528380D02*
X113029952Y-100528380D01*
X112744238Y-100528380D02*
X112744238Y-99528380D01*
X112839476Y-99671238D01*
X112934714Y-99766476D01*
X113029952Y-99814095D01*
X111887095Y-99956952D02*
X111982333Y-99909333D01*
X112029952Y-99861714D01*
X112077571Y-99766476D01*
X112077571Y-99718857D01*
X112029952Y-99623619D01*
X111982333Y-99576000D01*
X111887095Y-99528380D01*
X111696619Y-99528380D01*
X111601380Y-99576000D01*
X111553761Y-99623619D01*
X111506142Y-99718857D01*
X111506142Y-99766476D01*
X111553761Y-99861714D01*
X111601380Y-99909333D01*
X111696619Y-99956952D01*
X111887095Y-99956952D01*
X111982333Y-100004571D01*
X112029952Y-100052190D01*
X112077571Y-100147428D01*
X112077571Y-100337904D01*
X112029952Y-100433142D01*
X111982333Y-100480761D01*
X111887095Y-100528380D01*
X111696619Y-100528380D01*
X111601380Y-100480761D01*
X111553761Y-100433142D01*
X111506142Y-100337904D01*
X111506142Y-100147428D01*
X111553761Y-100052190D01*
X111601380Y-100004571D01*
X111696619Y-99956952D01*
X142538357Y-123299142D02*
X142585976Y-123346761D01*
X142728833Y-123394380D01*
X142824071Y-123394380D01*
X142966928Y-123346761D01*
X143062166Y-123251523D01*
X143109785Y-123156285D01*
X143157404Y-122965809D01*
X143157404Y-122822952D01*
X143109785Y-122632476D01*
X143062166Y-122537238D01*
X142966928Y-122442000D01*
X142824071Y-122394380D01*
X142728833Y-122394380D01*
X142585976Y-122442000D01*
X142538357Y-122489619D01*
X141585976Y-123394380D02*
X142157404Y-123394380D01*
X141871690Y-123394380D02*
X141871690Y-122394380D01*
X141966928Y-122537238D01*
X142062166Y-122632476D01*
X142157404Y-122680095D01*
X141252642Y-122394380D02*
X140633595Y-122394380D01*
X140966928Y-122775333D01*
X140824071Y-122775333D01*
X140728833Y-122822952D01*
X140681214Y-122870571D01*
X140633595Y-122965809D01*
X140633595Y-123203904D01*
X140681214Y-123299142D01*
X140728833Y-123346761D01*
X140824071Y-123394380D01*
X141109785Y-123394380D01*
X141205023Y-123346761D01*
X141252642Y-123299142D01*
X132214857Y-123807142D02*
X132262476Y-123854761D01*
X132405333Y-123902380D01*
X132500571Y-123902380D01*
X132643428Y-123854761D01*
X132738666Y-123759523D01*
X132786285Y-123664285D01*
X132833904Y-123473809D01*
X132833904Y-123330952D01*
X132786285Y-123140476D01*
X132738666Y-123045238D01*
X132643428Y-122950000D01*
X132500571Y-122902380D01*
X132405333Y-122902380D01*
X132262476Y-122950000D01*
X132214857Y-122997619D01*
X131262476Y-123902380D02*
X131833904Y-123902380D01*
X131548190Y-123902380D02*
X131548190Y-122902380D01*
X131643428Y-123045238D01*
X131738666Y-123140476D01*
X131833904Y-123188095D01*
X130405333Y-123235714D02*
X130405333Y-123902380D01*
X130643428Y-122854761D02*
X130881523Y-123569047D01*
X130262476Y-123569047D01*
X146438857Y-114657142D02*
X146486476Y-114704761D01*
X146629333Y-114752380D01*
X146724571Y-114752380D01*
X146867428Y-114704761D01*
X146962666Y-114609523D01*
X147010285Y-114514285D01*
X147057904Y-114323809D01*
X147057904Y-114180952D01*
X147010285Y-113990476D01*
X146962666Y-113895238D01*
X146867428Y-113800000D01*
X146724571Y-113752380D01*
X146629333Y-113752380D01*
X146486476Y-113800000D01*
X146438857Y-113847619D01*
X145486476Y-114752380D02*
X146057904Y-114752380D01*
X145772190Y-114752380D02*
X145772190Y-113752380D01*
X145867428Y-113895238D01*
X145962666Y-113990476D01*
X146057904Y-114038095D01*
X144581714Y-113752380D02*
X145057904Y-113752380D01*
X145105523Y-114228571D01*
X145057904Y-114180952D01*
X144962666Y-114133333D01*
X144724571Y-114133333D01*
X144629333Y-114180952D01*
X144581714Y-114228571D01*
X144534095Y-114323809D01*
X144534095Y-114561904D01*
X144581714Y-114657142D01*
X144629333Y-114704761D01*
X144724571Y-114752380D01*
X144962666Y-114752380D01*
X145057904Y-114704761D01*
X145105523Y-114657142D01*
X136786857Y-114784142D02*
X136834476Y-114831761D01*
X136977333Y-114879380D01*
X137072571Y-114879380D01*
X137215428Y-114831761D01*
X137310666Y-114736523D01*
X137358285Y-114641285D01*
X137405904Y-114450809D01*
X137405904Y-114307952D01*
X137358285Y-114117476D01*
X137310666Y-114022238D01*
X137215428Y-113927000D01*
X137072571Y-113879380D01*
X136977333Y-113879380D01*
X136834476Y-113927000D01*
X136786857Y-113974619D01*
X135834476Y-114879380D02*
X136405904Y-114879380D01*
X136120190Y-114879380D02*
X136120190Y-113879380D01*
X136215428Y-114022238D01*
X136310666Y-114117476D01*
X136405904Y-114165095D01*
X134977333Y-113879380D02*
X135167809Y-113879380D01*
X135263047Y-113927000D01*
X135310666Y-113974619D01*
X135405904Y-114117476D01*
X135453523Y-114307952D01*
X135453523Y-114688904D01*
X135405904Y-114784142D01*
X135358285Y-114831761D01*
X135263047Y-114879380D01*
X135072571Y-114879380D01*
X134977333Y-114831761D01*
X134929714Y-114784142D01*
X134882095Y-114688904D01*
X134882095Y-114450809D01*
X134929714Y-114355571D01*
X134977333Y-114307952D01*
X135072571Y-114260333D01*
X135263047Y-114260333D01*
X135358285Y-114307952D01*
X135405904Y-114355571D01*
X135453523Y-114450809D01*
X141993880Y-115562142D02*
X141517690Y-115228809D01*
X141993880Y-114990714D02*
X140993880Y-114990714D01*
X140993880Y-115371666D01*
X141041500Y-115466904D01*
X141089119Y-115514523D01*
X141184357Y-115562142D01*
X141327214Y-115562142D01*
X141422452Y-115514523D01*
X141470071Y-115466904D01*
X141517690Y-115371666D01*
X141517690Y-114990714D01*
X141089119Y-115943095D02*
X141041500Y-115990714D01*
X140993880Y-116085952D01*
X140993880Y-116324047D01*
X141041500Y-116419285D01*
X141089119Y-116466904D01*
X141184357Y-116514523D01*
X141279595Y-116514523D01*
X141422452Y-116466904D01*
X141993880Y-115895476D01*
X141993880Y-116514523D01*
X141993880Y-117466904D02*
X141993880Y-116895476D01*
X141993880Y-117181190D02*
X140993880Y-117181190D01*
X141136738Y-117085952D01*
X141231976Y-116990714D01*
X141279595Y-116895476D01*
X132849857Y-116022380D02*
X133183190Y-115546190D01*
X133421285Y-116022380D02*
X133421285Y-115022380D01*
X133040333Y-115022380D01*
X132945095Y-115070000D01*
X132897476Y-115117619D01*
X132849857Y-115212857D01*
X132849857Y-115355714D01*
X132897476Y-115450952D01*
X132945095Y-115498571D01*
X133040333Y-115546190D01*
X133421285Y-115546190D01*
X132468904Y-115117619D02*
X132421285Y-115070000D01*
X132326047Y-115022380D01*
X132087952Y-115022380D01*
X131992714Y-115070000D01*
X131945095Y-115117619D01*
X131897476Y-115212857D01*
X131897476Y-115308095D01*
X131945095Y-115450952D01*
X132516523Y-116022380D01*
X131897476Y-116022380D01*
X131516523Y-115117619D02*
X131468904Y-115070000D01*
X131373666Y-115022380D01*
X131135571Y-115022380D01*
X131040333Y-115070000D01*
X130992714Y-115117619D01*
X130945095Y-115212857D01*
X130945095Y-115308095D01*
X130992714Y-115450952D01*
X131564142Y-116022380D01*
X130945095Y-116022380D01*
X139826904Y-119530880D02*
X139826904Y-120340404D01*
X139779285Y-120435642D01*
X139731666Y-120483261D01*
X139636428Y-120530880D01*
X139445952Y-120530880D01*
X139350714Y-120483261D01*
X139303095Y-120435642D01*
X139255476Y-120340404D01*
X139255476Y-119530880D01*
X138350714Y-119864214D02*
X138350714Y-120530880D01*
X138588809Y-119483261D02*
X138826904Y-120197547D01*
X138207857Y-120197547D01*
X135889904Y-119530880D02*
X135889904Y-120340404D01*
X135842285Y-120435642D01*
X135794666Y-120483261D01*
X135699428Y-120530880D01*
X135508952Y-120530880D01*
X135413714Y-120483261D01*
X135366095Y-120435642D01*
X135318476Y-120340404D01*
X135318476Y-119530880D01*
X134366095Y-119530880D02*
X134842285Y-119530880D01*
X134889904Y-120007071D01*
X134842285Y-119959452D01*
X134747047Y-119911833D01*
X134508952Y-119911833D01*
X134413714Y-119959452D01*
X134366095Y-120007071D01*
X134318476Y-120102309D01*
X134318476Y-120340404D01*
X134366095Y-120435642D01*
X134413714Y-120483261D01*
X134508952Y-120530880D01*
X134747047Y-120530880D01*
X134842285Y-120483261D01*
X134889904Y-120435642D01*
X152503142Y-106005333D02*
X152550761Y-105957714D01*
X152598380Y-105814857D01*
X152598380Y-105719619D01*
X152550761Y-105576761D01*
X152455523Y-105481523D01*
X152360285Y-105433904D01*
X152169809Y-105386285D01*
X152026952Y-105386285D01*
X151836476Y-105433904D01*
X151741238Y-105481523D01*
X151646000Y-105576761D01*
X151598380Y-105719619D01*
X151598380Y-105814857D01*
X151646000Y-105957714D01*
X151693619Y-106005333D01*
X151693619Y-106386285D02*
X151646000Y-106433904D01*
X151598380Y-106529142D01*
X151598380Y-106767238D01*
X151646000Y-106862476D01*
X151693619Y-106910095D01*
X151788857Y-106957714D01*
X151884095Y-106957714D01*
X152026952Y-106910095D01*
X152598380Y-106338666D01*
X152598380Y-106957714D01*
X116943142Y-107180142D02*
X116990761Y-107132523D01*
X117038380Y-106989666D01*
X117038380Y-106894428D01*
X116990761Y-106751571D01*
X116895523Y-106656333D01*
X116800285Y-106608714D01*
X116609809Y-106561095D01*
X116466952Y-106561095D01*
X116276476Y-106608714D01*
X116181238Y-106656333D01*
X116086000Y-106751571D01*
X116038380Y-106894428D01*
X116038380Y-106989666D01*
X116086000Y-107132523D01*
X116133619Y-107180142D01*
X117038380Y-108132523D02*
X117038380Y-107561095D01*
X117038380Y-107846809D02*
X116038380Y-107846809D01*
X116181238Y-107751571D01*
X116276476Y-107656333D01*
X116324095Y-107561095D01*
X117038380Y-109084904D02*
X117038380Y-108513476D01*
X117038380Y-108799190D02*
X116038380Y-108799190D01*
X116181238Y-108703952D01*
X116276476Y-108608714D01*
X116324095Y-108513476D01*
X138882380Y-88987333D02*
X138406190Y-88654000D01*
X138882380Y-88415904D02*
X137882380Y-88415904D01*
X137882380Y-88796857D01*
X137930000Y-88892095D01*
X137977619Y-88939714D01*
X138072857Y-88987333D01*
X138215714Y-88987333D01*
X138310952Y-88939714D01*
X138358571Y-88892095D01*
X138406190Y-88796857D01*
X138406190Y-88415904D01*
X137977619Y-89368285D02*
X137930000Y-89415904D01*
X137882380Y-89511142D01*
X137882380Y-89749238D01*
X137930000Y-89844476D01*
X137977619Y-89892095D01*
X138072857Y-89939714D01*
X138168095Y-89939714D01*
X138310952Y-89892095D01*
X138882380Y-89320666D01*
X138882380Y-89939714D01*
X126413666Y-117166380D02*
X126747000Y-116690190D01*
X126985095Y-117166380D02*
X126985095Y-116166380D01*
X126604142Y-116166380D01*
X126508904Y-116214000D01*
X126461285Y-116261619D01*
X126413666Y-116356857D01*
X126413666Y-116499714D01*
X126461285Y-116594952D01*
X126508904Y-116642571D01*
X126604142Y-116690190D01*
X126985095Y-116690190D01*
X126080333Y-116166380D02*
X125461285Y-116166380D01*
X125794619Y-116547333D01*
X125651761Y-116547333D01*
X125556523Y-116594952D01*
X125508904Y-116642571D01*
X125461285Y-116737809D01*
X125461285Y-116975904D01*
X125508904Y-117071142D01*
X125556523Y-117118761D01*
X125651761Y-117166380D01*
X125937476Y-117166380D01*
X126032714Y-117118761D01*
X126080333Y-117071142D01*
X140534380Y-88978333D02*
X140058190Y-88645000D01*
X140534380Y-88406904D02*
X139534380Y-88406904D01*
X139534380Y-88787857D01*
X139582000Y-88883095D01*
X139629619Y-88930714D01*
X139724857Y-88978333D01*
X139867714Y-88978333D01*
X139962952Y-88930714D01*
X140010571Y-88883095D01*
X140058190Y-88787857D01*
X140058190Y-88406904D01*
X139867714Y-89835476D02*
X140534380Y-89835476D01*
X139486761Y-89597380D02*
X140201047Y-89359285D01*
X140201047Y-89978333D01*
X117039380Y-103211333D02*
X116563190Y-102878000D01*
X117039380Y-102639904D02*
X116039380Y-102639904D01*
X116039380Y-103020857D01*
X116087000Y-103116095D01*
X116134619Y-103163714D01*
X116229857Y-103211333D01*
X116372714Y-103211333D01*
X116467952Y-103163714D01*
X116515571Y-103116095D01*
X116563190Y-103020857D01*
X116563190Y-102639904D01*
X116039380Y-104116095D02*
X116039380Y-103639904D01*
X116515571Y-103592285D01*
X116467952Y-103639904D01*
X116420333Y-103735142D01*
X116420333Y-103973238D01*
X116467952Y-104068476D01*
X116515571Y-104116095D01*
X116610809Y-104163714D01*
X116848904Y-104163714D01*
X116944142Y-104116095D01*
X116991761Y-104068476D01*
X117039380Y-103973238D01*
X117039380Y-103735142D01*
X116991761Y-103639904D01*
X116944142Y-103592285D01*
X146978666Y-108274380D02*
X147312000Y-107798190D01*
X147550095Y-108274380D02*
X147550095Y-107274380D01*
X147169142Y-107274380D01*
X147073904Y-107322000D01*
X147026285Y-107369619D01*
X146978666Y-107464857D01*
X146978666Y-107607714D01*
X147026285Y-107702952D01*
X147073904Y-107750571D01*
X147169142Y-107798190D01*
X147550095Y-107798190D01*
X146645333Y-107274380D02*
X145978666Y-107274380D01*
X146407238Y-108274380D01*
X143168666Y-108275380D02*
X143502000Y-107799190D01*
X143740095Y-108275380D02*
X143740095Y-107275380D01*
X143359142Y-107275380D01*
X143263904Y-107323000D01*
X143216285Y-107370619D01*
X143168666Y-107465857D01*
X143168666Y-107608714D01*
X143216285Y-107703952D01*
X143263904Y-107751571D01*
X143359142Y-107799190D01*
X143740095Y-107799190D01*
X142597238Y-107703952D02*
X142692476Y-107656333D01*
X142740095Y-107608714D01*
X142787714Y-107513476D01*
X142787714Y-107465857D01*
X142740095Y-107370619D01*
X142692476Y-107323000D01*
X142597238Y-107275380D01*
X142406761Y-107275380D01*
X142311523Y-107323000D01*
X142263904Y-107370619D01*
X142216285Y-107465857D01*
X142216285Y-107513476D01*
X142263904Y-107608714D01*
X142311523Y-107656333D01*
X142406761Y-107703952D01*
X142597238Y-107703952D01*
X142692476Y-107751571D01*
X142740095Y-107799190D01*
X142787714Y-107894428D01*
X142787714Y-108084904D01*
X142740095Y-108180142D01*
X142692476Y-108227761D01*
X142597238Y-108275380D01*
X142406761Y-108275380D01*
X142311523Y-108227761D01*
X142263904Y-108180142D01*
X142216285Y-108084904D01*
X142216285Y-107894428D01*
X142263904Y-107799190D01*
X142311523Y-107751571D01*
X142406761Y-107703952D01*
X169407333Y-126452380D02*
X169407333Y-127166666D01*
X169454952Y-127309523D01*
X169550190Y-127404761D01*
X169693047Y-127452380D01*
X169788285Y-127452380D01*
X168788285Y-126880952D02*
X168883523Y-126833333D01*
X168931142Y-126785714D01*
X168978761Y-126690476D01*
X168978761Y-126642857D01*
X168931142Y-126547619D01*
X168883523Y-126500000D01*
X168788285Y-126452380D01*
X168597809Y-126452380D01*
X168502571Y-126500000D01*
X168454952Y-126547619D01*
X168407333Y-126642857D01*
X168407333Y-126690476D01*
X168454952Y-126785714D01*
X168502571Y-126833333D01*
X168597809Y-126880952D01*
X168788285Y-126880952D01*
X168883523Y-126928571D01*
X168931142Y-126976190D01*
X168978761Y-127071428D01*
X168978761Y-127261904D01*
X168931142Y-127357142D01*
X168883523Y-127404761D01*
X168788285Y-127452380D01*
X168597809Y-127452380D01*
X168502571Y-127404761D01*
X168454952Y-127357142D01*
X168407333Y-127261904D01*
X168407333Y-127071428D01*
X168454952Y-126976190D01*
X168502571Y-126928571D01*
X168597809Y-126880952D01*
X131365523Y-58888380D02*
X131365523Y-59602666D01*
X131413142Y-59745523D01*
X131508380Y-59840761D01*
X131651238Y-59888380D01*
X131746476Y-59888380D01*
X130365523Y-59888380D02*
X130936952Y-59888380D01*
X130651238Y-59888380D02*
X130651238Y-58888380D01*
X130746476Y-59031238D01*
X130841714Y-59126476D01*
X130936952Y-59174095D01*
X129508380Y-58888380D02*
X129698857Y-58888380D01*
X129794095Y-58936000D01*
X129841714Y-58983619D01*
X129936952Y-59126476D01*
X129984571Y-59316952D01*
X129984571Y-59697904D01*
X129936952Y-59793142D01*
X129889333Y-59840761D01*
X129794095Y-59888380D01*
X129603619Y-59888380D01*
X129508380Y-59840761D01*
X129460761Y-59793142D01*
X129413142Y-59697904D01*
X129413142Y-59459809D01*
X129460761Y-59364571D01*
X129508380Y-59316952D01*
X129603619Y-59269333D01*
X129794095Y-59269333D01*
X129889333Y-59316952D01*
X129936952Y-59364571D01*
X129984571Y-59459809D01*
X118070380Y-87582476D02*
X118784666Y-87582476D01*
X118927523Y-87534857D01*
X119022761Y-87439619D01*
X119070380Y-87296761D01*
X119070380Y-87201523D01*
X119070380Y-88582476D02*
X119070380Y-88011047D01*
X119070380Y-88296761D02*
X118070380Y-88296761D01*
X118213238Y-88201523D01*
X118308476Y-88106285D01*
X118356095Y-88011047D01*
X119070380Y-89058666D02*
X119070380Y-89249142D01*
X119022761Y-89344380D01*
X118975142Y-89392000D01*
X118832285Y-89487238D01*
X118641809Y-89534857D01*
X118260857Y-89534857D01*
X118165619Y-89487238D01*
X118118000Y-89439619D01*
X118070380Y-89344380D01*
X118070380Y-89153904D01*
X118118000Y-89058666D01*
X118165619Y-89011047D01*
X118260857Y-88963428D01*
X118498952Y-88963428D01*
X118594190Y-89011047D01*
X118641809Y-89058666D01*
X118689428Y-89153904D01*
X118689428Y-89344380D01*
X118641809Y-89439619D01*
X118594190Y-89487238D01*
X118498952Y-89534857D01*
X148923333Y-103020880D02*
X148923333Y-103735166D01*
X148970952Y-103878023D01*
X149066190Y-103973261D01*
X149209047Y-104020880D01*
X149304285Y-104020880D01*
X148494761Y-103116119D02*
X148447142Y-103068500D01*
X148351904Y-103020880D01*
X148113809Y-103020880D01*
X148018571Y-103068500D01*
X147970952Y-103116119D01*
X147923333Y-103211357D01*
X147923333Y-103306595D01*
X147970952Y-103449452D01*
X148542380Y-104020880D01*
X147923333Y-104020880D01*
X156741880Y-114792166D02*
X157456166Y-114792166D01*
X157599023Y-114744547D01*
X157694261Y-114649309D01*
X157741880Y-114506452D01*
X157741880Y-114411214D01*
X156741880Y-115173119D02*
X156741880Y-115792166D01*
X157122833Y-115458833D01*
X157122833Y-115601690D01*
X157170452Y-115696928D01*
X157218071Y-115744547D01*
X157313309Y-115792166D01*
X157551404Y-115792166D01*
X157646642Y-115744547D01*
X157694261Y-115696928D01*
X157741880Y-115601690D01*
X157741880Y-115315976D01*
X157694261Y-115220738D01*
X157646642Y-115173119D01*
X130672857Y-89225380D02*
X131006190Y-88749190D01*
X131244285Y-89225380D02*
X131244285Y-88225380D01*
X130863333Y-88225380D01*
X130768095Y-88273000D01*
X130720476Y-88320619D01*
X130672857Y-88415857D01*
X130672857Y-88558714D01*
X130720476Y-88653952D01*
X130768095Y-88701571D01*
X130863333Y-88749190D01*
X131244285Y-88749190D01*
X129720476Y-89225380D02*
X130291904Y-89225380D01*
X130006190Y-89225380D02*
X130006190Y-88225380D01*
X130101428Y-88368238D01*
X130196666Y-88463476D01*
X130291904Y-88511095D01*
X128768095Y-89225380D02*
X129339523Y-89225380D01*
X129053809Y-89225380D02*
X129053809Y-88225380D01*
X129149047Y-88368238D01*
X129244285Y-88463476D01*
X129339523Y-88511095D01*
X125182380Y-99568095D02*
X125991904Y-99568095D01*
X126087142Y-99615714D01*
X126134761Y-99663333D01*
X126182380Y-99758571D01*
X126182380Y-99949047D01*
X126134761Y-100044285D01*
X126087142Y-100091904D01*
X125991904Y-100139523D01*
X125182380Y-100139523D01*
X125277619Y-100568095D02*
X125230000Y-100615714D01*
X125182380Y-100710952D01*
X125182380Y-100949047D01*
X125230000Y-101044285D01*
X125277619Y-101091904D01*
X125372857Y-101139523D01*
X125468095Y-101139523D01*
X125610952Y-101091904D01*
X126182380Y-100520476D01*
X126182380Y-101139523D01*
X148153380Y-119388023D02*
X147677190Y-119054690D01*
X148153380Y-118816595D02*
X147153380Y-118816595D01*
X147153380Y-119197547D01*
X147201000Y-119292785D01*
X147248619Y-119340404D01*
X147343857Y-119388023D01*
X147486714Y-119388023D01*
X147581952Y-119340404D01*
X147629571Y-119292785D01*
X147677190Y-119197547D01*
X147677190Y-118816595D01*
X148153380Y-119816595D02*
X147153380Y-119816595D01*
X148153380Y-120388023D01*
X147153380Y-120388023D01*
X147153380Y-120768976D02*
X147153380Y-121388023D01*
X147534333Y-121054690D01*
X147534333Y-121197547D01*
X147581952Y-121292785D01*
X147629571Y-121340404D01*
X147724809Y-121388023D01*
X147962904Y-121388023D01*
X148058142Y-121340404D01*
X148105761Y-121292785D01*
X148153380Y-121197547D01*
X148153380Y-120911833D01*
X148105761Y-120816595D01*
X148058142Y-120768976D01*
X162131904Y-94427380D02*
X162131904Y-95236904D01*
X162084285Y-95332142D01*
X162036666Y-95379761D01*
X161941428Y-95427380D01*
X161750952Y-95427380D01*
X161655714Y-95379761D01*
X161608095Y-95332142D01*
X161560476Y-95236904D01*
X161560476Y-94427380D01*
X160560476Y-95427380D02*
X161131904Y-95427380D01*
X160846190Y-95427380D02*
X160846190Y-94427380D01*
X160941428Y-94570238D01*
X161036666Y-94665476D01*
X161131904Y-94713095D01*
X139707857Y-110687380D02*
X140041190Y-110211190D01*
X140279285Y-110687380D02*
X140279285Y-109687380D01*
X139898333Y-109687380D01*
X139803095Y-109735000D01*
X139755476Y-109782619D01*
X139707857Y-109877857D01*
X139707857Y-110020714D01*
X139755476Y-110115952D01*
X139803095Y-110163571D01*
X139898333Y-110211190D01*
X140279285Y-110211190D01*
X138755476Y-110687380D02*
X139326904Y-110687380D01*
X139041190Y-110687380D02*
X139041190Y-109687380D01*
X139136428Y-109830238D01*
X139231666Y-109925476D01*
X139326904Y-109973095D01*
X138374523Y-109782619D02*
X138326904Y-109735000D01*
X138231666Y-109687380D01*
X137993571Y-109687380D01*
X137898333Y-109735000D01*
X137850714Y-109782619D01*
X137803095Y-109877857D01*
X137803095Y-109973095D01*
X137850714Y-110115952D01*
X138422142Y-110687380D01*
X137803095Y-110687380D01*
X139698857Y-113989380D02*
X140032190Y-113513190D01*
X140270285Y-113989380D02*
X140270285Y-112989380D01*
X139889333Y-112989380D01*
X139794095Y-113037000D01*
X139746476Y-113084619D01*
X139698857Y-113179857D01*
X139698857Y-113322714D01*
X139746476Y-113417952D01*
X139794095Y-113465571D01*
X139889333Y-113513190D01*
X140270285Y-113513190D01*
X138746476Y-113989380D02*
X139317904Y-113989380D01*
X139032190Y-113989380D02*
X139032190Y-112989380D01*
X139127428Y-113132238D01*
X139222666Y-113227476D01*
X139317904Y-113275095D01*
X137889333Y-113322714D02*
X137889333Y-113989380D01*
X138127428Y-112941761D02*
X138365523Y-113656047D01*
X137746476Y-113656047D01*
X173298380Y-114936142D02*
X172822190Y-114602809D01*
X173298380Y-114364714D02*
X172298380Y-114364714D01*
X172298380Y-114745666D01*
X172346000Y-114840904D01*
X172393619Y-114888523D01*
X172488857Y-114936142D01*
X172631714Y-114936142D01*
X172726952Y-114888523D01*
X172774571Y-114840904D01*
X172822190Y-114745666D01*
X172822190Y-114364714D01*
X172393619Y-115317095D02*
X172346000Y-115364714D01*
X172298380Y-115459952D01*
X172298380Y-115698047D01*
X172346000Y-115793285D01*
X172393619Y-115840904D01*
X172488857Y-115888523D01*
X172584095Y-115888523D01*
X172726952Y-115840904D01*
X173298380Y-115269476D01*
X173298380Y-115888523D01*
X172298380Y-116221857D02*
X172298380Y-116840904D01*
X172679333Y-116507571D01*
X172679333Y-116650428D01*
X172726952Y-116745666D01*
X172774571Y-116793285D01*
X172869809Y-116840904D01*
X173107904Y-116840904D01*
X173203142Y-116793285D01*
X173250761Y-116745666D01*
X173298380Y-116650428D01*
X173298380Y-116364714D01*
X173250761Y-116269476D01*
X173203142Y-116221857D01*
X166695380Y-116451142D02*
X166219190Y-116117809D01*
X166695380Y-115879714D02*
X165695380Y-115879714D01*
X165695380Y-116260666D01*
X165743000Y-116355904D01*
X165790619Y-116403523D01*
X165885857Y-116451142D01*
X166028714Y-116451142D01*
X166123952Y-116403523D01*
X166171571Y-116355904D01*
X166219190Y-116260666D01*
X166219190Y-115879714D01*
X165790619Y-116832095D02*
X165743000Y-116879714D01*
X165695380Y-116974952D01*
X165695380Y-117213047D01*
X165743000Y-117308285D01*
X165790619Y-117355904D01*
X165885857Y-117403523D01*
X165981095Y-117403523D01*
X166123952Y-117355904D01*
X166695380Y-116784476D01*
X166695380Y-117403523D01*
X165695380Y-118308285D02*
X165695380Y-117832095D01*
X166171571Y-117784476D01*
X166123952Y-117832095D01*
X166076333Y-117927333D01*
X166076333Y-118165428D01*
X166123952Y-118260666D01*
X166171571Y-118308285D01*
X166266809Y-118355904D01*
X166504904Y-118355904D01*
X166600142Y-118308285D01*
X166647761Y-118260666D01*
X166695380Y-118165428D01*
X166695380Y-117927333D01*
X166647761Y-117832095D01*
X166600142Y-117784476D01*
X169806880Y-116451142D02*
X169330690Y-116117809D01*
X169806880Y-115879714D02*
X168806880Y-115879714D01*
X168806880Y-116260666D01*
X168854500Y-116355904D01*
X168902119Y-116403523D01*
X168997357Y-116451142D01*
X169140214Y-116451142D01*
X169235452Y-116403523D01*
X169283071Y-116355904D01*
X169330690Y-116260666D01*
X169330690Y-115879714D01*
X168902119Y-116832095D02*
X168854500Y-116879714D01*
X168806880Y-116974952D01*
X168806880Y-117213047D01*
X168854500Y-117308285D01*
X168902119Y-117355904D01*
X168997357Y-117403523D01*
X169092595Y-117403523D01*
X169235452Y-117355904D01*
X169806880Y-116784476D01*
X169806880Y-117403523D01*
X168806880Y-118260666D02*
X168806880Y-118070190D01*
X168854500Y-117974952D01*
X168902119Y-117927333D01*
X169044976Y-117832095D01*
X169235452Y-117784476D01*
X169616404Y-117784476D01*
X169711642Y-117832095D01*
X169759261Y-117879714D01*
X169806880Y-117974952D01*
X169806880Y-118165428D01*
X169759261Y-118260666D01*
X169711642Y-118308285D01*
X169616404Y-118355904D01*
X169378309Y-118355904D01*
X169283071Y-118308285D01*
X169235452Y-118260666D01*
X169187833Y-118165428D01*
X169187833Y-117974952D01*
X169235452Y-117879714D01*
X169283071Y-117832095D01*
X169378309Y-117784476D01*
M02*
