G04 #@! TF.GenerationSoftware,KiCad,Pcbnew,(5.1.2)-2*
G04 #@! TF.CreationDate,2021-03-10T15:28:27-07:00*
G04 #@! TF.ProjectId,NIM-PC104,4e494d2d-5043-4313-9034-2e6b69636164,A*
G04 #@! TF.SameCoordinates,Original*
G04 #@! TF.FileFunction,Profile,NP*
%FSLAX46Y46*%
G04 Gerber Fmt 4.6, Leading zero omitted, Abs format (unit mm)*
G04 Created by KiCad (PCBNEW (5.1.2)-2) date 2021-03-10 15:28:27*
%MOMM*%
%LPD*%
G04 APERTURE LIST*
%ADD10C,0.050000*%
G04 APERTURE END LIST*
D10*
X198882000Y-130810000D02*
X198882000Y-125412500D01*
X198882000Y-130810000D02*
G75*
G02X195072000Y-134620000I-3810000J0D01*
G01*
X196977000Y-123507500D02*
X198882000Y-125412500D01*
X188468000Y-134620000D02*
X195072000Y-134620000D01*
X184658000Y-130810000D02*
X188468000Y-134620000D01*
X119507000Y-130810000D02*
X184658000Y-130810000D01*
X115697000Y-134620000D02*
X119507000Y-130810000D01*
X109347000Y-134620000D02*
X115697000Y-134620000D01*
X109347000Y-134620000D02*
G75*
G02X105537001Y-130810000I1J3810000D01*
G01*
X105537000Y-124460000D02*
X105537001Y-130810000D01*
X109347000Y-120650000D02*
X105537000Y-124460000D01*
X109347000Y-60896500D02*
X109347000Y-120650000D01*
X105537000Y-57150000D02*
X109347000Y-60896500D01*
X105537000Y-50800000D02*
X105537000Y-57150000D01*
X105537000Y-50800000D02*
G75*
G02X109411029Y-46990000I3810529J0D01*
G01*
X115570000Y-46990000D02*
X109411029Y-46990000D01*
X119380000Y-50800000D02*
X115570000Y-46990000D01*
X140716000Y-50800000D02*
X119380000Y-50800000D01*
X140716000Y-50800000D02*
G75*
G02X143256000Y-53340000I0J-2540000D01*
G01*
X143256000Y-85090000D02*
X143256000Y-53340000D01*
X146304000Y-88138000D02*
G75*
G02X143256000Y-85090000I0J3048000D01*
G01*
X176657000Y-88138000D02*
X146304000Y-88138000D01*
X179705000Y-85090000D02*
G75*
G02X176657000Y-88138000I-3048000J0D01*
G01*
X179705000Y-53848000D02*
X179705000Y-85090000D01*
X179705000Y-53848000D02*
G75*
G02X182753000Y-50800000I3048000J0D01*
G01*
X184912000Y-50800000D02*
X182753000Y-50800000D01*
X188722000Y-46990000D02*
X184912000Y-50800000D01*
X195072000Y-46990000D02*
X188722000Y-46990000D01*
X195072000Y-46990000D02*
G75*
G02X198882000Y-50800000I0J-3810000D01*
G01*
X198882000Y-56197500D02*
X198882000Y-50800000D01*
X196977000Y-58102500D02*
X198882000Y-56197500D01*
X196977000Y-58102500D02*
X196977000Y-123507500D01*
M02*
