(module LOGO (layer F.Cu)
  (at 0 0)
 (fp_text reference "G***" (at 0 0) (layer F.SilkS) hide
  (effects (font (thickness 0.3)))
  )
  (fp_text value "LOGO" (at 0.75 0) (layer F.SilkS) hide
  (effects (font (thickness 0.3)))
  )
  (fp_poly (pts (xy 2.647955 1.450285) (xy 2.709047 1.482429) (xy 2.730277 1.534002) (xy 2.730500 1.541494) (xy 2.709724 1.594656) (xy 2.675424 1.638039) (xy 2.635697 1.711339) (xy 2.630292 1.768988)
     (xy 2.623143 1.847412) (xy 2.602104 1.890806) (xy 2.545925 1.919299) (xy 2.452367 1.933797) (xy 2.346154 1.933557) (xy 2.252009 1.917836) (xy 2.214562 1.902456) (xy 2.166511 1.843395)
     (xy 2.166537 1.768090) (xy 2.194158 1.723791) (xy 2.205775 1.688108) (xy 2.160505 1.651805) (xy 2.107498 1.598511) (xy 2.101534 1.529802) (xy 2.108918 1.488165) (xy 2.128042 1.462384)
     (xy 2.172063 1.447939) (xy 2.254141 1.440307) (xy 2.376389 1.435353) (xy 2.539553 1.435338) (xy 2.647955 1.450285) )(layer F.SilkS) (width  0.010000)
  )
  (fp_poly (pts (xy 2.429706 0.896112) (xy 2.621621 0.900248) (xy 2.759693 0.905650) (xy 2.853578 0.913481) (xy 2.912935 0.924898) (xy 2.947418 0.941064) (xy 2.965046 0.960437) (xy 2.981344 1.032910)
     (xy 2.942295 1.095129) (xy 2.856051 1.136632) (xy 2.822461 1.143439) (xy 2.757223 1.156917) (xy 2.749696 1.171294) (xy 2.772313 1.182946) (xy 2.816002 1.226936) (xy 2.819938 1.293631)
     (xy 2.809875 1.381125) (xy 2.405903 1.390004) (xy 2.001932 1.398884) (xy 1.980534 1.313627) (xy 1.977693 1.234687) (xy 2.014453 1.187921) (xy 2.044474 1.160145) (xy 2.027039 1.145749)
     (xy 1.963572 1.137298) (xy 1.887797 1.120879) (xy 1.854814 1.080765) (xy 1.847832 1.045032) (xy 1.846518 0.989435) (xy 1.862689 0.948716) (xy 1.904291 0.920842) (xy 1.979273 0.903778)
     (xy 2.095581 0.895490) (xy 2.261163 0.893944) (xy 2.429706 0.896112) )(layer F.SilkS) (width  0.010000)
  )
  (fp_poly (pts (xy 2.604936 -0.562137) (xy 2.685688 -0.538305) (xy 2.786266 -0.506393) (xy 2.887090 -0.472788) (xy 2.968583 -0.443878) (xy 3.011165 -0.426051) (xy 3.012724 -0.424965) (xy 2.997144 -0.401144)
     (xy 2.946998 -0.348765) (xy 2.875995 -0.280525) (xy 2.797841 -0.209121) (xy 2.726245 -0.147248) (xy 2.674916 -0.107604) (xy 2.662459 -0.100542) (xy 2.638985 -0.116339) (xy 2.635250 -0.140230)
     (xy 2.630816 -0.167695) (xy 2.611306 -0.182996) (xy 2.567410 -0.185486) (xy 2.489813 -0.174519) (xy 2.369205 -0.149446) (xy 2.196936 -0.109776) (xy 1.852681 -0.029052) (xy 1.943631 0.151256)
     (xy 1.996555 0.268503) (xy 2.022017 0.369016) (xy 2.027114 0.486451) (xy 2.025352 0.538844) (xy 2.018881 0.650320) (xy 2.007532 0.713367) (xy 1.984608 0.743032) (xy 1.943416 0.754360)
     (xy 1.928631 0.756188) (xy 1.856748 0.750132) (xy 1.828126 0.724438) (xy 1.817656 0.670600) (xy 1.805018 0.578277) (xy 1.797667 0.512684) (xy 1.759770 0.345926) (xy 1.676938 0.175641)
     (xy 1.543498 -0.009395) (xy 1.518405 -0.039544) (xy 1.463207 -0.110722) (xy 1.433747 -0.160578) (xy 1.432544 -0.173129) (xy 1.466815 -0.184406) (xy 1.552960 -0.206710) (xy 1.680803 -0.237578)
     (xy 1.840168 -0.274548) (xy 2.001543 -0.310869) (xy 2.199480 -0.355279) (xy 2.343567 -0.389380) (xy 2.442061 -0.416081) (xy 2.503219 -0.438293) (xy 2.535300 -0.458926) (xy 2.546562 -0.480889)
     (xy 2.545941 -0.502721) (xy 2.548687 -0.556712) (xy 2.563589 -0.571500) (xy 2.604936 -0.562137) )(layer F.SilkS) (width  0.010000)
  )
  (fp_poly (pts (xy 2.672833 -1.858052) (xy 2.850579 -1.795842) (xy 3.079669 -1.657955) (xy 3.267984 -1.475608) (xy 3.410262 -1.256985) (xy 3.501243 -1.010265) (xy 3.535665 -0.743630) (xy 3.535806 -0.730250)
     (xy 3.522681 -0.536036) (xy 3.476638 -0.361811) (xy 3.390813 -0.189578) (xy 3.258343 -0.001340) (xy 3.257295 0.000000) (xy 3.145451 0.151580) (xy 3.072736 0.274762) (xy 3.032213 0.384851)
     (xy 3.016944 0.497155) (xy 3.016250 0.531823) (xy 3.008814 0.630365) (xy 2.989967 0.704456) (xy 2.978150 0.723900) (xy 2.903839 0.759688) (xy 2.825195 0.741519) (xy 2.793529 0.713807)
     (xy 2.769612 0.645208) (xy 2.766317 0.536266) (xy 2.781445 0.405900) (xy 2.812801 0.273026) (xy 2.858188 0.156561) (xy 2.858244 0.156451) (xy 2.921997 0.047755) (xy 3.004351 -0.071328)
     (xy 3.047872 -0.127000) (xy 3.166131 -0.285647) (xy 3.240959 -0.430142) (xy 3.281720 -0.581616) (xy 3.293456 -0.681191) (xy 3.281043 -0.908038) (xy 3.212878 -1.119418) (xy 3.096347 -1.306616)
     (xy 2.938839 -1.460919) (xy 2.747740 -1.573612) (xy 2.530438 -1.635981) (xy 2.478798 -1.642178) (xy 2.251775 -1.636637) (xy 2.049824 -1.574898) (xy 1.899204 -1.482449) (xy 1.823789 -1.416293)
     (xy 1.744171 -1.333085) (xy 1.671165 -1.246211) (xy 1.615584 -1.169056) (xy 1.588241 -1.115004) (xy 1.589720 -1.099382) (xy 1.625020 -1.098920) (xy 1.707310 -1.108698) (xy 1.821265 -1.126753)
     (xy 1.867675 -1.135008) (xy 1.995725 -1.159476) (xy 2.072624 -1.179124) (xy 2.109830 -1.199713) (xy 2.118803 -1.227005) (xy 2.113132 -1.258426) (xy 2.102876 -1.315287) (xy 2.105799 -1.333500)
     (xy 2.138501 -1.324145) (xy 2.212841 -1.300175) (xy 2.310446 -1.267731) (xy 2.412943 -1.232956) (xy 2.501959 -1.201993) (xy 2.537745 -1.189097) (xy 2.547337 -1.164633) (xy 2.513882 -1.110442)
     (xy 2.434409 -1.022036) (xy 2.411830 -0.998941) (xy 2.311494 -0.900394) (xy 2.246267 -0.845900) (xy 2.209150 -0.831980) (xy 2.193145 -0.855153) (xy 2.190750 -0.889000) (xy 2.185502 -0.940683)
     (xy 2.178278 -0.952500) (xy 2.144451 -0.945857) (xy 2.060425 -0.927647) (xy 1.937907 -0.900451) (xy 1.788601 -0.866851) (xy 1.746250 -0.857250) (xy 1.589685 -0.822226) (xy 1.454674 -0.792998)
     (xy 1.353652 -0.772186) (xy 1.299055 -0.762413) (xy 1.294217 -0.762000) (xy 1.272591 -0.789031) (xy 1.272398 -0.860868) (xy 1.290830 -0.963627) (xy 1.325077 -1.083424) (xy 1.372328 -1.206375)
     (xy 1.393233 -1.251288) (xy 1.538271 -1.475602) (xy 1.731032 -1.662596) (xy 1.962567 -1.803591) (xy 1.962939 -1.803763) (xy 2.186970 -1.874437) (xy 2.429278 -1.892483) (xy 2.672833 -1.858052) )(layer F.SilkS) (width  0.010000)
  )
  (fp_poly (pts (xy -8.089243 -1.888788) (xy -7.865610 -1.832324) (xy -7.671990 -1.726367) (xy -7.606604 -1.674281) (xy -7.488609 -1.571625) (xy -7.614538 -1.449310) (xy -7.740466 -1.326994) (xy -7.894546 -1.417560)
     (xy -7.987218 -1.466482) (xy -8.072610 -1.494018) (xy -8.175881 -1.505944) (xy -8.289069 -1.508125) (xy -8.422541 -1.504917) (xy -8.515426 -1.491792) (xy -8.590469 -1.463503) (xy -8.658221 -1.422950)
     (xy -8.801489 -1.294634) (xy -8.901503 -1.135676) (xy -8.958661 -0.957436) (xy -8.973360 -0.771272) (xy -8.945995 -0.588544) (xy -8.876965 -0.420609) (xy -8.766666 -0.278827) (xy -8.615494 -0.174557)
     (xy -8.614593 -0.174128) (xy -8.478041 -0.131835) (xy -8.316211 -0.114751) (xy -8.153503 -0.122744) (xy -8.014318 -0.155681) (xy -7.967532 -0.177623) (xy -7.904691 -0.219273) (xy -7.870630 -0.264506)
     (xy -7.854916 -0.334785) (xy -7.848604 -0.422303) (xy -7.839082 -0.603250) (xy -8.350250 -0.603250) (xy -8.350250 -0.984250) (xy -7.429500 -0.984250) (xy -7.429500 -0.102640) (xy -7.560552 0.015757)
     (xy -7.731318 0.143980) (xy -7.915019 0.225675) (xy -8.129229 0.267560) (xy -8.239125 0.275166) (xy -8.390703 0.274671) (xy -8.534581 0.263208) (xy -8.638244 0.244168) (xy -8.878961 0.148406)
     (xy -9.072669 0.010072) (xy -9.219877 -0.171279) (xy -9.301453 -0.339437) (xy -9.369683 -0.597791) (xy -9.383722 -0.855397) (xy -9.346736 -1.103499) (xy -9.261887 -1.333341) (xy -9.132338 -1.536165)
     (xy -8.961253 -1.703215) (xy -8.766887 -1.819129) (xy -8.599308 -1.869871) (xy -8.375737 -1.896603) (xy -8.350250 -1.897973) (xy -8.089243 -1.888788) )(layer F.SilkS) (width  0.010000)
  )
  (fp_poly (pts (xy 8.721952 -1.904278) (xy 8.922570 -1.854531) (xy 9.089299 -1.765884) (xy 9.143052 -1.723820) (xy 9.247539 -1.629156) (xy 9.301514 -1.560972) (xy 9.306134 -1.508834) (xy 9.262554 -1.462305)
     (xy 9.177385 -1.413704) (xy 9.018962 -1.333425) (xy 8.882977 -1.429277) (xy 8.747772 -1.501219) (xy 8.602641 -1.540079) (xy 8.458300 -1.548264) (xy 8.325461 -1.528184) (xy 8.214839 -1.482247)
     (xy 8.137147 -1.412861) (xy 8.103099 -1.322436) (xy 8.108999 -1.255273) (xy 8.130574 -1.202198) (xy 8.171653 -1.160566) (xy 8.242103 -1.126132) (xy 8.351792 -1.094650) (xy 8.510588 -1.061875)
     (xy 8.593427 -1.046857) (xy 8.850444 -0.990945) (xy 9.049903 -0.922037) (xy 9.197157 -0.835746) (xy 9.297559 -0.727685) (xy 9.356466 -0.593470) (xy 9.379230 -0.428713) (xy 9.379842 -0.402644)
     (xy 9.358244 -0.200105) (xy 9.286409 -0.035183) (xy 9.161554 0.096705) (xy 9.026037 0.179360) (xy 8.845808 0.241975) (xy 8.631349 0.277113) (xy 8.406230 0.283595) (xy 8.194017 0.260242)
     (xy 8.070298 0.227144) (xy 7.901617 0.142304) (xy 7.751625 0.021151) (xy 7.641334 -0.118862) (xy 7.630824 -0.137889) (xy 7.601234 -0.201852) (xy 7.593306 -0.235081) (xy 7.593846 -0.235710)
     (xy 7.625077 -0.253865) (xy 7.694885 -0.292785) (xy 7.760280 -0.328761) (xy 7.916436 -0.414253) (xy 8.006557 -0.304921) (xy 8.143066 -0.188109) (xy 8.318109 -0.118784) (xy 8.525787 -0.099072)
     (xy 8.571831 -0.101350) (xy 8.738674 -0.126765) (xy 8.851383 -0.177646) (xy 8.915743 -0.258443) (xy 8.937543 -0.373606) (xy 8.937625 -0.382647) (xy 8.931321 -0.475134) (xy 8.903628 -0.530986)
     (xy 8.841368 -0.576532) (xy 8.840287 -0.577164) (xy 8.761183 -0.609247) (xy 8.642876 -0.641110) (xy 8.509371 -0.666417) (xy 8.493682 -0.668682) (xy 8.224441 -0.720894) (xy 8.012588 -0.795805)
     (xy 7.855447 -0.895517) (xy 7.750341 -1.022134) (xy 7.694591 -1.177756) (xy 7.683500 -1.304837) (xy 7.712129 -1.487707) (xy 7.794881 -1.643031) (xy 7.927053 -1.767176) (xy 8.103944 -1.856510)
     (xy 8.320851 -1.907397) (xy 8.477250 -1.918098) (xy 8.721952 -1.904278) )(layer F.SilkS) (width  0.010000)
  )
  (fp_poly (pts (xy -5.532438 -0.833839) (xy -5.426586 -0.596530) (xy -5.329526 -0.376757) (xy -5.244238 -0.181434) (xy -5.173700 -0.017474) (xy -5.120890 0.108210) (xy -5.088787 0.188705) (xy -5.080000 0.216273)
     (xy -5.099002 0.238623) (xy -5.161960 0.248828) (xy -5.277804 0.248190) (xy -5.294183 0.247513) (xy -5.508365 0.238125) (xy -5.857745 -0.563245) (xy -6.207125 -1.364614) (xy -6.306494 -1.150620)
     (xy -6.350748 -1.053707) (xy -6.414530 -0.911875) (xy -6.491923 -0.738384) (xy -6.577014 -0.546495) (xy -6.663888 -0.349469) (xy -6.667472 -0.341313) (xy -6.929083 0.254000) (xy -7.147542 0.254000)
     (xy -7.256048 0.251801) (xy -7.334244 0.246024) (xy -7.365928 0.237894) (xy -7.366000 0.237465) (xy -7.353463 0.205665) (xy -7.317811 0.122617) (xy -7.261982 -0.005015) (xy -7.188916 -0.170571)
     (xy -7.101552 -0.367388) (xy -7.002829 -0.588804) (xy -6.907259 -0.802347) (xy -6.448518 -1.825625) (xy -6.216697 -1.834474) (xy -5.984875 -1.843323) (xy -5.532438 -0.833839) )(layer F.SilkS) (width  0.010000)
  )
  (fp_poly (pts (xy -6.206657 -0.560815) (xy -6.168965 -0.494588) (xy -6.117547 -0.394499) (xy -6.058139 -0.272761) (xy -5.996477 -0.141586) (xy -5.938297 -0.013184) (xy -5.889337 0.100231) (xy -5.855333 0.186447)
     (xy -5.842021 0.233253) (xy -5.842000 0.234126) (xy -5.871659 0.241950) (xy -5.952280 0.248324) (xy -6.071330 0.252566) (xy -6.207125 0.254000) (xy -6.372180 0.252283) (xy -6.482218 0.246493)
     (xy -6.545646 0.235664) (xy -6.570873 0.218835) (xy -6.572250 0.212170) (xy -6.559789 0.168936) (xy -6.526471 0.082128) (xy -6.478394 -0.034329) (xy -6.421654 -0.166515) (xy -6.362351 -0.300505)
     (xy -6.306580 -0.422378) (xy -6.260440 -0.518212) (xy -6.230028 -0.574083) (xy -6.224885 -0.580968) (xy -6.206657 -0.560815) )(layer F.SilkS) (width  0.010000)
  )
  (fp_poly (pts (xy -4.476750 -0.158750) (xy -3.394220 -0.158750) (xy -3.403673 0.039687) (xy -3.413125 0.238125) (xy -4.129565 0.246643) (xy -4.336768 0.248171) (xy -4.522396 0.247757) (xy -4.677136 0.245568)
     (xy -4.791676 0.241770) (xy -4.856707 0.236530) (xy -4.867753 0.233414) (xy -4.873020 0.197501) (xy -4.877828 0.105778) (xy -4.882016 -0.034070) (xy -4.885425 -0.214353) (xy -4.887896 -0.427383)
     (xy -4.889270 -0.665473) (xy -4.889500 -0.814917) (xy -4.889500 -1.841500) (xy -4.476750 -1.841500) (xy -4.476750 -0.158750) )(layer F.SilkS) (width  0.010000)
  )
  (fp_poly (pts (xy -2.730500 -0.158750) (xy -1.682750 -0.158750) (xy -1.682750 0.254000) (xy -2.407709 0.254000) (xy -2.616149 0.253110) (xy -2.803008 0.250617) (xy -2.959039 0.246782) (xy -3.075000 0.241868)
     (xy -3.141643 0.236137) (xy -3.153834 0.232833) (xy -3.158960 0.197065) (xy -3.163639 0.105480) (xy -3.167715 -0.034239) (xy -3.171033 -0.214412) (xy -3.173439 -0.427355) (xy -3.174776 -0.665386)
     (xy -3.175000 -0.814917) (xy -3.175000 -1.841500) (xy -2.730500 -1.841500) (xy -2.730500 -0.158750) )(layer F.SilkS) (width  0.010000)
  )
  (fp_poly (pts (xy 1.144415 -1.501498) (xy 1.096342 -1.367491) (xy 1.031985 -1.188407) (xy 0.956616 -0.978898) (xy 0.875506 -0.753614) (xy 0.793927 -0.527209) (xy 0.769831 -0.460375) (xy 0.517962 0.238125)
     (xy 0.342638 0.247519) (xy 0.167315 0.256913) (xy 0.019371 -0.121381) (xy -0.047847 -0.296389) (xy -0.116273 -0.479835) (xy -0.177137 -0.647934) (xy -0.215729 -0.759059) (xy -0.302886 -1.018442)
     (xy -0.421990 -0.656560) (xy -0.481983 -0.479830) (xy -0.548562 -0.292504) (xy -0.612133 -0.121205) (xy -0.648417 -0.028277) (xy -0.755741 0.238125) (xy -0.929875 0.247538) (xy -1.030744 0.250705)
     (xy -1.086961 0.241429) (xy -1.117158 0.212533) (xy -1.135931 0.168163) (xy -1.156010 0.112973) (xy -1.194348 0.008185) (xy -1.247278 -0.136204) (xy -1.311135 -0.310198) (xy -1.382254 -0.503798)
     (xy -1.412974 -0.587375) (xy -1.492187 -0.802963) (xy -1.571406 -1.018791) (xy -1.645435 -1.220681) (xy -1.709075 -1.394457) (xy -1.757128 -1.525941) (xy -1.765103 -1.547813) (xy -1.872110 -1.841500)
     (xy -1.399018 -1.841500) (xy -1.164695 -1.120630) (xy -0.930373 -0.399759) (xy -0.692728 -1.112692) (xy -0.455084 -1.825625) (xy -0.150849 -1.825625) (xy 0.090820 -1.121391) (xy 0.159161 -0.923325)
     (xy 0.220581 -0.747373) (xy 0.272157 -0.601745) (xy 0.310967 -0.494645) (xy 0.334085 -0.434282) (xy 0.339277 -0.423945) (xy 0.350362 -0.454814) (xy 0.377754 -0.537692) (xy 0.418688 -0.664022)
     (xy 0.470401 -0.825245) (xy 0.530129 -1.012802) (xy 0.566691 -1.128179) (xy 0.787317 -1.825625) (xy 1.027223 -1.834873) (xy 1.267129 -1.844120) (xy 1.144415 -1.501498) )(layer F.SilkS) (width  0.010000)
  )
  (fp_poly (pts (xy 4.397375 -1.848748) (xy 4.611300 -1.843818) (xy 4.798838 -1.835855) (xy 4.950004 -1.825500) (xy 5.054816 -1.813392) (xy 5.095875 -1.803986) (xy 5.281003 -1.704138) (xy 5.416800 -1.564675)
     (xy 5.502054 -1.387418) (xy 5.535554 -1.174185) (xy 5.536045 -1.143000) (xy 5.509856 -0.932106) (xy 5.431983 -0.756804) (xy 5.303809 -0.619290) (xy 5.151116 -0.531535) (xy 5.047607 -0.488066)
     (xy 5.349553 -0.150614) (xy 5.457758 -0.027443) (xy 5.548792 0.080454) (xy 5.615010 0.163685) (xy 5.648766 0.212853) (xy 5.651500 0.220419) (xy 5.621336 0.238562) (xy 5.536754 0.250171)
     (xy 5.414887 0.254000) (xy 5.178274 0.254000) (xy 4.870781 -0.095250) (xy 4.563289 -0.444500) (xy 4.224898 -0.444500) (xy 4.215886 -0.103188) (xy 4.206875 0.238125) (xy 4.008026 0.247588)
     (xy 3.884471 0.248428) (xy 3.815005 0.235545) (xy 3.793257 0.215563) (xy 3.789628 0.174673) (xy 3.786807 0.078217) (xy 3.784852 -0.065877) (xy 3.783820 -0.249679) (xy 3.783765 -0.465259)
     (xy 3.784746 -0.704690) (xy 3.785731 -0.841650) (xy 3.790845 -1.460500) (xy 4.222750 -1.460500) (xy 4.222750 -0.825500) (xy 4.525394 -0.825500) (xy 4.707918 -0.831390) (xy 4.851783 -0.848109)
     (xy 4.935589 -0.870438) (xy 5.042927 -0.945054) (xy 5.103833 -1.050423) (xy 5.115771 -1.171412) (xy 5.076203 -1.292889) (xy 5.018942 -1.367693) (xy 4.976121 -1.408171) (xy 4.935129 -1.434747)
     (xy 4.881962 -1.450344) (xy 4.802619 -1.457887) (xy 4.683094 -1.460299) (xy 4.574442 -1.460500) (xy 4.222750 -1.460500) (xy 3.790845 -1.460500) (xy 3.794125 -1.857375) (xy 4.397375 -1.848748) )(layer F.SilkS) (width  0.010000)
  )
  (fp_poly (pts (xy 6.198265 -1.430635) (xy 6.207125 -1.019770) (xy 6.937375 -1.840284) (xy 7.471091 -1.841500) (xy 7.410608 -1.770254) (xy 7.369646 -1.724270) (xy 7.293636 -1.641020) (xy 7.190939 -1.529584)
     (xy 7.069919 -1.399039) (xy 6.961187 -1.282296) (xy 6.836406 -1.147395) (xy 6.728229 -1.028131) (xy 6.643567 -0.932317) (xy 6.589333 -0.867763) (xy 6.572250 -0.842792) (xy 6.593283 -0.814245)
     (xy 6.652200 -0.746906) (xy 6.742726 -0.647615) (xy 6.858589 -0.523210) (xy 6.993514 -0.380534) (xy 7.062357 -0.308454) (xy 7.203264 -0.159591) (xy 7.326925 -0.025500) (xy 7.427296 0.086975)
     (xy 7.498328 0.170990) (xy 7.533976 0.219700) (xy 7.536733 0.228546) (xy 7.499544 0.240904) (xy 7.415983 0.249952) (xy 7.303160 0.253943) (xy 7.287588 0.254000) (xy 7.054175 0.254000)
     (xy 6.623327 -0.198438) (xy 6.192479 -0.650875) (xy 6.191864 -0.198438) (xy 6.191250 0.254000) (xy 5.778500 0.254000) (xy 5.778500 -1.841500) (xy 6.189406 -1.841500) (xy 6.198265 -1.430635) )(layer F.SilkS) (width  0.010000)
  )
  (fp_poly (pts (xy 2.992437 -1.017551) (xy 3.126963 -0.970546) (xy 3.207366 -0.936741) (xy 3.238226 -0.905126) (xy 3.224126 -0.864690) (xy 3.169646 -0.804423) (xy 3.107183 -0.741755) (xy 3.007791 -0.644223)
     (xy 2.943411 -0.590872) (xy 2.906989 -0.578313) (xy 2.891470 -0.603162) (xy 2.889250 -0.637140) (xy 2.875180 -0.685225) (xy 2.833687 -0.685439) (xy 2.786312 -0.673590) (xy 2.687451 -0.650913)
     (xy 2.547732 -0.619775) (xy 2.377782 -0.582542) (xy 2.188230 -0.541582) (xy 2.174875 -0.538716) (xy 1.978756 -0.496595) (xy 1.796152 -0.457267) (xy 1.639189 -0.423353) (xy 1.519994 -0.397473)
     (xy 1.450693 -0.382248) (xy 1.450452 -0.382194) (xy 1.360027 -0.369970) (xy 1.318576 -0.386356) (xy 1.315892 -0.391839) (xy 1.301953 -0.451160) (xy 1.294189 -0.504595) (xy 1.293822 -0.534117)
     (xy 1.306045 -0.557807) (xy 1.339811 -0.579155) (xy 1.404077 -0.601651) (xy 1.507794 -0.628784) (xy 1.659919 -0.664045) (xy 1.762125 -0.686974) (xy 2.047355 -0.750620) (xy 2.276731 -0.801907)
     (xy 2.456300 -0.842621) (xy 2.592113 -0.874550) (xy 2.690218 -0.899478) (xy 2.756665 -0.919192) (xy 2.797503 -0.935478) (xy 2.818782 -0.950123) (xy 2.826551 -0.964912) (xy 2.826858 -0.981631)
     (xy 2.825750 -1.001022) (xy 2.825750 -1.076080) (xy 2.992437 -1.017551) )(layer F.SilkS) (width  0.010000)
  )
)
