(module Molex_54104-3531_TopContact (layer F.Cu) (tedit 5E3CAEC1)
  (fp_text reference REF** (at 0 0.5) (layer F.SilkS)
    (effects (font (size 1 1) (thickness 0.15)))
  )
  (fp_text value Molex_54104-3531_TopContact (at 0 -0.5) (layer F.Fab)
    (effects (font (size 1 1) (thickness 0.15)))
  )
)
