G04 #@! TF.GenerationSoftware,KiCad,Pcbnew,(5.1.6)-1*
G04 #@! TF.CreationDate,2021-12-13T11:58:26-07:00*
G04 #@! TF.ProjectId,NIM-Screen-PCB,4e494d2d-5363-4726-9565-6e2d5043422e,rev?*
G04 #@! TF.SameCoordinates,Original*
G04 #@! TF.FileFunction,Copper,L2,Bot*
G04 #@! TF.FilePolarity,Positive*
%FSLAX46Y46*%
G04 Gerber Fmt 4.6, Leading zero omitted, Abs format (unit mm)*
G04 Created by KiCad (PCBNEW (5.1.6)-1) date 2021-12-13 11:58:26*
%MOMM*%
%LPD*%
G01*
G04 APERTURE LIST*
G04 #@! TA.AperFunction,SMDPad,CuDef*
%ADD10R,2.400000X2.400000*%
G04 #@! TD*
G04 #@! TA.AperFunction,SMDPad,CuDef*
%ADD11R,0.300000X1.200000*%
G04 #@! TD*
G04 #@! TA.AperFunction,SMDPad,CuDef*
%ADD12R,0.450000X0.600000*%
G04 #@! TD*
G04 #@! TA.AperFunction,ComponentPad*
%ADD13C,4.700000*%
G04 #@! TD*
G04 #@! TA.AperFunction,SMDPad,CuDef*
%ADD14R,2.790000X1.903000*%
G04 #@! TD*
G04 #@! TA.AperFunction,SMDPad,CuDef*
%ADD15R,0.650000X1.560000*%
G04 #@! TD*
G04 #@! TA.AperFunction,ViaPad*
%ADD16C,0.800000*%
G04 #@! TD*
G04 #@! TA.AperFunction,Conductor*
%ADD17C,0.250000*%
G04 #@! TD*
G04 #@! TA.AperFunction,Conductor*
%ADD18C,0.600000*%
G04 #@! TD*
G04 #@! TA.AperFunction,Conductor*
%ADD19C,0.350000*%
G04 #@! TD*
G04 #@! TA.AperFunction,Conductor*
%ADD20C,0.254000*%
G04 #@! TD*
G04 APERTURE END LIST*
D10*
X38490000Y-30701000D03*
X59690000Y-30701000D03*
D11*
X40590000Y-33401000D03*
X41090000Y-33401000D03*
X41590000Y-33401000D03*
X42090000Y-33401000D03*
X42590000Y-33401000D03*
X43090000Y-33401000D03*
X43590000Y-33401000D03*
X44090000Y-33401000D03*
X44590000Y-33401000D03*
X45090000Y-33401000D03*
X45590000Y-33401000D03*
X46090000Y-33401000D03*
X46590000Y-33401000D03*
X47090000Y-33401000D03*
X47590000Y-33401000D03*
X48090000Y-33401000D03*
X48590000Y-33401000D03*
X49090000Y-33401000D03*
X49590000Y-33401000D03*
X50090000Y-33401000D03*
X50590000Y-33401000D03*
X51090000Y-33401000D03*
X51590000Y-33401000D03*
X52090000Y-33401000D03*
X52590000Y-33401000D03*
X53090000Y-33401000D03*
X53590000Y-33401000D03*
X54090000Y-33401000D03*
X54590000Y-33401000D03*
X55090000Y-33401000D03*
X55590000Y-33401000D03*
X56090000Y-33401000D03*
X56590000Y-33401000D03*
X57090000Y-33401000D03*
X57590000Y-33401000D03*
G04 #@! TA.AperFunction,SMDPad,CuDef*
G36*
G01*
X36744000Y-42682000D02*
X36744000Y-43932000D01*
G75*
G02*
X36494000Y-44182000I-250000J0D01*
G01*
X35569000Y-44182000D01*
G75*
G02*
X35319000Y-43932000I0J250000D01*
G01*
X35319000Y-42682000D01*
G75*
G02*
X35569000Y-42432000I250000J0D01*
G01*
X36494000Y-42432000D01*
G75*
G02*
X36744000Y-42682000I0J-250000D01*
G01*
G37*
G04 #@! TD.AperFunction*
G04 #@! TA.AperFunction,SMDPad,CuDef*
G36*
G01*
X33769000Y-42682000D02*
X33769000Y-43932000D01*
G75*
G02*
X33519000Y-44182000I-250000J0D01*
G01*
X32594000Y-44182000D01*
G75*
G02*
X32344000Y-43932000I0J250000D01*
G01*
X32344000Y-42682000D01*
G75*
G02*
X32594000Y-42432000I250000J0D01*
G01*
X33519000Y-42432000D01*
G75*
G02*
X33769000Y-42682000I0J-250000D01*
G01*
G37*
G04 #@! TD.AperFunction*
G04 #@! TA.AperFunction,SMDPad,CuDef*
G36*
G01*
X36744000Y-37856000D02*
X36744000Y-39106000D01*
G75*
G02*
X36494000Y-39356000I-250000J0D01*
G01*
X35569000Y-39356000D01*
G75*
G02*
X35319000Y-39106000I0J250000D01*
G01*
X35319000Y-37856000D01*
G75*
G02*
X35569000Y-37606000I250000J0D01*
G01*
X36494000Y-37606000D01*
G75*
G02*
X36744000Y-37856000I0J-250000D01*
G01*
G37*
G04 #@! TD.AperFunction*
G04 #@! TA.AperFunction,SMDPad,CuDef*
G36*
G01*
X33769000Y-37856000D02*
X33769000Y-39106000D01*
G75*
G02*
X33519000Y-39356000I-250000J0D01*
G01*
X32594000Y-39356000D01*
G75*
G02*
X32344000Y-39106000I0J250000D01*
G01*
X32344000Y-37856000D01*
G75*
G02*
X32594000Y-37606000I250000J0D01*
G01*
X33519000Y-37606000D01*
G75*
G02*
X33769000Y-37856000I0J-250000D01*
G01*
G37*
G04 #@! TD.AperFunction*
G04 #@! TA.AperFunction,SMDPad,CuDef*
G36*
G01*
X63741000Y-36459000D02*
X63741000Y-37709000D01*
G75*
G02*
X63491000Y-37959000I-250000J0D01*
G01*
X62566000Y-37959000D01*
G75*
G02*
X62316000Y-37709000I0J250000D01*
G01*
X62316000Y-36459000D01*
G75*
G02*
X62566000Y-36209000I250000J0D01*
G01*
X63491000Y-36209000D01*
G75*
G02*
X63741000Y-36459000I0J-250000D01*
G01*
G37*
G04 #@! TD.AperFunction*
G04 #@! TA.AperFunction,SMDPad,CuDef*
G36*
G01*
X66716000Y-36459000D02*
X66716000Y-37709000D01*
G75*
G02*
X66466000Y-37959000I-250000J0D01*
G01*
X65541000Y-37959000D01*
G75*
G02*
X65291000Y-37709000I0J250000D01*
G01*
X65291000Y-36459000D01*
G75*
G02*
X65541000Y-36209000I250000J0D01*
G01*
X66466000Y-36209000D01*
G75*
G02*
X66716000Y-36459000I0J-250000D01*
G01*
G37*
G04 #@! TD.AperFunction*
G04 #@! TA.AperFunction,SMDPad,CuDef*
G36*
G01*
X40435500Y-59807000D02*
X40435500Y-58557000D01*
G75*
G02*
X40685500Y-58307000I250000J0D01*
G01*
X41610500Y-58307000D01*
G75*
G02*
X41860500Y-58557000I0J-250000D01*
G01*
X41860500Y-59807000D01*
G75*
G02*
X41610500Y-60057000I-250000J0D01*
G01*
X40685500Y-60057000D01*
G75*
G02*
X40435500Y-59807000I0J250000D01*
G01*
G37*
G04 #@! TD.AperFunction*
G04 #@! TA.AperFunction,SMDPad,CuDef*
G36*
G01*
X37460500Y-59807000D02*
X37460500Y-58557000D01*
G75*
G02*
X37710500Y-58307000I250000J0D01*
G01*
X38635500Y-58307000D01*
G75*
G02*
X38885500Y-58557000I0J-250000D01*
G01*
X38885500Y-59807000D01*
G75*
G02*
X38635500Y-60057000I-250000J0D01*
G01*
X37710500Y-60057000D01*
G75*
G02*
X37460500Y-59807000I0J250000D01*
G01*
G37*
G04 #@! TD.AperFunction*
G04 #@! TA.AperFunction,SMDPad,CuDef*
G36*
G01*
X37094000Y-45207500D02*
X38344000Y-45207500D01*
G75*
G02*
X38594000Y-45457500I0J-250000D01*
G01*
X38594000Y-46382500D01*
G75*
G02*
X38344000Y-46632500I-250000J0D01*
G01*
X37094000Y-46632500D01*
G75*
G02*
X36844000Y-46382500I0J250000D01*
G01*
X36844000Y-45457500D01*
G75*
G02*
X37094000Y-45207500I250000J0D01*
G01*
G37*
G04 #@! TD.AperFunction*
G04 #@! TA.AperFunction,SMDPad,CuDef*
G36*
G01*
X37094000Y-48182500D02*
X38344000Y-48182500D01*
G75*
G02*
X38594000Y-48432500I0J-250000D01*
G01*
X38594000Y-49357500D01*
G75*
G02*
X38344000Y-49607500I-250000J0D01*
G01*
X37094000Y-49607500D01*
G75*
G02*
X36844000Y-49357500I0J250000D01*
G01*
X36844000Y-48432500D01*
G75*
G02*
X37094000Y-48182500I250000J0D01*
G01*
G37*
G04 #@! TD.AperFunction*
D12*
X41402000Y-47176000D03*
X41402000Y-49276000D03*
D13*
X31242000Y-68834000D03*
X66242000Y-68834000D03*
D14*
X33528000Y-56669000D03*
X33528000Y-51816000D03*
G04 #@! TA.AperFunction,SMDPad,CuDef*
G36*
G01*
X43946500Y-39253000D02*
X43946500Y-40503000D01*
G75*
G02*
X43696500Y-40753000I-250000J0D01*
G01*
X42771500Y-40753000D01*
G75*
G02*
X42521500Y-40503000I0J250000D01*
G01*
X42521500Y-39253000D01*
G75*
G02*
X42771500Y-39003000I250000J0D01*
G01*
X43696500Y-39003000D01*
G75*
G02*
X43946500Y-39253000I0J-250000D01*
G01*
G37*
G04 #@! TD.AperFunction*
G04 #@! TA.AperFunction,SMDPad,CuDef*
G36*
G01*
X40971500Y-39253000D02*
X40971500Y-40503000D01*
G75*
G02*
X40721500Y-40753000I-250000J0D01*
G01*
X39796500Y-40753000D01*
G75*
G02*
X39546500Y-40503000I0J250000D01*
G01*
X39546500Y-39253000D01*
G75*
G02*
X39796500Y-39003000I250000J0D01*
G01*
X40721500Y-39003000D01*
G75*
G02*
X40971500Y-39253000I0J-250000D01*
G01*
G37*
G04 #@! TD.AperFunction*
G04 #@! TA.AperFunction,SMDPad,CuDef*
G36*
G01*
X55367500Y-37074000D02*
X55367500Y-35824000D01*
G75*
G02*
X55617500Y-35574000I250000J0D01*
G01*
X56542500Y-35574000D01*
G75*
G02*
X56792500Y-35824000I0J-250000D01*
G01*
X56792500Y-37074000D01*
G75*
G02*
X56542500Y-37324000I-250000J0D01*
G01*
X55617500Y-37324000D01*
G75*
G02*
X55367500Y-37074000I0J250000D01*
G01*
G37*
G04 #@! TD.AperFunction*
G04 #@! TA.AperFunction,SMDPad,CuDef*
G36*
G01*
X58342500Y-37074000D02*
X58342500Y-35824000D01*
G75*
G02*
X58592500Y-35574000I250000J0D01*
G01*
X59517500Y-35574000D01*
G75*
G02*
X59767500Y-35824000I0J-250000D01*
G01*
X59767500Y-37074000D01*
G75*
G02*
X59517500Y-37324000I-250000J0D01*
G01*
X58592500Y-37324000D01*
G75*
G02*
X58342500Y-37074000I0J250000D01*
G01*
G37*
G04 #@! TD.AperFunction*
G04 #@! TA.AperFunction,SMDPad,CuDef*
G36*
G01*
X65161000Y-32815500D02*
X66411000Y-32815500D01*
G75*
G02*
X66661000Y-33065500I0J-250000D01*
G01*
X66661000Y-33990500D01*
G75*
G02*
X66411000Y-34240500I-250000J0D01*
G01*
X65161000Y-34240500D01*
G75*
G02*
X64911000Y-33990500I0J250000D01*
G01*
X64911000Y-33065500D01*
G75*
G02*
X65161000Y-32815500I250000J0D01*
G01*
G37*
G04 #@! TD.AperFunction*
G04 #@! TA.AperFunction,SMDPad,CuDef*
G36*
G01*
X65161000Y-29840500D02*
X66411000Y-29840500D01*
G75*
G02*
X66661000Y-30090500I0J-250000D01*
G01*
X66661000Y-31015500D01*
G75*
G02*
X66411000Y-31265500I-250000J0D01*
G01*
X65161000Y-31265500D01*
G75*
G02*
X64911000Y-31015500I0J250000D01*
G01*
X64911000Y-30090500D01*
G75*
G02*
X65161000Y-29840500I250000J0D01*
G01*
G37*
G04 #@! TD.AperFunction*
G04 #@! TA.AperFunction,SMDPad,CuDef*
G36*
G01*
X44945000Y-50175000D02*
X44945000Y-51425000D01*
G75*
G02*
X44695000Y-51675000I-250000J0D01*
G01*
X43770000Y-51675000D01*
G75*
G02*
X43520000Y-51425000I0J250000D01*
G01*
X43520000Y-50175000D01*
G75*
G02*
X43770000Y-49925000I250000J0D01*
G01*
X44695000Y-49925000D01*
G75*
G02*
X44945000Y-50175000I0J-250000D01*
G01*
G37*
G04 #@! TD.AperFunction*
G04 #@! TA.AperFunction,SMDPad,CuDef*
G36*
G01*
X47920000Y-50175000D02*
X47920000Y-51425000D01*
G75*
G02*
X47670000Y-51675000I-250000J0D01*
G01*
X46745000Y-51675000D01*
G75*
G02*
X46495000Y-51425000I0J250000D01*
G01*
X46495000Y-50175000D01*
G75*
G02*
X46745000Y-49925000I250000J0D01*
G01*
X47670000Y-49925000D01*
G75*
G02*
X47920000Y-50175000I0J-250000D01*
G01*
G37*
G04 #@! TD.AperFunction*
G04 #@! TA.AperFunction,SMDPad,CuDef*
G36*
G01*
X43556500Y-56505000D02*
X43556500Y-55255000D01*
G75*
G02*
X43806500Y-55005000I250000J0D01*
G01*
X44731500Y-55005000D01*
G75*
G02*
X44981500Y-55255000I0J-250000D01*
G01*
X44981500Y-56505000D01*
G75*
G02*
X44731500Y-56755000I-250000J0D01*
G01*
X43806500Y-56755000D01*
G75*
G02*
X43556500Y-56505000I0J250000D01*
G01*
G37*
G04 #@! TD.AperFunction*
G04 #@! TA.AperFunction,SMDPad,CuDef*
G36*
G01*
X46531500Y-56505000D02*
X46531500Y-55255000D01*
G75*
G02*
X46781500Y-55005000I250000J0D01*
G01*
X47706500Y-55005000D01*
G75*
G02*
X47956500Y-55255000I0J-250000D01*
G01*
X47956500Y-56505000D01*
G75*
G02*
X47706500Y-56755000I-250000J0D01*
G01*
X46781500Y-56755000D01*
G75*
G02*
X46531500Y-56505000I0J250000D01*
G01*
G37*
G04 #@! TD.AperFunction*
G04 #@! TA.AperFunction,SMDPad,CuDef*
G36*
G01*
X42558000Y-43043000D02*
X42558000Y-41793000D01*
G75*
G02*
X42808000Y-41543000I250000J0D01*
G01*
X43733000Y-41543000D01*
G75*
G02*
X43983000Y-41793000I0J-250000D01*
G01*
X43983000Y-43043000D01*
G75*
G02*
X43733000Y-43293000I-250000J0D01*
G01*
X42808000Y-43293000D01*
G75*
G02*
X42558000Y-43043000I0J250000D01*
G01*
G37*
G04 #@! TD.AperFunction*
G04 #@! TA.AperFunction,SMDPad,CuDef*
G36*
G01*
X39583000Y-43043000D02*
X39583000Y-41793000D01*
G75*
G02*
X39833000Y-41543000I250000J0D01*
G01*
X40758000Y-41543000D01*
G75*
G02*
X41008000Y-41793000I0J-250000D01*
G01*
X41008000Y-43043000D01*
G75*
G02*
X40758000Y-43293000I-250000J0D01*
G01*
X39833000Y-43293000D01*
G75*
G02*
X39583000Y-43043000I0J250000D01*
G01*
G37*
G04 #@! TD.AperFunction*
D15*
X38674000Y-52752000D03*
X39624000Y-52752000D03*
X40574000Y-52752000D03*
X40574000Y-55452000D03*
X38674000Y-55452000D03*
G04 #@! TA.AperFunction,SMDPad,CuDef*
G36*
G01*
X51307000Y-39405000D02*
X51307000Y-40605000D01*
G75*
G02*
X51107000Y-40805000I-200000J0D01*
G01*
X50707000Y-40805000D01*
G75*
G02*
X50507000Y-40605000I0J200000D01*
G01*
X50507000Y-39405000D01*
G75*
G02*
X50707000Y-39205000I200000J0D01*
G01*
X51107000Y-39205000D01*
G75*
G02*
X51307000Y-39405000I0J-200000D01*
G01*
G37*
G04 #@! TD.AperFunction*
G04 #@! TA.AperFunction,SMDPad,CuDef*
G36*
G01*
X50057000Y-39405000D02*
X50057000Y-40605000D01*
G75*
G02*
X49857000Y-40805000I-200000J0D01*
G01*
X49457000Y-40805000D01*
G75*
G02*
X49257000Y-40605000I0J200000D01*
G01*
X49257000Y-39405000D01*
G75*
G02*
X49457000Y-39205000I200000J0D01*
G01*
X49857000Y-39205000D01*
G75*
G02*
X50057000Y-39405000I0J-200000D01*
G01*
G37*
G04 #@! TD.AperFunction*
G04 #@! TA.AperFunction,SMDPad,CuDef*
G36*
G01*
X48807000Y-39405000D02*
X48807000Y-40605000D01*
G75*
G02*
X48607000Y-40805000I-200000J0D01*
G01*
X48207000Y-40805000D01*
G75*
G02*
X48007000Y-40605000I0J200000D01*
G01*
X48007000Y-39405000D01*
G75*
G02*
X48207000Y-39205000I200000J0D01*
G01*
X48607000Y-39205000D01*
G75*
G02*
X48807000Y-39405000I0J-200000D01*
G01*
G37*
G04 #@! TD.AperFunction*
G04 #@! TA.AperFunction,SMDPad,CuDef*
G36*
G01*
X54507000Y-41655000D02*
X54507000Y-44155000D01*
G75*
G02*
X54257000Y-44405000I-250000J0D01*
G01*
X52657000Y-44405000D01*
G75*
G02*
X52407000Y-44155000I0J250000D01*
G01*
X52407000Y-41655000D01*
G75*
G02*
X52657000Y-41405000I250000J0D01*
G01*
X54257000Y-41405000D01*
G75*
G02*
X54507000Y-41655000I0J-250000D01*
G01*
G37*
G04 #@! TD.AperFunction*
G04 #@! TA.AperFunction,SMDPad,CuDef*
G36*
G01*
X46907000Y-41655000D02*
X46907000Y-44155000D01*
G75*
G02*
X46657000Y-44405000I-250000J0D01*
G01*
X45057000Y-44405000D01*
G75*
G02*
X44807000Y-44155000I0J250000D01*
G01*
X44807000Y-41655000D01*
G75*
G02*
X45057000Y-41405000I250000J0D01*
G01*
X46657000Y-41405000D01*
G75*
G02*
X46907000Y-41655000I0J-250000D01*
G01*
G37*
G04 #@! TD.AperFunction*
G04 #@! TA.AperFunction,SMDPad,CuDef*
G36*
G01*
X65187000Y-46284000D02*
X65187000Y-47484000D01*
G75*
G02*
X64987000Y-47684000I-200000J0D01*
G01*
X64587000Y-47684000D01*
G75*
G02*
X64387000Y-47484000I0J200000D01*
G01*
X64387000Y-46284000D01*
G75*
G02*
X64587000Y-46084000I200000J0D01*
G01*
X64987000Y-46084000D01*
G75*
G02*
X65187000Y-46284000I0J-200000D01*
G01*
G37*
G04 #@! TD.AperFunction*
G04 #@! TA.AperFunction,SMDPad,CuDef*
G36*
G01*
X63937000Y-46284000D02*
X63937000Y-47484000D01*
G75*
G02*
X63737000Y-47684000I-200000J0D01*
G01*
X63337000Y-47684000D01*
G75*
G02*
X63137000Y-47484000I0J200000D01*
G01*
X63137000Y-46284000D01*
G75*
G02*
X63337000Y-46084000I200000J0D01*
G01*
X63737000Y-46084000D01*
G75*
G02*
X63937000Y-46284000I0J-200000D01*
G01*
G37*
G04 #@! TD.AperFunction*
G04 #@! TA.AperFunction,SMDPad,CuDef*
G36*
G01*
X62687000Y-46284000D02*
X62687000Y-47484000D01*
G75*
G02*
X62487000Y-47684000I-200000J0D01*
G01*
X62087000Y-47684000D01*
G75*
G02*
X61887000Y-47484000I0J200000D01*
G01*
X61887000Y-46284000D01*
G75*
G02*
X62087000Y-46084000I200000J0D01*
G01*
X62487000Y-46084000D01*
G75*
G02*
X62687000Y-46284000I0J-200000D01*
G01*
G37*
G04 #@! TD.AperFunction*
G04 #@! TA.AperFunction,SMDPad,CuDef*
G36*
G01*
X61437000Y-46284000D02*
X61437000Y-47484000D01*
G75*
G02*
X61237000Y-47684000I-200000J0D01*
G01*
X60837000Y-47684000D01*
G75*
G02*
X60637000Y-47484000I0J200000D01*
G01*
X60637000Y-46284000D01*
G75*
G02*
X60837000Y-46084000I200000J0D01*
G01*
X61237000Y-46084000D01*
G75*
G02*
X61437000Y-46284000I0J-200000D01*
G01*
G37*
G04 #@! TD.AperFunction*
G04 #@! TA.AperFunction,SMDPad,CuDef*
G36*
G01*
X60187000Y-46284000D02*
X60187000Y-47484000D01*
G75*
G02*
X59987000Y-47684000I-200000J0D01*
G01*
X59587000Y-47684000D01*
G75*
G02*
X59387000Y-47484000I0J200000D01*
G01*
X59387000Y-46284000D01*
G75*
G02*
X59587000Y-46084000I200000J0D01*
G01*
X59987000Y-46084000D01*
G75*
G02*
X60187000Y-46284000I0J-200000D01*
G01*
G37*
G04 #@! TD.AperFunction*
G04 #@! TA.AperFunction,SMDPad,CuDef*
G36*
G01*
X58937000Y-46284000D02*
X58937000Y-47484000D01*
G75*
G02*
X58737000Y-47684000I-200000J0D01*
G01*
X58337000Y-47684000D01*
G75*
G02*
X58137000Y-47484000I0J200000D01*
G01*
X58137000Y-46284000D01*
G75*
G02*
X58337000Y-46084000I200000J0D01*
G01*
X58737000Y-46084000D01*
G75*
G02*
X58937000Y-46284000I0J-200000D01*
G01*
G37*
G04 #@! TD.AperFunction*
G04 #@! TA.AperFunction,SMDPad,CuDef*
G36*
G01*
X57687000Y-46284000D02*
X57687000Y-47484000D01*
G75*
G02*
X57487000Y-47684000I-200000J0D01*
G01*
X57087000Y-47684000D01*
G75*
G02*
X56887000Y-47484000I0J200000D01*
G01*
X56887000Y-46284000D01*
G75*
G02*
X57087000Y-46084000I200000J0D01*
G01*
X57487000Y-46084000D01*
G75*
G02*
X57687000Y-46284000I0J-200000D01*
G01*
G37*
G04 #@! TD.AperFunction*
G04 #@! TA.AperFunction,SMDPad,CuDef*
G36*
G01*
X68387000Y-48534000D02*
X68387000Y-51034000D01*
G75*
G02*
X68137000Y-51284000I-250000J0D01*
G01*
X66537000Y-51284000D01*
G75*
G02*
X66287000Y-51034000I0J250000D01*
G01*
X66287000Y-48534000D01*
G75*
G02*
X66537000Y-48284000I250000J0D01*
G01*
X68137000Y-48284000D01*
G75*
G02*
X68387000Y-48534000I0J-250000D01*
G01*
G37*
G04 #@! TD.AperFunction*
G04 #@! TA.AperFunction,SMDPad,CuDef*
G36*
G01*
X55787000Y-48534000D02*
X55787000Y-51034000D01*
G75*
G02*
X55537000Y-51284000I-250000J0D01*
G01*
X53937000Y-51284000D01*
G75*
G02*
X53687000Y-51034000I0J250000D01*
G01*
X53687000Y-48534000D01*
G75*
G02*
X53937000Y-48284000I250000J0D01*
G01*
X55537000Y-48284000D01*
G75*
G02*
X55787000Y-48534000I0J-250000D01*
G01*
G37*
G04 #@! TD.AperFunction*
G04 #@! TA.AperFunction,SMDPad,CuDef*
G36*
G01*
X34855999Y-29633000D02*
X35756001Y-29633000D01*
G75*
G02*
X36006000Y-29882999I0J-249999D01*
G01*
X36006000Y-30533001D01*
G75*
G02*
X35756001Y-30783000I-249999J0D01*
G01*
X34855999Y-30783000D01*
G75*
G02*
X34606000Y-30533001I0J249999D01*
G01*
X34606000Y-29882999D01*
G75*
G02*
X34855999Y-29633000I249999J0D01*
G01*
G37*
G04 #@! TD.AperFunction*
G04 #@! TA.AperFunction,SMDPad,CuDef*
G36*
G01*
X34855999Y-31683000D02*
X35756001Y-31683000D01*
G75*
G02*
X36006000Y-31932999I0J-249999D01*
G01*
X36006000Y-32583001D01*
G75*
G02*
X35756001Y-32833000I-249999J0D01*
G01*
X34855999Y-32833000D01*
G75*
G02*
X34606000Y-32583001I0J249999D01*
G01*
X34606000Y-31932999D01*
G75*
G02*
X34855999Y-31683000I249999J0D01*
G01*
G37*
G04 #@! TD.AperFunction*
G04 #@! TA.AperFunction,SMDPad,CuDef*
G36*
G01*
X64102500Y-40189999D02*
X64102500Y-41090001D01*
G75*
G02*
X63852501Y-41340000I-249999J0D01*
G01*
X63202499Y-41340000D01*
G75*
G02*
X62952500Y-41090001I0J249999D01*
G01*
X62952500Y-40189999D01*
G75*
G02*
X63202499Y-39940000I249999J0D01*
G01*
X63852501Y-39940000D01*
G75*
G02*
X64102500Y-40189999I0J-249999D01*
G01*
G37*
G04 #@! TD.AperFunction*
G04 #@! TA.AperFunction,SMDPad,CuDef*
G36*
G01*
X66152500Y-40189999D02*
X66152500Y-41090001D01*
G75*
G02*
X65902501Y-41340000I-249999J0D01*
G01*
X65252499Y-41340000D01*
G75*
G02*
X65002500Y-41090001I0J249999D01*
G01*
X65002500Y-40189999D01*
G75*
G02*
X65252499Y-39940000I249999J0D01*
G01*
X65902501Y-39940000D01*
G75*
G02*
X66152500Y-40189999I0J-249999D01*
G01*
G37*
G04 #@! TD.AperFunction*
G04 #@! TA.AperFunction,SMDPad,CuDef*
G36*
G01*
X47283500Y-52889999D02*
X47283500Y-53790001D01*
G75*
G02*
X47033501Y-54040000I-249999J0D01*
G01*
X46383499Y-54040000D01*
G75*
G02*
X46133500Y-53790001I0J249999D01*
G01*
X46133500Y-52889999D01*
G75*
G02*
X46383499Y-52640000I249999J0D01*
G01*
X47033501Y-52640000D01*
G75*
G02*
X47283500Y-52889999I0J-249999D01*
G01*
G37*
G04 #@! TD.AperFunction*
G04 #@! TA.AperFunction,SMDPad,CuDef*
G36*
G01*
X45233500Y-52889999D02*
X45233500Y-53790001D01*
G75*
G02*
X44983501Y-54040000I-249999J0D01*
G01*
X44333499Y-54040000D01*
G75*
G02*
X44083500Y-53790001I0J249999D01*
G01*
X44083500Y-52889999D01*
G75*
G02*
X44333499Y-52640000I249999J0D01*
G01*
X44983501Y-52640000D01*
G75*
G02*
X45233500Y-52889999I0J-249999D01*
G01*
G37*
G04 #@! TD.AperFunction*
G04 #@! TA.AperFunction,SMDPad,CuDef*
G36*
G01*
X62541999Y-32327000D02*
X63442001Y-32327000D01*
G75*
G02*
X63692000Y-32576999I0J-249999D01*
G01*
X63692000Y-33227001D01*
G75*
G02*
X63442001Y-33477000I-249999J0D01*
G01*
X62541999Y-33477000D01*
G75*
G02*
X62292000Y-33227001I0J249999D01*
G01*
X62292000Y-32576999D01*
G75*
G02*
X62541999Y-32327000I249999J0D01*
G01*
G37*
G04 #@! TD.AperFunction*
G04 #@! TA.AperFunction,SMDPad,CuDef*
G36*
G01*
X62541999Y-30277000D02*
X63442001Y-30277000D01*
G75*
G02*
X63692000Y-30526999I0J-249999D01*
G01*
X63692000Y-31177001D01*
G75*
G02*
X63442001Y-31427000I-249999J0D01*
G01*
X62541999Y-31427000D01*
G75*
G02*
X62292000Y-31177001I0J249999D01*
G01*
X62292000Y-30526999D01*
G75*
G02*
X62541999Y-30277000I249999J0D01*
G01*
G37*
G04 #@! TD.AperFunction*
D16*
X59182000Y-33147000D03*
X60960000Y-35052000D03*
X43053000Y-59182000D03*
X44323000Y-59182000D03*
X45593000Y-59182000D03*
X47625000Y-34925000D03*
X43815000Y-35560000D03*
X51943000Y-35433000D03*
X37973000Y-42672000D03*
X37973000Y-43942000D03*
X35814000Y-45085000D03*
X35814000Y-46482000D03*
X38227000Y-28194000D03*
X36703000Y-28194000D03*
X34925000Y-28194000D03*
X38227000Y-26543000D03*
X36703000Y-26543000D03*
X34925000Y-26543000D03*
X36830000Y-55245000D03*
X36830000Y-57150000D03*
X67945000Y-38735000D03*
X67945000Y-40005000D03*
X67945000Y-41275000D03*
X67945000Y-42545000D03*
X40386000Y-37211000D03*
X54229000Y-35687000D03*
X41275000Y-44450000D03*
X50800000Y-41910000D03*
X37211000Y-65024000D03*
X56388000Y-42545000D03*
X58801000Y-42545000D03*
X55626000Y-43561000D03*
X59563000Y-43561000D03*
D17*
X41090000Y-33401000D02*
X40590000Y-33401000D01*
X42090000Y-34251000D02*
X42090000Y-33401000D01*
X42014999Y-34326001D02*
X42090000Y-34251000D01*
X41165001Y-34326001D02*
X42014999Y-34326001D01*
X41090000Y-34251000D02*
X41165001Y-34326001D01*
X41090000Y-33401000D02*
X41090000Y-34251000D01*
X43090000Y-32551000D02*
X43090000Y-33401000D01*
X43014999Y-32475999D02*
X43090000Y-32551000D01*
X42165001Y-32475999D02*
X43014999Y-32475999D01*
X42090000Y-32551000D02*
X42165001Y-32475999D01*
X42090000Y-33401000D02*
X42090000Y-32551000D01*
X44090000Y-32551000D02*
X44090000Y-33401000D01*
X44014999Y-32475999D02*
X44090000Y-32551000D01*
X43179999Y-32475999D02*
X44014999Y-32475999D01*
X43090000Y-32565998D02*
X43179999Y-32475999D01*
X43090000Y-33401000D02*
X43090000Y-32565998D01*
X44090000Y-33401000D02*
X44590000Y-33401000D01*
X46090000Y-32551000D02*
X46090000Y-33401000D01*
X46014999Y-32475999D02*
X46090000Y-32551000D01*
X44665001Y-32475999D02*
X46014999Y-32475999D01*
X44590000Y-32551000D02*
X44665001Y-32475999D01*
X44590000Y-33401000D02*
X44590000Y-32551000D01*
X46090000Y-33401000D02*
X48590000Y-33401000D01*
X51090000Y-33401000D02*
X53090000Y-33401000D01*
X50590000Y-33401000D02*
X51090000Y-33401000D01*
X48590000Y-32551000D02*
X48590000Y-33401000D01*
X48665001Y-32475999D02*
X48590000Y-32551000D01*
X50514999Y-32475999D02*
X48665001Y-32475999D01*
X50590000Y-32551000D02*
X50514999Y-32475999D01*
X50590000Y-33401000D02*
X50590000Y-32551000D01*
X56090000Y-32551000D02*
X56090000Y-33401000D01*
X56014999Y-32475999D02*
X56090000Y-32551000D01*
X53165001Y-32475999D02*
X56014999Y-32475999D01*
X53090000Y-32551000D02*
X53165001Y-32475999D01*
X53090000Y-33401000D02*
X53090000Y-32551000D01*
X57090000Y-34251000D02*
X57090000Y-33401000D01*
X57014999Y-34326001D02*
X57090000Y-34251000D01*
X56165001Y-34326001D02*
X57014999Y-34326001D01*
X56090000Y-34251000D02*
X56165001Y-34326001D01*
X56090000Y-33401000D02*
X56090000Y-34251000D01*
X57090000Y-33401000D02*
X57590000Y-33401000D01*
D18*
X41919347Y-58410653D02*
X41148000Y-59182000D01*
X41919347Y-54792345D02*
X41919347Y-58410653D01*
X41299001Y-54171999D02*
X41919347Y-54792345D01*
X39988997Y-54171999D02*
X41299001Y-54171999D01*
X39624000Y-53807002D02*
X39988997Y-54171999D01*
X39624000Y-52752000D02*
X39624000Y-53807002D01*
X47244000Y-55880000D02*
X47244000Y-58801000D01*
X46863000Y-59182000D02*
X45593000Y-59182000D01*
X47244000Y-58801000D02*
X46863000Y-59182000D01*
X43053000Y-59182000D02*
X41148000Y-59182000D01*
X44323000Y-59182000D02*
X43053000Y-59182000D01*
X45593000Y-59182000D02*
X44323000Y-59182000D01*
X47590000Y-34890000D02*
X47625000Y-34925000D01*
X47590000Y-33401000D02*
X47590000Y-34890000D01*
D17*
X41565001Y-32929001D02*
X41565001Y-32094999D01*
X41590000Y-33401000D02*
X41590000Y-32954000D01*
X41590000Y-32954000D02*
X41565001Y-32929001D01*
X56590000Y-33401000D02*
X56590000Y-32841000D01*
X56590000Y-32841000D02*
X56565001Y-32816001D01*
X56590000Y-33401000D02*
X56590000Y-31190000D01*
X41565001Y-32094999D02*
X41565001Y-31405001D01*
X41565001Y-31405001D02*
X41275000Y-31115000D01*
X42614999Y-33978999D02*
X42614999Y-34740999D01*
X42590000Y-33401000D02*
X42590000Y-33954000D01*
X42590000Y-33954000D02*
X42614999Y-33978999D01*
D18*
X42614999Y-34740999D02*
X42614999Y-34982001D01*
X39116000Y-38481000D02*
X36031500Y-38481000D01*
X42614999Y-34982001D02*
X40386000Y-37211000D01*
X40386000Y-37211000D02*
X39116000Y-38481000D01*
D17*
X54090000Y-35699000D02*
X53975000Y-35814000D01*
X54090000Y-35548000D02*
X54229000Y-35687000D01*
X54090000Y-33401000D02*
X54090000Y-35548000D01*
X50982000Y-41728000D02*
X50800000Y-41910000D01*
D18*
X50982000Y-40107000D02*
X50982000Y-41728000D01*
D19*
X40295500Y-43470500D02*
X41275000Y-44450000D01*
X40295500Y-42418000D02*
X40295500Y-43470500D01*
D18*
X43234000Y-39878000D02*
X43234000Y-42381500D01*
D17*
X44250000Y-39878000D02*
X43234000Y-39878000D01*
X45266000Y-38862000D02*
X44250000Y-39878000D01*
X48806478Y-38862000D02*
X45266000Y-38862000D01*
X49186290Y-39241812D02*
X48806478Y-38862000D01*
X49186290Y-39534290D02*
X49186290Y-39241812D01*
X49657000Y-40005000D02*
X49186290Y-39534290D01*
X48852710Y-40477710D02*
X48852710Y-42206290D01*
X48482000Y-40107000D02*
X48852710Y-40477710D01*
X37211000Y-65024000D02*
X43942000Y-65024000D01*
X43942000Y-65024000D02*
X51054000Y-57912000D01*
X51054000Y-44407580D02*
X48852710Y-42206290D01*
X51054000Y-57912000D02*
X51054000Y-44407580D01*
X45590000Y-33401000D02*
X45590000Y-34978180D01*
X45590000Y-34978180D02*
X48065800Y-37453980D01*
X48065800Y-37453980D02*
X51435000Y-37453980D01*
X51435000Y-37453980D02*
X52188802Y-37453982D01*
X55568009Y-40833189D02*
X55568009Y-40836009D01*
X52188802Y-37453982D02*
X55568009Y-40833189D01*
X55568009Y-40833189D02*
X55568009Y-41725009D01*
X55568009Y-41725009D02*
X56388000Y-42545000D01*
X56388000Y-42545000D02*
X56388000Y-42545000D01*
X62230000Y-47244000D02*
X62218000Y-47232000D01*
X62287000Y-45730000D02*
X62287000Y-46630000D01*
X62287000Y-45211998D02*
X62287000Y-45730000D01*
X59620002Y-42545000D02*
X62287000Y-45211998D01*
X58801000Y-42545000D02*
X59620002Y-42545000D01*
X43590000Y-34251000D02*
X47693000Y-38354000D01*
X43590000Y-33401000D02*
X43590000Y-34251000D01*
X47693000Y-38354000D02*
X51181000Y-38354000D01*
X51181000Y-38354000D02*
X51816000Y-38989000D01*
X51816000Y-38989000D02*
X51816000Y-44196000D01*
X51816000Y-44196000D02*
X53340000Y-45720000D01*
X53340000Y-45720000D02*
X54356000Y-45720000D01*
X54356000Y-45720000D02*
X57404000Y-48768000D01*
X57404000Y-48768000D02*
X60071000Y-48768000D01*
X61037000Y-47802000D02*
X61037000Y-46630000D01*
X60071000Y-48768000D02*
X61037000Y-47802000D01*
X45090000Y-33401000D02*
X45090000Y-35114590D01*
X45090000Y-35114590D02*
X47879400Y-37903990D01*
X47879400Y-37903990D02*
X51435000Y-37903990D01*
X52002401Y-37903991D02*
X55118000Y-41019590D01*
X51435000Y-37903990D02*
X52002401Y-37903991D01*
X55118000Y-41019590D02*
X55118000Y-43053000D01*
X55118000Y-43053000D02*
X55626000Y-43561000D01*
X55626000Y-43561000D02*
X55626000Y-43561000D01*
X59563000Y-46406000D02*
X59787000Y-46630000D01*
X59563000Y-43561000D02*
X59563000Y-46406000D01*
X50742010Y-36264010D02*
X51031960Y-36553960D01*
X50742010Y-34766600D02*
X50742010Y-36264010D01*
X50090000Y-33401000D02*
X50090000Y-34114590D01*
X50090000Y-34114590D02*
X50742010Y-34766600D01*
X51031960Y-36553960D02*
X51435000Y-36553960D01*
X51435000Y-36553960D02*
X52561604Y-36553964D01*
X52561604Y-36553964D02*
X57737010Y-41729370D01*
X57737010Y-41729370D02*
X57737010Y-44958000D01*
X58537000Y-45730000D02*
X58537000Y-46630000D01*
X57765000Y-44958000D02*
X58537000Y-45730000D01*
X57737010Y-44958000D02*
X57765000Y-44958000D01*
X49590000Y-34251000D02*
X50292000Y-34953000D01*
X49590000Y-33401000D02*
X49590000Y-34251000D01*
X50292000Y-36576000D02*
X50719970Y-37003970D01*
X50292000Y-34953000D02*
X50292000Y-36576000D01*
X50719970Y-37003970D02*
X51435000Y-37003970D01*
X51435000Y-37003970D02*
X52375203Y-37003973D01*
X57287000Y-41915770D02*
X57287000Y-46630000D01*
X52375203Y-37003973D02*
X57287000Y-41915770D01*
X64462000Y-31877000D02*
X65786000Y-30553000D01*
X62103000Y-31877000D02*
X64462000Y-31877000D01*
X59182000Y-34798000D02*
X62103000Y-31877000D01*
X56000590Y-34798000D02*
X59182000Y-34798000D01*
X55590000Y-33401000D02*
X55590000Y-34387410D01*
X55590000Y-34387410D02*
X56000590Y-34798000D01*
X57473010Y-35248010D02*
X58674000Y-36449000D01*
X55814190Y-35248010D02*
X57473010Y-35248010D01*
X55090000Y-33401000D02*
X55090000Y-34523820D01*
X55090000Y-34523820D02*
X55814190Y-35248010D01*
X55303885Y-35672885D02*
X56080000Y-36449000D01*
X55303885Y-35374115D02*
X55303885Y-35672885D01*
X54639991Y-34710221D02*
X55303885Y-35374115D01*
X54639990Y-34192990D02*
X54639991Y-34710221D01*
X54590000Y-33401000D02*
X54590000Y-34143000D01*
X54590000Y-34143000D02*
X54639990Y-34192990D01*
D20*
G36*
X45339000Y-58177247D02*
G01*
X45291102Y-58186774D01*
X45145705Y-58247000D01*
X44770295Y-58247000D01*
X44624898Y-58186774D01*
X44424939Y-58147000D01*
X44221061Y-58147000D01*
X44021102Y-58186774D01*
X43875705Y-58247000D01*
X43548674Y-58247000D01*
X42854347Y-57610534D01*
X42854347Y-54838280D01*
X42858871Y-54792345D01*
X42840819Y-54609053D01*
X42787354Y-54432804D01*
X42745922Y-54355290D01*
X42700533Y-54270373D01*
X42583691Y-54128001D01*
X42548002Y-54098712D01*
X42291000Y-53841710D01*
X42291000Y-53721000D01*
X42288560Y-53696224D01*
X42281333Y-53672399D01*
X42269597Y-53650443D01*
X42253803Y-53631197D01*
X42234557Y-53615403D01*
X42212601Y-53603667D01*
X42188776Y-53596440D01*
X42164000Y-53594000D01*
X42043290Y-53594000D01*
X41992631Y-53543341D01*
X41963345Y-53507655D01*
X41820973Y-53390813D01*
X41658541Y-53303992D01*
X41482293Y-53250528D01*
X41344933Y-53236999D01*
X41299001Y-53232475D01*
X41253069Y-53236999D01*
X40587072Y-53236999D01*
X40587072Y-51972000D01*
X40584216Y-51943000D01*
X41275000Y-51943000D01*
X41299776Y-51940560D01*
X41323601Y-51933333D01*
X41345557Y-51921597D01*
X41364803Y-51905803D01*
X41374170Y-51895336D01*
X43368039Y-49403000D01*
X45339000Y-49403000D01*
X45339000Y-58177247D01*
G37*
X45339000Y-58177247D02*
X45291102Y-58186774D01*
X45145705Y-58247000D01*
X44770295Y-58247000D01*
X44624898Y-58186774D01*
X44424939Y-58147000D01*
X44221061Y-58147000D01*
X44021102Y-58186774D01*
X43875705Y-58247000D01*
X43548674Y-58247000D01*
X42854347Y-57610534D01*
X42854347Y-54838280D01*
X42858871Y-54792345D01*
X42840819Y-54609053D01*
X42787354Y-54432804D01*
X42745922Y-54355290D01*
X42700533Y-54270373D01*
X42583691Y-54128001D01*
X42548002Y-54098712D01*
X42291000Y-53841710D01*
X42291000Y-53721000D01*
X42288560Y-53696224D01*
X42281333Y-53672399D01*
X42269597Y-53650443D01*
X42253803Y-53631197D01*
X42234557Y-53615403D01*
X42212601Y-53603667D01*
X42188776Y-53596440D01*
X42164000Y-53594000D01*
X42043290Y-53594000D01*
X41992631Y-53543341D01*
X41963345Y-53507655D01*
X41820973Y-53390813D01*
X41658541Y-53303992D01*
X41482293Y-53250528D01*
X41344933Y-53236999D01*
X41299001Y-53232475D01*
X41253069Y-53236999D01*
X40587072Y-53236999D01*
X40587072Y-51972000D01*
X40584216Y-51943000D01*
X41275000Y-51943000D01*
X41299776Y-51940560D01*
X41323601Y-51933333D01*
X41345557Y-51921597D01*
X41364803Y-51905803D01*
X41374170Y-51895336D01*
X43368039Y-49403000D01*
X45339000Y-49403000D01*
X45339000Y-58177247D01*
G36*
X38944928Y-43043000D02*
G01*
X38961992Y-43216254D01*
X38989000Y-43305288D01*
X38989000Y-45720000D01*
X38991440Y-45744776D01*
X38998667Y-45768601D01*
X39010403Y-45790557D01*
X39026197Y-45809803D01*
X39045443Y-45825597D01*
X39067399Y-45837333D01*
X39091224Y-45844560D01*
X39116000Y-45847000D01*
X47453451Y-45847000D01*
X50294001Y-48119440D01*
X50294000Y-54229000D01*
X46355000Y-54229000D01*
X46355000Y-48768000D01*
X46352560Y-48743224D01*
X46345333Y-48719399D01*
X46333597Y-48697443D01*
X46317803Y-48678197D01*
X46298557Y-48662403D01*
X46276601Y-48650667D01*
X46252776Y-48643440D01*
X46228000Y-48641000D01*
X43180000Y-48641000D01*
X43180000Y-47752000D01*
X43177560Y-47727224D01*
X43170333Y-47703399D01*
X43158597Y-47681443D01*
X43142803Y-47662197D01*
X43123557Y-47646403D01*
X43101601Y-47634667D01*
X43077776Y-47627440D01*
X43053000Y-47625000D01*
X40288980Y-47625000D01*
X39299796Y-47130408D01*
X39276544Y-47121510D01*
X39243000Y-47117000D01*
X35306000Y-47117000D01*
X35306000Y-42037000D01*
X38944928Y-42037000D01*
X38944928Y-43043000D01*
G37*
X38944928Y-43043000D02*
X38961992Y-43216254D01*
X38989000Y-43305288D01*
X38989000Y-45720000D01*
X38991440Y-45744776D01*
X38998667Y-45768601D01*
X39010403Y-45790557D01*
X39026197Y-45809803D01*
X39045443Y-45825597D01*
X39067399Y-45837333D01*
X39091224Y-45844560D01*
X39116000Y-45847000D01*
X47453451Y-45847000D01*
X50294001Y-48119440D01*
X50294000Y-54229000D01*
X46355000Y-54229000D01*
X46355000Y-48768000D01*
X46352560Y-48743224D01*
X46345333Y-48719399D01*
X46333597Y-48697443D01*
X46317803Y-48678197D01*
X46298557Y-48662403D01*
X46276601Y-48650667D01*
X46252776Y-48643440D01*
X46228000Y-48641000D01*
X43180000Y-48641000D01*
X43180000Y-47752000D01*
X43177560Y-47727224D01*
X43170333Y-47703399D01*
X43158597Y-47681443D01*
X43142803Y-47662197D01*
X43123557Y-47646403D01*
X43101601Y-47634667D01*
X43077776Y-47627440D01*
X43053000Y-47625000D01*
X40288980Y-47625000D01*
X39299796Y-47130408D01*
X39276544Y-47121510D01*
X39243000Y-47117000D01*
X35306000Y-47117000D01*
X35306000Y-42037000D01*
X38944928Y-42037000D01*
X38944928Y-43043000D01*
G36*
X38995337Y-54500628D02*
G01*
X39295363Y-54800653D01*
X39324653Y-54836343D01*
X39467025Y-54953185D01*
X39587494Y-55017576D01*
X39629456Y-55040006D01*
X39805705Y-55093471D01*
X39988997Y-55111523D01*
X40034932Y-55106999D01*
X40911712Y-55106999D01*
X40984347Y-55179634D01*
X40984348Y-57277000D01*
X39624000Y-57277000D01*
X39599224Y-57279440D01*
X39575399Y-57286667D01*
X39553443Y-57298403D01*
X39534197Y-57314197D01*
X39518403Y-57333443D01*
X39506667Y-57355399D01*
X39499440Y-57379224D01*
X39497000Y-57404000D01*
X39497000Y-60577224D01*
X30607000Y-60453751D01*
X30607000Y-54483000D01*
X38973857Y-54483000D01*
X38995337Y-54500628D01*
G37*
X38995337Y-54500628D02*
X39295363Y-54800653D01*
X39324653Y-54836343D01*
X39467025Y-54953185D01*
X39587494Y-55017576D01*
X39629456Y-55040006D01*
X39805705Y-55093471D01*
X39988997Y-55111523D01*
X40034932Y-55106999D01*
X40911712Y-55106999D01*
X40984347Y-55179634D01*
X40984348Y-57277000D01*
X39624000Y-57277000D01*
X39599224Y-57279440D01*
X39575399Y-57286667D01*
X39553443Y-57298403D01*
X39534197Y-57314197D01*
X39518403Y-57333443D01*
X39506667Y-57355399D01*
X39499440Y-57379224D01*
X39497000Y-57404000D01*
X39497000Y-60577224D01*
X30607000Y-60453751D01*
X30607000Y-54483000D01*
X38973857Y-54483000D01*
X38995337Y-54500628D01*
G36*
X42164000Y-49611020D02*
G01*
X40961517Y-51054000D01*
X39116000Y-51054000D01*
X39091224Y-51056440D01*
X39067399Y-51063667D01*
X39045443Y-51075403D01*
X39026197Y-51091197D01*
X39010403Y-51110443D01*
X38998667Y-51132399D01*
X38991440Y-51156224D01*
X38989000Y-51181000D01*
X38989000Y-51417680D01*
X38944506Y-51441463D01*
X38847815Y-51520815D01*
X38768463Y-51617506D01*
X38709498Y-51727820D01*
X38673188Y-51847518D01*
X38660928Y-51972000D01*
X38660928Y-53532000D01*
X38673188Y-53656482D01*
X38689001Y-53708610D01*
X38689001Y-53721000D01*
X30607000Y-53721000D01*
X30607000Y-50292000D01*
X39370000Y-50292000D01*
X39394776Y-50289560D01*
X39418601Y-50282333D01*
X39440557Y-50270597D01*
X39459803Y-50254803D01*
X39475597Y-50235557D01*
X39487333Y-50213601D01*
X39494560Y-50189776D01*
X39497000Y-50165000D01*
X39497000Y-48641000D01*
X42164000Y-48641000D01*
X42164000Y-49611020D01*
G37*
X42164000Y-49611020D02*
X40961517Y-51054000D01*
X39116000Y-51054000D01*
X39091224Y-51056440D01*
X39067399Y-51063667D01*
X39045443Y-51075403D01*
X39026197Y-51091197D01*
X39010403Y-51110443D01*
X38998667Y-51132399D01*
X38991440Y-51156224D01*
X38989000Y-51181000D01*
X38989000Y-51417680D01*
X38944506Y-51441463D01*
X38847815Y-51520815D01*
X38768463Y-51617506D01*
X38709498Y-51727820D01*
X38673188Y-51847518D01*
X38660928Y-51972000D01*
X38660928Y-53532000D01*
X38673188Y-53656482D01*
X38689001Y-53708610D01*
X38689001Y-53721000D01*
X30607000Y-53721000D01*
X30607000Y-50292000D01*
X39370000Y-50292000D01*
X39394776Y-50289560D01*
X39418601Y-50282333D01*
X39440557Y-50270597D01*
X39459803Y-50254803D01*
X39475597Y-50235557D01*
X39487333Y-50213601D01*
X39494560Y-50189776D01*
X39497000Y-50165000D01*
X39497000Y-48641000D01*
X42164000Y-48641000D01*
X42164000Y-49611020D01*
G36*
X68676000Y-47244000D02*
G01*
X65822444Y-47244000D01*
X65822000Y-47169750D01*
X65663250Y-47011000D01*
X64914000Y-47011000D01*
X64914000Y-47031000D01*
X64783170Y-47031000D01*
X64794478Y-46737000D01*
X64914000Y-46737000D01*
X64914000Y-46757000D01*
X65663250Y-46757000D01*
X65822000Y-46598250D01*
X65825072Y-46084000D01*
X65812812Y-45959518D01*
X65776502Y-45839820D01*
X65717537Y-45729506D01*
X65638185Y-45632815D01*
X65541494Y-45553463D01*
X65431180Y-45494498D01*
X65311482Y-45458188D01*
X65187000Y-45445928D01*
X65072750Y-45449000D01*
X64914002Y-45607748D01*
X64914002Y-45449000D01*
X64844016Y-45449000D01*
X64896596Y-44081933D01*
X65149272Y-42565879D01*
X65150977Y-42542558D01*
X65140093Y-41976611D01*
X65291750Y-41975000D01*
X65450500Y-41816250D01*
X65450500Y-40767000D01*
X65704500Y-40767000D01*
X65704500Y-41816250D01*
X65863250Y-41975000D01*
X66152500Y-41978072D01*
X66276982Y-41965812D01*
X66396680Y-41929502D01*
X66506994Y-41870537D01*
X66603685Y-41791185D01*
X66683037Y-41694494D01*
X66742002Y-41584180D01*
X66778312Y-41464482D01*
X66790572Y-41340000D01*
X66787500Y-40925750D01*
X66628750Y-40767000D01*
X65704500Y-40767000D01*
X65450500Y-40767000D01*
X65430500Y-40767000D01*
X65430500Y-40513000D01*
X65450500Y-40513000D01*
X65450500Y-39463750D01*
X65704500Y-39463750D01*
X65704500Y-40513000D01*
X66628750Y-40513000D01*
X66787500Y-40354250D01*
X66790572Y-39940000D01*
X66778312Y-39815518D01*
X66742002Y-39695820D01*
X66683037Y-39585506D01*
X66603685Y-39488815D01*
X66506994Y-39409463D01*
X66396680Y-39350498D01*
X66276982Y-39314188D01*
X66152500Y-39301928D01*
X65863250Y-39305000D01*
X65704500Y-39463750D01*
X65450500Y-39463750D01*
X65291750Y-39305000D01*
X65088675Y-39302843D01*
X65074329Y-38556847D01*
X65166518Y-38584812D01*
X65291000Y-38597072D01*
X65717750Y-38594000D01*
X65876500Y-38435250D01*
X65876500Y-37211000D01*
X66130500Y-37211000D01*
X66130500Y-38435250D01*
X66289250Y-38594000D01*
X66716000Y-38597072D01*
X66840482Y-38584812D01*
X66960180Y-38548502D01*
X67070494Y-38489537D01*
X67167185Y-38410185D01*
X67246537Y-38313494D01*
X67305502Y-38203180D01*
X67341812Y-38083482D01*
X67354072Y-37959000D01*
X67351000Y-37369750D01*
X67192250Y-37211000D01*
X66130500Y-37211000D01*
X65876500Y-37211000D01*
X65856500Y-37211000D01*
X65856500Y-36957000D01*
X65876500Y-36957000D01*
X65876500Y-36937000D01*
X66130500Y-36937000D01*
X66130500Y-36957000D01*
X67192250Y-36957000D01*
X67351000Y-36798250D01*
X67354072Y-36209000D01*
X67341812Y-36084518D01*
X67336801Y-36068000D01*
X68676000Y-36068000D01*
X68676000Y-47244000D01*
G37*
X68676000Y-47244000D02*
X65822444Y-47244000D01*
X65822000Y-47169750D01*
X65663250Y-47011000D01*
X64914000Y-47011000D01*
X64914000Y-47031000D01*
X64783170Y-47031000D01*
X64794478Y-46737000D01*
X64914000Y-46737000D01*
X64914000Y-46757000D01*
X65663250Y-46757000D01*
X65822000Y-46598250D01*
X65825072Y-46084000D01*
X65812812Y-45959518D01*
X65776502Y-45839820D01*
X65717537Y-45729506D01*
X65638185Y-45632815D01*
X65541494Y-45553463D01*
X65431180Y-45494498D01*
X65311482Y-45458188D01*
X65187000Y-45445928D01*
X65072750Y-45449000D01*
X64914002Y-45607748D01*
X64914002Y-45449000D01*
X64844016Y-45449000D01*
X64896596Y-44081933D01*
X65149272Y-42565879D01*
X65150977Y-42542558D01*
X65140093Y-41976611D01*
X65291750Y-41975000D01*
X65450500Y-41816250D01*
X65450500Y-40767000D01*
X65704500Y-40767000D01*
X65704500Y-41816250D01*
X65863250Y-41975000D01*
X66152500Y-41978072D01*
X66276982Y-41965812D01*
X66396680Y-41929502D01*
X66506994Y-41870537D01*
X66603685Y-41791185D01*
X66683037Y-41694494D01*
X66742002Y-41584180D01*
X66778312Y-41464482D01*
X66790572Y-41340000D01*
X66787500Y-40925750D01*
X66628750Y-40767000D01*
X65704500Y-40767000D01*
X65450500Y-40767000D01*
X65430500Y-40767000D01*
X65430500Y-40513000D01*
X65450500Y-40513000D01*
X65450500Y-39463750D01*
X65704500Y-39463750D01*
X65704500Y-40513000D01*
X66628750Y-40513000D01*
X66787500Y-40354250D01*
X66790572Y-39940000D01*
X66778312Y-39815518D01*
X66742002Y-39695820D01*
X66683037Y-39585506D01*
X66603685Y-39488815D01*
X66506994Y-39409463D01*
X66396680Y-39350498D01*
X66276982Y-39314188D01*
X66152500Y-39301928D01*
X65863250Y-39305000D01*
X65704500Y-39463750D01*
X65450500Y-39463750D01*
X65291750Y-39305000D01*
X65088675Y-39302843D01*
X65074329Y-38556847D01*
X65166518Y-38584812D01*
X65291000Y-38597072D01*
X65717750Y-38594000D01*
X65876500Y-38435250D01*
X65876500Y-37211000D01*
X66130500Y-37211000D01*
X66130500Y-38435250D01*
X66289250Y-38594000D01*
X66716000Y-38597072D01*
X66840482Y-38584812D01*
X66960180Y-38548502D01*
X67070494Y-38489537D01*
X67167185Y-38410185D01*
X67246537Y-38313494D01*
X67305502Y-38203180D01*
X67341812Y-38083482D01*
X67354072Y-37959000D01*
X67351000Y-37369750D01*
X67192250Y-37211000D01*
X66130500Y-37211000D01*
X65876500Y-37211000D01*
X65856500Y-37211000D01*
X65856500Y-36957000D01*
X65876500Y-36957000D01*
X65876500Y-36937000D01*
X66130500Y-36937000D01*
X66130500Y-36957000D01*
X67192250Y-36957000D01*
X67351000Y-36798250D01*
X67354072Y-36209000D01*
X67341812Y-36084518D01*
X67336801Y-36068000D01*
X68676000Y-36068000D01*
X68676000Y-47244000D01*
G36*
X33967928Y-31683000D02*
G01*
X33971000Y-31972250D01*
X34129750Y-32131000D01*
X35179000Y-32131000D01*
X35179000Y-32111000D01*
X35433000Y-32111000D01*
X35433000Y-32131000D01*
X35453000Y-32131000D01*
X35453000Y-32385000D01*
X35433000Y-32385000D01*
X35433000Y-33309250D01*
X35591750Y-33468000D01*
X36006000Y-33471072D01*
X36130482Y-33458812D01*
X36250180Y-33422502D01*
X36360494Y-33363537D01*
X36457185Y-33284185D01*
X36536537Y-33187494D01*
X36595502Y-33077180D01*
X36631812Y-32957482D01*
X36644072Y-32833000D01*
X36642012Y-32639000D01*
X39825890Y-32639000D01*
X39812129Y-32687363D01*
X39802023Y-32812039D01*
X39805000Y-33115250D01*
X39963750Y-33274000D01*
X40737000Y-33274000D01*
X40737000Y-33528000D01*
X39963750Y-33528000D01*
X39805000Y-33686750D01*
X39802023Y-33989961D01*
X39812129Y-34114637D01*
X39846362Y-34234945D01*
X39903409Y-34346263D01*
X39981077Y-34444312D01*
X40076381Y-34525325D01*
X40185659Y-34586189D01*
X40304711Y-34624564D01*
X40408250Y-34636000D01*
X40545325Y-34498925D01*
X40576381Y-34525325D01*
X40685659Y-34586189D01*
X40739196Y-34603446D01*
X40771750Y-34636000D01*
X40840000Y-34628462D01*
X40908250Y-34636000D01*
X40940804Y-34603446D01*
X40994341Y-34586189D01*
X41089057Y-34533435D01*
X41148000Y-34564941D01*
X41148000Y-34869812D01*
X39319942Y-36576000D01*
X34544000Y-36576000D01*
X34519224Y-36578440D01*
X34495399Y-36585667D01*
X34473443Y-36597403D01*
X34454197Y-36613197D01*
X34438403Y-36632443D01*
X34426667Y-36654399D01*
X34419440Y-36678224D01*
X34417000Y-36703000D01*
X34417000Y-47879000D01*
X34419440Y-47903776D01*
X34426667Y-47927601D01*
X34438403Y-47949557D01*
X34454197Y-47968803D01*
X34473443Y-47984597D01*
X34495399Y-47996333D01*
X34519224Y-48003560D01*
X34544000Y-48006000D01*
X36233967Y-48006000D01*
X36218188Y-48058018D01*
X36205928Y-48182500D01*
X36209000Y-48609250D01*
X36367750Y-48768000D01*
X37592000Y-48768000D01*
X37592000Y-48748000D01*
X37846000Y-48748000D01*
X37846000Y-48768000D01*
X37866000Y-48768000D01*
X37866000Y-49022000D01*
X37846000Y-49022000D01*
X37846000Y-49042000D01*
X37592000Y-49042000D01*
X37592000Y-49022000D01*
X36367750Y-49022000D01*
X36209000Y-49180750D01*
X36207400Y-49403000D01*
X29845000Y-49403000D01*
X29820224Y-49405440D01*
X29796399Y-49412667D01*
X29774443Y-49424403D01*
X29755197Y-49440197D01*
X29739403Y-49459443D01*
X29727667Y-49481399D01*
X29720440Y-49505224D01*
X29718000Y-49530000D01*
X29718000Y-61214000D01*
X29720440Y-61238776D01*
X29727667Y-61262601D01*
X29739403Y-61284557D01*
X29755197Y-61303803D01*
X29774443Y-61319597D01*
X29796399Y-61331333D01*
X29820224Y-61338560D01*
X29845000Y-61341000D01*
X40513000Y-61341000D01*
X40537776Y-61338560D01*
X40561601Y-61331333D01*
X40583557Y-61319597D01*
X40602803Y-61303803D01*
X40618597Y-61284557D01*
X40630333Y-61262601D01*
X40637560Y-61238776D01*
X40640000Y-61214000D01*
X40640000Y-60693600D01*
X40862250Y-60692000D01*
X41021000Y-60533250D01*
X41021000Y-59309000D01*
X41001000Y-59309000D01*
X41001000Y-59182000D01*
X41295000Y-59182000D01*
X41295000Y-59309000D01*
X41275000Y-59309000D01*
X41275000Y-60533250D01*
X41433750Y-60692000D01*
X41860500Y-60695072D01*
X41984982Y-60682812D01*
X42104680Y-60646502D01*
X42214994Y-60587537D01*
X42311685Y-60508185D01*
X42391037Y-60411494D01*
X42450002Y-60301180D01*
X42486312Y-60181482D01*
X42498572Y-60057000D01*
X42495500Y-59467750D01*
X42336752Y-59309002D01*
X42495500Y-59309002D01*
X42495500Y-59182000D01*
X46228000Y-59182000D01*
X46252776Y-59179560D01*
X46276601Y-59172333D01*
X46298557Y-59160597D01*
X46317803Y-59144803D01*
X46333597Y-59125557D01*
X46345333Y-59103601D01*
X46352560Y-59079776D01*
X46355000Y-59055000D01*
X46355000Y-57365033D01*
X46407018Y-57380812D01*
X46531500Y-57393072D01*
X46958250Y-57390000D01*
X47117000Y-57231250D01*
X47117000Y-56007000D01*
X47371000Y-56007000D01*
X47371000Y-57231250D01*
X47529750Y-57390000D01*
X47956500Y-57393072D01*
X48080982Y-57380812D01*
X48200680Y-57344502D01*
X48310994Y-57285537D01*
X48407685Y-57206185D01*
X48487037Y-57109494D01*
X48546002Y-56999180D01*
X48582312Y-56879482D01*
X48594572Y-56755000D01*
X48591500Y-56165750D01*
X48432750Y-56007000D01*
X47371000Y-56007000D01*
X47117000Y-56007000D01*
X47097000Y-56007000D01*
X47097000Y-55753000D01*
X47117000Y-55753000D01*
X47117000Y-55733000D01*
X47371000Y-55733000D01*
X47371000Y-55753000D01*
X48432750Y-55753000D01*
X48591500Y-55594250D01*
X48593983Y-55118000D01*
X50294000Y-55118000D01*
X50294000Y-57597198D01*
X43627199Y-64264000D01*
X37914711Y-64264000D01*
X37870774Y-64220063D01*
X37701256Y-64106795D01*
X37512898Y-64028774D01*
X37312939Y-63989000D01*
X37109061Y-63989000D01*
X36909102Y-64028774D01*
X36720744Y-64106795D01*
X36551226Y-64220063D01*
X36407063Y-64364226D01*
X36293795Y-64533744D01*
X36215774Y-64722102D01*
X36176000Y-64922061D01*
X36176000Y-65125939D01*
X36215774Y-65325898D01*
X36293795Y-65514256D01*
X36407063Y-65683774D01*
X36551226Y-65827937D01*
X36720744Y-65941205D01*
X36909102Y-66019226D01*
X37109061Y-66059000D01*
X37312939Y-66059000D01*
X37512898Y-66019226D01*
X37701256Y-65941205D01*
X37870774Y-65827937D01*
X37914711Y-65784000D01*
X43904678Y-65784000D01*
X43942000Y-65787676D01*
X43979322Y-65784000D01*
X43979333Y-65784000D01*
X44090986Y-65773003D01*
X44234247Y-65729546D01*
X44366276Y-65658974D01*
X44482001Y-65564001D01*
X44505804Y-65534997D01*
X51565004Y-58475798D01*
X51594001Y-58452001D01*
X51688974Y-58336276D01*
X51759546Y-58204247D01*
X51803003Y-58060986D01*
X51814000Y-57949333D01*
X51814000Y-57949323D01*
X51817676Y-57912000D01*
X51814000Y-57874677D01*
X51814000Y-45268802D01*
X52776205Y-46231008D01*
X52799999Y-46260001D01*
X52828992Y-46283795D01*
X52828996Y-46283799D01*
X52894740Y-46337753D01*
X52915724Y-46354974D01*
X53047753Y-46425546D01*
X53191014Y-46469003D01*
X53302667Y-46480000D01*
X53302676Y-46480000D01*
X53339999Y-46483676D01*
X53377322Y-46480000D01*
X54041199Y-46480000D01*
X55207127Y-47645928D01*
X53937000Y-47645928D01*
X53763746Y-47662992D01*
X53597150Y-47713528D01*
X53443614Y-47795595D01*
X53309038Y-47906038D01*
X53198595Y-48040614D01*
X53116528Y-48194150D01*
X53065992Y-48360746D01*
X53048928Y-48534000D01*
X53048928Y-51034000D01*
X53065992Y-51207254D01*
X53116528Y-51373850D01*
X53198595Y-51527386D01*
X53309038Y-51661962D01*
X53443614Y-51772405D01*
X53597150Y-51854472D01*
X53763746Y-51905008D01*
X53937000Y-51922072D01*
X55537000Y-51922072D01*
X55710254Y-51905008D01*
X55876850Y-51854472D01*
X56030386Y-51772405D01*
X56164962Y-51661962D01*
X56275405Y-51527386D01*
X56357472Y-51373850D01*
X56408008Y-51207254D01*
X56425072Y-51034000D01*
X56425072Y-48863874D01*
X56840201Y-49279003D01*
X56863999Y-49308001D01*
X56892997Y-49331799D01*
X56979723Y-49402974D01*
X57111753Y-49473546D01*
X57255014Y-49517003D01*
X57366667Y-49528000D01*
X57366677Y-49528000D01*
X57404000Y-49531676D01*
X57441323Y-49528000D01*
X60033678Y-49528000D01*
X60071000Y-49531676D01*
X60108322Y-49528000D01*
X60108333Y-49528000D01*
X60219986Y-49517003D01*
X60363247Y-49473546D01*
X60495276Y-49402974D01*
X60611001Y-49308001D01*
X60634804Y-49278998D01*
X61548004Y-48365798D01*
X61577001Y-48342001D01*
X61671974Y-48226276D01*
X61679627Y-48211958D01*
X61766284Y-48258278D01*
X61923500Y-48305969D01*
X62087000Y-48322072D01*
X62487000Y-48322072D01*
X62650500Y-48305969D01*
X62807716Y-48258278D01*
X62836027Y-48243145D01*
X62892820Y-48273502D01*
X63012518Y-48309812D01*
X63137000Y-48322072D01*
X63251250Y-48319000D01*
X63410000Y-48160250D01*
X63410000Y-47011000D01*
X63390000Y-47011000D01*
X63390000Y-46757000D01*
X63410000Y-46757000D01*
X63410000Y-45607750D01*
X63251250Y-45449000D01*
X63137000Y-45445928D01*
X63047000Y-45454792D01*
X63047000Y-45249323D01*
X63050676Y-45211998D01*
X63047000Y-45174673D01*
X63047000Y-45174665D01*
X63036003Y-45063012D01*
X62992546Y-44919751D01*
X62921974Y-44787722D01*
X62827001Y-44671997D01*
X62798004Y-44648200D01*
X60183806Y-42034003D01*
X60160003Y-42004999D01*
X60044278Y-41910026D01*
X59912249Y-41839454D01*
X59768988Y-41795997D01*
X59657335Y-41785000D01*
X59657324Y-41785000D01*
X59620002Y-41781324D01*
X59582680Y-41785000D01*
X59504711Y-41785000D01*
X59460774Y-41741063D01*
X59291256Y-41627795D01*
X59102898Y-41549774D01*
X58902939Y-41510000D01*
X58699061Y-41510000D01*
X58499102Y-41549774D01*
X58479225Y-41558007D01*
X58442556Y-41437123D01*
X58390642Y-41340000D01*
X62314428Y-41340000D01*
X62326688Y-41464482D01*
X62362998Y-41584180D01*
X62421963Y-41694494D01*
X62501315Y-41791185D01*
X62598006Y-41870537D01*
X62708320Y-41929502D01*
X62828018Y-41965812D01*
X62952500Y-41978072D01*
X63241750Y-41975000D01*
X63400500Y-41816250D01*
X63400500Y-40767000D01*
X62476250Y-40767000D01*
X62317500Y-40925750D01*
X62314428Y-41340000D01*
X58390642Y-41340000D01*
X58371984Y-41305094D01*
X58277011Y-41189369D01*
X58248014Y-41165572D01*
X57022442Y-39940000D01*
X62314428Y-39940000D01*
X62317500Y-40354250D01*
X62476250Y-40513000D01*
X63400500Y-40513000D01*
X63400500Y-39463750D01*
X63241750Y-39305000D01*
X62952500Y-39301928D01*
X62828018Y-39314188D01*
X62708320Y-39350498D01*
X62598006Y-39409463D01*
X62501315Y-39488815D01*
X62421963Y-39585506D01*
X62362998Y-39695820D01*
X62326688Y-39815518D01*
X62314428Y-39940000D01*
X57022442Y-39940000D01*
X53581739Y-36499298D01*
X53738744Y-36604205D01*
X53927102Y-36682226D01*
X54127061Y-36722000D01*
X54330939Y-36722000D01*
X54530898Y-36682226D01*
X54719256Y-36604205D01*
X54729428Y-36597408D01*
X54729428Y-37074000D01*
X54746492Y-37247254D01*
X54797028Y-37413850D01*
X54879095Y-37567386D01*
X54989538Y-37701962D01*
X55124114Y-37812405D01*
X55277650Y-37894472D01*
X55444246Y-37945008D01*
X55617500Y-37962072D01*
X56542500Y-37962072D01*
X56715754Y-37945008D01*
X56882350Y-37894472D01*
X57035886Y-37812405D01*
X57170462Y-37701962D01*
X57280905Y-37567386D01*
X57362972Y-37413850D01*
X57413508Y-37247254D01*
X57430572Y-37074000D01*
X57430572Y-36280373D01*
X57704428Y-36554230D01*
X57704428Y-37074000D01*
X57721492Y-37247254D01*
X57772028Y-37413850D01*
X57854095Y-37567386D01*
X57964538Y-37701962D01*
X58099114Y-37812405D01*
X58252650Y-37894472D01*
X58419246Y-37945008D01*
X58592500Y-37962072D01*
X59517500Y-37962072D01*
X59548690Y-37959000D01*
X61677928Y-37959000D01*
X61690188Y-38083482D01*
X61726498Y-38203180D01*
X61785463Y-38313494D01*
X61864815Y-38410185D01*
X61961506Y-38489537D01*
X62071820Y-38548502D01*
X62191518Y-38584812D01*
X62316000Y-38597072D01*
X62742750Y-38594000D01*
X62901500Y-38435250D01*
X62901500Y-37211000D01*
X61839750Y-37211000D01*
X61681000Y-37369750D01*
X61677928Y-37959000D01*
X59548690Y-37959000D01*
X59690754Y-37945008D01*
X59857350Y-37894472D01*
X60010886Y-37812405D01*
X60145462Y-37701962D01*
X60255905Y-37567386D01*
X60337972Y-37413850D01*
X60388508Y-37247254D01*
X60405572Y-37074000D01*
X60405572Y-36209000D01*
X61677928Y-36209000D01*
X61681000Y-36798250D01*
X61839750Y-36957000D01*
X62901500Y-36957000D01*
X62901500Y-35732750D01*
X62742750Y-35574000D01*
X62316000Y-35570928D01*
X62191518Y-35583188D01*
X62071820Y-35619498D01*
X61961506Y-35678463D01*
X61864815Y-35757815D01*
X61785463Y-35854506D01*
X61726498Y-35964820D01*
X61690188Y-36084518D01*
X61677928Y-36209000D01*
X60405572Y-36209000D01*
X60405572Y-35824000D01*
X60388508Y-35650746D01*
X60337972Y-35484150D01*
X60255905Y-35330614D01*
X60145462Y-35196038D01*
X60010886Y-35085595D01*
X59983724Y-35071077D01*
X61654745Y-33400056D01*
X61653928Y-33477000D01*
X61666188Y-33601482D01*
X61702498Y-33721180D01*
X61761463Y-33831494D01*
X61840815Y-33928185D01*
X61937506Y-34007537D01*
X62047820Y-34066502D01*
X62167518Y-34102812D01*
X62292000Y-34115072D01*
X62706250Y-34112000D01*
X62865000Y-33953250D01*
X62865000Y-33029000D01*
X62845000Y-33029000D01*
X62845000Y-32775000D01*
X62865000Y-32775000D01*
X62865000Y-32755000D01*
X63119000Y-32755000D01*
X63119000Y-32775000D01*
X63139000Y-32775000D01*
X63139000Y-33029000D01*
X63119000Y-33029000D01*
X63119000Y-33953250D01*
X63277750Y-34112000D01*
X63692000Y-34115072D01*
X63816482Y-34102812D01*
X63936180Y-34066502D01*
X64046494Y-34007537D01*
X64143185Y-33928185D01*
X64222537Y-33831494D01*
X64281502Y-33721180D01*
X64301577Y-33655002D01*
X64434748Y-33655002D01*
X64276000Y-33813750D01*
X64272928Y-34240500D01*
X64285188Y-34364982D01*
X64321498Y-34484680D01*
X64380463Y-34594994D01*
X64459815Y-34691685D01*
X64556506Y-34771037D01*
X64666820Y-34830002D01*
X64786518Y-34866312D01*
X64911000Y-34878572D01*
X65500250Y-34875500D01*
X65659000Y-34716750D01*
X65659000Y-33655000D01*
X65913000Y-33655000D01*
X65913000Y-34716750D01*
X66071750Y-34875500D01*
X66661000Y-34878572D01*
X66785482Y-34866312D01*
X66905180Y-34830002D01*
X67015494Y-34771037D01*
X67112185Y-34691685D01*
X67191537Y-34594994D01*
X67250502Y-34484680D01*
X67286812Y-34364982D01*
X67299072Y-34240500D01*
X67296000Y-33813750D01*
X67137250Y-33655000D01*
X65913000Y-33655000D01*
X65659000Y-33655000D01*
X65639000Y-33655000D01*
X65639000Y-33401000D01*
X65659000Y-33401000D01*
X65659000Y-32339250D01*
X65913000Y-32339250D01*
X65913000Y-33401000D01*
X67137250Y-33401000D01*
X67296000Y-33242250D01*
X67299072Y-32815500D01*
X67286812Y-32691018D01*
X67250502Y-32571320D01*
X67191537Y-32461006D01*
X67112185Y-32364315D01*
X67015494Y-32284963D01*
X66905180Y-32225998D01*
X66785482Y-32189688D01*
X66661000Y-32177428D01*
X66071750Y-32180500D01*
X65913000Y-32339250D01*
X65659000Y-32339250D01*
X65500250Y-32180500D01*
X65234686Y-32179116D01*
X65510229Y-31903572D01*
X66411000Y-31903572D01*
X66584254Y-31886508D01*
X66615598Y-31877000D01*
X68676000Y-31877000D01*
X68676000Y-34925000D01*
X64008000Y-34925000D01*
X63983224Y-34927440D01*
X63959399Y-34934667D01*
X63937443Y-34946403D01*
X63918197Y-34962197D01*
X63902403Y-34981443D01*
X63890667Y-35003399D01*
X63883440Y-35027224D01*
X63881000Y-35052000D01*
X63881000Y-35587895D01*
X63865482Y-35583188D01*
X63741000Y-35570928D01*
X63314250Y-35574000D01*
X63155500Y-35732750D01*
X63155500Y-36957000D01*
X63175500Y-36957000D01*
X63175500Y-37211000D01*
X63155500Y-37211000D01*
X63155500Y-38435250D01*
X63314250Y-38594000D01*
X63741000Y-38597072D01*
X63865482Y-38584812D01*
X63881000Y-38580105D01*
X63881000Y-39304280D01*
X63813250Y-39305000D01*
X63654500Y-39463750D01*
X63654500Y-40513000D01*
X63674500Y-40513000D01*
X63674500Y-40767000D01*
X63654500Y-40767000D01*
X63654500Y-41816250D01*
X63813250Y-41975000D01*
X63881000Y-41975720D01*
X63881000Y-45447434D01*
X63822750Y-45449000D01*
X63664000Y-45607750D01*
X63664000Y-46757000D01*
X63684000Y-46757000D01*
X63684000Y-47011000D01*
X63664000Y-47011000D01*
X63664000Y-48160250D01*
X63822750Y-48319000D01*
X63937000Y-48322072D01*
X64061482Y-48309812D01*
X64181180Y-48273502D01*
X64206440Y-48260000D01*
X64271961Y-48260000D01*
X64423500Y-48305969D01*
X64587000Y-48322072D01*
X64987000Y-48322072D01*
X65150500Y-48305969D01*
X65302039Y-48260000D01*
X65696553Y-48260000D01*
X65665992Y-48360746D01*
X65648928Y-48534000D01*
X65648928Y-51034000D01*
X65665992Y-51207254D01*
X65716528Y-51373850D01*
X65798595Y-51527386D01*
X65909038Y-51661962D01*
X66043614Y-51772405D01*
X66197150Y-51854472D01*
X66363746Y-51905008D01*
X66537000Y-51922072D01*
X68137000Y-51922072D01*
X68310254Y-51905008D01*
X68476850Y-51854472D01*
X68630386Y-51772405D01*
X68676000Y-51734971D01*
X68675999Y-67103879D01*
X68560601Y-66931174D01*
X68144826Y-66515399D01*
X67655928Y-66188727D01*
X67112692Y-65963712D01*
X66535997Y-65849000D01*
X65948003Y-65849000D01*
X65371308Y-65963712D01*
X64828072Y-66188727D01*
X64339174Y-66515399D01*
X63923399Y-66931174D01*
X63596727Y-67420072D01*
X63371712Y-67963308D01*
X63257000Y-68540003D01*
X63257000Y-69127997D01*
X63371712Y-69704692D01*
X63596727Y-70247928D01*
X63923399Y-70736826D01*
X64339174Y-71152601D01*
X64701950Y-71395001D01*
X32782053Y-71394999D01*
X33144826Y-71152601D01*
X33560601Y-70736826D01*
X33887273Y-70247928D01*
X34112288Y-69704692D01*
X34227000Y-69127997D01*
X34227000Y-68540003D01*
X34112288Y-67963308D01*
X33887273Y-67420072D01*
X33560601Y-66931174D01*
X33144826Y-66515399D01*
X32655928Y-66188727D01*
X32112692Y-65963712D01*
X31535997Y-65849000D01*
X30948003Y-65849000D01*
X30371308Y-65963712D01*
X29828072Y-66188727D01*
X29339174Y-66515399D01*
X28923399Y-66931174D01*
X28706001Y-67256532D01*
X28706000Y-44182000D01*
X31705928Y-44182000D01*
X31718188Y-44306482D01*
X31754498Y-44426180D01*
X31813463Y-44536494D01*
X31892815Y-44633185D01*
X31989506Y-44712537D01*
X32099820Y-44771502D01*
X32219518Y-44807812D01*
X32344000Y-44820072D01*
X32770750Y-44817000D01*
X32929500Y-44658250D01*
X32929500Y-43434000D01*
X33183500Y-43434000D01*
X33183500Y-44658250D01*
X33342250Y-44817000D01*
X33769000Y-44820072D01*
X33893482Y-44807812D01*
X34013180Y-44771502D01*
X34123494Y-44712537D01*
X34220185Y-44633185D01*
X34299537Y-44536494D01*
X34358502Y-44426180D01*
X34394812Y-44306482D01*
X34407072Y-44182000D01*
X34404000Y-43592750D01*
X34245250Y-43434000D01*
X33183500Y-43434000D01*
X32929500Y-43434000D01*
X31867750Y-43434000D01*
X31709000Y-43592750D01*
X31705928Y-44182000D01*
X28706000Y-44182000D01*
X28706000Y-42432000D01*
X31705928Y-42432000D01*
X31709000Y-43021250D01*
X31867750Y-43180000D01*
X32929500Y-43180000D01*
X32929500Y-41955750D01*
X33183500Y-41955750D01*
X33183500Y-43180000D01*
X34245250Y-43180000D01*
X34404000Y-43021250D01*
X34407072Y-42432000D01*
X34394812Y-42307518D01*
X34358502Y-42187820D01*
X34299537Y-42077506D01*
X34220185Y-41980815D01*
X34123494Y-41901463D01*
X34013180Y-41842498D01*
X33893482Y-41806188D01*
X33769000Y-41793928D01*
X33342250Y-41797000D01*
X33183500Y-41955750D01*
X32929500Y-41955750D01*
X32770750Y-41797000D01*
X32344000Y-41793928D01*
X32219518Y-41806188D01*
X32099820Y-41842498D01*
X31989506Y-41901463D01*
X31892815Y-41980815D01*
X31813463Y-42077506D01*
X31754498Y-42187820D01*
X31718188Y-42307518D01*
X31705928Y-42432000D01*
X28706000Y-42432000D01*
X28706000Y-39356000D01*
X31705928Y-39356000D01*
X31718188Y-39480482D01*
X31754498Y-39600180D01*
X31813463Y-39710494D01*
X31892815Y-39807185D01*
X31989506Y-39886537D01*
X32099820Y-39945502D01*
X32219518Y-39981812D01*
X32344000Y-39994072D01*
X32770750Y-39991000D01*
X32929500Y-39832250D01*
X32929500Y-38608000D01*
X33183500Y-38608000D01*
X33183500Y-39832250D01*
X33342250Y-39991000D01*
X33769000Y-39994072D01*
X33893482Y-39981812D01*
X34013180Y-39945502D01*
X34123494Y-39886537D01*
X34220185Y-39807185D01*
X34299537Y-39710494D01*
X34358502Y-39600180D01*
X34394812Y-39480482D01*
X34407072Y-39356000D01*
X34404000Y-38766750D01*
X34245250Y-38608000D01*
X33183500Y-38608000D01*
X32929500Y-38608000D01*
X31867750Y-38608000D01*
X31709000Y-38766750D01*
X31705928Y-39356000D01*
X28706000Y-39356000D01*
X28706000Y-37606000D01*
X31705928Y-37606000D01*
X31709000Y-38195250D01*
X31867750Y-38354000D01*
X32929500Y-38354000D01*
X32929500Y-37129750D01*
X33183500Y-37129750D01*
X33183500Y-38354000D01*
X34245250Y-38354000D01*
X34404000Y-38195250D01*
X34407072Y-37606000D01*
X34394812Y-37481518D01*
X34358502Y-37361820D01*
X34299537Y-37251506D01*
X34220185Y-37154815D01*
X34123494Y-37075463D01*
X34013180Y-37016498D01*
X33893482Y-36980188D01*
X33769000Y-36967928D01*
X33342250Y-36971000D01*
X33183500Y-37129750D01*
X32929500Y-37129750D01*
X32770750Y-36971000D01*
X32344000Y-36967928D01*
X32219518Y-36980188D01*
X32099820Y-37016498D01*
X31989506Y-37075463D01*
X31892815Y-37154815D01*
X31813463Y-37251506D01*
X31754498Y-37361820D01*
X31718188Y-37481518D01*
X31705928Y-37606000D01*
X28706000Y-37606000D01*
X28706000Y-32833000D01*
X33967928Y-32833000D01*
X33980188Y-32957482D01*
X34016498Y-33077180D01*
X34075463Y-33187494D01*
X34154815Y-33284185D01*
X34251506Y-33363537D01*
X34361820Y-33422502D01*
X34481518Y-33458812D01*
X34606000Y-33471072D01*
X35020250Y-33468000D01*
X35179000Y-33309250D01*
X35179000Y-32385000D01*
X34129750Y-32385000D01*
X33971000Y-32543750D01*
X33967928Y-32833000D01*
X28706000Y-32833000D01*
X28705999Y-31623000D01*
X33973837Y-31623000D01*
X33967928Y-31683000D01*
G37*
X33967928Y-31683000D02*
X33971000Y-31972250D01*
X34129750Y-32131000D01*
X35179000Y-32131000D01*
X35179000Y-32111000D01*
X35433000Y-32111000D01*
X35433000Y-32131000D01*
X35453000Y-32131000D01*
X35453000Y-32385000D01*
X35433000Y-32385000D01*
X35433000Y-33309250D01*
X35591750Y-33468000D01*
X36006000Y-33471072D01*
X36130482Y-33458812D01*
X36250180Y-33422502D01*
X36360494Y-33363537D01*
X36457185Y-33284185D01*
X36536537Y-33187494D01*
X36595502Y-33077180D01*
X36631812Y-32957482D01*
X36644072Y-32833000D01*
X36642012Y-32639000D01*
X39825890Y-32639000D01*
X39812129Y-32687363D01*
X39802023Y-32812039D01*
X39805000Y-33115250D01*
X39963750Y-33274000D01*
X40737000Y-33274000D01*
X40737000Y-33528000D01*
X39963750Y-33528000D01*
X39805000Y-33686750D01*
X39802023Y-33989961D01*
X39812129Y-34114637D01*
X39846362Y-34234945D01*
X39903409Y-34346263D01*
X39981077Y-34444312D01*
X40076381Y-34525325D01*
X40185659Y-34586189D01*
X40304711Y-34624564D01*
X40408250Y-34636000D01*
X40545325Y-34498925D01*
X40576381Y-34525325D01*
X40685659Y-34586189D01*
X40739196Y-34603446D01*
X40771750Y-34636000D01*
X40840000Y-34628462D01*
X40908250Y-34636000D01*
X40940804Y-34603446D01*
X40994341Y-34586189D01*
X41089057Y-34533435D01*
X41148000Y-34564941D01*
X41148000Y-34869812D01*
X39319942Y-36576000D01*
X34544000Y-36576000D01*
X34519224Y-36578440D01*
X34495399Y-36585667D01*
X34473443Y-36597403D01*
X34454197Y-36613197D01*
X34438403Y-36632443D01*
X34426667Y-36654399D01*
X34419440Y-36678224D01*
X34417000Y-36703000D01*
X34417000Y-47879000D01*
X34419440Y-47903776D01*
X34426667Y-47927601D01*
X34438403Y-47949557D01*
X34454197Y-47968803D01*
X34473443Y-47984597D01*
X34495399Y-47996333D01*
X34519224Y-48003560D01*
X34544000Y-48006000D01*
X36233967Y-48006000D01*
X36218188Y-48058018D01*
X36205928Y-48182500D01*
X36209000Y-48609250D01*
X36367750Y-48768000D01*
X37592000Y-48768000D01*
X37592000Y-48748000D01*
X37846000Y-48748000D01*
X37846000Y-48768000D01*
X37866000Y-48768000D01*
X37866000Y-49022000D01*
X37846000Y-49022000D01*
X37846000Y-49042000D01*
X37592000Y-49042000D01*
X37592000Y-49022000D01*
X36367750Y-49022000D01*
X36209000Y-49180750D01*
X36207400Y-49403000D01*
X29845000Y-49403000D01*
X29820224Y-49405440D01*
X29796399Y-49412667D01*
X29774443Y-49424403D01*
X29755197Y-49440197D01*
X29739403Y-49459443D01*
X29727667Y-49481399D01*
X29720440Y-49505224D01*
X29718000Y-49530000D01*
X29718000Y-61214000D01*
X29720440Y-61238776D01*
X29727667Y-61262601D01*
X29739403Y-61284557D01*
X29755197Y-61303803D01*
X29774443Y-61319597D01*
X29796399Y-61331333D01*
X29820224Y-61338560D01*
X29845000Y-61341000D01*
X40513000Y-61341000D01*
X40537776Y-61338560D01*
X40561601Y-61331333D01*
X40583557Y-61319597D01*
X40602803Y-61303803D01*
X40618597Y-61284557D01*
X40630333Y-61262601D01*
X40637560Y-61238776D01*
X40640000Y-61214000D01*
X40640000Y-60693600D01*
X40862250Y-60692000D01*
X41021000Y-60533250D01*
X41021000Y-59309000D01*
X41001000Y-59309000D01*
X41001000Y-59182000D01*
X41295000Y-59182000D01*
X41295000Y-59309000D01*
X41275000Y-59309000D01*
X41275000Y-60533250D01*
X41433750Y-60692000D01*
X41860500Y-60695072D01*
X41984982Y-60682812D01*
X42104680Y-60646502D01*
X42214994Y-60587537D01*
X42311685Y-60508185D01*
X42391037Y-60411494D01*
X42450002Y-60301180D01*
X42486312Y-60181482D01*
X42498572Y-60057000D01*
X42495500Y-59467750D01*
X42336752Y-59309002D01*
X42495500Y-59309002D01*
X42495500Y-59182000D01*
X46228000Y-59182000D01*
X46252776Y-59179560D01*
X46276601Y-59172333D01*
X46298557Y-59160597D01*
X46317803Y-59144803D01*
X46333597Y-59125557D01*
X46345333Y-59103601D01*
X46352560Y-59079776D01*
X46355000Y-59055000D01*
X46355000Y-57365033D01*
X46407018Y-57380812D01*
X46531500Y-57393072D01*
X46958250Y-57390000D01*
X47117000Y-57231250D01*
X47117000Y-56007000D01*
X47371000Y-56007000D01*
X47371000Y-57231250D01*
X47529750Y-57390000D01*
X47956500Y-57393072D01*
X48080982Y-57380812D01*
X48200680Y-57344502D01*
X48310994Y-57285537D01*
X48407685Y-57206185D01*
X48487037Y-57109494D01*
X48546002Y-56999180D01*
X48582312Y-56879482D01*
X48594572Y-56755000D01*
X48591500Y-56165750D01*
X48432750Y-56007000D01*
X47371000Y-56007000D01*
X47117000Y-56007000D01*
X47097000Y-56007000D01*
X47097000Y-55753000D01*
X47117000Y-55753000D01*
X47117000Y-55733000D01*
X47371000Y-55733000D01*
X47371000Y-55753000D01*
X48432750Y-55753000D01*
X48591500Y-55594250D01*
X48593983Y-55118000D01*
X50294000Y-55118000D01*
X50294000Y-57597198D01*
X43627199Y-64264000D01*
X37914711Y-64264000D01*
X37870774Y-64220063D01*
X37701256Y-64106795D01*
X37512898Y-64028774D01*
X37312939Y-63989000D01*
X37109061Y-63989000D01*
X36909102Y-64028774D01*
X36720744Y-64106795D01*
X36551226Y-64220063D01*
X36407063Y-64364226D01*
X36293795Y-64533744D01*
X36215774Y-64722102D01*
X36176000Y-64922061D01*
X36176000Y-65125939D01*
X36215774Y-65325898D01*
X36293795Y-65514256D01*
X36407063Y-65683774D01*
X36551226Y-65827937D01*
X36720744Y-65941205D01*
X36909102Y-66019226D01*
X37109061Y-66059000D01*
X37312939Y-66059000D01*
X37512898Y-66019226D01*
X37701256Y-65941205D01*
X37870774Y-65827937D01*
X37914711Y-65784000D01*
X43904678Y-65784000D01*
X43942000Y-65787676D01*
X43979322Y-65784000D01*
X43979333Y-65784000D01*
X44090986Y-65773003D01*
X44234247Y-65729546D01*
X44366276Y-65658974D01*
X44482001Y-65564001D01*
X44505804Y-65534997D01*
X51565004Y-58475798D01*
X51594001Y-58452001D01*
X51688974Y-58336276D01*
X51759546Y-58204247D01*
X51803003Y-58060986D01*
X51814000Y-57949333D01*
X51814000Y-57949323D01*
X51817676Y-57912000D01*
X51814000Y-57874677D01*
X51814000Y-45268802D01*
X52776205Y-46231008D01*
X52799999Y-46260001D01*
X52828992Y-46283795D01*
X52828996Y-46283799D01*
X52894740Y-46337753D01*
X52915724Y-46354974D01*
X53047753Y-46425546D01*
X53191014Y-46469003D01*
X53302667Y-46480000D01*
X53302676Y-46480000D01*
X53339999Y-46483676D01*
X53377322Y-46480000D01*
X54041199Y-46480000D01*
X55207127Y-47645928D01*
X53937000Y-47645928D01*
X53763746Y-47662992D01*
X53597150Y-47713528D01*
X53443614Y-47795595D01*
X53309038Y-47906038D01*
X53198595Y-48040614D01*
X53116528Y-48194150D01*
X53065992Y-48360746D01*
X53048928Y-48534000D01*
X53048928Y-51034000D01*
X53065992Y-51207254D01*
X53116528Y-51373850D01*
X53198595Y-51527386D01*
X53309038Y-51661962D01*
X53443614Y-51772405D01*
X53597150Y-51854472D01*
X53763746Y-51905008D01*
X53937000Y-51922072D01*
X55537000Y-51922072D01*
X55710254Y-51905008D01*
X55876850Y-51854472D01*
X56030386Y-51772405D01*
X56164962Y-51661962D01*
X56275405Y-51527386D01*
X56357472Y-51373850D01*
X56408008Y-51207254D01*
X56425072Y-51034000D01*
X56425072Y-48863874D01*
X56840201Y-49279003D01*
X56863999Y-49308001D01*
X56892997Y-49331799D01*
X56979723Y-49402974D01*
X57111753Y-49473546D01*
X57255014Y-49517003D01*
X57366667Y-49528000D01*
X57366677Y-49528000D01*
X57404000Y-49531676D01*
X57441323Y-49528000D01*
X60033678Y-49528000D01*
X60071000Y-49531676D01*
X60108322Y-49528000D01*
X60108333Y-49528000D01*
X60219986Y-49517003D01*
X60363247Y-49473546D01*
X60495276Y-49402974D01*
X60611001Y-49308001D01*
X60634804Y-49278998D01*
X61548004Y-48365798D01*
X61577001Y-48342001D01*
X61671974Y-48226276D01*
X61679627Y-48211958D01*
X61766284Y-48258278D01*
X61923500Y-48305969D01*
X62087000Y-48322072D01*
X62487000Y-48322072D01*
X62650500Y-48305969D01*
X62807716Y-48258278D01*
X62836027Y-48243145D01*
X62892820Y-48273502D01*
X63012518Y-48309812D01*
X63137000Y-48322072D01*
X63251250Y-48319000D01*
X63410000Y-48160250D01*
X63410000Y-47011000D01*
X63390000Y-47011000D01*
X63390000Y-46757000D01*
X63410000Y-46757000D01*
X63410000Y-45607750D01*
X63251250Y-45449000D01*
X63137000Y-45445928D01*
X63047000Y-45454792D01*
X63047000Y-45249323D01*
X63050676Y-45211998D01*
X63047000Y-45174673D01*
X63047000Y-45174665D01*
X63036003Y-45063012D01*
X62992546Y-44919751D01*
X62921974Y-44787722D01*
X62827001Y-44671997D01*
X62798004Y-44648200D01*
X60183806Y-42034003D01*
X60160003Y-42004999D01*
X60044278Y-41910026D01*
X59912249Y-41839454D01*
X59768988Y-41795997D01*
X59657335Y-41785000D01*
X59657324Y-41785000D01*
X59620002Y-41781324D01*
X59582680Y-41785000D01*
X59504711Y-41785000D01*
X59460774Y-41741063D01*
X59291256Y-41627795D01*
X59102898Y-41549774D01*
X58902939Y-41510000D01*
X58699061Y-41510000D01*
X58499102Y-41549774D01*
X58479225Y-41558007D01*
X58442556Y-41437123D01*
X58390642Y-41340000D01*
X62314428Y-41340000D01*
X62326688Y-41464482D01*
X62362998Y-41584180D01*
X62421963Y-41694494D01*
X62501315Y-41791185D01*
X62598006Y-41870537D01*
X62708320Y-41929502D01*
X62828018Y-41965812D01*
X62952500Y-41978072D01*
X63241750Y-41975000D01*
X63400500Y-41816250D01*
X63400500Y-40767000D01*
X62476250Y-40767000D01*
X62317500Y-40925750D01*
X62314428Y-41340000D01*
X58390642Y-41340000D01*
X58371984Y-41305094D01*
X58277011Y-41189369D01*
X58248014Y-41165572D01*
X57022442Y-39940000D01*
X62314428Y-39940000D01*
X62317500Y-40354250D01*
X62476250Y-40513000D01*
X63400500Y-40513000D01*
X63400500Y-39463750D01*
X63241750Y-39305000D01*
X62952500Y-39301928D01*
X62828018Y-39314188D01*
X62708320Y-39350498D01*
X62598006Y-39409463D01*
X62501315Y-39488815D01*
X62421963Y-39585506D01*
X62362998Y-39695820D01*
X62326688Y-39815518D01*
X62314428Y-39940000D01*
X57022442Y-39940000D01*
X53581739Y-36499298D01*
X53738744Y-36604205D01*
X53927102Y-36682226D01*
X54127061Y-36722000D01*
X54330939Y-36722000D01*
X54530898Y-36682226D01*
X54719256Y-36604205D01*
X54729428Y-36597408D01*
X54729428Y-37074000D01*
X54746492Y-37247254D01*
X54797028Y-37413850D01*
X54879095Y-37567386D01*
X54989538Y-37701962D01*
X55124114Y-37812405D01*
X55277650Y-37894472D01*
X55444246Y-37945008D01*
X55617500Y-37962072D01*
X56542500Y-37962072D01*
X56715754Y-37945008D01*
X56882350Y-37894472D01*
X57035886Y-37812405D01*
X57170462Y-37701962D01*
X57280905Y-37567386D01*
X57362972Y-37413850D01*
X57413508Y-37247254D01*
X57430572Y-37074000D01*
X57430572Y-36280373D01*
X57704428Y-36554230D01*
X57704428Y-37074000D01*
X57721492Y-37247254D01*
X57772028Y-37413850D01*
X57854095Y-37567386D01*
X57964538Y-37701962D01*
X58099114Y-37812405D01*
X58252650Y-37894472D01*
X58419246Y-37945008D01*
X58592500Y-37962072D01*
X59517500Y-37962072D01*
X59548690Y-37959000D01*
X61677928Y-37959000D01*
X61690188Y-38083482D01*
X61726498Y-38203180D01*
X61785463Y-38313494D01*
X61864815Y-38410185D01*
X61961506Y-38489537D01*
X62071820Y-38548502D01*
X62191518Y-38584812D01*
X62316000Y-38597072D01*
X62742750Y-38594000D01*
X62901500Y-38435250D01*
X62901500Y-37211000D01*
X61839750Y-37211000D01*
X61681000Y-37369750D01*
X61677928Y-37959000D01*
X59548690Y-37959000D01*
X59690754Y-37945008D01*
X59857350Y-37894472D01*
X60010886Y-37812405D01*
X60145462Y-37701962D01*
X60255905Y-37567386D01*
X60337972Y-37413850D01*
X60388508Y-37247254D01*
X60405572Y-37074000D01*
X60405572Y-36209000D01*
X61677928Y-36209000D01*
X61681000Y-36798250D01*
X61839750Y-36957000D01*
X62901500Y-36957000D01*
X62901500Y-35732750D01*
X62742750Y-35574000D01*
X62316000Y-35570928D01*
X62191518Y-35583188D01*
X62071820Y-35619498D01*
X61961506Y-35678463D01*
X61864815Y-35757815D01*
X61785463Y-35854506D01*
X61726498Y-35964820D01*
X61690188Y-36084518D01*
X61677928Y-36209000D01*
X60405572Y-36209000D01*
X60405572Y-35824000D01*
X60388508Y-35650746D01*
X60337972Y-35484150D01*
X60255905Y-35330614D01*
X60145462Y-35196038D01*
X60010886Y-35085595D01*
X59983724Y-35071077D01*
X61654745Y-33400056D01*
X61653928Y-33477000D01*
X61666188Y-33601482D01*
X61702498Y-33721180D01*
X61761463Y-33831494D01*
X61840815Y-33928185D01*
X61937506Y-34007537D01*
X62047820Y-34066502D01*
X62167518Y-34102812D01*
X62292000Y-34115072D01*
X62706250Y-34112000D01*
X62865000Y-33953250D01*
X62865000Y-33029000D01*
X62845000Y-33029000D01*
X62845000Y-32775000D01*
X62865000Y-32775000D01*
X62865000Y-32755000D01*
X63119000Y-32755000D01*
X63119000Y-32775000D01*
X63139000Y-32775000D01*
X63139000Y-33029000D01*
X63119000Y-33029000D01*
X63119000Y-33953250D01*
X63277750Y-34112000D01*
X63692000Y-34115072D01*
X63816482Y-34102812D01*
X63936180Y-34066502D01*
X64046494Y-34007537D01*
X64143185Y-33928185D01*
X64222537Y-33831494D01*
X64281502Y-33721180D01*
X64301577Y-33655002D01*
X64434748Y-33655002D01*
X64276000Y-33813750D01*
X64272928Y-34240500D01*
X64285188Y-34364982D01*
X64321498Y-34484680D01*
X64380463Y-34594994D01*
X64459815Y-34691685D01*
X64556506Y-34771037D01*
X64666820Y-34830002D01*
X64786518Y-34866312D01*
X64911000Y-34878572D01*
X65500250Y-34875500D01*
X65659000Y-34716750D01*
X65659000Y-33655000D01*
X65913000Y-33655000D01*
X65913000Y-34716750D01*
X66071750Y-34875500D01*
X66661000Y-34878572D01*
X66785482Y-34866312D01*
X66905180Y-34830002D01*
X67015494Y-34771037D01*
X67112185Y-34691685D01*
X67191537Y-34594994D01*
X67250502Y-34484680D01*
X67286812Y-34364982D01*
X67299072Y-34240500D01*
X67296000Y-33813750D01*
X67137250Y-33655000D01*
X65913000Y-33655000D01*
X65659000Y-33655000D01*
X65639000Y-33655000D01*
X65639000Y-33401000D01*
X65659000Y-33401000D01*
X65659000Y-32339250D01*
X65913000Y-32339250D01*
X65913000Y-33401000D01*
X67137250Y-33401000D01*
X67296000Y-33242250D01*
X67299072Y-32815500D01*
X67286812Y-32691018D01*
X67250502Y-32571320D01*
X67191537Y-32461006D01*
X67112185Y-32364315D01*
X67015494Y-32284963D01*
X66905180Y-32225998D01*
X66785482Y-32189688D01*
X66661000Y-32177428D01*
X66071750Y-32180500D01*
X65913000Y-32339250D01*
X65659000Y-32339250D01*
X65500250Y-32180500D01*
X65234686Y-32179116D01*
X65510229Y-31903572D01*
X66411000Y-31903572D01*
X66584254Y-31886508D01*
X66615598Y-31877000D01*
X68676000Y-31877000D01*
X68676000Y-34925000D01*
X64008000Y-34925000D01*
X63983224Y-34927440D01*
X63959399Y-34934667D01*
X63937443Y-34946403D01*
X63918197Y-34962197D01*
X63902403Y-34981443D01*
X63890667Y-35003399D01*
X63883440Y-35027224D01*
X63881000Y-35052000D01*
X63881000Y-35587895D01*
X63865482Y-35583188D01*
X63741000Y-35570928D01*
X63314250Y-35574000D01*
X63155500Y-35732750D01*
X63155500Y-36957000D01*
X63175500Y-36957000D01*
X63175500Y-37211000D01*
X63155500Y-37211000D01*
X63155500Y-38435250D01*
X63314250Y-38594000D01*
X63741000Y-38597072D01*
X63865482Y-38584812D01*
X63881000Y-38580105D01*
X63881000Y-39304280D01*
X63813250Y-39305000D01*
X63654500Y-39463750D01*
X63654500Y-40513000D01*
X63674500Y-40513000D01*
X63674500Y-40767000D01*
X63654500Y-40767000D01*
X63654500Y-41816250D01*
X63813250Y-41975000D01*
X63881000Y-41975720D01*
X63881000Y-45447434D01*
X63822750Y-45449000D01*
X63664000Y-45607750D01*
X63664000Y-46757000D01*
X63684000Y-46757000D01*
X63684000Y-47011000D01*
X63664000Y-47011000D01*
X63664000Y-48160250D01*
X63822750Y-48319000D01*
X63937000Y-48322072D01*
X64061482Y-48309812D01*
X64181180Y-48273502D01*
X64206440Y-48260000D01*
X64271961Y-48260000D01*
X64423500Y-48305969D01*
X64587000Y-48322072D01*
X64987000Y-48322072D01*
X65150500Y-48305969D01*
X65302039Y-48260000D01*
X65696553Y-48260000D01*
X65665992Y-48360746D01*
X65648928Y-48534000D01*
X65648928Y-51034000D01*
X65665992Y-51207254D01*
X65716528Y-51373850D01*
X65798595Y-51527386D01*
X65909038Y-51661962D01*
X66043614Y-51772405D01*
X66197150Y-51854472D01*
X66363746Y-51905008D01*
X66537000Y-51922072D01*
X68137000Y-51922072D01*
X68310254Y-51905008D01*
X68476850Y-51854472D01*
X68630386Y-51772405D01*
X68676000Y-51734971D01*
X68675999Y-67103879D01*
X68560601Y-66931174D01*
X68144826Y-66515399D01*
X67655928Y-66188727D01*
X67112692Y-65963712D01*
X66535997Y-65849000D01*
X65948003Y-65849000D01*
X65371308Y-65963712D01*
X64828072Y-66188727D01*
X64339174Y-66515399D01*
X63923399Y-66931174D01*
X63596727Y-67420072D01*
X63371712Y-67963308D01*
X63257000Y-68540003D01*
X63257000Y-69127997D01*
X63371712Y-69704692D01*
X63596727Y-70247928D01*
X63923399Y-70736826D01*
X64339174Y-71152601D01*
X64701950Y-71395001D01*
X32782053Y-71394999D01*
X33144826Y-71152601D01*
X33560601Y-70736826D01*
X33887273Y-70247928D01*
X34112288Y-69704692D01*
X34227000Y-69127997D01*
X34227000Y-68540003D01*
X34112288Y-67963308D01*
X33887273Y-67420072D01*
X33560601Y-66931174D01*
X33144826Y-66515399D01*
X32655928Y-66188727D01*
X32112692Y-65963712D01*
X31535997Y-65849000D01*
X30948003Y-65849000D01*
X30371308Y-65963712D01*
X29828072Y-66188727D01*
X29339174Y-66515399D01*
X28923399Y-66931174D01*
X28706001Y-67256532D01*
X28706000Y-44182000D01*
X31705928Y-44182000D01*
X31718188Y-44306482D01*
X31754498Y-44426180D01*
X31813463Y-44536494D01*
X31892815Y-44633185D01*
X31989506Y-44712537D01*
X32099820Y-44771502D01*
X32219518Y-44807812D01*
X32344000Y-44820072D01*
X32770750Y-44817000D01*
X32929500Y-44658250D01*
X32929500Y-43434000D01*
X33183500Y-43434000D01*
X33183500Y-44658250D01*
X33342250Y-44817000D01*
X33769000Y-44820072D01*
X33893482Y-44807812D01*
X34013180Y-44771502D01*
X34123494Y-44712537D01*
X34220185Y-44633185D01*
X34299537Y-44536494D01*
X34358502Y-44426180D01*
X34394812Y-44306482D01*
X34407072Y-44182000D01*
X34404000Y-43592750D01*
X34245250Y-43434000D01*
X33183500Y-43434000D01*
X32929500Y-43434000D01*
X31867750Y-43434000D01*
X31709000Y-43592750D01*
X31705928Y-44182000D01*
X28706000Y-44182000D01*
X28706000Y-42432000D01*
X31705928Y-42432000D01*
X31709000Y-43021250D01*
X31867750Y-43180000D01*
X32929500Y-43180000D01*
X32929500Y-41955750D01*
X33183500Y-41955750D01*
X33183500Y-43180000D01*
X34245250Y-43180000D01*
X34404000Y-43021250D01*
X34407072Y-42432000D01*
X34394812Y-42307518D01*
X34358502Y-42187820D01*
X34299537Y-42077506D01*
X34220185Y-41980815D01*
X34123494Y-41901463D01*
X34013180Y-41842498D01*
X33893482Y-41806188D01*
X33769000Y-41793928D01*
X33342250Y-41797000D01*
X33183500Y-41955750D01*
X32929500Y-41955750D01*
X32770750Y-41797000D01*
X32344000Y-41793928D01*
X32219518Y-41806188D01*
X32099820Y-41842498D01*
X31989506Y-41901463D01*
X31892815Y-41980815D01*
X31813463Y-42077506D01*
X31754498Y-42187820D01*
X31718188Y-42307518D01*
X31705928Y-42432000D01*
X28706000Y-42432000D01*
X28706000Y-39356000D01*
X31705928Y-39356000D01*
X31718188Y-39480482D01*
X31754498Y-39600180D01*
X31813463Y-39710494D01*
X31892815Y-39807185D01*
X31989506Y-39886537D01*
X32099820Y-39945502D01*
X32219518Y-39981812D01*
X32344000Y-39994072D01*
X32770750Y-39991000D01*
X32929500Y-39832250D01*
X32929500Y-38608000D01*
X33183500Y-38608000D01*
X33183500Y-39832250D01*
X33342250Y-39991000D01*
X33769000Y-39994072D01*
X33893482Y-39981812D01*
X34013180Y-39945502D01*
X34123494Y-39886537D01*
X34220185Y-39807185D01*
X34299537Y-39710494D01*
X34358502Y-39600180D01*
X34394812Y-39480482D01*
X34407072Y-39356000D01*
X34404000Y-38766750D01*
X34245250Y-38608000D01*
X33183500Y-38608000D01*
X32929500Y-38608000D01*
X31867750Y-38608000D01*
X31709000Y-38766750D01*
X31705928Y-39356000D01*
X28706000Y-39356000D01*
X28706000Y-37606000D01*
X31705928Y-37606000D01*
X31709000Y-38195250D01*
X31867750Y-38354000D01*
X32929500Y-38354000D01*
X32929500Y-37129750D01*
X33183500Y-37129750D01*
X33183500Y-38354000D01*
X34245250Y-38354000D01*
X34404000Y-38195250D01*
X34407072Y-37606000D01*
X34394812Y-37481518D01*
X34358502Y-37361820D01*
X34299537Y-37251506D01*
X34220185Y-37154815D01*
X34123494Y-37075463D01*
X34013180Y-37016498D01*
X33893482Y-36980188D01*
X33769000Y-36967928D01*
X33342250Y-36971000D01*
X33183500Y-37129750D01*
X32929500Y-37129750D01*
X32770750Y-36971000D01*
X32344000Y-36967928D01*
X32219518Y-36980188D01*
X32099820Y-37016498D01*
X31989506Y-37075463D01*
X31892815Y-37154815D01*
X31813463Y-37251506D01*
X31754498Y-37361820D01*
X31718188Y-37481518D01*
X31705928Y-37606000D01*
X28706000Y-37606000D01*
X28706000Y-32833000D01*
X33967928Y-32833000D01*
X33980188Y-32957482D01*
X34016498Y-33077180D01*
X34075463Y-33187494D01*
X34154815Y-33284185D01*
X34251506Y-33363537D01*
X34361820Y-33422502D01*
X34481518Y-33458812D01*
X34606000Y-33471072D01*
X35020250Y-33468000D01*
X35179000Y-33309250D01*
X35179000Y-32385000D01*
X34129750Y-32385000D01*
X33971000Y-32543750D01*
X33967928Y-32833000D01*
X28706000Y-32833000D01*
X28705999Y-31623000D01*
X33973837Y-31623000D01*
X33967928Y-31683000D01*
G36*
X46366198Y-38102000D02*
G01*
X45303322Y-38102000D01*
X45266000Y-38098324D01*
X45228677Y-38102000D01*
X45228667Y-38102000D01*
X45117014Y-38112997D01*
X44993302Y-38150524D01*
X44973753Y-38156454D01*
X44841723Y-38227026D01*
X44772966Y-38283454D01*
X44725999Y-38321999D01*
X44702201Y-38350997D01*
X44371204Y-38681994D01*
X44324462Y-38625038D01*
X44189886Y-38514595D01*
X44036350Y-38432528D01*
X43869754Y-38381992D01*
X43696500Y-38364928D01*
X42771500Y-38364928D01*
X42598246Y-38381992D01*
X42431650Y-38432528D01*
X42278114Y-38514595D01*
X42143538Y-38625038D01*
X42033095Y-38759614D01*
X41951028Y-38913150D01*
X41900492Y-39079746D01*
X41883428Y-39253000D01*
X41883428Y-40503000D01*
X41900492Y-40676254D01*
X41951028Y-40842850D01*
X42033095Y-40996386D01*
X42143538Y-41130962D01*
X42182549Y-41162977D01*
X42180038Y-41165038D01*
X42069595Y-41299614D01*
X41987528Y-41453150D01*
X41936992Y-41619746D01*
X41919928Y-41793000D01*
X41919928Y-43043000D01*
X41936992Y-43216254D01*
X41987528Y-43382850D01*
X42069595Y-43536386D01*
X42180038Y-43670962D01*
X42314614Y-43781405D01*
X42468150Y-43863472D01*
X42634746Y-43914008D01*
X42808000Y-43931072D01*
X43733000Y-43931072D01*
X43906254Y-43914008D01*
X44072850Y-43863472D01*
X44168928Y-43812117D01*
X44168928Y-44155000D01*
X44185992Y-44328254D01*
X44236528Y-44494850D01*
X44318595Y-44648386D01*
X44429038Y-44782962D01*
X44563614Y-44893405D01*
X44684462Y-44958000D01*
X42180349Y-44958000D01*
X42192205Y-44940256D01*
X42270226Y-44751898D01*
X42310000Y-44551939D01*
X42310000Y-44348061D01*
X42270226Y-44148102D01*
X42192205Y-43959744D01*
X42078937Y-43790226D01*
X41934774Y-43646063D01*
X41765256Y-43532795D01*
X41576898Y-43454774D01*
X41543571Y-43448145D01*
X41578472Y-43382850D01*
X41629008Y-43216254D01*
X41646072Y-43043000D01*
X41646072Y-41793000D01*
X41629008Y-41619746D01*
X41578472Y-41453150D01*
X41496405Y-41299614D01*
X41419939Y-41206439D01*
X41422685Y-41204185D01*
X41502037Y-41107494D01*
X41561002Y-40997180D01*
X41597312Y-40877482D01*
X41609572Y-40753000D01*
X41606500Y-40163750D01*
X41447750Y-40005000D01*
X40386000Y-40005000D01*
X40386000Y-40025000D01*
X40132000Y-40025000D01*
X40132000Y-39731000D01*
X40386000Y-39731000D01*
X40386000Y-39751000D01*
X41447750Y-39751000D01*
X41606500Y-39592250D01*
X41609572Y-39003000D01*
X41597312Y-38878518D01*
X41561002Y-38758820D01*
X41502037Y-38648506D01*
X41422685Y-38551815D01*
X41325994Y-38472463D01*
X41215680Y-38413498D01*
X41095982Y-38377188D01*
X40971500Y-38364928D01*
X40551337Y-38367953D01*
X40730859Y-38188431D01*
X40876256Y-38128205D01*
X41045774Y-38014937D01*
X41189937Y-37870774D01*
X41303205Y-37701256D01*
X41363431Y-37555858D01*
X43243658Y-35675631D01*
X43279343Y-35646345D01*
X43396185Y-35503973D01*
X43462108Y-35380639D01*
X43483006Y-35341542D01*
X43511572Y-35247373D01*
X46366198Y-38102000D01*
G37*
X46366198Y-38102000D02*
X45303322Y-38102000D01*
X45266000Y-38098324D01*
X45228677Y-38102000D01*
X45228667Y-38102000D01*
X45117014Y-38112997D01*
X44993302Y-38150524D01*
X44973753Y-38156454D01*
X44841723Y-38227026D01*
X44772966Y-38283454D01*
X44725999Y-38321999D01*
X44702201Y-38350997D01*
X44371204Y-38681994D01*
X44324462Y-38625038D01*
X44189886Y-38514595D01*
X44036350Y-38432528D01*
X43869754Y-38381992D01*
X43696500Y-38364928D01*
X42771500Y-38364928D01*
X42598246Y-38381992D01*
X42431650Y-38432528D01*
X42278114Y-38514595D01*
X42143538Y-38625038D01*
X42033095Y-38759614D01*
X41951028Y-38913150D01*
X41900492Y-39079746D01*
X41883428Y-39253000D01*
X41883428Y-40503000D01*
X41900492Y-40676254D01*
X41951028Y-40842850D01*
X42033095Y-40996386D01*
X42143538Y-41130962D01*
X42182549Y-41162977D01*
X42180038Y-41165038D01*
X42069595Y-41299614D01*
X41987528Y-41453150D01*
X41936992Y-41619746D01*
X41919928Y-41793000D01*
X41919928Y-43043000D01*
X41936992Y-43216254D01*
X41987528Y-43382850D01*
X42069595Y-43536386D01*
X42180038Y-43670962D01*
X42314614Y-43781405D01*
X42468150Y-43863472D01*
X42634746Y-43914008D01*
X42808000Y-43931072D01*
X43733000Y-43931072D01*
X43906254Y-43914008D01*
X44072850Y-43863472D01*
X44168928Y-43812117D01*
X44168928Y-44155000D01*
X44185992Y-44328254D01*
X44236528Y-44494850D01*
X44318595Y-44648386D01*
X44429038Y-44782962D01*
X44563614Y-44893405D01*
X44684462Y-44958000D01*
X42180349Y-44958000D01*
X42192205Y-44940256D01*
X42270226Y-44751898D01*
X42310000Y-44551939D01*
X42310000Y-44348061D01*
X42270226Y-44148102D01*
X42192205Y-43959744D01*
X42078937Y-43790226D01*
X41934774Y-43646063D01*
X41765256Y-43532795D01*
X41576898Y-43454774D01*
X41543571Y-43448145D01*
X41578472Y-43382850D01*
X41629008Y-43216254D01*
X41646072Y-43043000D01*
X41646072Y-41793000D01*
X41629008Y-41619746D01*
X41578472Y-41453150D01*
X41496405Y-41299614D01*
X41419939Y-41206439D01*
X41422685Y-41204185D01*
X41502037Y-41107494D01*
X41561002Y-40997180D01*
X41597312Y-40877482D01*
X41609572Y-40753000D01*
X41606500Y-40163750D01*
X41447750Y-40005000D01*
X40386000Y-40005000D01*
X40386000Y-40025000D01*
X40132000Y-40025000D01*
X40132000Y-39731000D01*
X40386000Y-39731000D01*
X40386000Y-39751000D01*
X41447750Y-39751000D01*
X41606500Y-39592250D01*
X41609572Y-39003000D01*
X41597312Y-38878518D01*
X41561002Y-38758820D01*
X41502037Y-38648506D01*
X41422685Y-38551815D01*
X41325994Y-38472463D01*
X41215680Y-38413498D01*
X41095982Y-38377188D01*
X40971500Y-38364928D01*
X40551337Y-38367953D01*
X40730859Y-38188431D01*
X40876256Y-38128205D01*
X41045774Y-38014937D01*
X41189937Y-37870774D01*
X41303205Y-37701256D01*
X41363431Y-37555858D01*
X43243658Y-35675631D01*
X43279343Y-35646345D01*
X43396185Y-35503973D01*
X43462108Y-35380639D01*
X43483006Y-35341542D01*
X43511572Y-35247373D01*
X46366198Y-38102000D01*
G36*
X49532000Y-35267802D02*
G01*
X49532001Y-36538668D01*
X49528324Y-36576000D01*
X49532001Y-36613333D01*
X49539944Y-36693980D01*
X48380602Y-36693980D01*
X46611621Y-34925000D01*
X49189199Y-34925000D01*
X49532000Y-35267802D01*
G37*
X49532000Y-35267802D02*
X49532001Y-36538668D01*
X49528324Y-36576000D01*
X49532001Y-36613333D01*
X49539944Y-36693980D01*
X48380602Y-36693980D01*
X46611621Y-34925000D01*
X49189199Y-34925000D01*
X49532000Y-35267802D01*
G36*
X53330001Y-35169497D02*
G01*
X53311795Y-35196744D01*
X53233774Y-35385102D01*
X53194000Y-35585061D01*
X53194000Y-35788939D01*
X53223427Y-35936878D01*
X53225998Y-35962985D01*
X53233613Y-35988091D01*
X53233774Y-35988898D01*
X53234089Y-35989658D01*
X53269454Y-36106246D01*
X53340026Y-36238276D01*
X53407516Y-36320512D01*
X53416702Y-36334261D01*
X53125403Y-36042962D01*
X53101606Y-36013965D01*
X53050808Y-35972276D01*
X52985880Y-35918990D01*
X52853850Y-35848418D01*
X52775776Y-35824735D01*
X52710592Y-35804962D01*
X52598939Y-35793965D01*
X52598937Y-35793965D01*
X52561604Y-35790288D01*
X52524275Y-35793965D01*
X51502010Y-35793960D01*
X51502010Y-34925000D01*
X53330001Y-34925000D01*
X53330001Y-35169497D01*
G37*
X53330001Y-35169497D02*
X53311795Y-35196744D01*
X53233774Y-35385102D01*
X53194000Y-35585061D01*
X53194000Y-35788939D01*
X53223427Y-35936878D01*
X53225998Y-35962985D01*
X53233613Y-35988091D01*
X53233774Y-35988898D01*
X53234089Y-35989658D01*
X53269454Y-36106246D01*
X53340026Y-36238276D01*
X53407516Y-36320512D01*
X53416702Y-36334261D01*
X53125403Y-36042962D01*
X53101606Y-36013965D01*
X53050808Y-35972276D01*
X52985880Y-35918990D01*
X52853850Y-35848418D01*
X52775776Y-35824735D01*
X52710592Y-35804962D01*
X52598939Y-35793965D01*
X52598937Y-35793965D01*
X52561604Y-35790288D01*
X52524275Y-35793965D01*
X51502010Y-35793960D01*
X51502010Y-34925000D01*
X53330001Y-34925000D01*
X53330001Y-35169497D01*
G36*
X58365518Y-32526812D02*
G01*
X58490000Y-32539072D01*
X60366126Y-32539072D01*
X58867199Y-34038000D01*
X58374083Y-34038000D01*
X58377977Y-33989961D01*
X58375000Y-33686750D01*
X58216250Y-33528000D01*
X57443000Y-33528000D01*
X57443000Y-33274000D01*
X58216250Y-33274000D01*
X58375000Y-33115250D01*
X58377977Y-32812039D01*
X58367871Y-32687363D01*
X58333638Y-32567055D01*
X58305423Y-32512000D01*
X58316688Y-32512000D01*
X58365518Y-32526812D01*
G37*
X58365518Y-32526812D02*
X58490000Y-32539072D01*
X60366126Y-32539072D01*
X58867199Y-34038000D01*
X58374083Y-34038000D01*
X58377977Y-33989961D01*
X58375000Y-33686750D01*
X58216250Y-33528000D01*
X57443000Y-33528000D01*
X57443000Y-33274000D01*
X58216250Y-33274000D01*
X58375000Y-33115250D01*
X58377977Y-32812039D01*
X58367871Y-32687363D01*
X58333638Y-32567055D01*
X58305423Y-32512000D01*
X58316688Y-32512000D01*
X58365518Y-32526812D01*
G36*
X67881728Y-21896771D02*
G01*
X68065182Y-21952159D01*
X68234392Y-22042130D01*
X68382901Y-22163250D01*
X68505059Y-22310914D01*
X68596207Y-22479487D01*
X68652875Y-22662554D01*
X68676001Y-22882584D01*
X68676001Y-28956000D01*
X64008000Y-28956000D01*
X63983224Y-28958440D01*
X63959399Y-28965667D01*
X63937443Y-28977403D01*
X63918197Y-28993197D01*
X63902403Y-29012443D01*
X63890667Y-29034399D01*
X63883440Y-29058224D01*
X63881000Y-29083000D01*
X63881000Y-29670759D01*
X63816482Y-29651188D01*
X63692000Y-29638928D01*
X63277750Y-29642000D01*
X63119000Y-29800750D01*
X63119000Y-30725000D01*
X63139000Y-30725000D01*
X63139000Y-30979000D01*
X63119000Y-30979000D01*
X63119000Y-30999000D01*
X62865000Y-30999000D01*
X62865000Y-30979000D01*
X62845000Y-30979000D01*
X62845000Y-30725000D01*
X62865000Y-30725000D01*
X62865000Y-29800750D01*
X62706250Y-29642000D01*
X62292000Y-29638928D01*
X62167518Y-29651188D01*
X62103000Y-29670759D01*
X62103000Y-29083000D01*
X62100560Y-29058224D01*
X62093333Y-29034399D01*
X62081597Y-29012443D01*
X62065803Y-28993197D01*
X62046557Y-28977403D01*
X62024601Y-28965667D01*
X62000776Y-28958440D01*
X61976000Y-28956000D01*
X61217436Y-28956000D01*
X61134180Y-28911498D01*
X61014482Y-28875188D01*
X60890000Y-28862928D01*
X58490000Y-28862928D01*
X58365518Y-28875188D01*
X58245820Y-28911498D01*
X58162564Y-28956000D01*
X57658000Y-28956000D01*
X57633224Y-28958440D01*
X57609399Y-28965667D01*
X57587443Y-28977403D01*
X57568197Y-28993197D01*
X57552403Y-29012443D01*
X57540667Y-29034399D01*
X57533440Y-29058224D01*
X57531000Y-29083000D01*
X57531000Y-31623000D01*
X40513000Y-31623000D01*
X40513000Y-29083000D01*
X40510560Y-29058224D01*
X40503333Y-29034399D01*
X40491597Y-29012443D01*
X40475803Y-28993197D01*
X40456557Y-28977403D01*
X40434601Y-28965667D01*
X40410776Y-28958440D01*
X40386000Y-28956000D01*
X40017436Y-28956000D01*
X39934180Y-28911498D01*
X39814482Y-28875188D01*
X39690000Y-28862928D01*
X37290000Y-28862928D01*
X37165518Y-28875188D01*
X37045820Y-28911498D01*
X36962564Y-28956000D01*
X36322000Y-28956000D01*
X36297224Y-28958440D01*
X36273399Y-28965667D01*
X36251443Y-28977403D01*
X36232197Y-28993197D01*
X36216403Y-29012443D01*
X36206832Y-29030349D01*
X36130482Y-29007188D01*
X36006000Y-28994928D01*
X35591750Y-28998000D01*
X35433000Y-29156750D01*
X35433000Y-30081000D01*
X35453000Y-30081000D01*
X35453000Y-30335000D01*
X35433000Y-30335000D01*
X35433000Y-30355000D01*
X35179000Y-30355000D01*
X35179000Y-30335000D01*
X34129750Y-30335000D01*
X33971000Y-30493750D01*
X33968448Y-30734000D01*
X28705999Y-30734000D01*
X28705999Y-29633000D01*
X33967928Y-29633000D01*
X33971000Y-29922250D01*
X34129750Y-30081000D01*
X35179000Y-30081000D01*
X35179000Y-29156750D01*
X35020250Y-28998000D01*
X34606000Y-28994928D01*
X34481518Y-29007188D01*
X34361820Y-29043498D01*
X34251506Y-29102463D01*
X34154815Y-29181815D01*
X34075463Y-29278506D01*
X34016498Y-29388820D01*
X33980188Y-29508518D01*
X33967928Y-29633000D01*
X28705999Y-29633000D01*
X28705998Y-22891317D01*
X28727770Y-22669271D01*
X28783157Y-22485819D01*
X28873128Y-22316608D01*
X28994251Y-22168097D01*
X29141911Y-22045943D01*
X29310488Y-21954793D01*
X29493554Y-21898125D01*
X29713575Y-21875000D01*
X67659694Y-21875000D01*
X67881728Y-21896771D01*
G37*
X67881728Y-21896771D02*
X68065182Y-21952159D01*
X68234392Y-22042130D01*
X68382901Y-22163250D01*
X68505059Y-22310914D01*
X68596207Y-22479487D01*
X68652875Y-22662554D01*
X68676001Y-22882584D01*
X68676001Y-28956000D01*
X64008000Y-28956000D01*
X63983224Y-28958440D01*
X63959399Y-28965667D01*
X63937443Y-28977403D01*
X63918197Y-28993197D01*
X63902403Y-29012443D01*
X63890667Y-29034399D01*
X63883440Y-29058224D01*
X63881000Y-29083000D01*
X63881000Y-29670759D01*
X63816482Y-29651188D01*
X63692000Y-29638928D01*
X63277750Y-29642000D01*
X63119000Y-29800750D01*
X63119000Y-30725000D01*
X63139000Y-30725000D01*
X63139000Y-30979000D01*
X63119000Y-30979000D01*
X63119000Y-30999000D01*
X62865000Y-30999000D01*
X62865000Y-30979000D01*
X62845000Y-30979000D01*
X62845000Y-30725000D01*
X62865000Y-30725000D01*
X62865000Y-29800750D01*
X62706250Y-29642000D01*
X62292000Y-29638928D01*
X62167518Y-29651188D01*
X62103000Y-29670759D01*
X62103000Y-29083000D01*
X62100560Y-29058224D01*
X62093333Y-29034399D01*
X62081597Y-29012443D01*
X62065803Y-28993197D01*
X62046557Y-28977403D01*
X62024601Y-28965667D01*
X62000776Y-28958440D01*
X61976000Y-28956000D01*
X61217436Y-28956000D01*
X61134180Y-28911498D01*
X61014482Y-28875188D01*
X60890000Y-28862928D01*
X58490000Y-28862928D01*
X58365518Y-28875188D01*
X58245820Y-28911498D01*
X58162564Y-28956000D01*
X57658000Y-28956000D01*
X57633224Y-28958440D01*
X57609399Y-28965667D01*
X57587443Y-28977403D01*
X57568197Y-28993197D01*
X57552403Y-29012443D01*
X57540667Y-29034399D01*
X57533440Y-29058224D01*
X57531000Y-29083000D01*
X57531000Y-31623000D01*
X40513000Y-31623000D01*
X40513000Y-29083000D01*
X40510560Y-29058224D01*
X40503333Y-29034399D01*
X40491597Y-29012443D01*
X40475803Y-28993197D01*
X40456557Y-28977403D01*
X40434601Y-28965667D01*
X40410776Y-28958440D01*
X40386000Y-28956000D01*
X40017436Y-28956000D01*
X39934180Y-28911498D01*
X39814482Y-28875188D01*
X39690000Y-28862928D01*
X37290000Y-28862928D01*
X37165518Y-28875188D01*
X37045820Y-28911498D01*
X36962564Y-28956000D01*
X36322000Y-28956000D01*
X36297224Y-28958440D01*
X36273399Y-28965667D01*
X36251443Y-28977403D01*
X36232197Y-28993197D01*
X36216403Y-29012443D01*
X36206832Y-29030349D01*
X36130482Y-29007188D01*
X36006000Y-28994928D01*
X35591750Y-28998000D01*
X35433000Y-29156750D01*
X35433000Y-30081000D01*
X35453000Y-30081000D01*
X35453000Y-30335000D01*
X35433000Y-30335000D01*
X35433000Y-30355000D01*
X35179000Y-30355000D01*
X35179000Y-30335000D01*
X34129750Y-30335000D01*
X33971000Y-30493750D01*
X33968448Y-30734000D01*
X28705999Y-30734000D01*
X28705999Y-29633000D01*
X33967928Y-29633000D01*
X33971000Y-29922250D01*
X34129750Y-30081000D01*
X35179000Y-30081000D01*
X35179000Y-29156750D01*
X35020250Y-28998000D01*
X34606000Y-28994928D01*
X34481518Y-29007188D01*
X34361820Y-29043498D01*
X34251506Y-29102463D01*
X34154815Y-29181815D01*
X34075463Y-29278506D01*
X34016498Y-29388820D01*
X33980188Y-29508518D01*
X33967928Y-29633000D01*
X28705999Y-29633000D01*
X28705998Y-22891317D01*
X28727770Y-22669271D01*
X28783157Y-22485819D01*
X28873128Y-22316608D01*
X28994251Y-22168097D01*
X29141911Y-22045943D01*
X29310488Y-21954793D01*
X29493554Y-21898125D01*
X29713575Y-21875000D01*
X67659694Y-21875000D01*
X67881728Y-21896771D01*
M02*
