(module RCJ-04 (layer F.Cu) (tedit 5DDD8BB2)
  (fp_text reference REF** (at -3.3 4.4) (layer F.SilkS)
    (effects (font (size 1 1) (thickness 0.15)))
  )
  (fp_text value RCJ-04 (at -4.4 -4.2) (layer F.Fab)
    (effects (font (size 1 1) (thickness 0.15)))
  )
  (fp_line (start -1.7 -3.2) (end -1.7 3.2) (layer F.SilkS) (width 0.12))
  (fp_line (start -1.7 -3.2) (end -3.3 -3.2) (layer F.SilkS) (width 0.12))
  (fp_line (start -1.7 3.2) (end -3.3 3.2) (layer F.SilkS) (width 0.12))
  (fp_line (start -3.3 -3.2) (end -3.3 -2.2) (layer F.SilkS) (width 0.12))
  (fp_line (start -3.3 3.2) (end -3.3 2.2) (layer F.SilkS) (width 0.12))
  (fp_line (start -1.4 -3.4) (end -11.1 -3.4) (layer F.CrtYd) (width 0.12))
  (fp_line (start -11.1 -3.4) (end -11.1 3.4) (layer F.CrtYd) (width 0.12))
  (fp_line (start -11.1 3.4) (end -1.4 3.4) (layer F.CrtYd) (width 0.12))
  (fp_line (start -1.4 -3.4) (end -1.4 3.4) (layer F.CrtYd) (width 0.12))
  (pad 1 thru_hole oval (at -8.5 0) (size 4 2) (drill oval 2.5 1) (layers *.Cu *.Mask))
  (pad 2 thru_hole oval (at -4 0) (size 2.5 4) (drill oval 1.3 2.5) (layers *.Cu *.Mask))
)
