G04 #@! TF.GenerationSoftware,KiCad,Pcbnew,(5.1.6)-1*
G04 #@! TF.CreationDate,2021-12-13T11:48:26-07:00*
G04 #@! TF.ProjectId,NIM-PC104,4e494d2d-5043-4313-9034-2e6b69636164,A*
G04 #@! TF.SameCoordinates,Original*
G04 #@! TF.FileFunction,Paste,Top*
G04 #@! TF.FilePolarity,Positive*
%FSLAX46Y46*%
G04 Gerber Fmt 4.6, Leading zero omitted, Abs format (unit mm)*
G04 Created by KiCad (PCBNEW (5.1.6)-1) date 2021-12-13 11:48:26*
%MOMM*%
%LPD*%
G01*
G04 APERTURE LIST*
%ADD10R,2.000000X1.500000*%
%ADD11R,2.000000X3.800000*%
%ADD12R,0.800000X1.000000*%
%ADD13R,1.000000X1.000000*%
%ADD14R,1.050000X2.200000*%
%ADD15R,3.200000X0.400000*%
%ADD16R,0.760000X0.430000*%
%ADD17R,0.430000X0.760000*%
G04 APERTURE END LIST*
D10*
X113588000Y-103110000D03*
X113588000Y-107710000D03*
X113588000Y-105410000D03*
D11*
X119888000Y-105410000D03*
G36*
G01*
X127458500Y-63637000D02*
X127458500Y-64887000D01*
G75*
G02*
X127208500Y-65137000I-250000J0D01*
G01*
X126283500Y-65137000D01*
G75*
G02*
X126033500Y-64887000I0J250000D01*
G01*
X126033500Y-63637000D01*
G75*
G02*
X126283500Y-63387000I250000J0D01*
G01*
X127208500Y-63387000D01*
G75*
G02*
X127458500Y-63637000I0J-250000D01*
G01*
G37*
G36*
G01*
X130433500Y-63637000D02*
X130433500Y-64887000D01*
G75*
G02*
X130183500Y-65137000I-250000J0D01*
G01*
X129258500Y-65137000D01*
G75*
G02*
X129008500Y-64887000I0J250000D01*
G01*
X129008500Y-63637000D01*
G75*
G02*
X129258500Y-63387000I250000J0D01*
G01*
X130183500Y-63387000D01*
G75*
G02*
X130433500Y-63637000I0J-250000D01*
G01*
G37*
G36*
G01*
X120513000Y-68349500D02*
X119263000Y-68349500D01*
G75*
G02*
X119013000Y-68099500I0J250000D01*
G01*
X119013000Y-67174500D01*
G75*
G02*
X119263000Y-66924500I250000J0D01*
G01*
X120513000Y-66924500D01*
G75*
G02*
X120763000Y-67174500I0J-250000D01*
G01*
X120763000Y-68099500D01*
G75*
G02*
X120513000Y-68349500I-250000J0D01*
G01*
G37*
G36*
G01*
X120513000Y-71324500D02*
X119263000Y-71324500D01*
G75*
G02*
X119013000Y-71074500I0J250000D01*
G01*
X119013000Y-70149500D01*
G75*
G02*
X119263000Y-69899500I250000J0D01*
G01*
X120513000Y-69899500D01*
G75*
G02*
X120763000Y-70149500I0J-250000D01*
G01*
X120763000Y-71074500D01*
G75*
G02*
X120513000Y-71324500I-250000J0D01*
G01*
G37*
D12*
X127170000Y-70126000D03*
X128270000Y-70126000D03*
X129370000Y-70126000D03*
X129370000Y-68326000D03*
X128270000Y-68326000D03*
X127170000Y-68326000D03*
G36*
G01*
X166811000Y-98875001D02*
X166811000Y-97974999D01*
G75*
G02*
X167060999Y-97725000I249999J0D01*
G01*
X167711001Y-97725000D01*
G75*
G02*
X167961000Y-97974999I0J-249999D01*
G01*
X167961000Y-98875001D01*
G75*
G02*
X167711001Y-99125000I-249999J0D01*
G01*
X167060999Y-99125000D01*
G75*
G02*
X166811000Y-98875001I0J249999D01*
G01*
G37*
G36*
G01*
X164761000Y-98875001D02*
X164761000Y-97974999D01*
G75*
G02*
X165010999Y-97725000I249999J0D01*
G01*
X165661001Y-97725000D01*
G75*
G02*
X165911000Y-97974999I0J-249999D01*
G01*
X165911000Y-98875001D01*
G75*
G02*
X165661001Y-99125000I-249999J0D01*
G01*
X165010999Y-99125000D01*
G75*
G02*
X164761000Y-98875001I0J249999D01*
G01*
G37*
D13*
X154940000Y-128905000D03*
X154940000Y-125905000D03*
D14*
X156415000Y-127405000D03*
X153465000Y-127405000D03*
G36*
G01*
X138694000Y-74181000D02*
X139944000Y-74181000D01*
G75*
G02*
X140194000Y-74431000I0J-250000D01*
G01*
X140194000Y-75356000D01*
G75*
G02*
X139944000Y-75606000I-250000J0D01*
G01*
X138694000Y-75606000D01*
G75*
G02*
X138444000Y-75356000I0J250000D01*
G01*
X138444000Y-74431000D01*
G75*
G02*
X138694000Y-74181000I250000J0D01*
G01*
G37*
G36*
G01*
X138694000Y-71206000D02*
X139944000Y-71206000D01*
G75*
G02*
X140194000Y-71456000I0J-250000D01*
G01*
X140194000Y-72381000D01*
G75*
G02*
X139944000Y-72631000I-250000J0D01*
G01*
X138694000Y-72631000D01*
G75*
G02*
X138444000Y-72381000I0J250000D01*
G01*
X138444000Y-71456000D01*
G75*
G02*
X138694000Y-71206000I250000J0D01*
G01*
G37*
D15*
X159766000Y-108979000D03*
X159766000Y-110179000D03*
X159766000Y-111379000D03*
G36*
G01*
X162375001Y-98864000D02*
X161474999Y-98864000D01*
G75*
G02*
X161225000Y-98614001I0J249999D01*
G01*
X161225000Y-97963999D01*
G75*
G02*
X161474999Y-97714000I249999J0D01*
G01*
X162375001Y-97714000D01*
G75*
G02*
X162625000Y-97963999I0J-249999D01*
G01*
X162625000Y-98614001D01*
G75*
G02*
X162375001Y-98864000I-249999J0D01*
G01*
G37*
G36*
G01*
X162375001Y-100914000D02*
X161474999Y-100914000D01*
G75*
G02*
X161225000Y-100664001I0J249999D01*
G01*
X161225000Y-100013999D01*
G75*
G02*
X161474999Y-99764000I249999J0D01*
G01*
X162375001Y-99764000D01*
G75*
G02*
X162625000Y-100013999I0J-249999D01*
G01*
X162625000Y-100664001D01*
G75*
G02*
X162375001Y-100914000I-249999J0D01*
G01*
G37*
G36*
G01*
X158683000Y-103320001D02*
X158683000Y-102419999D01*
G75*
G02*
X158932999Y-102170000I249999J0D01*
G01*
X159583001Y-102170000D01*
G75*
G02*
X159833000Y-102419999I0J-249999D01*
G01*
X159833000Y-103320001D01*
G75*
G02*
X159583001Y-103570000I-249999J0D01*
G01*
X158932999Y-103570000D01*
G75*
G02*
X158683000Y-103320001I0J249999D01*
G01*
G37*
G36*
G01*
X156633000Y-103320001D02*
X156633000Y-102419999D01*
G75*
G02*
X156882999Y-102170000I249999J0D01*
G01*
X157533001Y-102170000D01*
G75*
G02*
X157783000Y-102419999I0J-249999D01*
G01*
X157783000Y-103320001D01*
G75*
G02*
X157533001Y-103570000I-249999J0D01*
G01*
X156882999Y-103570000D01*
G75*
G02*
X156633000Y-103320001I0J249999D01*
G01*
G37*
G36*
G01*
X119437999Y-74119000D02*
X120338001Y-74119000D01*
G75*
G02*
X120588000Y-74368999I0J-249999D01*
G01*
X120588000Y-75019001D01*
G75*
G02*
X120338001Y-75269000I-249999J0D01*
G01*
X119437999Y-75269000D01*
G75*
G02*
X119188000Y-75019001I0J249999D01*
G01*
X119188000Y-74368999D01*
G75*
G02*
X119437999Y-74119000I249999J0D01*
G01*
G37*
G36*
G01*
X119437999Y-72069000D02*
X120338001Y-72069000D01*
G75*
G02*
X120588000Y-72318999I0J-249999D01*
G01*
X120588000Y-72969001D01*
G75*
G02*
X120338001Y-73219000I-249999J0D01*
G01*
X119437999Y-73219000D01*
G75*
G02*
X119188000Y-72969001I0J249999D01*
G01*
X119188000Y-72318999D01*
G75*
G02*
X119437999Y-72069000I249999J0D01*
G01*
G37*
G36*
G01*
X118921000Y-100006999D02*
X118921000Y-100907001D01*
G75*
G02*
X118671001Y-101157000I-249999J0D01*
G01*
X118020999Y-101157000D01*
G75*
G02*
X117771000Y-100907001I0J249999D01*
G01*
X117771000Y-100006999D01*
G75*
G02*
X118020999Y-99757000I249999J0D01*
G01*
X118671001Y-99757000D01*
G75*
G02*
X118921000Y-100006999I0J-249999D01*
G01*
G37*
G36*
G01*
X120971000Y-100006999D02*
X120971000Y-100907001D01*
G75*
G02*
X120721001Y-101157000I-249999J0D01*
G01*
X120070999Y-101157000D01*
G75*
G02*
X119821000Y-100907001I0J249999D01*
G01*
X119821000Y-100006999D01*
G75*
G02*
X120070999Y-99757000I249999J0D01*
G01*
X120721001Y-99757000D01*
G75*
G02*
X120971000Y-100006999I0J-249999D01*
G01*
G37*
G36*
G01*
X157295001Y-109800000D02*
X156394999Y-109800000D01*
G75*
G02*
X156145000Y-109550001I0J249999D01*
G01*
X156145000Y-108899999D01*
G75*
G02*
X156394999Y-108650000I249999J0D01*
G01*
X157295001Y-108650000D01*
G75*
G02*
X157545000Y-108899999I0J-249999D01*
G01*
X157545000Y-109550001D01*
G75*
G02*
X157295001Y-109800000I-249999J0D01*
G01*
G37*
G36*
G01*
X157295001Y-111850000D02*
X156394999Y-111850000D01*
G75*
G02*
X156145000Y-111600001I0J249999D01*
G01*
X156145000Y-110949999D01*
G75*
G02*
X156394999Y-110700000I249999J0D01*
G01*
X157295001Y-110700000D01*
G75*
G02*
X157545000Y-110949999I0J-249999D01*
G01*
X157545000Y-111600001D01*
G75*
G02*
X157295001Y-111850000I-249999J0D01*
G01*
G37*
G36*
G01*
X138868999Y-78310000D02*
X139769001Y-78310000D01*
G75*
G02*
X140019000Y-78559999I0J-249999D01*
G01*
X140019000Y-79210001D01*
G75*
G02*
X139769001Y-79460000I-249999J0D01*
G01*
X138868999Y-79460000D01*
G75*
G02*
X138619000Y-79210001I0J249999D01*
G01*
X138619000Y-78559999D01*
G75*
G02*
X138868999Y-78310000I249999J0D01*
G01*
G37*
G36*
G01*
X138868999Y-76260000D02*
X139769001Y-76260000D01*
G75*
G02*
X140019000Y-76509999I0J-249999D01*
G01*
X140019000Y-77160001D01*
G75*
G02*
X139769001Y-77410000I-249999J0D01*
G01*
X138868999Y-77410000D01*
G75*
G02*
X138619000Y-77160001I0J249999D01*
G01*
X138619000Y-76509999D01*
G75*
G02*
X138868999Y-76260000I249999J0D01*
G01*
G37*
G36*
G01*
X125926001Y-68901000D02*
X125025999Y-68901000D01*
G75*
G02*
X124776000Y-68651001I0J249999D01*
G01*
X124776000Y-68000999D01*
G75*
G02*
X125025999Y-67751000I249999J0D01*
G01*
X125926001Y-67751000D01*
G75*
G02*
X126176000Y-68000999I0J-249999D01*
G01*
X126176000Y-68651001D01*
G75*
G02*
X125926001Y-68901000I-249999J0D01*
G01*
G37*
G36*
G01*
X125926001Y-70951000D02*
X125025999Y-70951000D01*
G75*
G02*
X124776000Y-70701001I0J249999D01*
G01*
X124776000Y-70050999D01*
G75*
G02*
X125025999Y-69801000I249999J0D01*
G01*
X125926001Y-69801000D01*
G75*
G02*
X126176000Y-70050999I0J-249999D01*
G01*
X126176000Y-70701001D01*
G75*
G02*
X125926001Y-70951000I-249999J0D01*
G01*
G37*
G36*
G01*
X127820000Y-66097999D02*
X127820000Y-66998001D01*
G75*
G02*
X127570001Y-67248000I-249999J0D01*
G01*
X126919999Y-67248000D01*
G75*
G02*
X126670000Y-66998001I0J249999D01*
G01*
X126670000Y-66097999D01*
G75*
G02*
X126919999Y-65848000I249999J0D01*
G01*
X127570001Y-65848000D01*
G75*
G02*
X127820000Y-66097999I0J-249999D01*
G01*
G37*
G36*
G01*
X129870000Y-66097999D02*
X129870000Y-66998001D01*
G75*
G02*
X129620001Y-67248000I-249999J0D01*
G01*
X128969999Y-67248000D01*
G75*
G02*
X128720000Y-66998001I0J249999D01*
G01*
X128720000Y-66097999D01*
G75*
G02*
X128969999Y-65848000I249999J0D01*
G01*
X129620001Y-65848000D01*
G75*
G02*
X129870000Y-66097999I0J-249999D01*
G01*
G37*
G36*
G01*
X124763000Y-77781999D02*
X124763000Y-78682001D01*
G75*
G02*
X124513001Y-78932000I-249999J0D01*
G01*
X123862999Y-78932000D01*
G75*
G02*
X123613000Y-78682001I0J249999D01*
G01*
X123613000Y-77781999D01*
G75*
G02*
X123862999Y-77532000I249999J0D01*
G01*
X124513001Y-77532000D01*
G75*
G02*
X124763000Y-77781999I0J-249999D01*
G01*
G37*
G36*
G01*
X126813000Y-77781999D02*
X126813000Y-78682001D01*
G75*
G02*
X126563001Y-78932000I-249999J0D01*
G01*
X125912999Y-78932000D01*
G75*
G02*
X125663000Y-78682001I0J249999D01*
G01*
X125663000Y-77781999D01*
G75*
G02*
X125912999Y-77532000I249999J0D01*
G01*
X126563001Y-77532000D01*
G75*
G02*
X126813000Y-77781999I0J-249999D01*
G01*
G37*
G36*
G01*
X116528001Y-69541000D02*
X115627999Y-69541000D01*
G75*
G02*
X115378000Y-69291001I0J249999D01*
G01*
X115378000Y-68640999D01*
G75*
G02*
X115627999Y-68391000I249999J0D01*
G01*
X116528001Y-68391000D01*
G75*
G02*
X116778000Y-68640999I0J-249999D01*
G01*
X116778000Y-69291001D01*
G75*
G02*
X116528001Y-69541000I-249999J0D01*
G01*
G37*
G36*
G01*
X116528001Y-71591000D02*
X115627999Y-71591000D01*
G75*
G02*
X115378000Y-71341001I0J249999D01*
G01*
X115378000Y-70690999D01*
G75*
G02*
X115627999Y-70441000I249999J0D01*
G01*
X116528001Y-70441000D01*
G75*
G02*
X116778000Y-70690999I0J-249999D01*
G01*
X116778000Y-71341001D01*
G75*
G02*
X116528001Y-71591000I-249999J0D01*
G01*
G37*
G36*
G01*
X115627999Y-74364000D02*
X116528001Y-74364000D01*
G75*
G02*
X116778000Y-74613999I0J-249999D01*
G01*
X116778000Y-75264001D01*
G75*
G02*
X116528001Y-75514000I-249999J0D01*
G01*
X115627999Y-75514000D01*
G75*
G02*
X115378000Y-75264001I0J249999D01*
G01*
X115378000Y-74613999D01*
G75*
G02*
X115627999Y-74364000I249999J0D01*
G01*
G37*
G36*
G01*
X115627999Y-72314000D02*
X116528001Y-72314000D01*
G75*
G02*
X116778000Y-72563999I0J-249999D01*
G01*
X116778000Y-73214001D01*
G75*
G02*
X116528001Y-73464000I-249999J0D01*
G01*
X115627999Y-73464000D01*
G75*
G02*
X115378000Y-73214001I0J249999D01*
G01*
X115378000Y-72563999D01*
G75*
G02*
X115627999Y-72314000I249999J0D01*
G01*
G37*
G36*
G01*
X140408000Y-92542000D02*
X140408000Y-90042000D01*
G75*
G02*
X140658000Y-89792000I250000J0D01*
G01*
X142258000Y-89792000D01*
G75*
G02*
X142508000Y-90042000I0J-250000D01*
G01*
X142508000Y-92542000D01*
G75*
G02*
X142258000Y-92792000I-250000J0D01*
G01*
X140658000Y-92792000D01*
G75*
G02*
X140408000Y-92542000I0J250000D01*
G01*
G37*
G36*
G01*
X132808000Y-92542000D02*
X132808000Y-90042000D01*
G75*
G02*
X133058000Y-89792000I250000J0D01*
G01*
X134658000Y-89792000D01*
G75*
G02*
X134908000Y-90042000I0J-250000D01*
G01*
X134908000Y-92542000D01*
G75*
G02*
X134658000Y-92792000I-250000J0D01*
G01*
X133058000Y-92792000D01*
G75*
G02*
X132808000Y-92542000I0J250000D01*
G01*
G37*
G36*
G01*
X138508000Y-88992000D02*
X138508000Y-87792000D01*
G75*
G02*
X138708000Y-87592000I200000J0D01*
G01*
X139108000Y-87592000D01*
G75*
G02*
X139308000Y-87792000I0J-200000D01*
G01*
X139308000Y-88992000D01*
G75*
G02*
X139108000Y-89192000I-200000J0D01*
G01*
X138708000Y-89192000D01*
G75*
G02*
X138508000Y-88992000I0J200000D01*
G01*
G37*
G36*
G01*
X137258000Y-88992000D02*
X137258000Y-87792000D01*
G75*
G02*
X137458000Y-87592000I200000J0D01*
G01*
X137858000Y-87592000D01*
G75*
G02*
X138058000Y-87792000I0J-200000D01*
G01*
X138058000Y-88992000D01*
G75*
G02*
X137858000Y-89192000I-200000J0D01*
G01*
X137458000Y-89192000D01*
G75*
G02*
X137258000Y-88992000I0J200000D01*
G01*
G37*
G36*
G01*
X136008000Y-88992000D02*
X136008000Y-87792000D01*
G75*
G02*
X136208000Y-87592000I200000J0D01*
G01*
X136608000Y-87592000D01*
G75*
G02*
X136808000Y-87792000I0J-200000D01*
G01*
X136808000Y-88992000D01*
G75*
G02*
X136608000Y-89192000I-200000J0D01*
G01*
X136208000Y-89192000D01*
G75*
G02*
X136008000Y-88992000I0J200000D01*
G01*
G37*
G36*
G01*
X124665000Y-74110001D02*
X124665000Y-73209999D01*
G75*
G02*
X124914999Y-72960000I249999J0D01*
G01*
X125565001Y-72960000D01*
G75*
G02*
X125815000Y-73209999I0J-249999D01*
G01*
X125815000Y-74110001D01*
G75*
G02*
X125565001Y-74360000I-249999J0D01*
G01*
X124914999Y-74360000D01*
G75*
G02*
X124665000Y-74110001I0J249999D01*
G01*
G37*
G36*
G01*
X122615000Y-74110001D02*
X122615000Y-73209999D01*
G75*
G02*
X122864999Y-72960000I249999J0D01*
G01*
X123515001Y-72960000D01*
G75*
G02*
X123765000Y-73209999I0J-249999D01*
G01*
X123765000Y-74110001D01*
G75*
G02*
X123515001Y-74360000I-249999J0D01*
G01*
X122864999Y-74360000D01*
G75*
G02*
X122615000Y-74110001I0J249999D01*
G01*
G37*
G36*
G01*
X165423001Y-91625000D02*
X164522999Y-91625000D01*
G75*
G02*
X164273000Y-91375001I0J249999D01*
G01*
X164273000Y-90724999D01*
G75*
G02*
X164522999Y-90475000I249999J0D01*
G01*
X165423001Y-90475000D01*
G75*
G02*
X165673000Y-90724999I0J-249999D01*
G01*
X165673000Y-91375001D01*
G75*
G02*
X165423001Y-91625000I-249999J0D01*
G01*
G37*
G36*
G01*
X165423001Y-93675000D02*
X164522999Y-93675000D01*
G75*
G02*
X164273000Y-93425001I0J249999D01*
G01*
X164273000Y-92774999D01*
G75*
G02*
X164522999Y-92525000I249999J0D01*
G01*
X165423001Y-92525000D01*
G75*
G02*
X165673000Y-92774999I0J-249999D01*
G01*
X165673000Y-93425001D01*
G75*
G02*
X165423001Y-93675000I-249999J0D01*
G01*
G37*
G36*
G01*
X166300999Y-103066000D02*
X167201001Y-103066000D01*
G75*
G02*
X167451000Y-103315999I0J-249999D01*
G01*
X167451000Y-103966001D01*
G75*
G02*
X167201001Y-104216000I-249999J0D01*
G01*
X166300999Y-104216000D01*
G75*
G02*
X166051000Y-103966001I0J249999D01*
G01*
X166051000Y-103315999D01*
G75*
G02*
X166300999Y-103066000I249999J0D01*
G01*
G37*
G36*
G01*
X166300999Y-101016000D02*
X167201001Y-101016000D01*
G75*
G02*
X167451000Y-101265999I0J-249999D01*
G01*
X167451000Y-101916001D01*
G75*
G02*
X167201001Y-102166000I-249999J0D01*
G01*
X166300999Y-102166000D01*
G75*
G02*
X166051000Y-101916001I0J249999D01*
G01*
X166051000Y-101265999D01*
G75*
G02*
X166300999Y-101016000I249999J0D01*
G01*
G37*
G36*
G01*
X141146000Y-96133499D02*
X141146000Y-97033501D01*
G75*
G02*
X140896001Y-97283500I-249999J0D01*
G01*
X140245999Y-97283500D01*
G75*
G02*
X139996000Y-97033501I0J249999D01*
G01*
X139996000Y-96133499D01*
G75*
G02*
X140245999Y-95883500I249999J0D01*
G01*
X140896001Y-95883500D01*
G75*
G02*
X141146000Y-96133499I0J-249999D01*
G01*
G37*
G36*
G01*
X143196000Y-96133499D02*
X143196000Y-97033501D01*
G75*
G02*
X142946001Y-97283500I-249999J0D01*
G01*
X142295999Y-97283500D01*
G75*
G02*
X142046000Y-97033501I0J249999D01*
G01*
X142046000Y-96133499D01*
G75*
G02*
X142295999Y-95883500I249999J0D01*
G01*
X142946001Y-95883500D01*
G75*
G02*
X143196000Y-96133499I0J-249999D01*
G01*
G37*
G36*
G01*
X131291000Y-86522500D02*
X131291000Y-84022500D01*
G75*
G02*
X131541000Y-83772500I250000J0D01*
G01*
X133141000Y-83772500D01*
G75*
G02*
X133391000Y-84022500I0J-250000D01*
G01*
X133391000Y-86522500D01*
G75*
G02*
X133141000Y-86772500I-250000J0D01*
G01*
X131541000Y-86772500D01*
G75*
G02*
X131291000Y-86522500I0J250000D01*
G01*
G37*
G36*
G01*
X117441000Y-86522500D02*
X117441000Y-84022500D01*
G75*
G02*
X117691000Y-83772500I250000J0D01*
G01*
X119291000Y-83772500D01*
G75*
G02*
X119541000Y-84022500I0J-250000D01*
G01*
X119541000Y-86522500D01*
G75*
G02*
X119291000Y-86772500I-250000J0D01*
G01*
X117691000Y-86772500D01*
G75*
G02*
X117441000Y-86522500I0J250000D01*
G01*
G37*
G36*
G01*
X129391000Y-82972500D02*
X129391000Y-81772500D01*
G75*
G02*
X129591000Y-81572500I200000J0D01*
G01*
X129991000Y-81572500D01*
G75*
G02*
X130191000Y-81772500I0J-200000D01*
G01*
X130191000Y-82972500D01*
G75*
G02*
X129991000Y-83172500I-200000J0D01*
G01*
X129591000Y-83172500D01*
G75*
G02*
X129391000Y-82972500I0J200000D01*
G01*
G37*
G36*
G01*
X128141000Y-82972500D02*
X128141000Y-81772500D01*
G75*
G02*
X128341000Y-81572500I200000J0D01*
G01*
X128741000Y-81572500D01*
G75*
G02*
X128941000Y-81772500I0J-200000D01*
G01*
X128941000Y-82972500D01*
G75*
G02*
X128741000Y-83172500I-200000J0D01*
G01*
X128341000Y-83172500D01*
G75*
G02*
X128141000Y-82972500I0J200000D01*
G01*
G37*
G36*
G01*
X126891000Y-82972500D02*
X126891000Y-81772500D01*
G75*
G02*
X127091000Y-81572500I200000J0D01*
G01*
X127491000Y-81572500D01*
G75*
G02*
X127691000Y-81772500I0J-200000D01*
G01*
X127691000Y-82972500D01*
G75*
G02*
X127491000Y-83172500I-200000J0D01*
G01*
X127091000Y-83172500D01*
G75*
G02*
X126891000Y-82972500I0J200000D01*
G01*
G37*
G36*
G01*
X125641000Y-82972500D02*
X125641000Y-81772500D01*
G75*
G02*
X125841000Y-81572500I200000J0D01*
G01*
X126241000Y-81572500D01*
G75*
G02*
X126441000Y-81772500I0J-200000D01*
G01*
X126441000Y-82972500D01*
G75*
G02*
X126241000Y-83172500I-200000J0D01*
G01*
X125841000Y-83172500D01*
G75*
G02*
X125641000Y-82972500I0J200000D01*
G01*
G37*
G36*
G01*
X124391000Y-82972500D02*
X124391000Y-81772500D01*
G75*
G02*
X124591000Y-81572500I200000J0D01*
G01*
X124991000Y-81572500D01*
G75*
G02*
X125191000Y-81772500I0J-200000D01*
G01*
X125191000Y-82972500D01*
G75*
G02*
X124991000Y-83172500I-200000J0D01*
G01*
X124591000Y-83172500D01*
G75*
G02*
X124391000Y-82972500I0J200000D01*
G01*
G37*
G36*
G01*
X123141000Y-82972500D02*
X123141000Y-81772500D01*
G75*
G02*
X123341000Y-81572500I200000J0D01*
G01*
X123741000Y-81572500D01*
G75*
G02*
X123941000Y-81772500I0J-200000D01*
G01*
X123941000Y-82972500D01*
G75*
G02*
X123741000Y-83172500I-200000J0D01*
G01*
X123341000Y-83172500D01*
G75*
G02*
X123141000Y-82972500I0J200000D01*
G01*
G37*
G36*
G01*
X121891000Y-82972500D02*
X121891000Y-81772500D01*
G75*
G02*
X122091000Y-81572500I200000J0D01*
G01*
X122491000Y-81572500D01*
G75*
G02*
X122691000Y-81772500I0J-200000D01*
G01*
X122691000Y-82972500D01*
G75*
G02*
X122491000Y-83172500I-200000J0D01*
G01*
X122091000Y-83172500D01*
G75*
G02*
X121891000Y-82972500I0J200000D01*
G01*
G37*
G36*
G01*
X120641000Y-82972500D02*
X120641000Y-81772500D01*
G75*
G02*
X120841000Y-81572500I200000J0D01*
G01*
X121241000Y-81572500D01*
G75*
G02*
X121441000Y-81772500I0J-200000D01*
G01*
X121441000Y-82972500D01*
G75*
G02*
X121241000Y-83172500I-200000J0D01*
G01*
X120841000Y-83172500D01*
G75*
G02*
X120641000Y-82972500I0J200000D01*
G01*
G37*
G36*
G01*
X159008000Y-99939000D02*
X159008000Y-98689000D01*
G75*
G02*
X159258000Y-98439000I250000J0D01*
G01*
X160183000Y-98439000D01*
G75*
G02*
X160433000Y-98689000I0J-250000D01*
G01*
X160433000Y-99939000D01*
G75*
G02*
X160183000Y-100189000I-250000J0D01*
G01*
X159258000Y-100189000D01*
G75*
G02*
X159008000Y-99939000I0J250000D01*
G01*
G37*
G36*
G01*
X156033000Y-99939000D02*
X156033000Y-98689000D01*
G75*
G02*
X156283000Y-98439000I250000J0D01*
G01*
X157208000Y-98439000D01*
G75*
G02*
X157458000Y-98689000I0J-250000D01*
G01*
X157458000Y-99939000D01*
G75*
G02*
X157208000Y-100189000I-250000J0D01*
G01*
X156283000Y-100189000D01*
G75*
G02*
X156033000Y-99939000I0J250000D01*
G01*
G37*
G36*
G01*
X160332000Y-116897999D02*
X160332000Y-117798001D01*
G75*
G02*
X160082001Y-118048000I-249999J0D01*
G01*
X159431999Y-118048000D01*
G75*
G02*
X159182000Y-117798001I0J249999D01*
G01*
X159182000Y-116897999D01*
G75*
G02*
X159431999Y-116648000I249999J0D01*
G01*
X160082001Y-116648000D01*
G75*
G02*
X160332000Y-116897999I0J-249999D01*
G01*
G37*
G36*
G01*
X162382000Y-116897999D02*
X162382000Y-117798001D01*
G75*
G02*
X162132001Y-118048000I-249999J0D01*
G01*
X161481999Y-118048000D01*
G75*
G02*
X161232000Y-117798001I0J249999D01*
G01*
X161232000Y-116897999D01*
G75*
G02*
X161481999Y-116648000I249999J0D01*
G01*
X162132001Y-116648000D01*
G75*
G02*
X162382000Y-116897999I0J-249999D01*
G01*
G37*
G36*
G01*
X184854001Y-91507000D02*
X183953999Y-91507000D01*
G75*
G02*
X183704000Y-91257001I0J249999D01*
G01*
X183704000Y-90606999D01*
G75*
G02*
X183953999Y-90357000I249999J0D01*
G01*
X184854001Y-90357000D01*
G75*
G02*
X185104000Y-90606999I0J-249999D01*
G01*
X185104000Y-91257001D01*
G75*
G02*
X184854001Y-91507000I-249999J0D01*
G01*
G37*
G36*
G01*
X184854001Y-93557000D02*
X183953999Y-93557000D01*
G75*
G02*
X183704000Y-93307001I0J249999D01*
G01*
X183704000Y-92656999D01*
G75*
G02*
X183953999Y-92407000I249999J0D01*
G01*
X184854001Y-92407000D01*
G75*
G02*
X185104000Y-92656999I0J-249999D01*
G01*
X185104000Y-93307001D01*
G75*
G02*
X184854001Y-93557000I-249999J0D01*
G01*
G37*
G36*
G01*
X172178000Y-124821000D02*
X172178000Y-122321000D01*
G75*
G02*
X172428000Y-122071000I250000J0D01*
G01*
X174028000Y-122071000D01*
G75*
G02*
X174278000Y-122321000I0J-250000D01*
G01*
X174278000Y-124821000D01*
G75*
G02*
X174028000Y-125071000I-250000J0D01*
G01*
X172428000Y-125071000D01*
G75*
G02*
X172178000Y-124821000I0J250000D01*
G01*
G37*
G36*
G01*
X162078000Y-124821000D02*
X162078000Y-122321000D01*
G75*
G02*
X162328000Y-122071000I250000J0D01*
G01*
X163928000Y-122071000D01*
G75*
G02*
X164178000Y-122321000I0J-250000D01*
G01*
X164178000Y-124821000D01*
G75*
G02*
X163928000Y-125071000I-250000J0D01*
G01*
X162328000Y-125071000D01*
G75*
G02*
X162078000Y-124821000I0J250000D01*
G01*
G37*
G36*
G01*
X170278000Y-121271000D02*
X170278000Y-120371000D01*
G75*
G02*
X170478000Y-120171000I200000J0D01*
G01*
X170878000Y-120171000D01*
G75*
G02*
X171078000Y-120371000I0J-200000D01*
G01*
X171078000Y-121271000D01*
G75*
G02*
X170878000Y-121471000I-200000J0D01*
G01*
X170478000Y-121471000D01*
G75*
G02*
X170278000Y-121271000I0J200000D01*
G01*
G37*
G36*
G01*
X169028000Y-121271000D02*
X169028000Y-120371000D01*
G75*
G02*
X169228000Y-120171000I200000J0D01*
G01*
X169628000Y-120171000D01*
G75*
G02*
X169828000Y-120371000I0J-200000D01*
G01*
X169828000Y-121271000D01*
G75*
G02*
X169628000Y-121471000I-200000J0D01*
G01*
X169228000Y-121471000D01*
G75*
G02*
X169028000Y-121271000I0J200000D01*
G01*
G37*
G36*
G01*
X167778000Y-121271000D02*
X167778000Y-120371000D01*
G75*
G02*
X167978000Y-120171000I200000J0D01*
G01*
X168378000Y-120171000D01*
G75*
G02*
X168578000Y-120371000I0J-200000D01*
G01*
X168578000Y-121271000D01*
G75*
G02*
X168378000Y-121471000I-200000J0D01*
G01*
X167978000Y-121471000D01*
G75*
G02*
X167778000Y-121271000I0J200000D01*
G01*
G37*
G36*
G01*
X166528000Y-121271000D02*
X166528000Y-120371000D01*
G75*
G02*
X166728000Y-120171000I200000J0D01*
G01*
X167128000Y-120171000D01*
G75*
G02*
X167328000Y-120371000I0J-200000D01*
G01*
X167328000Y-121271000D01*
G75*
G02*
X167128000Y-121471000I-200000J0D01*
G01*
X166728000Y-121471000D01*
G75*
G02*
X166528000Y-121271000I0J200000D01*
G01*
G37*
G36*
G01*
X165278000Y-121271000D02*
X165278000Y-120371000D01*
G75*
G02*
X165478000Y-120171000I200000J0D01*
G01*
X165878000Y-120171000D01*
G75*
G02*
X166078000Y-120371000I0J-200000D01*
G01*
X166078000Y-121271000D01*
G75*
G02*
X165878000Y-121471000I-200000J0D01*
G01*
X165478000Y-121471000D01*
G75*
G02*
X165278000Y-121271000I0J200000D01*
G01*
G37*
G36*
G01*
X183953999Y-108391000D02*
X184854001Y-108391000D01*
G75*
G02*
X185104000Y-108640999I0J-249999D01*
G01*
X185104000Y-109291001D01*
G75*
G02*
X184854001Y-109541000I-249999J0D01*
G01*
X183953999Y-109541000D01*
G75*
G02*
X183704000Y-109291001I0J249999D01*
G01*
X183704000Y-108640999D01*
G75*
G02*
X183953999Y-108391000I249999J0D01*
G01*
G37*
G36*
G01*
X183953999Y-106341000D02*
X184854001Y-106341000D01*
G75*
G02*
X185104000Y-106590999I0J-249999D01*
G01*
X185104000Y-107241001D01*
G75*
G02*
X184854001Y-107491000I-249999J0D01*
G01*
X183953999Y-107491000D01*
G75*
G02*
X183704000Y-107241001I0J249999D01*
G01*
X183704000Y-106590999D01*
G75*
G02*
X183953999Y-106341000I249999J0D01*
G01*
G37*
D13*
X165862000Y-116586000D03*
X168362000Y-116586000D03*
D16*
X174375000Y-102400000D03*
X174375000Y-100000000D03*
X175895000Y-100000000D03*
X175895000Y-102400000D03*
X174375000Y-100800000D03*
X175895000Y-100800000D03*
X174375000Y-101600000D03*
X175895000Y-101600000D03*
D17*
X152197000Y-92710000D03*
X152197000Y-91190000D03*
X152997000Y-92710000D03*
X152997000Y-91190000D03*
X151397000Y-92710000D03*
X153797000Y-92710000D03*
X153797000Y-91190000D03*
X151397000Y-91190000D03*
D16*
X147320000Y-99733000D03*
X145800000Y-99733000D03*
X147320000Y-98933000D03*
X145800000Y-98933000D03*
X147320000Y-100533000D03*
X147320000Y-98133000D03*
X145800000Y-98133000D03*
X145800000Y-100533000D03*
X145671000Y-94164000D03*
X145671000Y-91764000D03*
X147191000Y-91764000D03*
X147191000Y-94164000D03*
X145671000Y-92564000D03*
X147191000Y-92564000D03*
X145671000Y-93364000D03*
X147191000Y-93364000D03*
M02*
