EESchema Schematic File Version 4
EELAYER 30 0
EELAYER END
$Descr USLetter 11000 8500
encoding utf-8
Sheet 1 1
Title "Arduino as ISP Shield"
Date "2020-08-05"
Rev "B."
Comp "Aurora Research Institute"
Comment1 "ARI-EGSE-2-NIM_ISP_SHIELD_PCB"
Comment2 ""
Comment3 ""
Comment4 ""
$EndDescr
$Comp
L ArduinoAsISP_Shield_3v3-rescue:BSS138-dk_Transistors-FETs-MOSFETs-Single Q1
U 1 1 5E784868
P 6550 1650
F 0 "Q1" V 6711 1650 60  0000 C CNN
F 1 "BSS138" V 6817 1650 60  0000 C CNN
F 2 "digikey-footprints:SOT-23-3" H 6750 1850 60  0001 L CNN
F 3 "https://www.onsemi.com/pub/Collateral/BSS138-D.PDF" H 6750 1950 60  0001 L CNN
F 4 "BSS138CT-ND" H 6750 2050 60  0001 L CNN "Digi-Key_PN"
F 5 "BSS138" H 6750 2150 60  0001 L CNN "MPN"
F 6 "Discrete Semiconductor Products" H 6750 2250 60  0001 L CNN "Category"
F 7 "Transistors - FETs, MOSFETs - Single" H 6750 2350 60  0001 L CNN "Family"
F 8 "https://www.onsemi.com/pub/Collateral/BSS138-D.PDF" H 6750 2450 60  0001 L CNN "DK_Datasheet_Link"
F 9 "/product-detail/en/on-semiconductor/BSS138/BSS138CT-ND/244294" H 6750 2550 60  0001 L CNN "DK_Detail_Page"
F 10 "MOSFET N-CH 50V 220MA SOT-23" H 6750 2650 60  0001 L CNN "Description"
F 11 "ON Semiconductor" H 6750 2750 60  0001 L CNN "Manufacturer"
F 12 "Active" H 6750 2850 60  0001 L CNN "Status"
	1    6550 1650
	0    1    1    0   
$EndComp
$Comp
L Device:R R4
U 1 1 5E785B40
P 6150 1450
F 0 "R4" H 6220 1496 50  0000 L CNN
F 1 "10K" H 6220 1405 50  0000 L CNN
F 2 "Resistor_SMD:R_1206_3216Metric_Pad1.42x1.75mm_HandSolder" V 6080 1450 50  0001 C CNN
F 3 "~" H 6150 1450 50  0001 C CNN
	1    6150 1450
	1    0    0    -1  
$EndComp
$Comp
L Device:R R8
U 1 1 5E785E66
P 6800 1450
F 0 "R8" H 6870 1496 50  0000 L CNN
F 1 "10K" H 6870 1405 50  0000 L CNN
F 2 "Resistor_SMD:R_1206_3216Metric_Pad1.42x1.75mm_HandSolder" V 6730 1450 50  0001 C CNN
F 3 "~" H 6800 1450 50  0001 C CNN
	1    6800 1450
	1    0    0    -1  
$EndComp
$Comp
L Connector_Generic:Conn_02x03_Odd_Even J1
U 1 1 5E7899B0
P 1650 4950
F 0 "J1" H 1700 5267 50  0000 C CNN
F 1 "Conn_02x03_Odd_Even" H 1700 5176 50  0000 C CNN
F 2 "Connector_PinHeader_2.54mm:PinHeader_2x03_P2.54mm_Vertical" H 1650 4950 50  0001 C CNN
F 3 "~" H 1650 4950 50  0001 C CNN
	1    1650 4950
	1    0    0    -1  
$EndComp
Text Label 900  4850 0    50   ~ 0
ICSP_MISO
Text Label 900  4950 0    50   ~ 0
ICSP_SCK
Text Label 900  5050 0    50   ~ 0
ICSP_RESET
Text Label 2050 4950 0    50   ~ 0
ICSP_MOSI
$Comp
L power:GND #PWR019
U 1 1 5E78A8CA
P 2050 5150
F 0 "#PWR019" H 2050 4900 50  0001 C CNN
F 1 "GND" H 2055 4977 50  0000 C CNN
F 2 "" H 2050 5150 50  0001 C CNN
F 3 "" H 2050 5150 50  0001 C CNN
	1    2050 5150
	1    0    0    -1  
$EndComp
Wire Wire Line
	2050 5150 2050 5050
Wire Wire Line
	2050 5050 1950 5050
Wire Wire Line
	1950 4950 2050 4950
Wire Wire Line
	1450 4850 900  4850
Wire Wire Line
	900  4950 1450 4950
Wire Wire Line
	1450 5050 900  5050
Wire Wire Line
	6800 1600 6800 1650
Wire Wire Line
	6800 1650 6750 1650
Wire Wire Line
	6350 1650 6150 1650
Wire Wire Line
	6150 1650 6150 1600
Wire Wire Line
	6450 1350 6450 1150
Wire Wire Line
	6450 1150 6150 1150
Wire Wire Line
	6150 1150 6150 1300
$Comp
L power:+5V #PWR010
U 1 1 5E78D70C
P 6800 1050
F 0 "#PWR010" H 6800 900 50  0001 C CNN
F 1 "+5V" H 6815 1223 50  0000 C CNN
F 2 "" H 6800 1050 50  0001 C CNN
F 3 "" H 6800 1050 50  0001 C CNN
	1    6800 1050
	1    0    0    -1  
$EndComp
Wire Wire Line
	6800 1050 6800 1300
$Comp
L power:+3V3 #PWR06
U 1 1 5E78DF28
P 6150 1050
F 0 "#PWR06" H 6150 900 50  0001 C CNN
F 1 "+3V3" H 6165 1223 50  0000 C CNN
F 2 "" H 6150 1050 50  0001 C CNN
F 3 "" H 6150 1050 50  0001 C CNN
	1    6150 1050
	1    0    0    -1  
$EndComp
Wire Wire Line
	6150 1050 6150 1150
Connection ~ 6150 1150
$Comp
L power:+5V #PWR04
U 1 1 5E78E4B1
P 3150 1200
F 0 "#PWR04" H 3150 1050 50  0001 C CNN
F 1 "+5V" H 3165 1373 50  0000 C CNN
F 2 "" H 3150 1200 50  0001 C CNN
F 3 "" H 3150 1200 50  0001 C CNN
	1    3150 1200
	0    1    1    0   
$EndComp
$Comp
L power:+3V3 #PWR03
U 1 1 5E78E6C2
P 3150 1000
F 0 "#PWR03" H 3150 850 50  0001 C CNN
F 1 "+3V3" H 3165 1173 50  0000 C CNN
F 2 "" H 3150 1000 50  0001 C CNN
F 3 "" H 3150 1000 50  0001 C CNN
	1    3150 1000
	0    1    1    0   
$EndComp
$Comp
L power:GND #PWR01
U 1 1 5E7900B1
P 1850 3700
F 0 "#PWR01" H 1850 3450 50  0001 C CNN
F 1 "GND" H 1855 3527 50  0000 C CNN
F 2 "" H 1850 3700 50  0001 C CNN
F 3 "" H 1850 3700 50  0001 C CNN
	1    1850 3700
	1    0    0    -1  
$EndComp
Wire Wire Line
	1750 3550 1750 3700
Wire Wire Line
	1750 3700 1850 3700
Wire Wire Line
	1850 3700 1850 3550
Connection ~ 1850 3700
Wire Wire Line
	1950 3550 1950 3700
Wire Wire Line
	1950 3700 1850 3700
Text Label 850  2550 0    50   ~ 0
LED_PMODE
Text Label 850  2650 0    50   ~ 0
LED_ERR
Text Label 850  2750 0    50   ~ 0
LED_HB
Text Label 850  2850 0    50   ~ 0
PROG_RESET
Text Label 850  2950 0    50   ~ 0
PROG_MOSI
Text Label 850  3050 0    50   ~ 0
PROG_MISO
Text Label 850  3150 0    50   ~ 0
PROG_SCK
Wire Wire Line
	850  3150 1350 3150
Wire Wire Line
	850  3050 1350 3050
Wire Wire Line
	850  2950 1350 2950
Wire Wire Line
	850  2850 1350 2850
Wire Wire Line
	850  2750 1350 2750
Wire Wire Line
	850  2650 1350 2650
Wire Wire Line
	850  2550 1350 2550
Text Label 7100 1650 0    50   ~ 0
PROG_RESET
$Comp
L ArduinoAsISP_Shield_3v3-rescue:BSS138-dk_Transistors-FETs-MOSFETs-Single Q2
U 1 1 5E798CCD
P 6550 3000
F 0 "Q2" V 6711 3000 60  0000 C CNN
F 1 "BSS138" V 6817 3000 60  0000 C CNN
F 2 "digikey-footprints:SOT-23-3" H 6750 3200 60  0001 L CNN
F 3 "https://www.onsemi.com/pub/Collateral/BSS138-D.PDF" H 6750 3300 60  0001 L CNN
F 4 "BSS138CT-ND" H 6750 3400 60  0001 L CNN "Digi-Key_PN"
F 5 "BSS138" H 6750 3500 60  0001 L CNN "MPN"
F 6 "Discrete Semiconductor Products" H 6750 3600 60  0001 L CNN "Category"
F 7 "Transistors - FETs, MOSFETs - Single" H 6750 3700 60  0001 L CNN "Family"
F 8 "https://www.onsemi.com/pub/Collateral/BSS138-D.PDF" H 6750 3800 60  0001 L CNN "DK_Datasheet_Link"
F 9 "/product-detail/en/on-semiconductor/BSS138/BSS138CT-ND/244294" H 6750 3900 60  0001 L CNN "DK_Detail_Page"
F 10 "MOSFET N-CH 50V 220MA SOT-23" H 6750 4000 60  0001 L CNN "Description"
F 11 "ON Semiconductor" H 6750 4100 60  0001 L CNN "Manufacturer"
F 12 "Active" H 6750 4200 60  0001 L CNN "Status"
	1    6550 3000
	0    1    1    0   
$EndComp
$Comp
L Device:R R5
U 1 1 5E798CD7
P 6150 2800
F 0 "R5" H 6220 2846 50  0000 L CNN
F 1 "10K" H 6220 2755 50  0000 L CNN
F 2 "Resistor_SMD:R_1206_3216Metric_Pad1.42x1.75mm_HandSolder" V 6080 2800 50  0001 C CNN
F 3 "~" H 6150 2800 50  0001 C CNN
	1    6150 2800
	1    0    0    -1  
$EndComp
$Comp
L Device:R R9
U 1 1 5E798CE1
P 6800 2800
F 0 "R9" H 6870 2846 50  0000 L CNN
F 1 "10K" H 6870 2755 50  0000 L CNN
F 2 "Resistor_SMD:R_1206_3216Metric_Pad1.42x1.75mm_HandSolder" V 6730 2800 50  0001 C CNN
F 3 "~" H 6800 2800 50  0001 C CNN
	1    6800 2800
	1    0    0    -1  
$EndComp
Wire Wire Line
	6800 2950 6800 3000
Wire Wire Line
	6800 3000 6750 3000
Wire Wire Line
	6350 3000 6150 3000
Wire Wire Line
	6150 3000 6150 2950
Wire Wire Line
	6450 2700 6450 2500
Wire Wire Line
	6450 2500 6150 2500
Wire Wire Line
	6150 2500 6150 2650
$Comp
L power:+5V #PWR011
U 1 1 5E798CF2
P 6800 2400
F 0 "#PWR011" H 6800 2250 50  0001 C CNN
F 1 "+5V" H 6815 2573 50  0000 C CNN
F 2 "" H 6800 2400 50  0001 C CNN
F 3 "" H 6800 2400 50  0001 C CNN
	1    6800 2400
	1    0    0    -1  
$EndComp
Wire Wire Line
	6800 2400 6800 2650
$Comp
L power:+3V3 #PWR07
U 1 1 5E798CFD
P 6150 2400
F 0 "#PWR07" H 6150 2250 50  0001 C CNN
F 1 "+3V3" H 6165 2573 50  0000 C CNN
F 2 "" H 6150 2400 50  0001 C CNN
F 3 "" H 6150 2400 50  0001 C CNN
	1    6150 2400
	1    0    0    -1  
$EndComp
Wire Wire Line
	6150 2400 6150 2500
Connection ~ 6150 2500
$Comp
L ArduinoAsISP_Shield_3v3-rescue:BSS138-dk_Transistors-FETs-MOSFETs-Single Q3
U 1 1 5E7A69DC
P 6550 4450
F 0 "Q3" V 6711 4450 60  0000 C CNN
F 1 "BSS138" V 6817 4450 60  0000 C CNN
F 2 "digikey-footprints:SOT-23-3" H 6750 4650 60  0001 L CNN
F 3 "https://www.onsemi.com/pub/Collateral/BSS138-D.PDF" H 6750 4750 60  0001 L CNN
F 4 "BSS138CT-ND" H 6750 4850 60  0001 L CNN "Digi-Key_PN"
F 5 "BSS138" H 6750 4950 60  0001 L CNN "MPN"
F 6 "Discrete Semiconductor Products" H 6750 5050 60  0001 L CNN "Category"
F 7 "Transistors - FETs, MOSFETs - Single" H 6750 5150 60  0001 L CNN "Family"
F 8 "https://www.onsemi.com/pub/Collateral/BSS138-D.PDF" H 6750 5250 60  0001 L CNN "DK_Datasheet_Link"
F 9 "/product-detail/en/on-semiconductor/BSS138/BSS138CT-ND/244294" H 6750 5350 60  0001 L CNN "DK_Detail_Page"
F 10 "MOSFET N-CH 50V 220MA SOT-23" H 6750 5450 60  0001 L CNN "Description"
F 11 "ON Semiconductor" H 6750 5550 60  0001 L CNN "Manufacturer"
F 12 "Active" H 6750 5650 60  0001 L CNN "Status"
	1    6550 4450
	0    1    1    0   
$EndComp
$Comp
L Device:R R6
U 1 1 5E7A69E6
P 6150 4250
F 0 "R6" H 6220 4296 50  0000 L CNN
F 1 "10K" H 6220 4205 50  0000 L CNN
F 2 "Resistor_SMD:R_1206_3216Metric_Pad1.42x1.75mm_HandSolder" V 6080 4250 50  0001 C CNN
F 3 "~" H 6150 4250 50  0001 C CNN
	1    6150 4250
	1    0    0    -1  
$EndComp
$Comp
L Device:R R10
U 1 1 5E7A69F0
P 6800 4250
F 0 "R10" H 6870 4296 50  0000 L CNN
F 1 "10K" H 6870 4205 50  0000 L CNN
F 2 "Resistor_SMD:R_1206_3216Metric_Pad1.42x1.75mm_HandSolder" V 6730 4250 50  0001 C CNN
F 3 "~" H 6800 4250 50  0001 C CNN
	1    6800 4250
	1    0    0    -1  
$EndComp
Wire Wire Line
	6800 4400 6800 4450
Wire Wire Line
	6800 4450 6750 4450
Wire Wire Line
	6350 4450 6150 4450
Wire Wire Line
	6150 4450 6150 4400
Wire Wire Line
	6450 4150 6450 3950
Wire Wire Line
	6450 3950 6150 3950
Wire Wire Line
	6150 3950 6150 4100
$Comp
L power:+5V #PWR012
U 1 1 5E7A6A01
P 6800 3850
F 0 "#PWR012" H 6800 3700 50  0001 C CNN
F 1 "+5V" H 6815 4023 50  0000 C CNN
F 2 "" H 6800 3850 50  0001 C CNN
F 3 "" H 6800 3850 50  0001 C CNN
	1    6800 3850
	1    0    0    -1  
$EndComp
Wire Wire Line
	6800 3850 6800 4100
$Comp
L power:+3V3 #PWR08
U 1 1 5E7A6A0C
P 6150 3850
F 0 "#PWR08" H 6150 3700 50  0001 C CNN
F 1 "+3V3" H 6165 4023 50  0000 C CNN
F 2 "" H 6150 3850 50  0001 C CNN
F 3 "" H 6150 3850 50  0001 C CNN
	1    6150 3850
	1    0    0    -1  
$EndComp
Wire Wire Line
	6150 3850 6150 3950
Connection ~ 6150 3950
$Comp
L ArduinoAsISP_Shield_3v3-rescue:BSS138-dk_Transistors-FETs-MOSFETs-Single Q4
U 1 1 5E7A9070
P 6550 5900
F 0 "Q4" V 6711 5900 60  0000 C CNN
F 1 "BSS138" V 6817 5900 60  0000 C CNN
F 2 "digikey-footprints:SOT-23-3" H 6750 6100 60  0001 L CNN
F 3 "https://www.onsemi.com/pub/Collateral/BSS138-D.PDF" H 6750 6200 60  0001 L CNN
F 4 "BSS138CT-ND" H 6750 6300 60  0001 L CNN "Digi-Key_PN"
F 5 "BSS138" H 6750 6400 60  0001 L CNN "MPN"
F 6 "Discrete Semiconductor Products" H 6750 6500 60  0001 L CNN "Category"
F 7 "Transistors - FETs, MOSFETs - Single" H 6750 6600 60  0001 L CNN "Family"
F 8 "https://www.onsemi.com/pub/Collateral/BSS138-D.PDF" H 6750 6700 60  0001 L CNN "DK_Datasheet_Link"
F 9 "/product-detail/en/on-semiconductor/BSS138/BSS138CT-ND/244294" H 6750 6800 60  0001 L CNN "DK_Detail_Page"
F 10 "MOSFET N-CH 50V 220MA SOT-23" H 6750 6900 60  0001 L CNN "Description"
F 11 "ON Semiconductor" H 6750 7000 60  0001 L CNN "Manufacturer"
F 12 "Active" H 6750 7100 60  0001 L CNN "Status"
	1    6550 5900
	0    1    1    0   
$EndComp
$Comp
L Device:R R7
U 1 1 5E7A907A
P 6150 5700
F 0 "R7" H 6220 5746 50  0000 L CNN
F 1 "10K" H 6220 5655 50  0000 L CNN
F 2 "Resistor_SMD:R_1206_3216Metric_Pad1.42x1.75mm_HandSolder" V 6080 5700 50  0001 C CNN
F 3 "~" H 6150 5700 50  0001 C CNN
	1    6150 5700
	1    0    0    -1  
$EndComp
$Comp
L Device:R R11
U 1 1 5E7A9084
P 6800 5700
F 0 "R11" H 6870 5746 50  0000 L CNN
F 1 "10K" H 6870 5655 50  0000 L CNN
F 2 "Resistor_SMD:R_1206_3216Metric_Pad1.42x1.75mm_HandSolder" V 6730 5700 50  0001 C CNN
F 3 "~" H 6800 5700 50  0001 C CNN
	1    6800 5700
	1    0    0    -1  
$EndComp
Wire Wire Line
	6800 5850 6800 5900
Wire Wire Line
	6800 5900 6750 5900
Wire Wire Line
	6350 5900 6150 5900
Wire Wire Line
	6150 5900 6150 5850
Wire Wire Line
	6450 5600 6450 5400
Wire Wire Line
	6450 5400 6150 5400
Wire Wire Line
	6150 5400 6150 5550
$Comp
L power:+5V #PWR013
U 1 1 5E7A9095
P 6800 5300
F 0 "#PWR013" H 6800 5150 50  0001 C CNN
F 1 "+5V" H 6815 5473 50  0000 C CNN
F 2 "" H 6800 5300 50  0001 C CNN
F 3 "" H 6800 5300 50  0001 C CNN
	1    6800 5300
	1    0    0    -1  
$EndComp
Wire Wire Line
	6800 5300 6800 5550
$Comp
L power:+3V3 #PWR09
U 1 1 5E7A90A0
P 6150 5300
F 0 "#PWR09" H 6150 5150 50  0001 C CNN
F 1 "+3V3" H 6165 5473 50  0000 C CNN
F 2 "" H 6150 5300 50  0001 C CNN
F 3 "" H 6150 5300 50  0001 C CNN
	1    6150 5300
	1    0    0    -1  
$EndComp
Wire Wire Line
	6150 5300 6150 5400
Connection ~ 6150 5400
Text Label 7100 4450 0    50   ~ 0
PROG_MISO
Text Label 7100 3000 0    50   ~ 0
PROG_MOSI
Text Label 7100 5900 0    50   ~ 0
PROG_SCK
Text Label 5650 3000 0    50   ~ 0
ICSP_MOSI
Text Label 5600 4450 0    50   ~ 0
ICSP_MISO
Text Label 5600 1650 0    50   ~ 0
ICSP_RESET
Text Label 5650 5900 0    50   ~ 0
ICSP_SCK
Wire Wire Line
	5650 5900 6150 5900
Connection ~ 6150 5900
Wire Wire Line
	5600 4450 6150 4450
Connection ~ 6150 4450
Wire Wire Line
	5650 3000 6150 3000
Connection ~ 6150 3000
Wire Wire Line
	5600 1650 6150 1650
Connection ~ 6150 1650
Wire Wire Line
	7100 1650 6800 1650
Connection ~ 6800 1650
Wire Wire Line
	7100 3000 6800 3000
Connection ~ 6800 3000
Wire Wire Line
	7100 4450 6800 4450
Connection ~ 6800 4450
Wire Wire Line
	7100 5900 6800 5900
Connection ~ 6800 5900
$Comp
L Device:LED D1
U 1 1 5E83E38F
P 4000 1600
F 0 "D1" V 4039 1483 50  0000 R CNN
F 1 "LED" V 3948 1483 50  0000 R CNN
F 2 "LED_SMD:LED_1206_3216Metric_Pad1.42x1.75mm_HandSolder" H 4000 1600 50  0001 C CNN
F 3 "~" H 4000 1600 50  0001 C CNN
	1    4000 1600
	0    -1   -1   0   
$EndComp
$Comp
L Device:LED D2
U 1 1 5E83E9CB
P 4400 1600
F 0 "D2" V 4439 1483 50  0000 R CNN
F 1 "LED" V 4348 1483 50  0000 R CNN
F 2 "LED_SMD:LED_1206_3216Metric_Pad1.42x1.75mm_HandSolder" H 4400 1600 50  0001 C CNN
F 3 "~" H 4400 1600 50  0001 C CNN
	1    4400 1600
	0    -1   -1   0   
$EndComp
$Comp
L Device:LED D3
U 1 1 5E83F159
P 4800 1600
F 0 "D3" V 4839 1483 50  0000 R CNN
F 1 "LED" V 4748 1483 50  0000 R CNN
F 2 "LED_SMD:LED_1206_3216Metric_Pad1.42x1.75mm_HandSolder" H 4800 1600 50  0001 C CNN
F 3 "~" H 4800 1600 50  0001 C CNN
	1    4800 1600
	0    -1   -1   0   
$EndComp
Text Label 4000 1300 1    50   ~ 0
LED_PMODE
Wire Wire Line
	4000 1300 4000 1450
$Comp
L Device:R R1
U 1 1 5E841CC6
P 4000 2000
F 0 "R1" H 4070 2046 50  0000 L CNN
F 1 "1K" H 4070 1955 50  0000 L CNN
F 2 "Resistor_SMD:R_1206_3216Metric_Pad1.42x1.75mm_HandSolder" V 3930 2000 50  0001 C CNN
F 3 "~" H 4000 2000 50  0001 C CNN
	1    4000 2000
	1    0    0    -1  
$EndComp
$Comp
L Device:R R2
U 1 1 5E8422B3
P 4400 2000
F 0 "R2" H 4470 2046 50  0000 L CNN
F 1 "1K" H 4470 1955 50  0000 L CNN
F 2 "Resistor_SMD:R_1206_3216Metric_Pad1.42x1.75mm_HandSolder" V 4330 2000 50  0001 C CNN
F 3 "~" H 4400 2000 50  0001 C CNN
	1    4400 2000
	1    0    0    -1  
$EndComp
$Comp
L Device:R R3
U 1 1 5E8426B1
P 4800 2000
F 0 "R3" H 4870 2046 50  0000 L CNN
F 1 "1K" H 4870 1955 50  0000 L CNN
F 2 "Resistor_SMD:R_1206_3216Metric_Pad1.42x1.75mm_HandSolder" V 4730 2000 50  0001 C CNN
F 3 "~" H 4800 2000 50  0001 C CNN
	1    4800 2000
	1    0    0    -1  
$EndComp
Wire Wire Line
	4000 1750 4000 1850
Wire Wire Line
	4400 1750 4400 1850
Wire Wire Line
	4800 1750 4800 1850
$Comp
L power:GND #PWR05
U 1 1 5E849023
P 4800 2400
F 0 "#PWR05" H 4800 2150 50  0001 C CNN
F 1 "GND" H 4805 2227 50  0000 C CNN
F 2 "" H 4800 2400 50  0001 C CNN
F 3 "" H 4800 2400 50  0001 C CNN
	1    4800 2400
	1    0    0    -1  
$EndComp
Wire Wire Line
	4000 2150 4000 2250
Wire Wire Line
	4000 2250 4400 2250
Wire Wire Line
	4800 2250 4800 2400
Wire Wire Line
	4800 2150 4800 2250
Connection ~ 4800 2250
Wire Wire Line
	4400 2150 4400 2250
Connection ~ 4400 2250
Wire Wire Line
	4400 2250 4800 2250
Text Label 4400 1300 1    50   ~ 0
LED_ERR
Text Label 4800 1300 1    50   ~ 0
LED_HB
Wire Wire Line
	4400 1300 4400 1450
Wire Wire Line
	4800 1300 4800 1450
$Comp
L Device:C C1
U 1 1 5E85B013
P 2600 1350
F 0 "C1" H 2715 1396 50  0000 L CNN
F 1 "1u" H 2715 1305 50  0000 L CNN
F 2 "Capacitor_SMD:C_1206_3216Metric_Pad1.42x1.75mm_HandSolder" H 2638 1200 50  0001 C CNN
F 3 "~" H 2600 1350 50  0001 C CNN
	1    2600 1350
	1    0    0    -1  
$EndComp
$Comp
L Device:C C2
U 1 1 5E85B97B
P 2950 1450
F 0 "C2" H 3065 1496 50  0000 L CNN
F 1 "1u" H 3065 1405 50  0000 L CNN
F 2 "Capacitor_SMD:C_1206_3216Metric_Pad1.42x1.75mm_HandSolder" H 2988 1300 50  0001 C CNN
F 3 "~" H 2950 1450 50  0001 C CNN
	1    2950 1450
	1    0    0    -1  
$EndComp
Wire Wire Line
	2050 1200 2600 1200
Connection ~ 2600 1200
Wire Wire Line
	2600 1200 3150 1200
Wire Wire Line
	1950 1000 2950 1000
Wire Wire Line
	2950 1300 2950 1000
Connection ~ 2950 1000
Wire Wire Line
	2950 1000 3150 1000
$Comp
L power:GND #PWR02
U 1 1 5E86C37F
P 2950 1650
F 0 "#PWR02" H 2950 1400 50  0001 C CNN
F 1 "GND" H 2955 1477 50  0000 C CNN
F 2 "" H 2950 1650 50  0001 C CNN
F 3 "" H 2950 1650 50  0001 C CNN
	1    2950 1650
	1    0    0    -1  
$EndComp
Wire Wire Line
	2950 1650 2950 1600
Wire Wire Line
	2600 1500 2600 1600
Wire Wire Line
	2600 1600 2950 1600
Connection ~ 2950 1600
NoConn ~ 2350 2050
NoConn ~ 2350 2250
NoConn ~ 1350 1850
Wire Wire Line
	2050 1200 2050 1450
Wire Wire Line
	1950 1000 1950 1450
$Comp
L ArduinoAsISP_Shield_3v3-rescue:Arduino_UNO_R3-MCU_Module A1
U 1 1 5E78210F
P 1850 2450
F 0 "A1" H 1850 3631 50  0000 C CNN
F 1 "Arduino_UNO_R3" H 1850 3540 50  0000 C CNN
F 2 "Module:Arduino_UNO_R3" H 2000 1400 50  0001 L CNN
F 3 "https://www.arduino.cc/en/Main/arduinoBoardUno" H 1650 3500 50  0001 C CNN
	1    1850 2450
	1    0    0    -1  
$EndComp
NoConn ~ 1350 2450
NoConn ~ 1350 2350
NoConn ~ 1350 2250
NoConn ~ 1350 2150
NoConn ~ 1350 2050
NoConn ~ 1350 1950
NoConn ~ 2350 2450
NoConn ~ 2350 2550
NoConn ~ 2350 2650
NoConn ~ 2350 2750
NoConn ~ 2350 2850
NoConn ~ 2350 2950
NoConn ~ 2350 3150
NoConn ~ 2350 3250
NoConn ~ 1750 1450
$Comp
L power:+3V3 #PWR014
U 1 1 5E7D48E1
P 2250 4850
F 0 "#PWR014" H 2250 4700 50  0001 C CNN
F 1 "+3V3" H 2265 5023 50  0000 C CNN
F 2 "" H 2250 4850 50  0001 C CNN
F 3 "" H 2250 4850 50  0001 C CNN
	1    2250 4850
	1    0    0    -1  
$EndComp
Wire Wire Line
	1950 4850 2250 4850
Wire Wire Line
	2350 1850 2750 1850
Wire Wire Line
	2750 1850 2750 1950
$Comp
L power:GND #PWR015
U 1 1 5F2C7855
P 2750 2400
F 0 "#PWR015" H 2750 2150 50  0001 C CNN
F 1 "GND" H 2755 2227 50  0000 C CNN
F 2 "" H 2750 2400 50  0001 C CNN
F 3 "" H 2750 2400 50  0001 C CNN
	1    2750 2400
	1    0    0    -1  
$EndComp
Wire Wire Line
	2750 2400 2750 2250
$Comp
L Device:CP C3
U 1 1 5F2CA7D0
P 2750 2100
F 0 "C3" H 2868 2146 50  0000 L CNN
F 1 "10u" H 2868 2055 50  0000 L CNN
F 2 "Capacitor_SMD:CP_Elec_4x4.5" H 2788 1950 50  0001 C CNN
F 3 "~" H 2750 2100 50  0001 C CNN
	1    2750 2100
	1    0    0    -1  
$EndComp
Text Notes 3800 800  0    79   ~ 0
User Indicators
Text Notes 700  800  0    79   ~ 0
Shield
Text Notes 5500 800  0    79   ~ 0
Level Shifting
Text Notes 700  4450 0    79   ~ 0
ICSP Header
Wire Notes Line
	600  600  600  4100
Wire Notes Line
	600  4100 3600 4100
Wire Notes Line
	3600 4100 3600 600 
Wire Notes Line
	3600 600  600  600 
Wire Notes Line
	3700 600  3700 2700
Wire Notes Line
	3700 2700 5250 2700
Wire Notes Line
	5250 2700 5250 600 
Wire Notes Line
	5250 600  3700 600 
Wire Notes Line
	5400 600  7850 600 
Wire Notes Line
	7850 600  7850 6400
Wire Notes Line
	7850 6400 5400 6400
Wire Notes Line
	5400 6400 5400 600 
Wire Notes Line
	600  4250 2750 4250
Wire Notes Line
	2750 4250 2750 5450
Wire Notes Line
	2750 5450 600  5450
Wire Notes Line
	600  5450 600  4250
$EndSCHEMATC
