(module AV442461 (layer F.Cu) (tedit 5F35736C)
  (fp_text reference REF** (at 0 2.54) (layer F.SilkS)
    (effects (font (size 1 1) (thickness 0.15)))
  )
  (fp_text value AV442461 (at 0 -2.54) (layer F.Fab)
    (effects (font (size 1 1) (thickness 0.15)))
  )
  (fp_line (start -3.75 1.25) (end 3.75 1.25) (layer F.SilkS) (width 0.12))
  (fp_line (start 3.75 1.25) (end 3.81 -1.27) (layer F.SilkS) (width 0.12))
  (fp_line (start 3.81 -1.27) (end -3.81 -1.27) (layer F.SilkS) (width 0.12))
  (fp_line (start -3.81 -1.27) (end -3.75 1.25) (layer F.SilkS) (width 0.12))
  (pad 1 thru_hole circle (at -2.54 0) (size 1.8 1.8) (drill 1) (layers *.Cu *.Mask))
  (pad 2 thru_hole circle (at 0 0) (size 1.8 1.8) (drill 1) (layers *.Cu *.Mask))
  (pad 3 thru_hole circle (at 2.54 0) (size 1.8 1.8) (drill 1) (layers *.Cu *.Mask))
)
