(module APDS-9007 (layer F.Cu) (tedit 5DDD88C7)
  (fp_text reference REF** (at 0.2 2.7) (layer F.SilkS)
    (effects (font (size 1 1) (thickness 0.15)))
  )
  (fp_text value APDS-9007 (at -0.2 -2.4) (layer F.Fab)
    (effects (font (size 1 1) (thickness 0.15)))
  )
  (fp_line (start 1.2 -0.3) (end 1.2 0.3) (layer F.SilkS) (width 0.12))
  (fp_line (start -1.2 -0.3) (end -1.2 0.3) (layer F.SilkS) (width 0.12))
  (fp_line (start -0.6 -1) (end -0.5 -1) (layer F.SilkS) (width 0.12))
  (fp_line (start 0.5 -1) (end 0.6 -1) (layer F.SilkS) (width 0.12))
  (fp_line (start 0.6 1) (end 0.5 1) (layer F.SilkS) (width 0.12))
  (fp_line (start -0.5 1) (end -0.6 1) (layer F.SilkS) (width 0.12))
  (fp_line (start -0.6 -1.5) (end -1.6 -1.5) (layer F.SilkS) (width 0.12))
  (fp_line (start -1.6 -1.5) (end -1.6 -0.3) (layer F.SilkS) (width 0.12))
  (fp_line (start -0.6 -1.5) (end -0.6 -0.3) (layer F.SilkS) (width 0.12))
  (fp_line (start -0.6 -0.3) (end -1.6 -0.3) (layer F.SilkS) (width 0.12))
  (pad 1 smd rect (at -1.1 -0.9) (size 0.8 1) (layers F.Cu F.Paste F.Mask))
  (pad 2 smd rect (at 0 -0.9) (size 0.8 1) (layers F.Cu F.Paste F.Mask))
  (pad 3 smd rect (at 1.1 -0.9) (size 0.8 1) (layers F.Cu F.Paste F.Mask))
  (pad 4 smd rect (at 1.1 0.9) (size 0.8 1) (layers F.Cu F.Paste F.Mask))
  (pad 5 smd rect (at 0 0.9) (size 0.8 1) (layers F.Cu F.Paste F.Mask))
  (pad 6 smd rect (at -1.1 0.9) (size 0.8 1) (layers F.Cu F.Paste F.Mask))
)
