ISO-10303-21;
HEADER;
FILE_DESCRIPTION(('KiCad electronic assembly'),'2;1');
FILE_NAME('CAM-Screen.step','2019-09-18T19:32:44',('An Author'),(
    'A Company'),'Open CASCADE STEP processor 6.9',
  'KiCad to STEP converter','Unknown');
FILE_SCHEMA(('AUTOMOTIVE_DESIGN { 1 0 10303 214 1 1 1 1 }'));
ENDSEC;
DATA;
#1 = APPLICATION_PROTOCOL_DEFINITION('international standard',
  'automotive_design',2000,#2);
#2 = APPLICATION_CONTEXT(
  'core data for automotive mechanical design processes');
#3 = SHAPE_DEFINITION_REPRESENTATION(#4,#10);
#4 = PRODUCT_DEFINITION_SHAPE('','',#5);
#5 = PRODUCT_DEFINITION('design','',#6,#9);
#6 = PRODUCT_DEFINITION_FORMATION('','',#7);
#7 = PRODUCT('Open CASCADE STEP translator 6.9 1',
  'Open CASCADE STEP translator 6.9 1','',(#8));
#8 = PRODUCT_CONTEXT('',#2,'mechanical');
#9 = PRODUCT_DEFINITION_CONTEXT('part definition',#2,'design');
#10 = SHAPE_REPRESENTATION('',(#11,#15),#19);
#11 = AXIS2_PLACEMENT_3D('',#12,#13,#14);
#12 = CARTESIAN_POINT('',(0.E+000,0.E+000,0.E+000));
#13 = DIRECTION('',(0.E+000,0.E+000,1.));
#14 = DIRECTION('',(1.,0.E+000,-0.E+000));
#15 = AXIS2_PLACEMENT_3D('',#16,#17,#18);
#16 = CARTESIAN_POINT('',(0.E+000,0.E+000,0.E+000));
#17 = DIRECTION('',(0.E+000,0.E+000,1.));
#18 = DIRECTION('',(1.,0.E+000,-0.E+000));
#19 = ( GEOMETRIC_REPRESENTATION_CONTEXT(3) 
GLOBAL_UNCERTAINTY_ASSIGNED_CONTEXT((#23)) GLOBAL_UNIT_ASSIGNED_CONTEXT(
(#20,#21,#22)) REPRESENTATION_CONTEXT('Context #1',
  '3D Context with UNIT and UNCERTAINTY') );
#20 = ( LENGTH_UNIT() NAMED_UNIT(*) SI_UNIT(.MILLI.,.METRE.) );
#21 = ( NAMED_UNIT(*) PLANE_ANGLE_UNIT() SI_UNIT($,.RADIAN.) );
#22 = ( NAMED_UNIT(*) SI_UNIT($,.STERADIAN.) SOLID_ANGLE_UNIT() );
#23 = UNCERTAINTY_MEASURE_WITH_UNIT(LENGTH_MEASURE(1.E-006),#20,
  'distance_accuracy_value','confusion accuracy');
#24 = PRODUCT_RELATED_PRODUCT_CATEGORY('part',$,(#7));
#25 = ADVANCED_BREP_SHAPE_REPRESENTATION('',(#11,#26),#1160);
#26 = MANIFOLD_SOLID_BREP('',#27);
#27 = CLOSED_SHELL('',(#28,#150,#226,#302,#615,#883,#910,#937,#964,#991,
    #1018,#1045,#1072,#1099,#1106,#1133));
#28 = ADVANCED_FACE('',(#29),#43,.T.);
#29 = FACE_BOUND('',#30,.F.);
#30 = EDGE_LOOP('',(#31,#66,#95,#123));
#31 = ORIENTED_EDGE('',*,*,#32,.T.);
#32 = EDGE_CURVE('',#33,#35,#37,.T.);
#33 = VERTEX_POINT('',#34);
#34 = CARTESIAN_POINT('',(69.316,-22.86,0.E+000));
#35 = VERTEX_POINT('',#36);
#36 = CARTESIAN_POINT('',(69.316,-22.86,1.6));
#37 = SURFACE_CURVE('',#38,(#42,#54),.PCURVE_S1.);
#38 = LINE('',#39,#40);
#39 = CARTESIAN_POINT('',(69.316,-22.86,0.E+000));
#40 = VECTOR('',#41,1.);
#41 = DIRECTION('',(0.E+000,0.E+000,1.));
#42 = PCURVE('',#43,#48);
#43 = CYLINDRICAL_SURFACE('',#44,1.625);
#44 = AXIS2_PLACEMENT_3D('',#45,#46,#47);
#45 = CARTESIAN_POINT('',(67.691,-22.86,0.E+000));
#46 = DIRECTION('',(-0.E+000,-0.E+000,-1.));
#47 = DIRECTION('',(1.,0.E+000,-0.E+000));
#48 = DEFINITIONAL_REPRESENTATION('',(#49),#53);
#49 = LINE('',#50,#51);
#50 = CARTESIAN_POINT('',(-0.E+000,0.E+000));
#51 = VECTOR('',#52,1.);
#52 = DIRECTION('',(-0.E+000,-1.));
#53 = ( GEOMETRIC_REPRESENTATION_CONTEXT(2) 
PARAMETRIC_REPRESENTATION_CONTEXT() REPRESENTATION_CONTEXT('2D SPACE',''
  ) );
#54 = PCURVE('',#55,#60);
#55 = PLANE('',#56);
#56 = AXIS2_PLACEMENT_3D('',#57,#58,#59);
#57 = CARTESIAN_POINT('',(69.315999,-62.860001,0.E+000));
#58 = DIRECTION('',(-1.,2.499999931188E-008,0.E+000));
#59 = DIRECTION('',(2.499999931188E-008,1.,0.E+000));
#60 = DEFINITIONAL_REPRESENTATION('',(#61),#65);
#61 = LINE('',#62,#63);
#62 = CARTESIAN_POINT('',(40.000001,0.E+000));
#63 = VECTOR('',#64,1.);
#64 = DIRECTION('',(0.E+000,-1.));
#65 = ( GEOMETRIC_REPRESENTATION_CONTEXT(2) 
PARAMETRIC_REPRESENTATION_CONTEXT() REPRESENTATION_CONTEXT('2D SPACE',''
  ) );
#66 = ORIENTED_EDGE('',*,*,#67,.T.);
#67 = EDGE_CURVE('',#35,#68,#70,.T.);
#68 = VERTEX_POINT('',#69);
#69 = CARTESIAN_POINT('',(67.691,-21.235,1.6));
#70 = SURFACE_CURVE('',#71,(#76,#83),.PCURVE_S1.);
#71 = CIRCLE('',#72,1.625);
#72 = AXIS2_PLACEMENT_3D('',#73,#74,#75);
#73 = CARTESIAN_POINT('',(67.691,-22.86,1.6));
#74 = DIRECTION('',(0.E+000,0.E+000,1.));
#75 = DIRECTION('',(1.,0.E+000,-0.E+000));
#76 = PCURVE('',#43,#77);
#77 = DEFINITIONAL_REPRESENTATION('',(#78),#82);
#78 = LINE('',#79,#80);
#79 = CARTESIAN_POINT('',(-0.E+000,-1.6));
#80 = VECTOR('',#81,1.);
#81 = DIRECTION('',(-1.,0.E+000));
#82 = ( GEOMETRIC_REPRESENTATION_CONTEXT(2) 
PARAMETRIC_REPRESENTATION_CONTEXT() REPRESENTATION_CONTEXT('2D SPACE',''
  ) );
#83 = PCURVE('',#84,#89);
#84 = PLANE('',#85);
#85 = AXIS2_PLACEMENT_3D('',#86,#87,#88);
#86 = CARTESIAN_POINT('',(48.235130231214,-45.88279450765,1.6));
#87 = DIRECTION('',(0.E+000,0.E+000,1.));
#88 = DIRECTION('',(1.,0.E+000,-0.E+000));
#89 = DEFINITIONAL_REPRESENTATION('',(#90),#94);
#90 = CIRCLE('',#91,1.625);
#91 = AXIS2_PLACEMENT_2D('',#92,#93);
#92 = CARTESIAN_POINT('',(19.455869768786,23.022794507653));
#93 = DIRECTION('',(1.,0.E+000));
#94 = ( GEOMETRIC_REPRESENTATION_CONTEXT(2) 
PARAMETRIC_REPRESENTATION_CONTEXT() REPRESENTATION_CONTEXT('2D SPACE',''
  ) );
#95 = ORIENTED_EDGE('',*,*,#96,.F.);
#96 = EDGE_CURVE('',#97,#68,#99,.T.);
#97 = VERTEX_POINT('',#98);
#98 = CARTESIAN_POINT('',(67.691,-21.235,0.E+000));
#99 = SURFACE_CURVE('',#100,(#104,#111),.PCURVE_S1.);
#100 = LINE('',#101,#102);
#101 = CARTESIAN_POINT('',(67.691,-21.235,0.E+000));
#102 = VECTOR('',#103,1.);
#103 = DIRECTION('',(0.E+000,0.E+000,1.));
#104 = PCURVE('',#43,#105);
#105 = DEFINITIONAL_REPRESENTATION('',(#106),#110);
#106 = LINE('',#107,#108);
#107 = CARTESIAN_POINT('',(-1.570796326795,0.E+000));
#108 = VECTOR('',#109,1.);
#109 = DIRECTION('',(-0.E+000,-1.));
#110 = ( GEOMETRIC_REPRESENTATION_CONTEXT(2) 
PARAMETRIC_REPRESENTATION_CONTEXT() REPRESENTATION_CONTEXT('2D SPACE',''
  ) );
#111 = PCURVE('',#112,#117);
#112 = PLANE('',#113);
#113 = AXIS2_PLACEMENT_3D('',#114,#115,#116);
#114 = CARTESIAN_POINT('',(67.691,-21.235,0.E+000));
#115 = DIRECTION('',(0.E+000,-1.,0.E+000));
#116 = DIRECTION('',(-1.,0.E+000,0.E+000));
#117 = DEFINITIONAL_REPRESENTATION('',(#118),#122);
#118 = LINE('',#119,#120);
#119 = CARTESIAN_POINT('',(0.E+000,-0.E+000));
#120 = VECTOR('',#121,1.);
#121 = DIRECTION('',(0.E+000,-1.));
#122 = ( GEOMETRIC_REPRESENTATION_CONTEXT(2) 
PARAMETRIC_REPRESENTATION_CONTEXT() REPRESENTATION_CONTEXT('2D SPACE',''
  ) );
#123 = ORIENTED_EDGE('',*,*,#124,.F.);
#124 = EDGE_CURVE('',#33,#97,#125,.T.);
#125 = SURFACE_CURVE('',#126,(#131,#138),.PCURVE_S1.);
#126 = CIRCLE('',#127,1.625);
#127 = AXIS2_PLACEMENT_3D('',#128,#129,#130);
#128 = CARTESIAN_POINT('',(67.691,-22.86,0.E+000));
#129 = DIRECTION('',(0.E+000,0.E+000,1.));
#130 = DIRECTION('',(1.,0.E+000,-0.E+000));
#131 = PCURVE('',#43,#132);
#132 = DEFINITIONAL_REPRESENTATION('',(#133),#137);
#133 = LINE('',#134,#135);
#134 = CARTESIAN_POINT('',(-0.E+000,0.E+000));
#135 = VECTOR('',#136,1.);
#136 = DIRECTION('',(-1.,0.E+000));
#137 = ( GEOMETRIC_REPRESENTATION_CONTEXT(2) 
PARAMETRIC_REPRESENTATION_CONTEXT() REPRESENTATION_CONTEXT('2D SPACE',''
  ) );
#138 = PCURVE('',#139,#144);
#139 = PLANE('',#140);
#140 = AXIS2_PLACEMENT_3D('',#141,#142,#143);
#141 = CARTESIAN_POINT('',(48.235130231214,-45.88279450765,0.E+000));
#142 = DIRECTION('',(0.E+000,0.E+000,1.));
#143 = DIRECTION('',(1.,0.E+000,-0.E+000));
#144 = DEFINITIONAL_REPRESENTATION('',(#145),#149);
#145 = CIRCLE('',#146,1.625);
#146 = AXIS2_PLACEMENT_2D('',#147,#148);
#147 = CARTESIAN_POINT('',(19.455869768786,23.022794507653));
#148 = DIRECTION('',(1.,0.E+000));
#149 = ( GEOMETRIC_REPRESENTATION_CONTEXT(2) 
PARAMETRIC_REPRESENTATION_CONTEXT() REPRESENTATION_CONTEXT('2D SPACE',''
  ) );
#150 = ADVANCED_FACE('',(#151),#55,.F.);
#151 = FACE_BOUND('',#152,.F.);
#152 = EDGE_LOOP('',(#153,#183,#204,#205));
#153 = ORIENTED_EDGE('',*,*,#154,.T.);
#154 = EDGE_CURVE('',#155,#157,#159,.T.);
#155 = VERTEX_POINT('',#156);
#156 = CARTESIAN_POINT('',(69.315999,-62.860001,0.E+000));
#157 = VERTEX_POINT('',#158);
#158 = CARTESIAN_POINT('',(69.315999,-62.860001,1.6));
#159 = SURFACE_CURVE('',#160,(#164,#171),.PCURVE_S1.);
#160 = LINE('',#161,#162);
#161 = CARTESIAN_POINT('',(69.315999,-62.860001,0.E+000));
#162 = VECTOR('',#163,1.);
#163 = DIRECTION('',(0.E+000,0.E+000,1.));
#164 = PCURVE('',#55,#165);
#165 = DEFINITIONAL_REPRESENTATION('',(#166),#170);
#166 = LINE('',#167,#168);
#167 = CARTESIAN_POINT('',(0.E+000,0.E+000));
#168 = VECTOR('',#169,1.);
#169 = DIRECTION('',(0.E+000,-1.));
#170 = ( GEOMETRIC_REPRESENTATION_CONTEXT(2) 
PARAMETRIC_REPRESENTATION_CONTEXT() REPRESENTATION_CONTEXT('2D SPACE',''
  ) );
#171 = PCURVE('',#172,#177);
#172 = CYLINDRICAL_SURFACE('',#173,1.624999);
#173 = AXIS2_PLACEMENT_3D('',#174,#175,#176);
#174 = CARTESIAN_POINT('',(67.691,-62.860001,0.E+000));
#175 = DIRECTION('',(-0.E+000,-0.E+000,-1.));
#176 = DIRECTION('',(1.,0.E+000,-0.E+000));
#177 = DEFINITIONAL_REPRESENTATION('',(#178),#182);
#178 = LINE('',#179,#180);
#179 = CARTESIAN_POINT('',(-6.28318530718,0.E+000));
#180 = VECTOR('',#181,1.);
#181 = DIRECTION('',(-0.E+000,-1.));
#182 = ( GEOMETRIC_REPRESENTATION_CONTEXT(2) 
PARAMETRIC_REPRESENTATION_CONTEXT() REPRESENTATION_CONTEXT('2D SPACE',''
  ) );
#183 = ORIENTED_EDGE('',*,*,#184,.T.);
#184 = EDGE_CURVE('',#157,#35,#185,.T.);
#185 = SURFACE_CURVE('',#186,(#190,#197),.PCURVE_S1.);
#186 = LINE('',#187,#188);
#187 = CARTESIAN_POINT('',(69.315999,-62.860001,1.6));
#188 = VECTOR('',#189,1.);
#189 = DIRECTION('',(2.499999931188E-008,1.,0.E+000));
#190 = PCURVE('',#55,#191);
#191 = DEFINITIONAL_REPRESENTATION('',(#192),#196);
#192 = LINE('',#193,#194);
#193 = CARTESIAN_POINT('',(0.E+000,-1.6));
#194 = VECTOR('',#195,1.);
#195 = DIRECTION('',(1.,0.E+000));
#196 = ( GEOMETRIC_REPRESENTATION_CONTEXT(2) 
PARAMETRIC_REPRESENTATION_CONTEXT() REPRESENTATION_CONTEXT('2D SPACE',''
  ) );
#197 = PCURVE('',#84,#198);
#198 = DEFINITIONAL_REPRESENTATION('',(#199),#203);
#199 = LINE('',#200,#201);
#200 = CARTESIAN_POINT('',(21.080868768786,-16.97720649234));
#201 = VECTOR('',#202,1.);
#202 = DIRECTION('',(2.499999931188E-008,1.));
#203 = ( GEOMETRIC_REPRESENTATION_CONTEXT(2) 
PARAMETRIC_REPRESENTATION_CONTEXT() REPRESENTATION_CONTEXT('2D SPACE',''
  ) );
#204 = ORIENTED_EDGE('',*,*,#32,.F.);
#205 = ORIENTED_EDGE('',*,*,#206,.F.);
#206 = EDGE_CURVE('',#155,#33,#207,.T.);
#207 = SURFACE_CURVE('',#208,(#212,#219),.PCURVE_S1.);
#208 = LINE('',#209,#210);
#209 = CARTESIAN_POINT('',(69.315999,-62.860001,0.E+000));
#210 = VECTOR('',#211,1.);
#211 = DIRECTION('',(2.499999931188E-008,1.,0.E+000));
#212 = PCURVE('',#55,#213);
#213 = DEFINITIONAL_REPRESENTATION('',(#214),#218);
#214 = LINE('',#215,#216);
#215 = CARTESIAN_POINT('',(0.E+000,0.E+000));
#216 = VECTOR('',#217,1.);
#217 = DIRECTION('',(1.,0.E+000));
#218 = ( GEOMETRIC_REPRESENTATION_CONTEXT(2) 
PARAMETRIC_REPRESENTATION_CONTEXT() REPRESENTATION_CONTEXT('2D SPACE',''
  ) );
#219 = PCURVE('',#139,#220);
#220 = DEFINITIONAL_REPRESENTATION('',(#221),#225);
#221 = LINE('',#222,#223);
#222 = CARTESIAN_POINT('',(21.080868768786,-16.97720649234));
#223 = VECTOR('',#224,1.);
#224 = DIRECTION('',(2.499999931188E-008,1.));
#225 = ( GEOMETRIC_REPRESENTATION_CONTEXT(2) 
PARAMETRIC_REPRESENTATION_CONTEXT() REPRESENTATION_CONTEXT('2D SPACE',''
  ) );
#226 = ADVANCED_FACE('',(#227),#112,.F.);
#227 = FACE_BOUND('',#228,.F.);
#228 = EDGE_LOOP('',(#229,#230,#253,#281));
#229 = ORIENTED_EDGE('',*,*,#96,.T.);
#230 = ORIENTED_EDGE('',*,*,#231,.T.);
#231 = EDGE_CURVE('',#68,#232,#234,.T.);
#232 = VERTEX_POINT('',#233);
#233 = CARTESIAN_POINT('',(29.691,-21.235,1.6));
#234 = SURFACE_CURVE('',#235,(#239,#246),.PCURVE_S1.);
#235 = LINE('',#236,#237);
#236 = CARTESIAN_POINT('',(67.691,-21.235,1.6));
#237 = VECTOR('',#238,1.);
#238 = DIRECTION('',(-1.,0.E+000,0.E+000));
#239 = PCURVE('',#112,#240);
#240 = DEFINITIONAL_REPRESENTATION('',(#241),#245);
#241 = LINE('',#242,#243);
#242 = CARTESIAN_POINT('',(0.E+000,-1.6));
#243 = VECTOR('',#244,1.);
#244 = DIRECTION('',(1.,0.E+000));
#245 = ( GEOMETRIC_REPRESENTATION_CONTEXT(2) 
PARAMETRIC_REPRESENTATION_CONTEXT() REPRESENTATION_CONTEXT('2D SPACE',''
  ) );
#246 = PCURVE('',#84,#247);
#247 = DEFINITIONAL_REPRESENTATION('',(#248),#252);
#248 = LINE('',#249,#250);
#249 = CARTESIAN_POINT('',(19.455869768786,24.647794507653));
#250 = VECTOR('',#251,1.);
#251 = DIRECTION('',(-1.,0.E+000));
#252 = ( GEOMETRIC_REPRESENTATION_CONTEXT(2) 
PARAMETRIC_REPRESENTATION_CONTEXT() REPRESENTATION_CONTEXT('2D SPACE',''
  ) );
#253 = ORIENTED_EDGE('',*,*,#254,.F.);
#254 = EDGE_CURVE('',#255,#232,#257,.T.);
#255 = VERTEX_POINT('',#256);
#256 = CARTESIAN_POINT('',(29.691,-21.235,0.E+000));
#257 = SURFACE_CURVE('',#258,(#262,#269),.PCURVE_S1.);
#258 = LINE('',#259,#260);
#259 = CARTESIAN_POINT('',(29.691,-21.235,0.E+000));
#260 = VECTOR('',#261,1.);
#261 = DIRECTION('',(0.E+000,0.E+000,1.));
#262 = PCURVE('',#112,#263);
#263 = DEFINITIONAL_REPRESENTATION('',(#264),#268);
#264 = LINE('',#265,#266);
#265 = CARTESIAN_POINT('',(38.,0.E+000));
#266 = VECTOR('',#267,1.);
#267 = DIRECTION('',(0.E+000,-1.));
#268 = ( GEOMETRIC_REPRESENTATION_CONTEXT(2) 
PARAMETRIC_REPRESENTATION_CONTEXT() REPRESENTATION_CONTEXT('2D SPACE',''
  ) );
#269 = PCURVE('',#270,#275);
#270 = CYLINDRICAL_SURFACE('',#271,1.625001);
#271 = AXIS2_PLACEMENT_3D('',#272,#273,#274);
#272 = CARTESIAN_POINT('',(29.691,-22.860001,0.E+000));
#273 = DIRECTION('',(-0.E+000,-0.E+000,-1.));
#274 = DIRECTION('',(1.,0.E+000,-0.E+000));
#275 = DEFINITIONAL_REPRESENTATION('',(#276),#280);
#276 = LINE('',#277,#278);
#277 = CARTESIAN_POINT('',(-1.570796326795,0.E+000));
#278 = VECTOR('',#279,1.);
#279 = DIRECTION('',(-0.E+000,-1.));
#280 = ( GEOMETRIC_REPRESENTATION_CONTEXT(2) 
PARAMETRIC_REPRESENTATION_CONTEXT() REPRESENTATION_CONTEXT('2D SPACE',''
  ) );
#281 = ORIENTED_EDGE('',*,*,#282,.F.);
#282 = EDGE_CURVE('',#97,#255,#283,.T.);
#283 = SURFACE_CURVE('',#284,(#288,#295),.PCURVE_S1.);
#284 = LINE('',#285,#286);
#285 = CARTESIAN_POINT('',(67.691,-21.235,0.E+000));
#286 = VECTOR('',#287,1.);
#287 = DIRECTION('',(-1.,0.E+000,0.E+000));
#288 = PCURVE('',#112,#289);
#289 = DEFINITIONAL_REPRESENTATION('',(#290),#294);
#290 = LINE('',#291,#292);
#291 = CARTESIAN_POINT('',(0.E+000,-0.E+000));
#292 = VECTOR('',#293,1.);
#293 = DIRECTION('',(1.,0.E+000));
#294 = ( GEOMETRIC_REPRESENTATION_CONTEXT(2) 
PARAMETRIC_REPRESENTATION_CONTEXT() REPRESENTATION_CONTEXT('2D SPACE',''
  ) );
#295 = PCURVE('',#139,#296);
#296 = DEFINITIONAL_REPRESENTATION('',(#297),#301);
#297 = LINE('',#298,#299);
#298 = CARTESIAN_POINT('',(19.455869768786,24.647794507653));
#299 = VECTOR('',#300,1.);
#300 = DIRECTION('',(-1.,0.E+000));
#301 = ( GEOMETRIC_REPRESENTATION_CONTEXT(2) 
PARAMETRIC_REPRESENTATION_CONTEXT() REPRESENTATION_CONTEXT('2D SPACE',''
  ) );
#302 = ADVANCED_FACE('',(#303,#553,#584),#139,.F.);
#303 = FACE_BOUND('',#304,.F.);
#304 = EDGE_LOOP('',(#305,#306,#307,#331,#359,#388,#416,#445,#473,#502,
    #530,#552));
#305 = ORIENTED_EDGE('',*,*,#124,.T.);
#306 = ORIENTED_EDGE('',*,*,#282,.T.);
#307 = ORIENTED_EDGE('',*,*,#308,.T.);
#308 = EDGE_CURVE('',#255,#309,#311,.T.);
#309 = VERTEX_POINT('',#310);
#310 = CARTESIAN_POINT('',(28.065999,-22.860001,0.E+000));
#311 = SURFACE_CURVE('',#312,(#317,#324),.PCURVE_S1.);
#312 = CIRCLE('',#313,1.625001);
#313 = AXIS2_PLACEMENT_3D('',#314,#315,#316);
#314 = CARTESIAN_POINT('',(29.691,-22.860001,0.E+000));
#315 = DIRECTION('',(0.E+000,0.E+000,1.));
#316 = DIRECTION('',(1.,0.E+000,-0.E+000));
#317 = PCURVE('',#139,#318);
#318 = DEFINITIONAL_REPRESENTATION('',(#319),#323);
#319 = CIRCLE('',#320,1.625001);
#320 = AXIS2_PLACEMENT_2D('',#321,#322);
#321 = CARTESIAN_POINT('',(-18.54413023121,23.022793507653));
#322 = DIRECTION('',(1.,0.E+000));
#323 = ( GEOMETRIC_REPRESENTATION_CONTEXT(2) 
PARAMETRIC_REPRESENTATION_CONTEXT() REPRESENTATION_CONTEXT('2D SPACE',''
  ) );
#324 = PCURVE('',#270,#325);
#325 = DEFINITIONAL_REPRESENTATION('',(#326),#330);
#326 = LINE('',#327,#328);
#327 = CARTESIAN_POINT('',(-0.E+000,0.E+000));
#328 = VECTOR('',#329,1.);
#329 = DIRECTION('',(-1.,0.E+000));
#330 = ( GEOMETRIC_REPRESENTATION_CONTEXT(2) 
PARAMETRIC_REPRESENTATION_CONTEXT() REPRESENTATION_CONTEXT('2D SPACE',''
  ) );
#331 = ORIENTED_EDGE('',*,*,#332,.T.);
#332 = EDGE_CURVE('',#309,#333,#335,.T.);
#333 = VERTEX_POINT('',#334);
#334 = CARTESIAN_POINT('',(28.066001,-68.86,0.E+000));
#335 = SURFACE_CURVE('',#336,(#340,#347),.PCURVE_S1.);
#336 = LINE('',#337,#338);
#337 = CARTESIAN_POINT('',(28.065999,-22.860001,0.E+000));
#338 = VECTOR('',#339,1.);
#339 = DIRECTION('',(4.347826185944E-008,-1.,0.E+000));
#340 = PCURVE('',#139,#341);
#341 = DEFINITIONAL_REPRESENTATION('',(#342),#346);
#342 = LINE('',#343,#344);
#343 = CARTESIAN_POINT('',(-20.16913123121,23.022793507653));
#344 = VECTOR('',#345,1.);
#345 = DIRECTION('',(4.347826185944E-008,-1.));
#346 = ( GEOMETRIC_REPRESENTATION_CONTEXT(2) 
PARAMETRIC_REPRESENTATION_CONTEXT() REPRESENTATION_CONTEXT('2D SPACE',''
  ) );
#347 = PCURVE('',#348,#353);
#348 = PLANE('',#349);
#349 = AXIS2_PLACEMENT_3D('',#350,#351,#352);
#350 = CARTESIAN_POINT('',(28.065999,-22.860001,0.E+000));
#351 = DIRECTION('',(1.,4.347826185944E-008,-0.E+000));
#352 = DIRECTION('',(4.347826185944E-008,-1.,0.E+000));
#353 = DEFINITIONAL_REPRESENTATION('',(#354),#358);
#354 = LINE('',#355,#356);
#355 = CARTESIAN_POINT('',(0.E+000,0.E+000));
#356 = VECTOR('',#357,1.);
#357 = DIRECTION('',(1.,0.E+000));
#358 = ( GEOMETRIC_REPRESENTATION_CONTEXT(2) 
PARAMETRIC_REPRESENTATION_CONTEXT() REPRESENTATION_CONTEXT('2D SPACE',''
  ) );
#359 = ORIENTED_EDGE('',*,*,#360,.T.);
#360 = EDGE_CURVE('',#333,#361,#363,.T.);
#361 = VERTEX_POINT('',#362);
#362 = CARTESIAN_POINT('',(31.241,-72.034999,0.E+000));
#363 = SURFACE_CURVE('',#364,(#369,#376),.PCURVE_S1.);
#364 = CIRCLE('',#365,3.174999);
#365 = AXIS2_PLACEMENT_3D('',#366,#367,#368);
#366 = CARTESIAN_POINT('',(31.241,-68.86,0.E+000));
#367 = DIRECTION('',(0.E+000,0.E+000,1.));
#368 = DIRECTION('',(1.,0.E+000,-0.E+000));
#369 = PCURVE('',#139,#370);
#370 = DEFINITIONAL_REPRESENTATION('',(#371),#375);
#371 = CIRCLE('',#372,3.174999);
#372 = AXIS2_PLACEMENT_2D('',#373,#374);
#373 = CARTESIAN_POINT('',(-16.99413023121,-22.97720549234));
#374 = DIRECTION('',(1.,0.E+000));
#375 = ( GEOMETRIC_REPRESENTATION_CONTEXT(2) 
PARAMETRIC_REPRESENTATION_CONTEXT() REPRESENTATION_CONTEXT('2D SPACE',''
  ) );
#376 = PCURVE('',#377,#382);
#377 = CYLINDRICAL_SURFACE('',#378,3.174999);
#378 = AXIS2_PLACEMENT_3D('',#379,#380,#381);
#379 = CARTESIAN_POINT('',(31.241,-68.86,0.E+000));
#380 = DIRECTION('',(-0.E+000,-0.E+000,-1.));
#381 = DIRECTION('',(1.,0.E+000,-0.E+000));
#382 = DEFINITIONAL_REPRESENTATION('',(#383),#387);
#383 = LINE('',#384,#385);
#384 = CARTESIAN_POINT('',(-0.E+000,0.E+000));
#385 = VECTOR('',#386,1.);
#386 = DIRECTION('',(-1.,0.E+000));
#387 = ( GEOMETRIC_REPRESENTATION_CONTEXT(2) 
PARAMETRIC_REPRESENTATION_CONTEXT() REPRESENTATION_CONTEXT('2D SPACE',''
  ) );
#388 = ORIENTED_EDGE('',*,*,#389,.T.);
#389 = EDGE_CURVE('',#361,#390,#392,.T.);
#390 = VERTEX_POINT('',#391);
#391 = CARTESIAN_POINT('',(56.641,-72.035,0.E+000));
#392 = SURFACE_CURVE('',#393,(#397,#404),.PCURVE_S1.);
#393 = LINE('',#394,#395);
#394 = CARTESIAN_POINT('',(31.241,-72.034999,0.E+000));
#395 = VECTOR('',#396,1.);
#396 = DIRECTION('',(1.,-3.937007864076E-008,0.E+000));
#397 = PCURVE('',#139,#398);
#398 = DEFINITIONAL_REPRESENTATION('',(#399),#403);
#399 = LINE('',#400,#401);
#400 = CARTESIAN_POINT('',(-16.99413023121,-26.15220449234));
#401 = VECTOR('',#402,1.);
#402 = DIRECTION('',(1.,-3.937007864076E-008));
#403 = ( GEOMETRIC_REPRESENTATION_CONTEXT(2) 
PARAMETRIC_REPRESENTATION_CONTEXT() REPRESENTATION_CONTEXT('2D SPACE',''
  ) );
#404 = PCURVE('',#405,#410);
#405 = PLANE('',#406);
#406 = AXIS2_PLACEMENT_3D('',#407,#408,#409);
#407 = CARTESIAN_POINT('',(31.241,-72.034999,0.E+000));
#408 = DIRECTION('',(3.937007864076E-008,1.,-0.E+000));
#409 = DIRECTION('',(1.,-3.937007864076E-008,0.E+000));
#410 = DEFINITIONAL_REPRESENTATION('',(#411),#415);
#411 = LINE('',#412,#413);
#412 = CARTESIAN_POINT('',(0.E+000,0.E+000));
#413 = VECTOR('',#414,1.);
#414 = DIRECTION('',(1.,0.E+000));
#415 = ( GEOMETRIC_REPRESENTATION_CONTEXT(2) 
PARAMETRIC_REPRESENTATION_CONTEXT() REPRESENTATION_CONTEXT('2D SPACE',''
  ) );
#416 = ORIENTED_EDGE('',*,*,#417,.T.);
#417 = EDGE_CURVE('',#390,#418,#420,.T.);
#418 = VERTEX_POINT('',#419);
#419 = CARTESIAN_POINT('',(59.816,-68.86,0.E+000));
#420 = SURFACE_CURVE('',#421,(#426,#433),.PCURVE_S1.);
#421 = CIRCLE('',#422,3.175);
#422 = AXIS2_PLACEMENT_3D('',#423,#424,#425);
#423 = CARTESIAN_POINT('',(56.641,-68.86,0.E+000));
#424 = DIRECTION('',(0.E+000,0.E+000,1.));
#425 = DIRECTION('',(1.,0.E+000,-0.E+000));
#426 = PCURVE('',#139,#427);
#427 = DEFINITIONAL_REPRESENTATION('',(#428),#432);
#428 = CIRCLE('',#429,3.175);
#429 = AXIS2_PLACEMENT_2D('',#430,#431);
#430 = CARTESIAN_POINT('',(8.405869768786,-22.97720549234));
#431 = DIRECTION('',(1.,0.E+000));
#432 = ( GEOMETRIC_REPRESENTATION_CONTEXT(2) 
PARAMETRIC_REPRESENTATION_CONTEXT() REPRESENTATION_CONTEXT('2D SPACE',''
  ) );
#433 = PCURVE('',#434,#439);
#434 = CYLINDRICAL_SURFACE('',#435,3.175);
#435 = AXIS2_PLACEMENT_3D('',#436,#437,#438);
#436 = CARTESIAN_POINT('',(56.641,-68.86,0.E+000));
#437 = DIRECTION('',(-0.E+000,-0.E+000,-1.));
#438 = DIRECTION('',(1.,0.E+000,-0.E+000));
#439 = DEFINITIONAL_REPRESENTATION('',(#440),#444);
#440 = LINE('',#441,#442);
#441 = CARTESIAN_POINT('',(-0.E+000,0.E+000));
#442 = VECTOR('',#443,1.);
#443 = DIRECTION('',(-1.,0.E+000));
#444 = ( GEOMETRIC_REPRESENTATION_CONTEXT(2) 
PARAMETRIC_REPRESENTATION_CONTEXT() REPRESENTATION_CONTEXT('2D SPACE',''
  ) );
#445 = ORIENTED_EDGE('',*,*,#446,.T.);
#446 = EDGE_CURVE('',#418,#447,#449,.T.);
#447 = VERTEX_POINT('',#448);
#448 = CARTESIAN_POINT('',(59.816,-66.110002,0.E+000));
#449 = SURFACE_CURVE('',#450,(#454,#461),.PCURVE_S1.);
#450 = LINE('',#451,#452);
#451 = CARTESIAN_POINT('',(59.816,-68.86,0.E+000));
#452 = VECTOR('',#453,1.);
#453 = DIRECTION('',(2.583793645523E-015,1.,0.E+000));
#454 = PCURVE('',#139,#455);
#455 = DEFINITIONAL_REPRESENTATION('',(#456),#460);
#456 = LINE('',#457,#458);
#457 = CARTESIAN_POINT('',(11.580869768786,-22.97720549234));
#458 = VECTOR('',#459,1.);
#459 = DIRECTION('',(2.583793645523E-015,1.));
#460 = ( GEOMETRIC_REPRESENTATION_CONTEXT(2) 
PARAMETRIC_REPRESENTATION_CONTEXT() REPRESENTATION_CONTEXT('2D SPACE',''
  ) );
#461 = PCURVE('',#462,#467);
#462 = PLANE('',#463);
#463 = AXIS2_PLACEMENT_3D('',#464,#465,#466);
#464 = CARTESIAN_POINT('',(59.816,-68.86,0.E+000));
#465 = DIRECTION('',(-1.,2.583793645523E-015,0.E+000));
#466 = DIRECTION('',(2.583793645523E-015,1.,0.E+000));
#467 = DEFINITIONAL_REPRESENTATION('',(#468),#472);
#468 = LINE('',#469,#470);
#469 = CARTESIAN_POINT('',(0.E+000,0.E+000));
#470 = VECTOR('',#471,1.);
#471 = DIRECTION('',(1.,0.E+000));
#472 = ( GEOMETRIC_REPRESENTATION_CONTEXT(2) 
PARAMETRIC_REPRESENTATION_CONTEXT() REPRESENTATION_CONTEXT('2D SPACE',''
  ) );
#473 = ORIENTED_EDGE('',*,*,#474,.F.);
#474 = EDGE_CURVE('',#475,#447,#477,.T.);
#475 = VERTEX_POINT('',#476);
#476 = CARTESIAN_POINT('',(61.440999,-64.485001,0.E+000));
#477 = SURFACE_CURVE('',#478,(#483,#490),.PCURVE_S1.);
#478 = CIRCLE('',#479,1.625);
#479 = AXIS2_PLACEMENT_3D('',#480,#481,#482);
#480 = CARTESIAN_POINT('',(61.441,-66.110001,0.E+000));
#481 = DIRECTION('',(0.E+000,0.E+000,1.));
#482 = DIRECTION('',(1.,0.E+000,-0.E+000));
#483 = PCURVE('',#139,#484);
#484 = DEFINITIONAL_REPRESENTATION('',(#485),#489);
#485 = CIRCLE('',#486,1.625);
#486 = AXIS2_PLACEMENT_2D('',#487,#488);
#487 = CARTESIAN_POINT('',(13.205869768786,-20.22720649234));
#488 = DIRECTION('',(1.,0.E+000));
#489 = ( GEOMETRIC_REPRESENTATION_CONTEXT(2) 
PARAMETRIC_REPRESENTATION_CONTEXT() REPRESENTATION_CONTEXT('2D SPACE',''
  ) );
#490 = PCURVE('',#491,#496);
#491 = CYLINDRICAL_SURFACE('',#492,1.625);
#492 = AXIS2_PLACEMENT_3D('',#493,#494,#495);
#493 = CARTESIAN_POINT('',(61.441,-66.110001,0.E+000));
#494 = DIRECTION('',(-0.E+000,-0.E+000,-1.));
#495 = DIRECTION('',(1.,0.E+000,-0.E+000));
#496 = DEFINITIONAL_REPRESENTATION('',(#497),#501);
#497 = LINE('',#498,#499);
#498 = CARTESIAN_POINT('',(-0.E+000,0.E+000));
#499 = VECTOR('',#500,1.);
#500 = DIRECTION('',(-1.,0.E+000));
#501 = ( GEOMETRIC_REPRESENTATION_CONTEXT(2) 
PARAMETRIC_REPRESENTATION_CONTEXT() REPRESENTATION_CONTEXT('2D SPACE',''
  ) );
#502 = ORIENTED_EDGE('',*,*,#503,.T.);
#503 = EDGE_CURVE('',#475,#504,#506,.T.);
#504 = VERTEX_POINT('',#505);
#505 = CARTESIAN_POINT('',(67.691,-64.485,0.E+000));
#506 = SURFACE_CURVE('',#507,(#511,#518),.PCURVE_S1.);
#507 = LINE('',#508,#509);
#508 = CARTESIAN_POINT('',(61.440999,-64.485001,0.E+000));
#509 = VECTOR('',#510,1.);
#510 = DIRECTION('',(1.,1.59999973996E-007,0.E+000));
#511 = PCURVE('',#139,#512);
#512 = DEFINITIONAL_REPRESENTATION('',(#513),#517);
#513 = LINE('',#514,#515);
#514 = CARTESIAN_POINT('',(13.205868768786,-18.60220649234));
#515 = VECTOR('',#516,1.);
#516 = DIRECTION('',(1.,1.59999973996E-007));
#517 = ( GEOMETRIC_REPRESENTATION_CONTEXT(2) 
PARAMETRIC_REPRESENTATION_CONTEXT() REPRESENTATION_CONTEXT('2D SPACE',''
  ) );
#518 = PCURVE('',#519,#524);
#519 = PLANE('',#520);
#520 = AXIS2_PLACEMENT_3D('',#521,#522,#523);
#521 = CARTESIAN_POINT('',(61.440999,-64.485001,0.E+000));
#522 = DIRECTION('',(-1.59999973996E-007,1.,0.E+000));
#523 = DIRECTION('',(1.,1.59999973996E-007,0.E+000));
#524 = DEFINITIONAL_REPRESENTATION('',(#525),#529);
#525 = LINE('',#526,#527);
#526 = CARTESIAN_POINT('',(0.E+000,0.E+000));
#527 = VECTOR('',#528,1.);
#528 = DIRECTION('',(1.,0.E+000));
#529 = ( GEOMETRIC_REPRESENTATION_CONTEXT(2) 
PARAMETRIC_REPRESENTATION_CONTEXT() REPRESENTATION_CONTEXT('2D SPACE',''
  ) );
#530 = ORIENTED_EDGE('',*,*,#531,.T.);
#531 = EDGE_CURVE('',#504,#155,#532,.T.);
#532 = SURFACE_CURVE('',#533,(#538,#545),.PCURVE_S1.);
#533 = CIRCLE('',#534,1.624999);
#534 = AXIS2_PLACEMENT_3D('',#535,#536,#537);
#535 = CARTESIAN_POINT('',(67.691,-62.860001,0.E+000));
#536 = DIRECTION('',(0.E+000,0.E+000,1.));
#537 = DIRECTION('',(1.,0.E+000,-0.E+000));
#538 = PCURVE('',#139,#539);
#539 = DEFINITIONAL_REPRESENTATION('',(#540),#544);
#540 = CIRCLE('',#541,1.624999);
#541 = AXIS2_PLACEMENT_2D('',#542,#543);
#542 = CARTESIAN_POINT('',(19.455869768786,-16.97720649234));
#543 = DIRECTION('',(1.,0.E+000));
#544 = ( GEOMETRIC_REPRESENTATION_CONTEXT(2) 
PARAMETRIC_REPRESENTATION_CONTEXT() REPRESENTATION_CONTEXT('2D SPACE',''
  ) );
#545 = PCURVE('',#172,#546);
#546 = DEFINITIONAL_REPRESENTATION('',(#547),#551);
#547 = LINE('',#548,#549);
#548 = CARTESIAN_POINT('',(-0.E+000,0.E+000));
#549 = VECTOR('',#550,1.);
#550 = DIRECTION('',(-1.,0.E+000));
#551 = ( GEOMETRIC_REPRESENTATION_CONTEXT(2) 
PARAMETRIC_REPRESENTATION_CONTEXT() REPRESENTATION_CONTEXT('2D SPACE',''
  ) );
#552 = ORIENTED_EDGE('',*,*,#206,.T.);
#553 = FACE_BOUND('',#554,.F.);
#554 = EDGE_LOOP('',(#555));
#555 = ORIENTED_EDGE('',*,*,#556,.F.);
#556 = EDGE_CURVE('',#557,#557,#559,.T.);
#557 = VERTEX_POINT('',#558);
#558 = CARTESIAN_POINT('',(58.1785,-68.7705,0.E+000));
#559 = SURFACE_CURVE('',#560,(#565,#572),.PCURVE_S1.);
#560 = CIRCLE('',#561,1.6);
#561 = AXIS2_PLACEMENT_3D('',#562,#563,#564);
#562 = CARTESIAN_POINT('',(56.5785,-68.7705,0.E+000));
#563 = DIRECTION('',(0.E+000,0.E+000,1.));
#564 = DIRECTION('',(1.,0.E+000,-0.E+000));
#565 = PCURVE('',#139,#566);
#566 = DEFINITIONAL_REPRESENTATION('',(#567),#571);
#567 = CIRCLE('',#568,1.6);
#568 = AXIS2_PLACEMENT_2D('',#569,#570);
#569 = CARTESIAN_POINT('',(8.343369768786,-22.88770549234));
#570 = DIRECTION('',(1.,0.E+000));
#571 = ( GEOMETRIC_REPRESENTATION_CONTEXT(2) 
PARAMETRIC_REPRESENTATION_CONTEXT() REPRESENTATION_CONTEXT('2D SPACE',''
  ) );
#572 = PCURVE('',#573,#578);
#573 = CYLINDRICAL_SURFACE('',#574,1.6);
#574 = AXIS2_PLACEMENT_3D('',#575,#576,#577);
#575 = CARTESIAN_POINT('',(56.5785,-68.7705,-0.8));
#576 = DIRECTION('',(0.E+000,0.E+000,1.));
#577 = DIRECTION('',(1.,0.E+000,-0.E+000));
#578 = DEFINITIONAL_REPRESENTATION('',(#579),#583);
#579 = LINE('',#580,#581);
#580 = CARTESIAN_POINT('',(0.E+000,0.8));
#581 = VECTOR('',#582,1.);
#582 = DIRECTION('',(1.,0.E+000));
#583 = ( GEOMETRIC_REPRESENTATION_CONTEXT(2) 
PARAMETRIC_REPRESENTATION_CONTEXT() REPRESENTATION_CONTEXT('2D SPACE',''
  ) );
#584 = FACE_BOUND('',#585,.F.);
#585 = EDGE_LOOP('',(#586));
#586 = ORIENTED_EDGE('',*,*,#587,.F.);
#587 = EDGE_CURVE('',#588,#588,#590,.T.);
#588 = VERTEX_POINT('',#589);
#589 = CARTESIAN_POINT('',(32.969,-68.7705,0.E+000));
#590 = SURFACE_CURVE('',#591,(#596,#603),.PCURVE_S1.);
#591 = CIRCLE('',#592,1.6);
#592 = AXIS2_PLACEMENT_3D('',#593,#594,#595);
#593 = CARTESIAN_POINT('',(31.369,-68.7705,0.E+000));
#594 = DIRECTION('',(0.E+000,0.E+000,1.));
#595 = DIRECTION('',(1.,0.E+000,-0.E+000));
#596 = PCURVE('',#139,#597);
#597 = DEFINITIONAL_REPRESENTATION('',(#598),#602);
#598 = CIRCLE('',#599,1.6);
#599 = AXIS2_PLACEMENT_2D('',#600,#601);
#600 = CARTESIAN_POINT('',(-16.86613023121,-22.88770549234));
#601 = DIRECTION('',(1.,0.E+000));
#602 = ( GEOMETRIC_REPRESENTATION_CONTEXT(2) 
PARAMETRIC_REPRESENTATION_CONTEXT() REPRESENTATION_CONTEXT('2D SPACE',''
  ) );
#603 = PCURVE('',#604,#609);
#604 = CYLINDRICAL_SURFACE('',#605,1.6);
#605 = AXIS2_PLACEMENT_3D('',#606,#607,#608);
#606 = CARTESIAN_POINT('',(31.369,-68.7705,-0.8));
#607 = DIRECTION('',(0.E+000,0.E+000,1.));
#608 = DIRECTION('',(1.,0.E+000,-0.E+000));
#609 = DEFINITIONAL_REPRESENTATION('',(#610),#614);
#610 = LINE('',#611,#612);
#611 = CARTESIAN_POINT('',(0.E+000,0.8));
#612 = VECTOR('',#613,1.);
#613 = DIRECTION('',(1.,0.E+000));
#614 = ( GEOMETRIC_REPRESENTATION_CONTEXT(2) 
PARAMETRIC_REPRESENTATION_CONTEXT() REPRESENTATION_CONTEXT('2D SPACE',''
  ) );
#615 = ADVANCED_FACE('',(#616,#831,#857),#84,.T.);
#616 = FACE_BOUND('',#617,.T.);
#617 = EDGE_LOOP('',(#618,#619,#620,#644,#667,#691,#714,#738,#761,#785,
    #808,#830));
#618 = ORIENTED_EDGE('',*,*,#67,.T.);
#619 = ORIENTED_EDGE('',*,*,#231,.T.);
#620 = ORIENTED_EDGE('',*,*,#621,.T.);
#621 = EDGE_CURVE('',#232,#622,#624,.T.);
#622 = VERTEX_POINT('',#623);
#623 = CARTESIAN_POINT('',(28.065999,-22.860001,1.6));
#624 = SURFACE_CURVE('',#625,(#630,#637),.PCURVE_S1.);
#625 = CIRCLE('',#626,1.625001);
#626 = AXIS2_PLACEMENT_3D('',#627,#628,#629);
#627 = CARTESIAN_POINT('',(29.691,-22.860001,1.6));
#628 = DIRECTION('',(0.E+000,0.E+000,1.));
#629 = DIRECTION('',(1.,0.E+000,-0.E+000));
#630 = PCURVE('',#84,#631);
#631 = DEFINITIONAL_REPRESENTATION('',(#632),#636);
#632 = CIRCLE('',#633,1.625001);
#633 = AXIS2_PLACEMENT_2D('',#634,#635);
#634 = CARTESIAN_POINT('',(-18.54413023121,23.022793507653));
#635 = DIRECTION('',(1.,0.E+000));
#636 = ( GEOMETRIC_REPRESENTATION_CONTEXT(2) 
PARAMETRIC_REPRESENTATION_CONTEXT() REPRESENTATION_CONTEXT('2D SPACE',''
  ) );
#637 = PCURVE('',#270,#638);
#638 = DEFINITIONAL_REPRESENTATION('',(#639),#643);
#639 = LINE('',#640,#641);
#640 = CARTESIAN_POINT('',(-0.E+000,-1.6));
#641 = VECTOR('',#642,1.);
#642 = DIRECTION('',(-1.,0.E+000));
#643 = ( GEOMETRIC_REPRESENTATION_CONTEXT(2) 
PARAMETRIC_REPRESENTATION_CONTEXT() REPRESENTATION_CONTEXT('2D SPACE',''
  ) );
#644 = ORIENTED_EDGE('',*,*,#645,.T.);
#645 = EDGE_CURVE('',#622,#646,#648,.T.);
#646 = VERTEX_POINT('',#647);
#647 = CARTESIAN_POINT('',(28.066001,-68.86,1.6));
#648 = SURFACE_CURVE('',#649,(#653,#660),.PCURVE_S1.);
#649 = LINE('',#650,#651);
#650 = CARTESIAN_POINT('',(28.065999,-22.860001,1.6));
#651 = VECTOR('',#652,1.);
#652 = DIRECTION('',(4.347826185944E-008,-1.,0.E+000));
#653 = PCURVE('',#84,#654);
#654 = DEFINITIONAL_REPRESENTATION('',(#655),#659);
#655 = LINE('',#656,#657);
#656 = CARTESIAN_POINT('',(-20.16913123121,23.022793507653));
#657 = VECTOR('',#658,1.);
#658 = DIRECTION('',(4.347826185944E-008,-1.));
#659 = ( GEOMETRIC_REPRESENTATION_CONTEXT(2) 
PARAMETRIC_REPRESENTATION_CONTEXT() REPRESENTATION_CONTEXT('2D SPACE',''
  ) );
#660 = PCURVE('',#348,#661);
#661 = DEFINITIONAL_REPRESENTATION('',(#662),#666);
#662 = LINE('',#663,#664);
#663 = CARTESIAN_POINT('',(0.E+000,-1.6));
#664 = VECTOR('',#665,1.);
#665 = DIRECTION('',(1.,0.E+000));
#666 = ( GEOMETRIC_REPRESENTATION_CONTEXT(2) 
PARAMETRIC_REPRESENTATION_CONTEXT() REPRESENTATION_CONTEXT('2D SPACE',''
  ) );
#667 = ORIENTED_EDGE('',*,*,#668,.T.);
#668 = EDGE_CURVE('',#646,#669,#671,.T.);
#669 = VERTEX_POINT('',#670);
#670 = CARTESIAN_POINT('',(31.241,-72.034999,1.6));
#671 = SURFACE_CURVE('',#672,(#677,#684),.PCURVE_S1.);
#672 = CIRCLE('',#673,3.174999);
#673 = AXIS2_PLACEMENT_3D('',#674,#675,#676);
#674 = CARTESIAN_POINT('',(31.241,-68.86,1.6));
#675 = DIRECTION('',(0.E+000,0.E+000,1.));
#676 = DIRECTION('',(1.,0.E+000,-0.E+000));
#677 = PCURVE('',#84,#678);
#678 = DEFINITIONAL_REPRESENTATION('',(#679),#683);
#679 = CIRCLE('',#680,3.174999);
#680 = AXIS2_PLACEMENT_2D('',#681,#682);
#681 = CARTESIAN_POINT('',(-16.99413023121,-22.97720549234));
#682 = DIRECTION('',(1.,0.E+000));
#683 = ( GEOMETRIC_REPRESENTATION_CONTEXT(2) 
PARAMETRIC_REPRESENTATION_CONTEXT() REPRESENTATION_CONTEXT('2D SPACE',''
  ) );
#684 = PCURVE('',#377,#685);
#685 = DEFINITIONAL_REPRESENTATION('',(#686),#690);
#686 = LINE('',#687,#688);
#687 = CARTESIAN_POINT('',(-0.E+000,-1.6));
#688 = VECTOR('',#689,1.);
#689 = DIRECTION('',(-1.,0.E+000));
#690 = ( GEOMETRIC_REPRESENTATION_CONTEXT(2) 
PARAMETRIC_REPRESENTATION_CONTEXT() REPRESENTATION_CONTEXT('2D SPACE',''
  ) );
#691 = ORIENTED_EDGE('',*,*,#692,.T.);
#692 = EDGE_CURVE('',#669,#693,#695,.T.);
#693 = VERTEX_POINT('',#694);
#694 = CARTESIAN_POINT('',(56.641,-72.035,1.6));
#695 = SURFACE_CURVE('',#696,(#700,#707),.PCURVE_S1.);
#696 = LINE('',#697,#698);
#697 = CARTESIAN_POINT('',(31.241,-72.034999,1.6));
#698 = VECTOR('',#699,1.);
#699 = DIRECTION('',(1.,-3.937007864076E-008,0.E+000));
#700 = PCURVE('',#84,#701);
#701 = DEFINITIONAL_REPRESENTATION('',(#702),#706);
#702 = LINE('',#703,#704);
#703 = CARTESIAN_POINT('',(-16.99413023121,-26.15220449234));
#704 = VECTOR('',#705,1.);
#705 = DIRECTION('',(1.,-3.937007864076E-008));
#706 = ( GEOMETRIC_REPRESENTATION_CONTEXT(2) 
PARAMETRIC_REPRESENTATION_CONTEXT() REPRESENTATION_CONTEXT('2D SPACE',''
  ) );
#707 = PCURVE('',#405,#708);
#708 = DEFINITIONAL_REPRESENTATION('',(#709),#713);
#709 = LINE('',#710,#711);
#710 = CARTESIAN_POINT('',(0.E+000,-1.6));
#711 = VECTOR('',#712,1.);
#712 = DIRECTION('',(1.,0.E+000));
#713 = ( GEOMETRIC_REPRESENTATION_CONTEXT(2) 
PARAMETRIC_REPRESENTATION_CONTEXT() REPRESENTATION_CONTEXT('2D SPACE',''
  ) );
#714 = ORIENTED_EDGE('',*,*,#715,.T.);
#715 = EDGE_CURVE('',#693,#716,#718,.T.);
#716 = VERTEX_POINT('',#717);
#717 = CARTESIAN_POINT('',(59.816,-68.86,1.6));
#718 = SURFACE_CURVE('',#719,(#724,#731),.PCURVE_S1.);
#719 = CIRCLE('',#720,3.175);
#720 = AXIS2_PLACEMENT_3D('',#721,#722,#723);
#721 = CARTESIAN_POINT('',(56.641,-68.86,1.6));
#722 = DIRECTION('',(0.E+000,0.E+000,1.));
#723 = DIRECTION('',(1.,0.E+000,-0.E+000));
#724 = PCURVE('',#84,#725);
#725 = DEFINITIONAL_REPRESENTATION('',(#726),#730);
#726 = CIRCLE('',#727,3.175);
#727 = AXIS2_PLACEMENT_2D('',#728,#729);
#728 = CARTESIAN_POINT('',(8.405869768786,-22.97720549234));
#729 = DIRECTION('',(1.,0.E+000));
#730 = ( GEOMETRIC_REPRESENTATION_CONTEXT(2) 
PARAMETRIC_REPRESENTATION_CONTEXT() REPRESENTATION_CONTEXT('2D SPACE',''
  ) );
#731 = PCURVE('',#434,#732);
#732 = DEFINITIONAL_REPRESENTATION('',(#733),#737);
#733 = LINE('',#734,#735);
#734 = CARTESIAN_POINT('',(-0.E+000,-1.6));
#735 = VECTOR('',#736,1.);
#736 = DIRECTION('',(-1.,0.E+000));
#737 = ( GEOMETRIC_REPRESENTATION_CONTEXT(2) 
PARAMETRIC_REPRESENTATION_CONTEXT() REPRESENTATION_CONTEXT('2D SPACE',''
  ) );
#738 = ORIENTED_EDGE('',*,*,#739,.T.);
#739 = EDGE_CURVE('',#716,#740,#742,.T.);
#740 = VERTEX_POINT('',#741);
#741 = CARTESIAN_POINT('',(59.816,-66.110002,1.6));
#742 = SURFACE_CURVE('',#743,(#747,#754),.PCURVE_S1.);
#743 = LINE('',#744,#745);
#744 = CARTESIAN_POINT('',(59.816,-68.86,1.6));
#745 = VECTOR('',#746,1.);
#746 = DIRECTION('',(2.583793645523E-015,1.,0.E+000));
#747 = PCURVE('',#84,#748);
#748 = DEFINITIONAL_REPRESENTATION('',(#749),#753);
#749 = LINE('',#750,#751);
#750 = CARTESIAN_POINT('',(11.580869768786,-22.97720549234));
#751 = VECTOR('',#752,1.);
#752 = DIRECTION('',(2.583793645523E-015,1.));
#753 = ( GEOMETRIC_REPRESENTATION_CONTEXT(2) 
PARAMETRIC_REPRESENTATION_CONTEXT() REPRESENTATION_CONTEXT('2D SPACE',''
  ) );
#754 = PCURVE('',#462,#755);
#755 = DEFINITIONAL_REPRESENTATION('',(#756),#760);
#756 = LINE('',#757,#758);
#757 = CARTESIAN_POINT('',(0.E+000,-1.6));
#758 = VECTOR('',#759,1.);
#759 = DIRECTION('',(1.,0.E+000));
#760 = ( GEOMETRIC_REPRESENTATION_CONTEXT(2) 
PARAMETRIC_REPRESENTATION_CONTEXT() REPRESENTATION_CONTEXT('2D SPACE',''
  ) );
#761 = ORIENTED_EDGE('',*,*,#762,.F.);
#762 = EDGE_CURVE('',#763,#740,#765,.T.);
#763 = VERTEX_POINT('',#764);
#764 = CARTESIAN_POINT('',(61.440999,-64.485001,1.6));
#765 = SURFACE_CURVE('',#766,(#771,#778),.PCURVE_S1.);
#766 = CIRCLE('',#767,1.625);
#767 = AXIS2_PLACEMENT_3D('',#768,#769,#770);
#768 = CARTESIAN_POINT('',(61.441,-66.110001,1.6));
#769 = DIRECTION('',(0.E+000,0.E+000,1.));
#770 = DIRECTION('',(1.,0.E+000,-0.E+000));
#771 = PCURVE('',#84,#772);
#772 = DEFINITIONAL_REPRESENTATION('',(#773),#777);
#773 = CIRCLE('',#774,1.625);
#774 = AXIS2_PLACEMENT_2D('',#775,#776);
#775 = CARTESIAN_POINT('',(13.205869768786,-20.22720649234));
#776 = DIRECTION('',(1.,0.E+000));
#777 = ( GEOMETRIC_REPRESENTATION_CONTEXT(2) 
PARAMETRIC_REPRESENTATION_CONTEXT() REPRESENTATION_CONTEXT('2D SPACE',''
  ) );
#778 = PCURVE('',#491,#779);
#779 = DEFINITIONAL_REPRESENTATION('',(#780),#784);
#780 = LINE('',#781,#782);
#781 = CARTESIAN_POINT('',(-0.E+000,-1.6));
#782 = VECTOR('',#783,1.);
#783 = DIRECTION('',(-1.,0.E+000));
#784 = ( GEOMETRIC_REPRESENTATION_CONTEXT(2) 
PARAMETRIC_REPRESENTATION_CONTEXT() REPRESENTATION_CONTEXT('2D SPACE',''
  ) );
#785 = ORIENTED_EDGE('',*,*,#786,.T.);
#786 = EDGE_CURVE('',#763,#787,#789,.T.);
#787 = VERTEX_POINT('',#788);
#788 = CARTESIAN_POINT('',(67.691,-64.485,1.6));
#789 = SURFACE_CURVE('',#790,(#794,#801),.PCURVE_S1.);
#790 = LINE('',#791,#792);
#791 = CARTESIAN_POINT('',(61.440999,-64.485001,1.6));
#792 = VECTOR('',#793,1.);
#793 = DIRECTION('',(1.,1.59999973996E-007,0.E+000));
#794 = PCURVE('',#84,#795);
#795 = DEFINITIONAL_REPRESENTATION('',(#796),#800);
#796 = LINE('',#797,#798);
#797 = CARTESIAN_POINT('',(13.205868768786,-18.60220649234));
#798 = VECTOR('',#799,1.);
#799 = DIRECTION('',(1.,1.59999973996E-007));
#800 = ( GEOMETRIC_REPRESENTATION_CONTEXT(2) 
PARAMETRIC_REPRESENTATION_CONTEXT() REPRESENTATION_CONTEXT('2D SPACE',''
  ) );
#801 = PCURVE('',#519,#802);
#802 = DEFINITIONAL_REPRESENTATION('',(#803),#807);
#803 = LINE('',#804,#805);
#804 = CARTESIAN_POINT('',(0.E+000,-1.6));
#805 = VECTOR('',#806,1.);
#806 = DIRECTION('',(1.,0.E+000));
#807 = ( GEOMETRIC_REPRESENTATION_CONTEXT(2) 
PARAMETRIC_REPRESENTATION_CONTEXT() REPRESENTATION_CONTEXT('2D SPACE',''
  ) );
#808 = ORIENTED_EDGE('',*,*,#809,.T.);
#809 = EDGE_CURVE('',#787,#157,#810,.T.);
#810 = SURFACE_CURVE('',#811,(#816,#823),.PCURVE_S1.);
#811 = CIRCLE('',#812,1.624999);
#812 = AXIS2_PLACEMENT_3D('',#813,#814,#815);
#813 = CARTESIAN_POINT('',(67.691,-62.860001,1.6));
#814 = DIRECTION('',(0.E+000,0.E+000,1.));
#815 = DIRECTION('',(1.,0.E+000,-0.E+000));
#816 = PCURVE('',#84,#817);
#817 = DEFINITIONAL_REPRESENTATION('',(#818),#822);
#818 = CIRCLE('',#819,1.624999);
#819 = AXIS2_PLACEMENT_2D('',#820,#821);
#820 = CARTESIAN_POINT('',(19.455869768786,-16.97720649234));
#821 = DIRECTION('',(1.,0.E+000));
#822 = ( GEOMETRIC_REPRESENTATION_CONTEXT(2) 
PARAMETRIC_REPRESENTATION_CONTEXT() REPRESENTATION_CONTEXT('2D SPACE',''
  ) );
#823 = PCURVE('',#172,#824);
#824 = DEFINITIONAL_REPRESENTATION('',(#825),#829);
#825 = LINE('',#826,#827);
#826 = CARTESIAN_POINT('',(-0.E+000,-1.6));
#827 = VECTOR('',#828,1.);
#828 = DIRECTION('',(-1.,0.E+000));
#829 = ( GEOMETRIC_REPRESENTATION_CONTEXT(2) 
PARAMETRIC_REPRESENTATION_CONTEXT() REPRESENTATION_CONTEXT('2D SPACE',''
  ) );
#830 = ORIENTED_EDGE('',*,*,#184,.T.);
#831 = FACE_BOUND('',#832,.T.);
#832 = EDGE_LOOP('',(#833));
#833 = ORIENTED_EDGE('',*,*,#834,.F.);
#834 = EDGE_CURVE('',#835,#835,#837,.T.);
#835 = VERTEX_POINT('',#836);
#836 = CARTESIAN_POINT('',(32.969,-68.7705,1.6));
#837 = SURFACE_CURVE('',#838,(#843,#850),.PCURVE_S1.);
#838 = CIRCLE('',#839,1.6);
#839 = AXIS2_PLACEMENT_3D('',#840,#841,#842);
#840 = CARTESIAN_POINT('',(31.369,-68.7705,1.6));
#841 = DIRECTION('',(0.E+000,0.E+000,1.));
#842 = DIRECTION('',(1.,0.E+000,-0.E+000));
#843 = PCURVE('',#84,#844);
#844 = DEFINITIONAL_REPRESENTATION('',(#845),#849);
#845 = CIRCLE('',#846,1.6);
#846 = AXIS2_PLACEMENT_2D('',#847,#848);
#847 = CARTESIAN_POINT('',(-16.86613023121,-22.88770549234));
#848 = DIRECTION('',(1.,0.E+000));
#849 = ( GEOMETRIC_REPRESENTATION_CONTEXT(2) 
PARAMETRIC_REPRESENTATION_CONTEXT() REPRESENTATION_CONTEXT('2D SPACE',''
  ) );
#850 = PCURVE('',#604,#851);
#851 = DEFINITIONAL_REPRESENTATION('',(#852),#856);
#852 = LINE('',#853,#854);
#853 = CARTESIAN_POINT('',(0.E+000,2.4));
#854 = VECTOR('',#855,1.);
#855 = DIRECTION('',(1.,0.E+000));
#856 = ( GEOMETRIC_REPRESENTATION_CONTEXT(2) 
PARAMETRIC_REPRESENTATION_CONTEXT() REPRESENTATION_CONTEXT('2D SPACE',''
  ) );
#857 = FACE_BOUND('',#858,.T.);
#858 = EDGE_LOOP('',(#859));
#859 = ORIENTED_EDGE('',*,*,#860,.F.);
#860 = EDGE_CURVE('',#861,#861,#863,.T.);
#861 = VERTEX_POINT('',#862);
#862 = CARTESIAN_POINT('',(58.1785,-68.7705,1.6));
#863 = SURFACE_CURVE('',#864,(#869,#876),.PCURVE_S1.);
#864 = CIRCLE('',#865,1.6);
#865 = AXIS2_PLACEMENT_3D('',#866,#867,#868);
#866 = CARTESIAN_POINT('',(56.5785,-68.7705,1.6));
#867 = DIRECTION('',(0.E+000,0.E+000,1.));
#868 = DIRECTION('',(1.,0.E+000,-0.E+000));
#869 = PCURVE('',#84,#870);
#870 = DEFINITIONAL_REPRESENTATION('',(#871),#875);
#871 = CIRCLE('',#872,1.6);
#872 = AXIS2_PLACEMENT_2D('',#873,#874);
#873 = CARTESIAN_POINT('',(8.343369768786,-22.88770549234));
#874 = DIRECTION('',(1.,0.E+000));
#875 = ( GEOMETRIC_REPRESENTATION_CONTEXT(2) 
PARAMETRIC_REPRESENTATION_CONTEXT() REPRESENTATION_CONTEXT('2D SPACE',''
  ) );
#876 = PCURVE('',#573,#877);
#877 = DEFINITIONAL_REPRESENTATION('',(#878),#882);
#878 = LINE('',#879,#880);
#879 = CARTESIAN_POINT('',(0.E+000,2.4));
#880 = VECTOR('',#881,1.);
#881 = DIRECTION('',(1.,0.E+000));
#882 = ( GEOMETRIC_REPRESENTATION_CONTEXT(2) 
PARAMETRIC_REPRESENTATION_CONTEXT() REPRESENTATION_CONTEXT('2D SPACE',''
  ) );
#883 = ADVANCED_FACE('',(#884),#172,.T.);
#884 = FACE_BOUND('',#885,.F.);
#885 = EDGE_LOOP('',(#886,#907,#908,#909));
#886 = ORIENTED_EDGE('',*,*,#887,.T.);
#887 = EDGE_CURVE('',#504,#787,#888,.T.);
#888 = SURFACE_CURVE('',#889,(#893,#900),.PCURVE_S1.);
#889 = LINE('',#890,#891);
#890 = CARTESIAN_POINT('',(67.691,-64.485,0.E+000));
#891 = VECTOR('',#892,1.);
#892 = DIRECTION('',(0.E+000,0.E+000,1.));
#893 = PCURVE('',#172,#894);
#894 = DEFINITIONAL_REPRESENTATION('',(#895),#899);
#895 = LINE('',#896,#897);
#896 = CARTESIAN_POINT('',(-4.712388980385,0.E+000));
#897 = VECTOR('',#898,1.);
#898 = DIRECTION('',(-0.E+000,-1.));
#899 = ( GEOMETRIC_REPRESENTATION_CONTEXT(2) 
PARAMETRIC_REPRESENTATION_CONTEXT() REPRESENTATION_CONTEXT('2D SPACE',''
  ) );
#900 = PCURVE('',#519,#901);
#901 = DEFINITIONAL_REPRESENTATION('',(#902),#906);
#902 = LINE('',#903,#904);
#903 = CARTESIAN_POINT('',(6.250001,0.E+000));
#904 = VECTOR('',#905,1.);
#905 = DIRECTION('',(0.E+000,-1.));
#906 = ( GEOMETRIC_REPRESENTATION_CONTEXT(2) 
PARAMETRIC_REPRESENTATION_CONTEXT() REPRESENTATION_CONTEXT('2D SPACE',''
  ) );
#907 = ORIENTED_EDGE('',*,*,#809,.T.);
#908 = ORIENTED_EDGE('',*,*,#154,.F.);
#909 = ORIENTED_EDGE('',*,*,#531,.F.);
#910 = ADVANCED_FACE('',(#911),#270,.T.);
#911 = FACE_BOUND('',#912,.F.);
#912 = EDGE_LOOP('',(#913,#914,#915,#936));
#913 = ORIENTED_EDGE('',*,*,#254,.T.);
#914 = ORIENTED_EDGE('',*,*,#621,.T.);
#915 = ORIENTED_EDGE('',*,*,#916,.F.);
#916 = EDGE_CURVE('',#309,#622,#917,.T.);
#917 = SURFACE_CURVE('',#918,(#922,#929),.PCURVE_S1.);
#918 = LINE('',#919,#920);
#919 = CARTESIAN_POINT('',(28.065999,-22.860001,0.E+000));
#920 = VECTOR('',#921,1.);
#921 = DIRECTION('',(0.E+000,0.E+000,1.));
#922 = PCURVE('',#270,#923);
#923 = DEFINITIONAL_REPRESENTATION('',(#924),#928);
#924 = LINE('',#925,#926);
#925 = CARTESIAN_POINT('',(-3.14159265359,0.E+000));
#926 = VECTOR('',#927,1.);
#927 = DIRECTION('',(-0.E+000,-1.));
#928 = ( GEOMETRIC_REPRESENTATION_CONTEXT(2) 
PARAMETRIC_REPRESENTATION_CONTEXT() REPRESENTATION_CONTEXT('2D SPACE',''
  ) );
#929 = PCURVE('',#348,#930);
#930 = DEFINITIONAL_REPRESENTATION('',(#931),#935);
#931 = LINE('',#932,#933);
#932 = CARTESIAN_POINT('',(0.E+000,0.E+000));
#933 = VECTOR('',#934,1.);
#934 = DIRECTION('',(0.E+000,-1.));
#935 = ( GEOMETRIC_REPRESENTATION_CONTEXT(2) 
PARAMETRIC_REPRESENTATION_CONTEXT() REPRESENTATION_CONTEXT('2D SPACE',''
  ) );
#936 = ORIENTED_EDGE('',*,*,#308,.F.);
#937 = ADVANCED_FACE('',(#938),#519,.F.);
#938 = FACE_BOUND('',#939,.F.);
#939 = EDGE_LOOP('',(#940,#961,#962,#963));
#940 = ORIENTED_EDGE('',*,*,#941,.T.);
#941 = EDGE_CURVE('',#475,#763,#942,.T.);
#942 = SURFACE_CURVE('',#943,(#947,#954),.PCURVE_S1.);
#943 = LINE('',#944,#945);
#944 = CARTESIAN_POINT('',(61.440999,-64.485001,0.E+000));
#945 = VECTOR('',#946,1.);
#946 = DIRECTION('',(0.E+000,0.E+000,1.));
#947 = PCURVE('',#519,#948);
#948 = DEFINITIONAL_REPRESENTATION('',(#949),#953);
#949 = LINE('',#950,#951);
#950 = CARTESIAN_POINT('',(0.E+000,0.E+000));
#951 = VECTOR('',#952,1.);
#952 = DIRECTION('',(0.E+000,-1.));
#953 = ( GEOMETRIC_REPRESENTATION_CONTEXT(2) 
PARAMETRIC_REPRESENTATION_CONTEXT() REPRESENTATION_CONTEXT('2D SPACE',''
  ) );
#954 = PCURVE('',#491,#955);
#955 = DEFINITIONAL_REPRESENTATION('',(#956),#960);
#956 = LINE('',#957,#958);
#957 = CARTESIAN_POINT('',(-1.57079694218,0.E+000));
#958 = VECTOR('',#959,1.);
#959 = DIRECTION('',(-0.E+000,-1.));
#960 = ( GEOMETRIC_REPRESENTATION_CONTEXT(2) 
PARAMETRIC_REPRESENTATION_CONTEXT() REPRESENTATION_CONTEXT('2D SPACE',''
  ) );
#961 = ORIENTED_EDGE('',*,*,#786,.T.);
#962 = ORIENTED_EDGE('',*,*,#887,.F.);
#963 = ORIENTED_EDGE('',*,*,#503,.F.);
#964 = ADVANCED_FACE('',(#965),#348,.F.);
#965 = FACE_BOUND('',#966,.F.);
#966 = EDGE_LOOP('',(#967,#968,#969,#990));
#967 = ORIENTED_EDGE('',*,*,#916,.T.);
#968 = ORIENTED_EDGE('',*,*,#645,.T.);
#969 = ORIENTED_EDGE('',*,*,#970,.F.);
#970 = EDGE_CURVE('',#333,#646,#971,.T.);
#971 = SURFACE_CURVE('',#972,(#976,#983),.PCURVE_S1.);
#972 = LINE('',#973,#974);
#973 = CARTESIAN_POINT('',(28.066001,-68.86,0.E+000));
#974 = VECTOR('',#975,1.);
#975 = DIRECTION('',(0.E+000,0.E+000,1.));
#976 = PCURVE('',#348,#977);
#977 = DEFINITIONAL_REPRESENTATION('',(#978),#982);
#978 = LINE('',#979,#980);
#979 = CARTESIAN_POINT('',(45.999999,0.E+000));
#980 = VECTOR('',#981,1.);
#981 = DIRECTION('',(0.E+000,-1.));
#982 = ( GEOMETRIC_REPRESENTATION_CONTEXT(2) 
PARAMETRIC_REPRESENTATION_CONTEXT() REPRESENTATION_CONTEXT('2D SPACE',''
  ) );
#983 = PCURVE('',#377,#984);
#984 = DEFINITIONAL_REPRESENTATION('',(#985),#989);
#985 = LINE('',#986,#987);
#986 = CARTESIAN_POINT('',(-3.14159265359,0.E+000));
#987 = VECTOR('',#988,1.);
#988 = DIRECTION('',(-0.E+000,-1.));
#989 = ( GEOMETRIC_REPRESENTATION_CONTEXT(2) 
PARAMETRIC_REPRESENTATION_CONTEXT() REPRESENTATION_CONTEXT('2D SPACE',''
  ) );
#990 = ORIENTED_EDGE('',*,*,#332,.F.);
#991 = ADVANCED_FACE('',(#992),#491,.F.);
#992 = FACE_BOUND('',#993,.T.);
#993 = EDGE_LOOP('',(#994,#995,#996,#1017));
#994 = ORIENTED_EDGE('',*,*,#941,.T.);
#995 = ORIENTED_EDGE('',*,*,#762,.T.);
#996 = ORIENTED_EDGE('',*,*,#997,.F.);
#997 = EDGE_CURVE('',#447,#740,#998,.T.);
#998 = SURFACE_CURVE('',#999,(#1003,#1010),.PCURVE_S1.);
#999 = LINE('',#1000,#1001);
#1000 = CARTESIAN_POINT('',(59.816,-66.110002,0.E+000));
#1001 = VECTOR('',#1002,1.);
#1002 = DIRECTION('',(0.E+000,0.E+000,1.));
#1003 = PCURVE('',#491,#1004);
#1004 = DEFINITIONAL_REPRESENTATION('',(#1005),#1009);
#1005 = LINE('',#1006,#1007);
#1006 = CARTESIAN_POINT('',(-3.141593268974,0.E+000));
#1007 = VECTOR('',#1008,1.);
#1008 = DIRECTION('',(-0.E+000,-1.));
#1009 = ( GEOMETRIC_REPRESENTATION_CONTEXT(2) 
PARAMETRIC_REPRESENTATION_CONTEXT() REPRESENTATION_CONTEXT('2D SPACE',''
  ) );
#1010 = PCURVE('',#462,#1011);
#1011 = DEFINITIONAL_REPRESENTATION('',(#1012),#1016);
#1012 = LINE('',#1013,#1014);
#1013 = CARTESIAN_POINT('',(2.749998,0.E+000));
#1014 = VECTOR('',#1015,1.);
#1015 = DIRECTION('',(0.E+000,-1.));
#1016 = ( GEOMETRIC_REPRESENTATION_CONTEXT(2) 
PARAMETRIC_REPRESENTATION_CONTEXT() REPRESENTATION_CONTEXT('2D SPACE',''
  ) );
#1017 = ORIENTED_EDGE('',*,*,#474,.F.);
#1018 = ADVANCED_FACE('',(#1019),#377,.T.);
#1019 = FACE_BOUND('',#1020,.F.);
#1020 = EDGE_LOOP('',(#1021,#1022,#1023,#1044));
#1021 = ORIENTED_EDGE('',*,*,#970,.T.);
#1022 = ORIENTED_EDGE('',*,*,#668,.T.);
#1023 = ORIENTED_EDGE('',*,*,#1024,.F.);
#1024 = EDGE_CURVE('',#361,#669,#1025,.T.);
#1025 = SURFACE_CURVE('',#1026,(#1030,#1037),.PCURVE_S1.);
#1026 = LINE('',#1027,#1028);
#1027 = CARTESIAN_POINT('',(31.241,-72.034999,0.E+000));
#1028 = VECTOR('',#1029,1.);
#1029 = DIRECTION('',(0.E+000,0.E+000,1.));
#1030 = PCURVE('',#377,#1031);
#1031 = DEFINITIONAL_REPRESENTATION('',(#1032),#1036);
#1032 = LINE('',#1033,#1034);
#1033 = CARTESIAN_POINT('',(-4.712388980385,0.E+000));
#1034 = VECTOR('',#1035,1.);
#1035 = DIRECTION('',(-0.E+000,-1.));
#1036 = ( GEOMETRIC_REPRESENTATION_CONTEXT(2) 
PARAMETRIC_REPRESENTATION_CONTEXT() REPRESENTATION_CONTEXT('2D SPACE',''
  ) );
#1037 = PCURVE('',#405,#1038);
#1038 = DEFINITIONAL_REPRESENTATION('',(#1039),#1043);
#1039 = LINE('',#1040,#1041);
#1040 = CARTESIAN_POINT('',(0.E+000,0.E+000));
#1041 = VECTOR('',#1042,1.);
#1042 = DIRECTION('',(0.E+000,-1.));
#1043 = ( GEOMETRIC_REPRESENTATION_CONTEXT(2) 
PARAMETRIC_REPRESENTATION_CONTEXT() REPRESENTATION_CONTEXT('2D SPACE',''
  ) );
#1044 = ORIENTED_EDGE('',*,*,#360,.F.);
#1045 = ADVANCED_FACE('',(#1046),#462,.F.);
#1046 = FACE_BOUND('',#1047,.F.);
#1047 = EDGE_LOOP('',(#1048,#1069,#1070,#1071));
#1048 = ORIENTED_EDGE('',*,*,#1049,.T.);
#1049 = EDGE_CURVE('',#418,#716,#1050,.T.);
#1050 = SURFACE_CURVE('',#1051,(#1055,#1062),.PCURVE_S1.);
#1051 = LINE('',#1052,#1053);
#1052 = CARTESIAN_POINT('',(59.816,-68.86,0.E+000));
#1053 = VECTOR('',#1054,1.);
#1054 = DIRECTION('',(0.E+000,0.E+000,1.));
#1055 = PCURVE('',#462,#1056);
#1056 = DEFINITIONAL_REPRESENTATION('',(#1057),#1061);
#1057 = LINE('',#1058,#1059);
#1058 = CARTESIAN_POINT('',(0.E+000,0.E+000));
#1059 = VECTOR('',#1060,1.);
#1060 = DIRECTION('',(0.E+000,-1.));
#1061 = ( GEOMETRIC_REPRESENTATION_CONTEXT(2) 
PARAMETRIC_REPRESENTATION_CONTEXT() REPRESENTATION_CONTEXT('2D SPACE',''
  ) );
#1062 = PCURVE('',#434,#1063);
#1063 = DEFINITIONAL_REPRESENTATION('',(#1064),#1068);
#1064 = LINE('',#1065,#1066);
#1065 = CARTESIAN_POINT('',(-6.28318530718,0.E+000));
#1066 = VECTOR('',#1067,1.);
#1067 = DIRECTION('',(-0.E+000,-1.));
#1068 = ( GEOMETRIC_REPRESENTATION_CONTEXT(2) 
PARAMETRIC_REPRESENTATION_CONTEXT() REPRESENTATION_CONTEXT('2D SPACE',''
  ) );
#1069 = ORIENTED_EDGE('',*,*,#739,.T.);
#1070 = ORIENTED_EDGE('',*,*,#997,.F.);
#1071 = ORIENTED_EDGE('',*,*,#446,.F.);
#1072 = ADVANCED_FACE('',(#1073),#405,.F.);
#1073 = FACE_BOUND('',#1074,.F.);
#1074 = EDGE_LOOP('',(#1075,#1076,#1077,#1098));
#1075 = ORIENTED_EDGE('',*,*,#1024,.T.);
#1076 = ORIENTED_EDGE('',*,*,#692,.T.);
#1077 = ORIENTED_EDGE('',*,*,#1078,.F.);
#1078 = EDGE_CURVE('',#390,#693,#1079,.T.);
#1079 = SURFACE_CURVE('',#1080,(#1084,#1091),.PCURVE_S1.);
#1080 = LINE('',#1081,#1082);
#1081 = CARTESIAN_POINT('',(56.641,-72.035,0.E+000));
#1082 = VECTOR('',#1083,1.);
#1083 = DIRECTION('',(0.E+000,0.E+000,1.));
#1084 = PCURVE('',#405,#1085);
#1085 = DEFINITIONAL_REPRESENTATION('',(#1086),#1090);
#1086 = LINE('',#1087,#1088);
#1087 = CARTESIAN_POINT('',(25.4,0.E+000));
#1088 = VECTOR('',#1089,1.);
#1089 = DIRECTION('',(0.E+000,-1.));
#1090 = ( GEOMETRIC_REPRESENTATION_CONTEXT(2) 
PARAMETRIC_REPRESENTATION_CONTEXT() REPRESENTATION_CONTEXT('2D SPACE',''
  ) );
#1091 = PCURVE('',#434,#1092);
#1092 = DEFINITIONAL_REPRESENTATION('',(#1093),#1097);
#1093 = LINE('',#1094,#1095);
#1094 = CARTESIAN_POINT('',(-4.712388980385,0.E+000));
#1095 = VECTOR('',#1096,1.);
#1096 = DIRECTION('',(-0.E+000,-1.));
#1097 = ( GEOMETRIC_REPRESENTATION_CONTEXT(2) 
PARAMETRIC_REPRESENTATION_CONTEXT() REPRESENTATION_CONTEXT('2D SPACE',''
  ) );
#1098 = ORIENTED_EDGE('',*,*,#389,.F.);
#1099 = ADVANCED_FACE('',(#1100),#434,.T.);
#1100 = FACE_BOUND('',#1101,.F.);
#1101 = EDGE_LOOP('',(#1102,#1103,#1104,#1105));
#1102 = ORIENTED_EDGE('',*,*,#1078,.T.);
#1103 = ORIENTED_EDGE('',*,*,#715,.T.);
#1104 = ORIENTED_EDGE('',*,*,#1049,.F.);
#1105 = ORIENTED_EDGE('',*,*,#417,.F.);
#1106 = ADVANCED_FACE('',(#1107),#573,.F.);
#1107 = FACE_BOUND('',#1108,.F.);
#1108 = EDGE_LOOP('',(#1109,#1110,#1131,#1132));
#1109 = ORIENTED_EDGE('',*,*,#860,.F.);
#1110 = ORIENTED_EDGE('',*,*,#1111,.F.);
#1111 = EDGE_CURVE('',#557,#861,#1112,.T.);
#1112 = SEAM_CURVE('',#1113,(#1117,#1124),.PCURVE_S1.);
#1113 = LINE('',#1114,#1115);
#1114 = CARTESIAN_POINT('',(58.1785,-68.7705,-0.8));
#1115 = VECTOR('',#1116,1.);
#1116 = DIRECTION('',(0.E+000,0.E+000,1.));
#1117 = PCURVE('',#573,#1118);
#1118 = DEFINITIONAL_REPRESENTATION('',(#1119),#1123);
#1119 = LINE('',#1120,#1121);
#1120 = CARTESIAN_POINT('',(6.28318530718,-0.E+000));
#1121 = VECTOR('',#1122,1.);
#1122 = DIRECTION('',(0.E+000,1.));
#1123 = ( GEOMETRIC_REPRESENTATION_CONTEXT(2) 
PARAMETRIC_REPRESENTATION_CONTEXT() REPRESENTATION_CONTEXT('2D SPACE',''
  ) );
#1124 = PCURVE('',#573,#1125);
#1125 = DEFINITIONAL_REPRESENTATION('',(#1126),#1130);
#1126 = LINE('',#1127,#1128);
#1127 = CARTESIAN_POINT('',(0.E+000,-0.E+000));
#1128 = VECTOR('',#1129,1.);
#1129 = DIRECTION('',(0.E+000,1.));
#1130 = ( GEOMETRIC_REPRESENTATION_CONTEXT(2) 
PARAMETRIC_REPRESENTATION_CONTEXT() REPRESENTATION_CONTEXT('2D SPACE',''
  ) );
#1131 = ORIENTED_EDGE('',*,*,#556,.T.);
#1132 = ORIENTED_EDGE('',*,*,#1111,.T.);
#1133 = ADVANCED_FACE('',(#1134),#604,.F.);
#1134 = FACE_BOUND('',#1135,.F.);
#1135 = EDGE_LOOP('',(#1136,#1137,#1158,#1159));
#1136 = ORIENTED_EDGE('',*,*,#834,.F.);
#1137 = ORIENTED_EDGE('',*,*,#1138,.F.);
#1138 = EDGE_CURVE('',#588,#835,#1139,.T.);
#1139 = SEAM_CURVE('',#1140,(#1144,#1151),.PCURVE_S1.);
#1140 = LINE('',#1141,#1142);
#1141 = CARTESIAN_POINT('',(32.969,-68.7705,-0.8));
#1142 = VECTOR('',#1143,1.);
#1143 = DIRECTION('',(0.E+000,0.E+000,1.));
#1144 = PCURVE('',#604,#1145);
#1145 = DEFINITIONAL_REPRESENTATION('',(#1146),#1150);
#1146 = LINE('',#1147,#1148);
#1147 = CARTESIAN_POINT('',(6.28318530718,-0.E+000));
#1148 = VECTOR('',#1149,1.);
#1149 = DIRECTION('',(0.E+000,1.));
#1150 = ( GEOMETRIC_REPRESENTATION_CONTEXT(2) 
PARAMETRIC_REPRESENTATION_CONTEXT() REPRESENTATION_CONTEXT('2D SPACE',''
  ) );
#1151 = PCURVE('',#604,#1152);
#1152 = DEFINITIONAL_REPRESENTATION('',(#1153),#1157);
#1153 = LINE('',#1154,#1155);
#1154 = CARTESIAN_POINT('',(0.E+000,-0.E+000));
#1155 = VECTOR('',#1156,1.);
#1156 = DIRECTION('',(0.E+000,1.));
#1157 = ( GEOMETRIC_REPRESENTATION_CONTEXT(2) 
PARAMETRIC_REPRESENTATION_CONTEXT() REPRESENTATION_CONTEXT('2D SPACE',''
  ) );
#1158 = ORIENTED_EDGE('',*,*,#587,.T.);
#1159 = ORIENTED_EDGE('',*,*,#1138,.T.);
#1160 = ( GEOMETRIC_REPRESENTATION_CONTEXT(3) 
GLOBAL_UNCERTAINTY_ASSIGNED_CONTEXT((#1164)) 
GLOBAL_UNIT_ASSIGNED_CONTEXT((#1161,#1162,#1163)) REPRESENTATION_CONTEXT
('Context #1','3D Context with UNIT and UNCERTAINTY') );
#1161 = ( LENGTH_UNIT() NAMED_UNIT(*) SI_UNIT(.MILLI.,.METRE.) );
#1162 = ( NAMED_UNIT(*) PLANE_ANGLE_UNIT() SI_UNIT($,.RADIAN.) );
#1163 = ( NAMED_UNIT(*) SI_UNIT($,.STERADIAN.) SOLID_ANGLE_UNIT() );
#1164 = UNCERTAINTY_MEASURE_WITH_UNIT(LENGTH_MEASURE(1.E-006),#1161,
  'distance_accuracy_value','confusion accuracy');
#1165 = SHAPE_DEFINITION_REPRESENTATION(#1166,#25);
#1166 = PRODUCT_DEFINITION_SHAPE('','',#1167);
#1167 = PRODUCT_DEFINITION('design','',#1168,#1171);
#1168 = PRODUCT_DEFINITION_FORMATION('','',#1169);
#1169 = PRODUCT('COMPOUND','COMPOUND','',(#1170));
#1170 = PRODUCT_CONTEXT('',#2,'mechanical');
#1171 = PRODUCT_DEFINITION_CONTEXT('part definition',#2,'design');
#1172 = CONTEXT_DEPENDENT_SHAPE_REPRESENTATION(#1173,#1175);
#1173 = ( REPRESENTATION_RELATIONSHIP('','',#25,#10) 
REPRESENTATION_RELATIONSHIP_WITH_TRANSFORMATION(#1174) 
SHAPE_REPRESENTATION_RELATIONSHIP() );
#1174 = ITEM_DEFINED_TRANSFORMATION('','',#11,#15);
#1175 = PRODUCT_DEFINITION_SHAPE('Placement','Placement of an item',
  #1176);
#1176 = NEXT_ASSEMBLY_USAGE_OCCURRENCE('1','','',#5,#1167,$);
#1177 = PRODUCT_RELATED_PRODUCT_CATEGORY('part',$,(#1169));
#1178 = SHAPE_DEFINITION_REPRESENTATION(#1175,#1179);
#1179 = SHAPE_REPRESENTATION('',(#15),#1160);
#1180 = MECHANICAL_DESIGN_GEOMETRIC_PRESENTATION_REPRESENTATION('',(
    #1181,#1189),#1160);
#1181 = STYLED_ITEM('color',(#1182),#26);
#1182 = PRESENTATION_STYLE_ASSIGNMENT((#1183));
#1183 = SURFACE_STYLE_USAGE(.BOTH.,#1184);
#1184 = SURFACE_SIDE_STYLE('',(#1185));
#1185 = SURFACE_STYLE_FILL_AREA(#1186);
#1186 = FILL_AREA_STYLE('',(#1187));
#1187 = FILL_AREA_STYLE_COLOUR('',#1188);
#1188 = COLOUR_RGB('',5.99999986589E-002,0.40000000596,
  5.99999986589E-002);
#1189 = OVER_RIDING_STYLED_ITEM('overriding color',(#1190),#26,#1181);
#1190 = PRESENTATION_STYLE_BY_CONTEXT((#1191),#1179);
#1191 = SURFACE_STYLE_USAGE(.BOTH.,#1192);
#1192 = SURFACE_SIDE_STYLE('',(#1193));
#1193 = SURFACE_STYLE_FILL_AREA(#1194);
#1194 = FILL_AREA_STYLE('',(#1195));
#1195 = FILL_AREA_STYLE_COLOUR('',#1196);
#1196 = COLOUR_RGB('',5.99999986589E-002,0.40000000596,
  5.99999986589E-002);
ENDSEC;
END-ISO-10303-21;
