G04 #@! TF.GenerationSoftware,KiCad,Pcbnew,(5.1.6)-1*
G04 #@! TF.CreationDate,2021-12-13T11:59:47-07:00*
G04 #@! TF.ProjectId,NIM-GroundProgrammer-PCB,4e494d2d-4772-46f7-956e-6450726f6772,rev?*
G04 #@! TF.SameCoordinates,Original*
G04 #@! TF.FileFunction,Profile,NP*
%FSLAX46Y46*%
G04 Gerber Fmt 4.6, Leading zero omitted, Abs format (unit mm)*
G04 Created by KiCad (PCBNEW (5.1.6)-1) date 2021-12-13 11:59:47*
%MOMM*%
%LPD*%
G01*
G04 APERTURE LIST*
G04 #@! TA.AperFunction,Profile*
%ADD10C,0.050000*%
G04 #@! TD*
G04 APERTURE END LIST*
D10*
X64770000Y-55880000D02*
X64770000Y-77470000D01*
X105918000Y-77470000D02*
X105918000Y-55880000D01*
X103378000Y-80010000D02*
X67310000Y-80010000D01*
X67310000Y-80010000D02*
G75*
G02*
X64770000Y-77470000I0J2540000D01*
G01*
X105918000Y-77470000D02*
G75*
G02*
X103378000Y-80010000I-2540000J0D01*
G01*
X103378000Y-53340000D02*
G75*
G02*
X105918000Y-55880000I0J-2540000D01*
G01*
X67310000Y-53340000D02*
X103378000Y-53340000D01*
X64770000Y-55880000D02*
G75*
G02*
X67310000Y-53340000I2540000J0D01*
G01*
M02*
